<driver name=NULL>
<device id= "/boot/pm8916" >
<props id=101 type=DALPROP_ATTR_TYPE_UINT32>
1
</props>
<props id=102 type=DALPROP_ATTR_TYPE_UINT32 >
4 
</props>
<props id=104 type=DALPROP_ATTR_TYPE_UINT32 >
20 
</props>
<props id=110 type=DALPROP_ATTR_TYPE_UINT32 >
4 
</props>
<props id=112 type=DALPROP_ATTR_TYPE_UINT32 >
4 
</props>
<props id=118 type=DALPROP_ATTR_TYPE_UINT32 >
1 
</props>
<props id=130 type=DALPROP_ATTR_TYPE_UINT32 >
1 
</props>
<props id=126 type=DALPROP_ATTR_TYPE_UINT32 >
1 
</props>
<props id=51 type=DALPROP_ATTR_TYPE_UINT32 >
1 
</props>
<props id=122 type=DALPROP_ATTR_TYPE_UINT32 >
16 
</props>
<props id=35 type=DALPROP_ATTR_TYPE_STRUCT_PTR>
mpp_specific
</props>
<props id=114 type=DALPROP_ATTR_TYPE_UINT32 >
1 
</props>
<props id=118 type=DALPROP_ATTR_TYPE_UINT32 >
1 
</props>
<props id=32 type=DALPROP_ATTR_TYPE_STRUCT_PTR>
vib_specific
</props>
<props id=34 type=DALPROP_ATTR_TYPE_STRUCT_PTR>
smps_phase_lut_a 
</props>
<props id=49 type=DALPROP_ATTR_TYPE_STRUCT_PTR>
chg_app_ds 
</props>
<props id=36 type=DALPROP_ATTR_TYPE_STRUCT_PTR>
pm_sbl_seq 
</props>
<props id=37 type=DALPROP_ATTR_TYPE_STRUCT_PTR>
pm_pbs_seq 
</props>
<props id=128 type=DALPROP_ATTR_TYPE_STRUCT_PTR>
pm_num_periph_pm8916
</props>
<props id=129 type=DALPROP_ATTR_TYPE_STRUCT_PTR>
pm_spmi_periph_cfg_pm8916
</props>
</device>
</driver>
