#<SYMDEFS># ARM Linker, 5.01 [Build 94]: Last Updated: Wed Feb  7 02:07:29 2018
0x00000000 A TZAPPENTRY
0x00000000 A __main
0x00000000 A _main
0x00000000 N _printf_flags
0x00000000 N _printf_return_value
0x00000000 N _printf_sizespec
0x00000000 N _printf_widthprec
0x00000064 A read_app_rw_base
0x00000070 A set_rw_base
0x0000007d T qsee_hash
0x000000a1 T qsee_hash_init
0x000000c3 T qsee_hash_reset
0x000000e3 T qsee_hash_update
0x00000107 T qsee_hash_final
0x0000012b T qsee_hash_free_ctx
0x0000014b T qsee_hash_set_param
0x0000016f T qsee_hashcipher_encrypt
0x000001a9 T qsee_hashcipher_decrypt
0x000001e3 T qsee_cipher_init
0x00000205 T qsee_cipher_reset
0x00000225 T qsee_cipher_free_ctx
0x00000245 T qsee_cipher_set_param
0x00000269 T qsee_cipher_get_param
0x0000028d T qsee_cipher_encrypt
0x000002b1 T qsee_cipher_decrypt
0x000002d5 T qsee_hmac
0x000002f9 T qsee_hmac_init
0x0000031b T qsee_hmac_update
0x0000033f T qsee_hmac_final
0x00000363 T qsee_hmac_free_ctx
0x00000383 T qsee_cmac
0x000003b9 T qsee_prng_getdata
0x000003db T qsee_crypto_lock_engine
0x000003fd T qsee_kdf_shim
0x0000041f T qsee_set_bandwidth
0x00000443 T qsee_dcache_inval_region
0x00000465 T qsee_dcache_flush_region
0x00000487 T qsee_dcache_clean_region
0x000004a9 T qsee_kdf
0x00000503 T qsee_sfs_getSize
0x00000535 T qsee_sfs_open
0x00000567 T qsee_sfs_close
0x00000597 T qsee_sfs_read
0x000005d7 T qsee_sfs_write
0x00000617 T qsee_sfs_seek
0x00000657 T qsee_sfs_mkdir
0x00000687 T qsee_sfs_rmdir
0x000006b7 T qsee_sfs_rm
0x000006e7 T qsee_sfs_error
0x00000717 T qsee_sfs_get_file_list
0x00000749 T qsee_sfs_clean_file_list
0x00000775 T qsee_sfs_is_anti_rollback_enabled
0x000007a3 T qsee_log
0x0000080d T open
0x0000083f T read
0x0000087f T write
0x000008bf T close
0x000008ef T lstat
0x00000921 T mkdir
0x00000953 T frename
0x00000985 T opendir
0x000009b3 T readdir
0x000009e3 T closedir
0x00000a11 T rmdir
0x00000a41 T testdir
0x00000a71 T file_get_partition_free_size
0x00000aa3 T fstat
0x00000ad5 T lseek
0x00000b15 T time_getsystime
0x00000b47 T time_getutcsec
0x00000b79 T time_gethlosutc
0x00000bab T time_is_leap_year
0x00000bdd T remove
0x00000c0f T unlink
0x00000c3f T link
0x00000c71 T telldir
0x00000ca3 T fsync
0x00000cd5 T openat
0x00000d15 T unlinkat
0x00000d55 T fcntl
0x00000d89 T creat
0x00000dbd T file_dir_chown_chmod
0x00000e1b T qsee_rsa_key_gen
0x00000e29 T qsee_secpkcs8_parse
0x00000e37 T qsee_rsa_sign_hash
0x00000e55 T qsee_rsa_verify_signature
0x00000e73 T qsee_rsa_encrypt
0x00000e93 T qsee_rsa_decrypt
0x00000eb3 T qsee_BIGINT_read_unsigned_bin
0x00000ec1 T qsee_util_init_s_bigint
0x00000ecf T qsee_util_free_s_bigint
0x00000ed3 T qsee_BIGINT_read_radix
0x00000ee3 T qsee_rsa_exptmod
0x00000efd T qsee_util_count_bytes
0x00000f01 T qsee_SW_ECC_PubPrivate_Key_generate
0x00000f11 T qsee_SW_ECDH_Shared_Key_Derive
0x00000f21 T qsee_SW_ECDSA_Sign
0x00000f31 T qsee_SW_ECDSA_Verify
0x00000f41 T qsee_SW_ECDH_mult_basepoint
0x00000f51 T qsee_ECC_hash_to_bigval
0x00000f55 T qsee_toggle_random_bit
0x00000f59 T qsee_get_random_bytes
0x00000f5d T qsee_in_curveP
0x00000f67 T qsee_SW_GENERIC_ECC_init
0x00000f87 T qsee_SW_GENERIC_ECDSA_sign
0x00000f9f T qsee_SW_GENERIC_ECDSA_verify
0x00000fb7 T qsee_SW_GENERIC_ECDH_shared_key_derive
0x00000fc7 T qsee_SW_GENERIC_ECC_keypair_generate
0x00000fd7 T qsee_SW_GENERIC_ECC_binary_to_bigval
0x00000fef T qsee_SW_GENERIC_ECC_bigval_to_binary
0x00001007 T qsee_SW_GENERIC_ECC_compare
0x00001017 T qsee_SW_ECDH_generate
0x0000101b T qsee_SW_ECDH_derive
0x00001025 T qsee_SW_Hash_Init
0x00001029 T qsee_SW_Hash_Update
0x0000102d T qsee_SW_Hash_Final
0x00001031 T qsee_SW_Hmac
0x00001045 T qsee_SW_Cipher_Init
0x00001049 T qsee_SW_Cipher_DeInit
0x0000104d T qsee_SW_CipherData
0x00001051 T qsee_SW_Cipher_SetParam
0x00001055 T qsee_SW_Cipher_GetParam
0x00001059 T qsee_SW_Cipher_DES_Init
0x0000105d T qsee_SW_Cipher_DES_DeInit
0x00001061 T qsee_SW_CipherDESData
0x00001065 T qsee_SW_Cipher_DES_SetParam
0x00001069 T qsee_get_uptime
0x0000108b T qsee_wdog_stop
0x000010ab T qsee_wdog_pet
0x000010cb T memscpy
0x000010e9 T secure_memset
0x000010fd T timesafe_memcmp
0x0000113b T secmath_BIGINT_read_unsigned_bin
0x00001179 T secmath_BIGINT_read_radix
0x000011b7 T secpkcs8_parse
0x000011f5 T ce_rsa_key_gen
0x00001231 T ce_rsa_encrypt
0x0000127f T ce_rsa_decrypt
0x000012cd T ce_rsa_sign_hash
0x00001325 T ce_rsa_verify_signature
0x0000137d T ce_util_init_s_bigint
0x000013ab T ce_util_free_s_bigint
0x000013d7 T ce_util_count_bytes
0x00001405 T ce_rsa_exptmod
0x0000144f T SW_ECC_PubPrivate_Key_generate
0x0000147f T SW_ECDH_Shared_Key_Derive
0x000014bd T SW_ECDSA_Sign
0x000014fb T SW_ECDSA_Verify
0x00001539 T SW_ECDH_mult_basepoint
0x00001569 T ECC_hash_to_bigval
0x000015a5 T toggle_random_bit
0x000015d7 T in_curveP
0x00001605 T get_random_bytes
0x00001637 T SW_GENERIC_ECC_init
0x0000168f T SW_GENERIC_ECDSA_sign
0x000016d5 T SW_GENERIC_ECDSA_verify
0x0000171b T SW_GENERIC_ECDH_shared_key_derive
0x00001757 T SW_GENERIC_ECC_keypair_generate
0x00001795 T SW_GENERIC_ECC_binary_to_bigval
0x000017db T SW_GENERIC_ECC_bigval_to_binary
0x00001821 T SW_GENERIC_ECC_compare
0x0000185f T SW_ECDH_generate
0x0000188f T SW_ECDH_derive
0x000018cd T SW_Cipher_Init
0x000018fd T SW_Cipher_DeInit
0x0000192d T SW_Cipher_Reset
0x0000195b T SW_CipherData
0x00001997 T SW_Cipher_SetParam
0x000019d3 T SW_Cipher_GetParam
0x00001a0f T qsee_SW_AE_UpdateData
0x00001a4b T qsee_SW_AE_FinalData
0x00001a87 T qsee_SW_AE_UpdateAAD
0x00001ac5 T SW_Cipher_DES_Init
0x00001af5 T SW_Cipher_DES_DeInit
0x00001b23 T SW_CipherDESData
0x00001b5f T SW_Cipher_DES_SetParam
0x00001b9b T SW_Hash_Init
0x00001bcb T SW_Hash_Update
0x00001c09 T SW_Hash_Final
0x00001c39 T SW_Hmac
0x00001c83 T memsmove
0x00001ca1 T gdFontGetgdfontqcomreg100propExt
0x00001ccb T gdFontGetgdfontqcomreg100monoExt
0x00001cf5 T gdFontGetgdfontqcomreg42propExt
0x00001d1f T gdFontGetgdfontqcomreg30propExt
0x00001d49 T gdFontGetgdfontqcomreg48propExt
0x00001d73 T load_layout_images
0x00001f73 T strlcpy
0x00001fb5 T png_get_valid
0x00001fc3 T png_get_rowbytes
0x00001fcf T png_get_channels
0x00001fdb T png_get_signature
0x00001fe9 T png_get_IHDR
0x00002061 T png_get_PLTE
0x0000207f T png_get_compression_buffer_size
0x0000208b T png_read_data
0x00002095 T png_set_read_fn
0x000020a9 T gdColorMatch
0x00002173 T overflow2
0x000021b7 T png_free_default
0x000021c7 T png_free
0x000021db T png_destroy_png_struct
0x00002203 T png_malloc_base
0x0000221f T png_malloc
0x0000223f T png_calloc
0x0000227f T png_malloc_array
0x0000229f T png_realloc_array
0x0000230f T png_malloc_default
0x0000232f T png_malloc_warn
0x0000233f T png_set_mem_fn
0x00002351 T png_get_mem_ptr
0x0000235d T get_crc_table
0x000028c9 T crc32
0x0000299f T crc32_combine
0x000029a1 T crc32_combine64
0x000029a3 T adler32
0x00002c2d T adler32_combine
0x00002c2f T adler32_combine64
0x00002c31 T inflate_table
0x00002fd3 T malloc
0x00003031 T free
0x0000307f T vfprintf
0x00003089 T _printf_pre_padding
0x000030b7 T _printf_post_padding
0x000030db T _printf_str
0x0000312d T _is_digit
0x0000313b T _printf_n
0x0000313b T _printf_percent
0x00003141 T _printf_p
0x00003147 T _printf_f
0x0000314d T _printf_e
0x00003153 T _printf_g
0x00003159 T _printf_a
0x0000315f T _printf_ll
0x00003169 T _printf_i
0x0000316f T _printf_d
0x00003175 T _printf_u
0x0000317b T _printf_o
0x00003181 T _printf_x
0x00003187 T _printf_lli
0x0000318d T _printf_lld
0x00003193 T _printf_llu
0x00003199 T _printf_llo
0x0000319f T _printf_llx
0x000031a5 T _printf_l
0x000031af T _printf_c
0x000031b5 T _printf_s
0x000031bb T _printf_lc
0x000031c1 T _printf_ls
0x000031c7 T _printf_percent_end
0x000031cb T fputs
0x000031ed T abort
0x000031fd T memcmp
0x00003255 T strlen
0x0000328f T __aeabi_memclr
0x0000328f T __rt_memclr
0x00003293 T _memset
0x000032d3 T __aeabi_memclr4
0x000032d3 T __aeabi_memclr8
0x000032d3 T __rt_memclr_w
0x000032d7 T _memset_w
0x00003321 T __aeabi_uread4
0x00003321 T __rt_uread4
0x00003337 T __aeabi_uwrite4
0x00003337 T __rt_uwrite4
0x0000334d T __aeabi_uread8
0x0000334d T __rt_uread8
0x0000337b T __aeabi_uwrite8
0x0000337b T __rt_uwrite8
0x000033a5 T __aeabi_dadd
0x000033a5 T _dadd
0x000033b7 T __aeabi_ddiv
0x000033b7 T _ddiv
0x000033c9 T __aeabi_d2iz
0x000033c9 T _dfix
0x000033d7 T __aeabi_d2uiz
0x000033d7 T _dfixu
0x000033e5 T __aeabi_ui2d
0x000033e5 T _dfltu
0x000033f3 T __aeabi_i2d
0x000033f3 T _dflt
0x00003401 T __aeabi_dmul
0x00003401 T _dmul
0x00003413 T __aeabi_f2d
0x00003413 T _f2d
0x00003421 T __aeabi_fdiv
0x00003421 T _fdiv
0x00003433 T __aeabi_i2f
0x00003433 T _fflt
0x00003441 T atan2
0x00003455 T cos
0x00003465 T floor
0x00003475 T sin
0x00003485 T sqrt
0x000034eb T __use_no_heap
0x000034ed T __heap$guard
0x000034ef T _terminate_user_alloc
0x000034f1 T _init_user_alloc
0x000034f3 T __Heap_Full
0x00003513 T __Heap_Broken
0x00003519 T _init_alloc
0x00003577 T __Heap_Initialize
0x00003581 T __Heap_DescSize
0x00003585 T __read_errno
0x0000358f T __set_errno
0x0000359b T _printf_truncate_signed
0x000035ad T _printf_truncate_unsigned
0x000035bf T _printf_int_common
0x00003677 T _printf_charcount
0x000036a1 T _sputc
0x000036ab T _snputc
0x000036bb T _printf_cs_common
0x000036cf T _printf_char
0x000036df T _printf_string
0x000036e7 T fputc
0x00003701 T __rt_SIGABRT
0x0000370f T __fpl_dcmp_Inf
0x0000370f T __rt_lib_init_cpp_2
0x0000370f T __rt_lib_init_heap_2
0x0000370f T __rt_lib_init_lc_ctype_2
0x0000370f T __rt_lib_init_lc_numeric_2
0x0000370f T __rt_lib_init_stdio_2
0x00003727 T __fpl_dnaninf
0x000037c3 T _printf_fp_dec
0x000037c7 T _printf_fp_hex
0x000037ca N __I$use$fp
0x000037cb T atan
0x000037db T fabs
0x000037f9 T _sys_open
0x0000380d T _sys_close
0x00003819 T _sys_write
0x00003829 T _sys_read
0x00003837 T _sys_istty
0x00003843 T _sys_seek
0x00003851 T _sys_ensure
0x00003853 T _sys_flen
0x0000385f T __I$use$semihosting
0x0000385f T __use_no_semihosting_swi
0x00003861 T __Heap_ProvideMemory
0x00003861 T __semihosting_library_function
0x00003893 T __lib_sel_fp_printf
0x00003a3f T _printf_fp_dec_real
0x00003cab T _printf_lcs_common
0x00003cbf T _printf_wchar
0x00003ccf T _printf_wstring
0x00003cd7 T ferror
0x00003cdf T __flsbuf
0x00003cdf T __flsbuf_byte
0x00003cdf T __flsbuf_wide
0x00003ebd T _ftell_internal
0x00003ebd T ftell
0x00003f03 T setvbuf
0x00003f49 T _fclose_internal
0x00003f49 T fclose
0x00003f95 T _wcrtomb
0x00003fd5 T __sig_exit
0x00003fdf T __rt_SIGRTRED
0x00003fed T __rt_SIGRTMEM
0x00003ffb T __ARM_fpclassify
0x00003ffb T __rt_lib_shutdown_stdio_2
0x0000402b T __kernel_poly
0x000040a5 T _btod_d2e
0x000040e3 T _d2e_norm_op1
0x00004143 T _d2e_denorm_low
0x00004189 T _btod_emul
0x000041b1 T _btod_ediv
0x000041d9 T _e2e
0x0000429f T __btod_mult_common
0x000044e3 T __btod_div_common
0x0000481b T __default_signal_display
0x0000484d T _ttywrch
0x0000485d T qsee_err_fatal
0x0000487f T platform_err_fatal
0x00004881 T platform_get_random
0x00004885 T __stack_chk_fail
0x00004887 T _sys_command_string
0x0000488b T get_stack_base
0x00004897 T get_stack_size
0x000048af T get_app_maxObjs
0x000048b3 T get_app_acceptBufSize
0x000048b9 T get_app_acceptBuf
0x000048c5 T get_ta_app_name
0x000048d1 T qsee_cmnlib_free
0x00004907 T qsee_cmnlib_malloc
0x00004943 T qsee_mem_heap_get_totals
0x00004975 T qsee_free
0x000049a9 T qsee_malloc
0x000049df T tzlib_app_entry
0x00004ba3 T get_app_entry
0x00004baf T server_exit
0x00004bcf T serverLoop
0x00004c23 T get_app_serverloop_entry
0x00004c29 T get_app_req_resp
0x00004c35 T qsee_read_register
0x00004c55 T qsee_request_service
0x00004ca7 T qsee_wait
0x00004cc9 T qsee_register_shared_buffer
0x00004ceb T qsee_deregister_shared_buffer
0x00004d0b T qsee_prepare_shared_buf_for_nosecure_read
0x00004d2d T qsee_prepare_shared_buf_for_secure_read
0x00004d4f T qsee_set_global_flag
0x00004d6f T qsee_get_global_flag
0x00004d91 T qsee_oem_process_cmd
0x00004db5 T qsee_encapsulate_inter_app_message
0x00004dd9 T qsee_decapsulate_inter_app_message
0x00004dfd T qsee_enforce_hdmi_hdcp_encryption
0x00004e1d T qsee_get_secure_state
0x00004ef5 T globInit
0x00004f19 T globShutdown
0x00004f4f T tz_app_init
0x00004f51 T tz_app_cmd_handler
0x000050cb T tz_app_shutdown
0x000057bd T sec_ui_stop_disp
0x000058a7 T sec_ui_get_disp_properties
0x00005d13 T sec_ui_start_disp_fullscreen
0x00005e0d T session_is_unchanged
0x00005ea7 T sec_ui_show_buf
0x000060d1 T sec_ui_copy_to_buffer
0x000062fb T sec_ui_hlos_release
0x000063e1 T sec_ui_alloc_app_buffer
0x00006491 T sec_ui_free_app_buffer
0x000064e1 T secUiProcessCmd
0x000065a7 T secUiCmd
0x00006629 T secUiRegisterTouchCallback
0x00006637 T secUiTouchIsActive
0x0000664b T secUiSetPanelSize
0x000066f5 T secUiTouchStop
0x00006765 T processCmdStopTouch
0x00006851 T processCmdInitialize
0x000068c9 T processCmdGetTokenInfo
0x00006935 T processCmdGetMechanismList
0x000069bd T getMechanismData
0x00006a95 T processCmdGetMechanismInfo
0x00006e4d T processCmdInitToken
0x00007199 T processCmdInitTokenSUI
0x00007345 T processCmdInitTokenSUIConfirm
0x000074a1 T processCmdInitTokenSUIFinish
0x0000798d T processCmdSetPIN
0x00008d29 T processCmdSetPINSUIStart
0x00008f2d T processCmdSetPINSUINewPIN
0x0000905b T processCmdSetPINSUIConfirm
0x000092c5 T processCmdSetPINSUIFinish
0x0000a601 T processCmdOpenSession
0x0000ab19 T processCmdCloseSession
0x0000acb5 T processCmdLogin
0x0000b035 T processCmdLoginSUI
0x0000b19b T processCmdLoginSUIFinish
0x0000b4d9 T processCmdLogout
0x0000b5a1 T processCmdCreateObject
0x0000b9cd T processCmdCopyObject
0x0000bbb9 T processCmdGetULongAttributeValue
0x0000bcad T processCmdGetArrayAttributeValue
0x0000be7d T processCmdSetAttributeValue
0x0000bf85 T processCmdSetArrayAttributeValue
0x0000c089 T processCmdSetTemplateAttributeValue
0x0000c239 T processCmdCryptoInit
0x0000c52d T processCmdCryptoAbort
0x0000c7c1 T processCmdCryptoUpdate
0x0000cd45 T processCmdDigestKey
0x0000cf99 T processCmdGenerateKey
0x0000d6c1 T processCmdGenerateKeySUI
0x0000df3f T processCmdGenerateKeySUIFinish
0x0000e30d T processCmdGenerateKeyPair
0x0000e929 T processCmdWrapKey
0x0000f37d T processCmdUnwrapKey
0x0000faa1 T processCmdDeriveKey
0x000100b1 T processCmdGenerateRandom
0x00010239 T processCmdReset
0x000102c1 T processCmdGetToken
0x000103bb T generateTokenKeys
0x0001071f T getTokenKeys
0x00011643 T initKeys
0x00011731 T unlockToken
0x000118a3 T initTables
0x00011c55 T findFirstFree
0x00011c9f T QE2CK
0x00011cab T fillTokenInfo
0x00011dff T wrapToken
0x00011f0f T unwrapToken
0x000120a7 T unwrapSessionGroup
0x00012195 T wrapObject
0x000123c7 T unwrapObject
0x00012625 T getSessionCount
0x000126df T processTokenGroup
0x00012787 T processTokenGroupSession
0x0001284b T checkAccess
0x00012a5f T wrapSessionGroup
0x00012ceb T lockToken
0x00012e55 T computeChecksum
0x00013053 T processTokenGroupSessionObject
0x0001332d T mechanismIsAllowed
0x0001336b T completeWrapping
0x000134ef T completeUnwrapping
0x00013909 T touchClose
0x00013a71 T processCmdStartTouch
0x00013bc9 T processCmdProcessTouch
0x00013e0d T processCmdPrepareRequest
0x00013ef1 T processCmdStoreIndicator
0x0001406d T qsee_exec_protect_memory
0x00014091 T qsee_is_sw_fuse_blown
0x000140b5 T qsee_blow_sw_fuse
0x000140d5 T qsee_read_jtag_id
0x000140f7 T qsee_read_serial_num
0x00014119 T qsee_fuse_write
0x0001413d T qsee_fuse_read
0x00014161 T qsee_is_ns_range
0x00014185 T qsee_is_s_tag_area
0x000141ab T qsee_i2c_open
0x000141cb T qsee_i2c_read
0x000141ef T qsee_i2c_write
0x00014213 T qsee_i2c_close
0x00014233 T qsee_spi_open
0x00014253 T qsee_spi_read
0x00014277 T qsee_spi_write
0x0001429b T qsee_spi_close
0x000142bb T qsee_spi_full_duplex
0x000142df T qsee_ks_decrypt
0x0001430b T qsee_ks_get_key
0x00014337 T qsee_ks_delete_key
0x0001435b T qsee_ce_pipe_key_select
0x0001437f T qsee_hdmi_status_read
0x000143a3 T qsee_mem_usage_count
0x000143c3 T qsee_sd_get_session
0x000143e5 T qsee_tag_mem
0x00014409 T qsee_read_hw_version
0x0001473b T DER_decode_RSAPublicKey
0x000149e9 T DER_decode_PrivateKeyInfo
0x00014f1d T DER_encode_PrivateKeyInfo
0x000152b7 T sticky
0x000152bb T conflictingAttributes
0x000152bf T secureTemplates
0x000152c3 T minIterationsPbkdf2SK
0x000152c7 T minIterationsPbkdf1VPN
0x000152cd T weakerKey
0x000152fd T getKeyStrength
0x00015417 T mechanismIsSecure
0x00015447 T secureWrapOnly
0x0001544b T trustedWrapOnly
0x000154e5 T validateDate
0x000155b7 T validateStorage
0x00015617 T validateData
0x0001568b T validateKey
0x00015717 T validatePublicKey
0x00015783 T validatePrivateKey
0x0001581f T validateRSAPublicKey
0x000158cb T validateRSAPrivateKey
0x00015a75 T validateSecretKey
0x00015c1d T validateGenericSecretKey
0x00015d33 T validateOTPSecretKey
0x00016073 T validateAESSecretKey
0x000160dd T validateDESSecretKey
0x0001614f T validateCertificate
0x000161ad T validateX509Certificate
0x0001630d T validateObject
0x000165d1 T validateSecureTemplateSecretKey
0x000166d5 T validateSecureTemplateKeyPair
0x00016811 T cryptoValidateRSAPrivateKey
0x00016cdd T getULongAttributeValue
0x00016d6f T getArrayAttributeValue
0x000170bd T setAttributeValue
0x000173f9 T setArrayAttributeValue
0x00017703 T getTemplateArrayAttributeValue
0x00017903 T getTemplateBoolAttributeValue
0x00017c7d T getTemplateULongAttributeValue
0x00017df1 T write_image_sfs
0x00017fbb T read_image_sfs
0x0001809f T clear_tui
0x000180c1 T clear_tui_data
0x000180e5 T get_input
0x000180f1 T get_input_len
0x000180ff T get_status
0x0001810d T start_input_dialog
0x000185d1 T readToken
0x000186d7 T writeToken
0x00018817 T removeToken
0x00018be9 T QWrapObject
0x00018dd7 T QUnwrapObject
0x000191fd T aes_cipher_init
0x000194af T aes_generate
0x00019559 T aes_wrap
0x000198c9 T aes_unwrap
0x00019aa7 T aes_encrypt_data
0x00019e4b T wrapkey_aes_cbc_pad_wrap
0x0001a49d T wrapkey_aes_cbc_pad_unwrap
0x0001ace1 T common_cipher_final
0x0001addb T derive_data_base
0x0001af79 T derive_base_key
0x0001b39b T derive_extract
0x0001b683 T cryptoCheckDESKey
0x0001b6ef T des_cipher_init
0x0001b921 T des_generate
0x0001bbcd T generic_generate
0x0001bc89 T generic_keypad_generate
0x0001be09 T hmac_sign_verify_init
0x0001bf85 T hmac_sign_verify_final
0x0001c3e9 T pbkdf2
0x0001ca89 T pkcs5_pbkd2
0x0001cc3b T pkcs5_pbkd1
0x0001cfed T pkcs5_pbkd1_generic_secret
0x0001d4bf T rsa_cipher_init
0x0001d70d T rsa_cipher_final
0x0001db3f T rsa_sign_verify_init
0x0001e05d T rsa_sign_verify_final
0x0001e38f T rsa_generate
0x0001e7a1 T rsa_wrap
0x0001eab3 T rsa_unwrap
0x0001ecad T sha_derive
0x0001ee35 T sha_digest_init
0x0001eed7 T sha_digest_update
0x0001ef3d T sha_digest_final
0x0001f0fd T tls_pseudorandom_function
0x0001f393 T tls_pre_master_key
0x0001f481 T tls_derive_master_secret
0x0001f897 T tls_derive_key_and_mac
0x000202ad T dumpHex
0x00020381 T touchOpen
0x00020535 T touchGetData
0x000205e7 T drNotifyEvent
0x00020ed7 T manage_layout_event
0x0002231b T qsee_tui_init
0x0002231f T qsee_tui_dialog
0x0002259d T qsee_tui_get_secure_indicator_buffer
0x000225e5 T qsee_tui_release_secure_indicator
0x00022605 T qsee_tui_tear_down
0x00022757 T dumpT9
0x000227eb T dumpT100
0x00022845 T dumpT15
0x0002293d T dumpT42
0x0002295d T processT9
0x000229fd T processT100
0x00022ce3 T atmel_drTsOpen
0x0002331d T atmel_drTsClose
0x00023393 T atmel_drTsProcessEvents
0x0002366f T synReadF12
0x00023881 T synaptics_drTsOpen
0x00024061 T synaptics_drTsClose
0x000243e1 T synaptics_drTsProcessEvents
0x0002482b T layout_mgr_delete_input_last_character
0x00024c61 T layout_mgr_load_layout
0x00024cf3 T layout_mgr_eval_event
0x00024e93 T layout_mgr_render_layout
0x0002511b T layout_mgr_set_label_text
0x000251c7 T set_label_buffer
0x000251d3 T layout_mgr_set_label_buffer
0x0002526b T layout_mgr_set_input_display_mode
0x00025303 T layout_mgr_set_show_flag
0x0002535f T layout_mgr_set_dirty_bit
0x000253b5 T layout_mgr_set_button_disabled
0x000255ef T layout_mgr_set_focus_input
0x0002565d T layout_mgr_set_image
0x000256f1 T layout_mgr_set_active_keyboard
0x00025761 T layout_mgr_randomize_keyboard
0x00025aeb T layout_mgr_get_input_len
0x00025b7f T layout_mgr_set_input_len_to_max
0x00025be7 T layout_mgr_clear_input_buffer
0x00025cc5 T create_message_single
0x00025fd5 T create_message_double
0x00026413 T create_message_triple
0x00026923 T create_pin
0x00027edb T create_login_username_password
0x00030463 T create_login_password_only
0x000386e3 T create_layout
0x0003877d T setVisible
0x00038797 T showKeyboard
0x00038821 T updateKeyboard
0x00038853 T unclickObject
0x00038897 T findObject
0x00038f45 T verifyLayout
0x00039763 T updatePage
0x00039e8d T atmel_i2cReadReg
0x00039ee9 T atmel_i2cOpen
0x00039f23 T atmel_i2cClose
0x00039fd1 T synaptics_i2cReadReg
0x0003a027 T synaptics_i2cWriteReg
0x0003a051 T synaptics_i2cOpen
0x0003a057 T synaptics_i2cClose
0x0003a0b9 T get_utf8_len
0x0003b903 T render_layout
0x0003bec5 T gd_stderr_error
0x0003bf57 T gd_error_ex
0x0003bf79 T gd_error
0x0003bf8f T gdSetErrorMethod
0x0003bf9d T gdClearErrorMethod
0x0003bfaf T gdImageCreate
0x0003bfb3 T gdImageCreateExt
0x0003c083 T gdImageCreateTrueColor
0x0003c087 T gdImageCreateTrueColorExt
0x0003c15d T gdImageDestroyEx
0x0003c197 T gdImageColorClosestAlpha
0x0003c235 T gdImageColorClosest
0x0003c245 T gdImageColorExactAlpha
0x0003c2b1 T gdImageColorExact
0x0003c301 T gdImageColorAllocateAlpha
0x0003c37d T gdImageColorAllocate
0x0003c38d T gdImageColorResolveAlpha
0x0003c471 T gdImageColorResolve
0x0003c481 T gdImageColorDeallocate
0x0003c4a1 T gdImageColorTransparent
0x0003c4e3 T gdImagePaletteCopy
0x0003c5dd T gdAlphaBlend
0x0003c681 T gdImageGetPixel
0x0003c7af T gdImageGetTrueColorPixel
0x0003c959 T gdImageSetPixel
0x0003ca65 T gdImageColorReplace
0x0003cb3d T gdImageColorReplaceThreshold
0x0003ce03 T gdImageSetLine
0x0003ce33 T gdImageAABlend
0x0003ce35 T gdImageFilledRectangle
0x0003d1e9 T gdImageLine
0x0003d5b1 T gdImageDashedLine
0x0003d7fd T gdImageBoundsSafe
0x0003d82d T gdImageChar
0x0003d8ad T gdImageCharUp
0x0003d939 T gdFontFindIndex
0x0003d971 T gdImageCharExt
0x0003d9fb T gdImageString
0x0003da41 T gdImageStringUp
0x0003da87 T getUnicode
0x0003db25 T gdImageStringExt
0x0003db71 T gdImageCharVarWidth
0x0003dc1f T gdImageStringVarWidth
0x0003dc65 T gdGetMaxLenForWidth
0x0003dcab T gdIsValidUTF8String
0x0003dd39 T gdImageString16
0x0003dd81 T gdImageStringUp16
0x0003ddc9 T lsqrt
0x0003dddb T gdImageOpenPolygon
0x0003de17 T gdImagePolygon
0x0003de55 T gdImageFilledPolygon
0x0003e0ad T gdImageFilledArc
0x0003e311 T gdImageArc
0x0003e335 T gdImageEllipse
0x0003e3e5 T gdImageFilledEllipse
0x0003e4b5 T gdImageGradientFilledEllipse
0x0003e91b T gdImageFillToBorder
0x0003ea63 T gdImageRectangle
0x0003ebe9 T gdImageQuickFilledRectangle
0x0003ec65 T gdImageFilledRoundedRectangle
0x0003ed8b T gdImageGradientFilledRectangle
0x0003f00b T gdImageCopyResized
0x0003f2db T gdImageSetThickness
0x0003f2e3 T gdImageSetBrush
0x0003f371 T gdImageSetTile
0x0003f401 T gdImageSetAntiAliased
0x0003f417 T gdImageSetAntiAliasedDontBlend
0x0003f42d T gdImageInterlace
0x0003f435 T gdImageCompare
0x0003f58f T gdImageAlphaBlending
0x0003f597 T gdImageSaveAlpha
0x0003f59f T gdImageSetClip
0x0003f5fd T gdImageGetClip
0x0003f62d T gdImageSetResolution
0x0003f659 T png_set_sig_bytes
0x0003f679 T png_sig_cmp
0x0003f6db T png_zalloc
0x0003f709 T png_zfree
0x0003f70d T png_reset_crc
0x0003f721 T png_calculate_crc
0x0003f779 T png_get_header_ver
0x0003f77d T png_user_version_check
0x0003f80b T png_create_png_struct
0x0003f87d T png_create_info_struct
0x0003f8a9 T png_free_data
0x0003f8eb T png_destroy_info_struct
0x0003f931 T png_data_freer
0x0003f955 T png_get_io_ptr
0x0003f95f T png_get_copyright
0x0003f96b T png_get_libpng_ver
0x0003f96d T png_get_header_version
0x0003f971 T png_reset_zstream
0x0003f97f T png_access_version_number
0x0003f985 T png_zstream_error
0x0003f9db T png_check_IHDR
0x0003fbd1 T malloc_fn
0x0003fbd7 T free_fn
0x0003fbdd T png_create_read_struct_2
0x0003fc15 T png_create_read_struct
0x0003fc33 T png_read_info
0x0003fd13 T png_read_update_info
0x0003fd29 T png_start_read_image
0x0003fd3f T png_read_row
0x0003fe51 T png_read_rows
0x0003fec3 T png_read_image
0x0003ff0b T png_read_end
0x0003fffb T png_destroy_read_struct
0x00040031 T png_set_read_status_fn
0x0004003d T png_longjmp
0x00040047 T png_err
0x0004005d T png_safecat
0x00040093 T png_chunk_report
0x0004009d T png_set_error_fn
0x000400a7 T png_get_error_ptr
0x000400b5 T png_get_uint_31
0x000400dd T png_read_sig
0x00040143 T png_check_chunk_name
0x0004016b T png_read_chunk_header
0x000401d9 T png_crc_read
0x000401ff T png_crc_error
0x00040281 T png_crc_finish
0x000403ed T png_handle_IHDR
0x000404f9 T png_handle_PLTE
0x00040659 T png_handle_IEND
0x00040693 T png_handle_unknown
0x000406b3 T png_combine_row
0x00040973 T png_read_filter_row
0x000409af T png_read_IDAT_data
0x00040afd T png_read_finish_IDAT
0x00040b53 T png_read_finish_row
0x00040b63 T png_read_start_row
0x00040c55 T inflateResetKeep
0x00040ca3 T inflateReset
0x00040cb9 T inflateReset2
0x00040d19 T inflateInit2_
0x00040d9f T inflateInit_
0x00040da7 T inflatePrime
0x00040ecd T inflate
0x00041fdb T inflateEnd
0x00042005 T inflateGetDictionary
0x00042047 T inflateSetDictionary
0x000420b9 T inflateGetHeader
0x00042119 T inflateSync
0x000421e7 T inflateSyncPoint
0x00042207 T inflateCopy
0x000422ff T inflateUndermine
0x00042317 T inflateMark
0x0004234d T png_set_IHDR
0x00042403 T png_set_PLTE
0x000424a1 T png_set_compression_buffer_size
0x000424c7 T png_set_invalid
0x000424e9 T inflate_fast
0x0004289d T zlibVersion
0x000428a1 T zlibCompileFlags
0x000428a5 T zError
0x000428b9 T zcalloc
0x000428d5 T zcfree
0x000428e8 A __aeabi_uldivmod
0x000428e8 A _ll_udiv
0x000428fc A _ll_udiv_donemoving
0x00042c19 T vsnprintf
0x00042c4d T __2snprintf
0x00042c85 T _printf_longlong_hex
0x00042ce1 T _printf_int_hex
0x00042cfd T _printf_ll_hex
0x00042d09 T _printf_hex_ptr
0x00042d21 T __printf
0x00042ea9 T _do_fflush
0x00042edf T fflush
0x00042f10 A strncmp
0x00043000 A __aeabi_memcpy4
0x00043000 A __aeabi_memcpy8
0x00043000 A __rt_memcpy_w
0x00043064 A _memcpy_lastbytes_aligned
0x0004307c A __aeabi_memcpy
0x0004307c A __rt_memcpy
0x00043104 A _memcpy_lastbytes
0x00043124 A __aeabi_memmove
0x00043124 A __rt_memmove
0x000431b4 A __memmove_lastfew
0x000431d4 A strcmp
0x00043274 A __aeabi_idiv
0x00043274 A __aeabi_idivmod
0x000434a0 A __aeabi_uidiv
0x000434a0 A __aeabi_uidivmod
0x000434d1 T __cpp_initialize__aeabi_
0x000434f5 T __aeabi_cdcmpeq
0x000434f5 T _dcmpeq
0x00043525 T __aeabi_cdcmple
0x00043525 T _dcmple
0x0004353d T __fpl_dcmple_InfNaN
0x00043555 T _sys_exit
0x00043561 T __rt_heap_descriptor
0x0004356d T _printf_int_dec
0x000435eb T _printf_char_common
0x00043611 T _printf_char_file
0x00043635 T _printf_wctomb
0x000436ed T _printf_longlong_dec
0x00043765 T _printf_longlong_oct
0x000437b1 T _printf_int_oct
0x000437c9 T _printf_ll_oct
0x000437dd T _fseek
0x000437dd T fseek
0x000438d5 T _seterr
0x000438e9 T _writebuf
0x0004393d T _fflush
0x00043983 T _deferredlazyseek
0x000439c5 T _initio
0x00043ab5 T _terminateio
0x00043b20 A __aeabi_memmove4
0x00043b20 A __aeabi_memmove8
0x00043b20 A __rt_memmove_w
0x00043b4c A __memmove_aligned
0x00043b88 A __memmove_lastfew_aligned
0x00043ba1 T __aeabi_errno_addr
0x00043ba1 T __errno
0x00043ba1 T __rt_errno_addr
0x00043bac A _ll_udiv10
0x00043bad T _maybe_terminate_alloc
0x00043c45 T _printf_fp_hex_real
0x00043f49 T freopen
0x00043fe7 T fopen
0x00044035 T __rt_SIGABRT_inner
0x00044064 A __rt_udiv10
0x00044091 T __rt_heap_escrow
0x000440a7 T __rt_heap_expand
0x000440e1 T __rt_ctype_table
0x000440f1 T __rt_locale
0x000440fd T _printf_fp_infnan
0x0004417d T _btod_etento
0x00044255 T _get_lc_numeric
0x00044281 T __rt_SIGRTRED_inner
0x000442b5 T __rt_SIGRTMEM_inner
0x00044305 T _get_lc_ctype
0x00044331 T __hardfp_atan2
0x000444d9 T __hardfp_cos
0x00044591 T __hardfp_floor
0x00044681 T __hardfp_sin
0x00044739 T __hardfp_atan
0x00044939 T __kernel_cos
0x00044a11 T __ieee754_rem_pio2
0x00044d11 T __kernel_sin
0x00044db9 T __mathlib_dbl_underflow
0x00044e00 A app_export_init_info_to_qsee
0x00044e30 A qsee_printf_syscall
0x00044e48 A qsee_wait_default_signal_syscall
0x00044e74 A qsee_generic_syscall
0x00044e98 A mink_generic_syscall
0x000458b2 D inflate_copyright
0x000458e1 D z_errmsg
0x00045a5a D __stdin_name
0x00045a5e D __stdout_name
0x00045a62 D __stderr_name
0x00046430 D commandsLen
0x0004d21c D gdCosT
0x0004d7bc D gdSinT
0x0004fe21 D __ctype
0x0004fff0 D __mathlib_zero
0x00051004 D pgCmnlib
0x00051008 D tzapp_lib
0x0005100c D cmnlib_rw_base
0x00051010 D app_rw_base
0x00051014 D __stack_chk_guard
0x00051018 D dummy_str
0x0005101c D app_cmd_invoker_obj
0x00051024 D mink_api_service_obj
0x0005102c D mink_user_sscall_service_obj
0x00051034 D mink_opener_obj
0x0005103c D magic_num
0x00051050 D magic_num_index_array
0x0005105c D sse_log_tag
0x00051064 D g_initialized
0x00051068 D commands
0x000511a8 D TZ_APP_NAME
0x00051214 D g_sid
0x00051218 D g_touch_callback
0x0005121c D g_width
0x00051220 D g_height
0x0005124c D mechanisms
0x00051f64 D g_drTs_sid
0x00051f68 D g_fingers_ptr
0x0005216c D gdFontgdfontqcomreg100propExt
0x00052170 D gdFontgdfontqcomreg100propData
0x000938f0 D gdFontgdfontqcomreg100propRep
0x00093904 D gdFontgdfontqcomreg100monoExt
0x00093908 D gdFontgdfontqcomreg100monoData
0x000cd1b4 D gdFontgdfontqcomreg100monoRep
0x000cd1c8 D gdFontgdfontqcomreg42propExt
0x000cd1cc D gdFontgdfontqcomreg42propData
0x000e5008 D gdFontgdfontqcomreg42propRep
0x000e501c D gdFontgdfontqcomreg30propExt
0x000e5020 D gdFontgdfontqcomreg30propData
0x000f6adc D gdFontgdfontqcomreg30propRep
0x000f6af0 D gdFontgdfontqcomreg48propExt
0x000f6af4 D gdFontgdfontqcomreg48propData
0x001123e0 D gdFontgdfontqcomreg48propRep
0x0011244c D bgi_buffer_11
0x00113037 D bgi_buffer_25
0x00114980 D bgi_buffer_52
0x001159aa D bgi_buffer_10
0x00116a2a D bgi_buffer_45
0x001184a3 D bgi_buffer_53
0x00119dec D bgi_buffer_55
0x0011b2f6 D bgi_buffer_58
0x0011c800 D bgi_buffer_57
0x0011e27a D bgi_buffer_35
0x0011f151 D bgi_buffer_9
0x00120569 D bgi_buffer_30
0x001213be D bgi_buffer_56
0x00122d07 D bgi_buffer_31
0x00123b5c D bgi_buffer_50
0x001250b8 D bgi_buffer_33
0x00126138 D bgi_buffer_20
0x00126cb3 D bgi_buffer_42
0x00127b08 D bgi_buffer_54
0x00129582 D bgi_buffer_5
0x0012a6f4 D bgi_buffer_59
0x00131b5b D bgi_buffer_51
0x0013321e D bgi_buffer_39
0x00134b53 D bgi_buffer_19
0x001356ce D bgi_buffer_2
0x0013cb11 D bgi_buffer_37
0x0013e21a D bgi_buffer_44
0x0013fadf D bgi_buffer_46
0x00141060 D bgi_buffer_43
0x00141eb5 D bgi_buffer_36
0x00143512 D bgi_buffer_34
0x001444bd D bgi_buffer_28
0x00144707 D bgi_buffer_8
0x00145c82 D bgi_buffer_26
0x001476fc D bgi_buffer_12
0x001483ff D bgi_buffer_29
0x00148649 D bgi_buffer_6
0x001498e2 D bgi_buffer_47
0x0014b1a7 D bgi_buffer_49
0x0014c728 D bgi_buffer_1
0x00153b8f D bgi_buffer_48
0x00155608 D bgi_buffer_40
0x00157066 D bgi_buffer_21
0x00157be0 D bgi_buffer_0
0x0015f036 D bgi_buffer_27
0x00160544 D __aeabi_stdin
0x00160548 D __aeabi_stdout
0x0016054c D __aeabi_stderr
0x00160554 D g_config
0x00160954 D gAppCntxt
0x00160968 D application_heap
0x0016099c D mem_magic_number
0x001609a8 D apps_request_resp
0x001609bc D acceptBuf
0x00160abc D g_session_group_so_0
0x00162044 D g_token_so_0
0x00162338 D g_container_object_so_0
0x00163030 D g_container_object_so_1
0x00163d28 D g_freeKey_0
0x00164a20 D g_token_nonces
0x00164a2c D g_sg_nonces
0x00165e70 D g_ts_dr_func
0x00177b9c D img_array
0x001cf9dc D layout_images_buffers
0x001cfacc D __stdin
0x001cfb20 D __stdout
0x001cfb74 D __stderr
