    EXPORT app_export_init_info_to_qsee
    EXPORT qsee_printf_syscall
    EXPORT qsee_wait_default_signal_syscall
    EXPORT qsee_generic_syscall
    EXPORT mink_generic_syscall
    IMPORT apps_request_resp
    IMPORT get_app_req_resp
    AREA   tzapp_syscall_asm, CODE, align=8
    CODE32
app_export_init_info_to_qsee
    mov     r12, r8
    mov     r8, r4
    mov     r9, r5
    mov     r10, r6
    mov     r11, r7
    mov     r4, r0
    mov     r5, r1
    mov     r6, r2
    mov     r7, r3
    mov     r0, #(0xffffff00 + 0x0)
    swi     (0x1400 + 0x0)
    bx      r14
qsee_printf_syscall
    push {r4-r12, r14}
    mov     r4, r0
    mov     r5, r1
    mov     r0, #(0xffffff00 + 0xF9)
    swi     (0x1400 + 0xF9)
    pop {r4-r12, pc}
qsee_wait_default_signal_syscall
    push {r4-r12, r14}
    mov     r0, #(0xffffff00 + 0x1)
    swi     (0x1400 + 0x1)
    mov     r5, r0
    mov     r6, r1
    blx     get_app_req_resp
    mov     r7, r0
    mov     r0, r5
    mov     r1, r6         
    stm     r7, {r0-r4}
    pop {r4-r12, pc}   
qsee_generic_syscall
    push {r4-r12, r14}
    mov     r4, r1
    mov     r5, r2
    mov     r6, r3
    ldr     r7, [sp,#0x28]
    ldr     r8, [sp,#0x2C]
    ldr     r9, [sp,#0x30]
    swi     0x1400
    pop {r4-r12, pc}
mink_generic_syscall
    push {r0-r12, r14}
    mov     r0, r1 ; SWI num
    mov     r4, r2 ; arg 0
    mov     r5, r3 ; arg 1
    ldr     r6, [sp,#0x38] ; arg 2
    ldr     r7, [sp,#0x3C] ; arg 3
    swi     0x1400
    ldr     r2, [sp]  ; ret addr
    strd    r0, r1, [r2] ; store return vals
    add     r13, r13, #0x10  ;adjust pc
    pop {r4-r12, pc}
    END
