typedef  unsigned char      boolean;      
typedef  unsigned int      uint32;       
typedef  unsigned short     uint16;       
typedef  unsigned char      uint8;        
typedef  signed int         int32;        
typedef  signed short       int16;        
typedef  signed char        int8;         
typedef  unsigned long      uintnt;      
typedef  unsigned char      byte;          
typedef  unsigned short     word;          
typedef  unsigned int       dword;         
typedef  unsigned char      uint1;         
typedef  unsigned short     uint2;         
typedef  unsigned int       uint4;         
typedef  signed char        int1;          
typedef  signed short       int2;          
typedef  signed int         int4;          
typedef  signed int         sint31;        
typedef  signed short       sint15;        
typedef  signed char        sint7;         
typedef uint16 UWord16 ;
typedef uint32 UWord32 ;
typedef int32  Word32 ;
typedef int16  Word16 ;
typedef uint8  UWord8 ;
typedef int8   Word8 ;
typedef int32  Vect32 ;
    typedef long long     int64;        
    typedef  unsigned long long  uint64;       
typedef enum
{
  DALPLATFORMINFO_TYPE_UNKNOWN      = 0x00,   
  DALPLATFORMINFO_TYPE_SURF         = 0x01,   
  DALPLATFORMINFO_TYPE_FFA          = 0x02,   
  DALPLATFORMINFO_TYPE_FLUID        = 0x03,   
  DALPLATFORMINFO_TYPE_FUSION       = 0x04,   
  DALPLATFORMINFO_TYPE_OEM          = 0x05,   
  DALPLATFORMINFO_TYPE_QT           = 0x06,   
  DALPLATFORMINFO_TYPE_CDP          = DALPLATFORMINFO_TYPE_SURF,
  DALPLATFORMINFO_TYPE_MTP_MDM      = 0x07,   
  DALPLATFORMINFO_TYPE_MTP_MSM      = 0x08,   
  DALPLATFORMINFO_TYPE_MTP          = DALPLATFORMINFO_TYPE_MTP_MSM,
  DALPLATFORMINFO_TYPE_LIQUID       = 0x09,   
  DALPLATFORMINFO_TYPE_DRAGONBOARD  = 0x0A,   
  DALPLATFORMINFO_TYPE_QRD          = 0x0B,   
  DALPLATFORMINFO_TYPE_EVB          = 0x0C,   
  DALPLATFORMINFO_TYPE_HRD          = 0x0D,   
  DALPLATFORMINFO_TYPE_DTV          = 0x0E,   
  DALPLATFORMINFO_TYPE_RUMI         = 0x0F,   
  DALPLATFORMINFO_TYPE_VIRTIO       = 0x10,   
  DALPLATFORMINFO_TYPE_GOBI         = 0x11,   
  DALPLATFORMINFO_TYPE_CBH          = 0x12,   
  DALPLATFORMINFO_TYPE_BTS          = 0x13,   
  DALPLATFORMINFO_TYPE_XPM          = 0x14,   
  DALPLATFORMINFO_TYPE_RCM          = 0x15,   
  DALPLATFORMINFO_TYPE_DMA          = 0x16,   
  DALPLATFORMINFO_TYPE_SBC          = 0x18,   
  DALPLATFORMINFO_NUM_TYPES         = 0x19,  
  DALPLATFORMINFO_TYPE_32BITS       = 0x7FFFFFFF
} DalPlatformInfoPlatformType;
typedef enum
{
  DALPLATFORMINFO_KEY_UNKNOWN       = 0x00,
  DALPLATFORMINFO_KEY_DDR_FREQ      = 0x01,
  DALPLATFORMINFO_KEY_GFX_FREQ      = 0x02,
  DALPLATFORMINFO_KEY_CAMERA_FREQ   = 0x03,
  DALPLATFORMINFO_KEY_FUSION        = 0x04,
  DALPLATFORMINFO_NUM_KEYS          = 0x05,
  DALPLATFORMINFO_KEY_32BITS  = 0x7FFFFFFF
} DalPlatformInfoKeyType;
typedef struct
{
  DalPlatformInfoPlatformType     platform;    
  uint32                          version;     
  uint32                          subtype;     
  boolean                         fusion;      
} DalPlatformInfoPlatformInfoType;
typedef struct DalPlatformInfoSMemPMICType
{
  uint32         nPMICModel;        
  uint32         nPMICVersion;      
} DalPlatformInfoSMemPMICType;
typedef struct
{
  uint32                          nFormat;           
  uint32                          eChipId;           
  uint32                          nChipVersion;      
  char                            aBuildId[32];
  uint32                          nRawChipId;        
  uint32                          nRawChipVersion;   
  DalPlatformInfoPlatformType     ePlatformType;     
  uint32                          nPlatformVersion;  
  uint32                          bFusion;           
  uint32                          nPlatformSubtype;  
  DalPlatformInfoSMemPMICType     aPMICInfo[3];
} DalPlatformInfoSMemType;
typedef uint32  DALBOOL;
typedef uint32  DALDEVICEID;
typedef uint32  DalPowerCmd;
typedef uint32  DalPowerDomain;
typedef uint32  DalSysReq;
typedef uint32  DALHandle;
typedef int     DALResult;
typedef void  * DALEnvHandle;
typedef void  * DALSYSEventHandle;
typedef uint32  DALMemAddr;
typedef uint32  DALSYSMemAddr;
typedef uint32  DALInterfaceVersion;
typedef unsigned char * DALDDIParamPtr;
typedef struct DALEventObject DALEventObject;
struct DALEventObject
{
    uint32 obj[8];
};
typedef DALEventObject * DALEventHandle;
typedef struct _DALMemObject
{
   uint32        memAttributes;
   uint32        sysObjInfo[2];
   uint32        dwLen;
   uint32        ownerVirtAddr;
   uint32        virtAddr;
   uint32        physAddr;
}
DALMemObject;
typedef struct _DALDDIMemBufDesc
{
   uint32       dwOffset;
   uint32       dwLen;
   uint32       dwUser;
}
DALDDIMemBufDesc;
typedef struct _DALDDIMemDescList
{
   uint32          dwFlags;
   uint32          dwNumBufs;
   DALDDIMemBufDesc   bufList[1];  
}
DALDDIMemDescList;
typedef struct DALSysMemDescBuf DALSysMemDescBuf;
struct DALSysMemDescBuf
{
   DALSYSMemAddr VirtualAddr;
   DALSYSMemAddr PhysicalAddr;
   uint32 size;
   uint32 user;
};
typedef struct DALSysMemDescList DALSysMemDescList;
struct DALSysMemDescList
{
   uint32 dwObjInfo; uint32 hOwnerProc; DALSYSMemAddr thisVirtualAddr;
   DALSYSMemAddr PhysicalAddr;
   DALSYSMemAddr VirtualAddr;
   uint32        dwCurBufIdx;
   uint32        dwNumDescBufs;
   DALSysMemDescBuf BufInfo[1];
};
typedef struct DalDeviceInfo DalDeviceInfo;
struct DalDeviceInfo
{
   uint32 sizeOfActual;
   uint32 Version;
   char Name[32];
};
typedef struct DalDeviceStatus DalDeviceStatus;
struct DalDeviceStatus
{
   uint32 sizeOfActual;
   uint32 Status;
};
typedef struct DalDeviceHandle DalDeviceHandle;
typedef struct DalDevice DalDevice;
struct DalDevice
{
   DALResult (*Attach)(const char*,DALDEVICEID,DalDeviceHandle **);
   uint32    (*Detach)(DalDeviceHandle *);
   DALResult (*Init)(DalDeviceHandle *);
   DALResult (*DeInit)(DalDeviceHandle *);
   DALResult (*Open)(DalDeviceHandle *, uint32);
   DALResult (*Close)(DalDeviceHandle *);
   DALResult (*Info)(DalDeviceHandle *, DalDeviceInfo *, uint32);
   DALResult (*PowerEvent)(DalDeviceHandle *, DalPowerCmd, DalPowerDomain);
   DALResult (*SysRequest)(DalDeviceHandle *, DalSysReq, const void *, uint32,
                           void *,uint32, uint32*);
};
typedef struct DalInterface DalInterface;
struct DalInterface
{
   struct DalDevice DalDevice;
};
struct DalDeviceHandle
{
   uint32 dwDalHandleId;
   const DalInterface *pVtbl;
   void         *pClientCtxt;
};
typedef struct DalDeviceHandle * DALDEVICEHANDLE;
typedef struct DalRemoteHandle DalRemoteHandle;
typedef struct DalRemote DalRemote;
struct DalRemote
{
   struct DalDevice DalDevice;
   DALResult (* FCN_0) ( uint32 ddi_idx, DalDeviceHandle *h, uint32 u1 );
   DALResult (* FCN_1) ( uint32 ddi_idx, DalDeviceHandle *h, uint32 u1, uint32 u2 );
   DALResult (* FCN_2) ( uint32 ddi_idx, DalDeviceHandle *h, uint32 u1, uint32* p_u2 );
   DALResult (* FCN_3) ( uint32 ddi_idx, DalDeviceHandle *h, uint32 u1, uint32 u2, uint32 u3 );
   DALResult (* FCN_4) ( uint32 ddi_idx, DalDeviceHandle *h, uint32 u1, uint32 u2, uint32* p_u3 );
   DALResult (* FCN_5) ( uint32 ddi_idx, DalDeviceHandle *h, void * ibuf, uint32 ilen);
   DALResult (* FCN_6) ( uint32 ddi_idx, DalDeviceHandle *h, uint32 u1, void * ibuf, uint32 ilen);
   DALResult (* FCN_7) ( uint32 ddi_idx, DalDeviceHandle *h, void * ibuf, uint32 ilen, void * obuf, uint32 olen, uint32 *oalen);
   DALResult (* FCN_8) ( uint32 ddi_idx, DalDeviceHandle *h, void * ibuf, uint32 ilen, void * obuf, uint32 olen);
   DALResult (* FCN_9) ( uint32 ddi_idx, DalDeviceHandle *h, void * obuf, uint32 olen );
   DALResult (* FCN_10)( uint32 ddi_idx, DalDeviceHandle *h, uint32 u1, void * ibuf, uint32 ilen, void * obuf, uint32 olen, uint32 * oalen);
   DALResult (* FCN_11) ( uint32 ddi_idx, DalDeviceHandle *h, uint32 u1, void * obuf, uint32 olen);
   DALResult (* FCN_12) ( uint32 ddi_idx, DalDeviceHandle *h, uint32 u1, void * obuf, uint32 olen, uint32 *oalen);
   DALResult (* FCN_13) ( uint32 ddi_idx, DalDeviceHandle *h, void * ibuf, uint32 ilen, void * ibuf2, uint32 ilen2, void * obuf, uint32 olen);
   DALResult (* FCN_14) ( uint32 ddi_idx, DalDeviceHandle *h, void * ibuf, uint32 ilen, void * obuf1, uint32 olen, void * obuf2, uint32 olen2, uint32 * oalen);
   DALResult (* FCN_15) ( uint32 ddi_idx, DalDeviceHandle *h, void * ibuf, uint32 ilen, void * ibuf2, uint32 ilen2, void * obuf2, uint32 olen2, uint32 *oalen, void * obuf, uint32 olen );
};
struct DalRemoteHandle
{
   uint32 dwDalHandleId;
   const DalRemote *pVtbl;
   void      *pClientCtxt;
};
static __inline uint32
DalDevice_Detach(DalDeviceHandle *_h)
{
   (_h = (DalDeviceHandle *)(((DALHandle)_h) & ~0x00000001));
   return _h->pVtbl->DalDevice.Detach(_h);
}
static __inline DALResult
DalDevice_Init(DalDeviceHandle *_h)
{
   (_h = (DalDeviceHandle *)(((DALHandle)_h) & ~0x00000001));
   return _h->pVtbl->DalDevice.Init(_h);
}
static __inline DALResult
DalDevice_DeInit(DalDeviceHandle *_h)
{
   (_h = (DalDeviceHandle *)(((DALHandle)_h) & ~0x00000001));
   return _h->pVtbl->DalDevice.DeInit(_h);
}
static __inline DALResult
DalDevice_PowerEvent(DalDeviceHandle *_h, DalPowerCmd PowerCmd,
                     DalPowerDomain PowerDomain)
{
   (_h = (DalDeviceHandle *)(((DALHandle)_h) & ~0x00000001));
   return _h->pVtbl->DalDevice.PowerEvent(_h,PowerCmd,PowerDomain);
}
static __inline DALResult
DalDevice_Open(DalDeviceHandle *_h, uint32 mode)
{
   (_h = (DalDeviceHandle *)(((DALHandle)_h) & ~0x00000001));
   return _h->pVtbl->DalDevice.Open(_h,mode);
}
static __inline DALResult
DalDevice_Close(DalDeviceHandle *_h)
{
   (_h = (DalDeviceHandle *)(((DALHandle)_h) & ~0x00000001));
   return _h->pVtbl->DalDevice.Close(_h);
}
static __inline DALResult
DalDevice_Info(DalDeviceHandle *_h, DalDeviceInfo* info, uint32 infoSize)
{
   (_h = (DalDeviceHandle *)(((DALHandle)_h) & ~0x00000001));
   return _h->pVtbl->DalDevice.Info(_h,info,infoSize);
}
static __inline DALResult
DalDevice_SysRequest(DalDeviceHandle *_h, DalSysReq ReqIdx,
                     const unsigned char* SrcBuf, int SrcBufLen,
                     unsigned char* DestBuf, uint32 DestBufLen, uint32* DestBufLenReq)
{
   (_h = (DalDeviceHandle *)(((DALHandle)_h) & ~0x00000001));
   return _h->pVtbl->DalDevice.SysRequest(_h,ReqIdx,SrcBuf,SrcBufLen,
                                          DestBuf,DestBufLen,DestBufLenReq);
}
DALResult
DAL_DeviceAttach(DALDEVICEID DeviceId,
                 DalDeviceHandle **phDevice);
DALResult
DAL_DeviceAttachLocal(const char *pszArg,DALDEVICEID DeviceId,
                      DalDeviceHandle **phDevice);
DALResult
DAL_DeviceAttachEx(const char *pszArg, DALDEVICEID DeviceId,
               DALInterfaceVersion ClientVersion,DalDeviceHandle **phDevice);
DALResult
DAL_DeviceAttachRemote(const char *pszArg,
                   DALDEVICEID DevId,
                   DALInterfaceVersion ClientVersion,
                   DalDeviceHandle **phDALDevice);
DALResult
DAL_DeviceDetach(DalDeviceHandle *hDevice);
DALResult
DAL_StringDeviceAttachLocal(const char *pszArg, const char *pszDevName, 
                           DalDeviceHandle **phDalDevice);
DALResult
DAL_StringDeviceAttach(const char *pszDevName, DalDeviceHandle **phDalDevice);
DALResult
DAL_StringDeviceAttachEx(const char *pszArg,
      const char *pszDevName,
      DALInterfaceVersion ClientVersion,
      DalDeviceHandle **phDALDevice); 
typedef struct DALREG_DriverInfo DALREG_DriverInfo;
struct DALREG_DriverInfo
{
	DALResult (*pfnDALNewFunc)(const char * , DALDEVICEID, DalDeviceHandle**);
	uint32 dwNumDevices;
	DALDEVICEID *pDeviceId;
};
typedef struct DALREG_DriverInfoList DALREG_DriverInfoList;
struct DALREG_DriverInfoList
{
	uint32 dwLen;
	DALREG_DriverInfo ** pDriverInfo;
};
typedef void  * DALSYSObjHandle;
typedef void  * DALSYSSyncHandle;
typedef void  * DALSYSMemHandle;
typedef void  * DALSYSWorkLoopHandle;
typedef uint32 *DALSYSPropertyHandle;
typedef struct  DALSYSPropertyVar DALSYSPropertyVar;
struct DALSYSPropertyVar
{
    uint32 dwType;
    uint32 dwLen;
    union
    {
        byte *pbVal;
        char *pszVal;
        uint32 dwVal;
        uint32 *pdwVal;
        const void *pStruct;
    }Val;
};
typedef struct  StringDevice StringDevice;
 struct StringDevice{
   const char *pszName; 
   uint32 dwHash; 
   uint32 dwOffset; 
   DALREG_DriverInfo *pFunctionName; 
   uint32 dwNumCollision; 
   uint32 *pdwCollisions; 
};
typedef struct DALProps DALProps;
struct DALProps
{
   const byte *pDALPROP_PropBin;
   const void **pDALPROP_StructPtrs;
   uint32 dwDeviceSize; 
   const StringDevice * pDevices;     
};
typedef struct DALSYSBaseObj DALSYSBaseObj;
struct DALSYSBaseObj
{
   uint32 dwObjInfo;
   uint32 hOwnerProc;
   DALSYSMemAddr thisVirtualAddr;
};
typedef struct DALSYSMemObjBase DALSYSMemObjBase;
struct DALSYSMemObjBase
{
   uint32 dwObjInfo; uint32 hOwnerProc; DALSYSMemAddr thisVirtualAddr;
   uint32        dwLen;
   DALSYSMemAddr OwnerVirtualAddr;
   DALSYSMemAddr VirtualAddr;
   DALSYSMemAddr PhysicalAddr;
};
typedef struct DALSYSEventObj  DALSYSEventObj;
struct DALSYSEventObj
{
   unsigned long long _bSpace[64/sizeof(unsigned long long)];
};
typedef struct DALSYSSyncObj  DALSYSSyncObj;
struct DALSYSSyncObj
{
   unsigned long long _bSpace[40/sizeof(unsigned long long)];
};
typedef struct DALSYSMemObj  DALSYSMemObj;
struct DALSYSMemObj
{
   unsigned long long _bSpace[36/sizeof(unsigned long long)];
};
typedef struct DALSYSWorkLoopEventObj DALSYSWorkLoopEventObj;
struct DALSYSWorkLoopEventObj
{
   unsigned long long _bSpace[32/sizeof(unsigned long long)];
};
typedef struct DALSYSWorkLoopObj DALSYSWorkLoopObj;
struct DALSYSWorkLoopObj
{
   unsigned long long _bSpace[40/sizeof(unsigned long long)];
};
typedef void * DALSYSCallbackFuncCtx;
typedef void * (*DALSYSCallbackFunc)(void*,uint32,void*,uint32);
typedef struct DALSYSMemInfo DALSYSMemInfo;
struct DALSYSMemInfo
{
    DALSYSMemAddr VirtualAddr;
    DALSYSMemAddr PhysicalAddr;
    uint32        dwLen;
    uint32        dwMappedLen;
    uint32        dwProps;
};
typedef DALResult
(*DALSYSWorkLoopExecute)
(
    DALSYSEventHandle,
    void *
);
typedef void
(*DALSYS_InitSystemHandleFncPtr)
(
    DalDeviceHandle * hDalDevice
);
typedef DALResult
(*DALSYS_DestroyObjectFncPtr)
(
    DALSYSObjHandle
);
typedef DALResult
(*DALSYS_CopyObjectFncPtr)
(
    DALSYSObjHandle,
    DALSYSObjHandle *
);
typedef DALResult
(*DALSYS_RegisterWorkLoopFncPtr)
(
    uint32,
    uint32,
    DALSYSWorkLoopHandle *,
    DALSYSWorkLoopObj *
);
typedef DALResult
(*DALSYS_AddEventToWorkLoopFncPtr)
(
    DALSYSWorkLoopHandle,
    DALSYSWorkLoopExecute,
    void *,
    DALSYSEventHandle,
    DALSYSSyncHandle
);
typedef DALResult
(*DALSYS_DeleteEventFromWorkLoopFncPtr)
(
    DALSYSWorkLoopHandle,
    DALSYSEventHandle
);
typedef DALResult
(*DALSYS_EventCreateFncPtr)
(
    uint32 ,
    DALSYSEventHandle *,
    DALSYSEventObj *
);
typedef DALResult
(*DALSYS_EventCtrlFncPtr)
(
    DALSYSEventHandle,
    uint32,
   uint32,
   void *,
   uint32
);
typedef DALResult
(*DALSYS_EventWaitFncPtr)
(
    DALSYSEventHandle
);
typedef DALResult
(*DALSYS_EventMultipleWaitFncPtr)
(
    DALSYSEventHandle*,
    int,
    uint32,
    uint32 *
);
typedef DALResult
(*DALSYS_SetupCallbackEventFncPtr)
(
    DALSYSEventHandle,
    DALSYSCallbackFunc,
    DALSYSCallbackFuncCtx
);
typedef DALResult
(*DALSYS_SyncCreateFncPtr)
(
    uint32,
    DALSYSSyncHandle *,
    DALSYSSyncObj *
);
typedef void
(*DALSYS_SyncEnterFncPtr)
(
    DALSYSSyncHandle
);
typedef void
(*DALSYS_SyncLeaveFncPtr)
(
    DALSYSSyncHandle
);
typedef DALResult
(*DALSYS_MemRegionAllocFncPtr)
(
    uint32,
    DALSYSMemAddr,
    DALSYSMemAddr,
    uint32,
    DALSYSMemHandle *,
    DALSYSMemObj *
);
typedef DALResult
(*DALSYS_MemRegionMapPhysFncPtr)
(
    DALSYSMemHandle,
    uint32,
    DALSYSMemAddr,
    uint32
);
typedef DALResult
(*DALSYS_MemInfoFncPtr)
(
    DALSYSMemHandle,
    DALSYSMemInfo *
);
typedef DALResult
(*DALSYS_CacheCommandFncPtr)
(
    uint32 ,
    DALSYSMemAddr,
    uint32
);
typedef DALResult
(*DALSYS_MallocFncPtr)
(
    uint32 ,
    void **
);
typedef DALResult
(*DALSYS_FreeFncPtr)
(
    void *
);
typedef void
(*DALSYS_BusyWaitFncPtr)
(
   uint32
);
typedef DALResult
(*DALSYS_MemDescAddBufFncPtr)
(
    DALSysMemDescList *,
    uint32,
    uint32,
    uint32
);
typedef DALResult
(*DALSYS_MemDescPrepareFncPtr)
(
    DALSysMemDescList *,
    uint32
);
typedef DALResult
(*DALSYS_MemDescValidateFncPtr)
(
    DALSysMemDescList *,
    uint32
);
typedef DALResult
(*DALSYS_GetDALPropertyHandleFncPtr)
(
    DALDEVICEID,
    DALSYSPropertyHandle
);
typedef DALResult
(*DAL_DeviceAttachFncPtr)
(
    const char *pszArg,
    DALDEVICEID,
    DalDeviceHandle **
);
typedef DALResult
(*DAL_DeviceDetachFncPtr)
(
    DalDeviceHandle *
);
typedef DALResult
(*DAL_DeviceAttachExFncPtr)
(
	const char *pszArg,
    DALDEVICEID DevId,
    DALInterfaceVersion ClientVersion,
    DalDeviceHandle **phDalDevice
);
typedef DALResult
(*DALSYS_GetPropertyValueFncPtr)
(
    DALSYSPropertyHandle,
    const char *,
    uint32,
    DALSYSPropertyVar *
);
typedef void
(*DALSYS_LogEventFncPtr)
(
    DALDEVICEID,
    uint32,
    const char *
);
typedef struct DALSYSFncPtrTbl DALSYSFncPtrTbl;
struct DALSYSFncPtrTbl
{
    DALSYS_InitSystemHandleFncPtr DALSYS_InitSystemHandleFnc;
    DALSYS_DestroyObjectFncPtr DALSYS_DestroyObjectFnc;
    DALSYS_CopyObjectFncPtr DALSYS_CopyObjectFnc;
    DALSYS_RegisterWorkLoopFncPtr DALSYS_RegisterWorkLoopFnc;
    DALSYS_AddEventToWorkLoopFncPtr DALSYS_AddEventToWorkLoopFnc;
    DALSYS_DeleteEventFromWorkLoopFncPtr DALSYS_DeleteEventFromWorkLoopFnc;
    DALSYS_EventCreateFncPtr DALSYS_EventCreateFnc;
    DALSYS_EventCtrlFncPtr DALSYS_EventCtrlFnc;
    DALSYS_EventWaitFncPtr DALSYS_EventWaitFnc;
    DALSYS_EventMultipleWaitFncPtr DALSYS_EventMultipleWaitFnc;
    DALSYS_SetupCallbackEventFncPtr DALSYS_SetupCallbackEventFnc;
    DALSYS_SyncCreateFncPtr DALSYS_SyncCreateFnc;
    DALSYS_SyncEnterFncPtr DALSYS_SyncEnterFnc;
    DALSYS_SyncLeaveFncPtr DALSYS_SyncLeaveFnc;
    DALSYS_MemRegionAllocFncPtr DALSYS_MemRegionAllocFnc;
    DALSYS_MemRegionMapPhysFncPtr DALSYS_MemRegionMapPhysFnc;
    DALSYS_MemInfoFncPtr DALSYS_MemInfoFnc;
    DALSYS_CacheCommandFncPtr DALSYS_CacheCommandFnc;
    DALSYS_MallocFncPtr DALSYS_MallocFnc;
    DALSYS_FreeFncPtr DALSYS_FreeFnc;
    DALSYS_BusyWaitFncPtr DALSYS_BusyWaitFnc;
    DALSYS_MemDescAddBufFncPtr DALSYS_MemDescAddBufFnc;
    DALSYS_MemDescPrepareFncPtr DALSYS_MemDescPrepareFnc;
    DALSYS_MemDescValidateFncPtr DALSYS_MemDescValidateFnc;
    DALSYS_GetDALPropertyHandleFncPtr DALSYS_GetDALPropertyHandleFnc;
    DAL_DeviceAttachFncPtr DALSYS_DeviceAttachFnc;
	 DAL_DeviceAttachExFncPtr DALSYS_DeviceAttachExFnc;
	 DAL_DeviceAttachExFncPtr DALSYS_DeviceAttachRemoteFnc;
    DAL_DeviceDetachFncPtr DALSYS_DeviceDetachFnc;
    DALSYS_GetPropertyValueFncPtr DALSYS_GetPropertyValueFnc;
    DALSYS_LogEventFncPtr DALSYS_LogEventFnc;
};
typedef DALResult
(*DALRemote_NewFncPtr)(const char *, DALDEVICEID, DalDeviceHandle **);
typedef int
(*DALRemote_CommonInitFncPtr)(void);
typedef void
(*DALRemote_IPCInitFcnPtr)(uint32);
typedef void
(*DALRemote_InitFncPtr)(void);
typedef DALSYSEventHandle
(*DALRemote_CreateEventFncPtr)(void *pClientCtxt, DALSYSEventHandle hRemote);
typedef uint32
(*DALRemoteInterProcessCallFncPtr)(void *in_buf, void *out_buf);
typedef void
(*DALRemote_DeinitFncPtr)(void);
typedef struct DALRemoteVtbl DALRemoteVtbl;
struct DALRemoteVtbl
{
   DALRemote_NewFncPtr DALRemote_NewFnc;
   DALRemote_CommonInitFncPtr DALRemote_CommonInitFnc;
   DALRemote_InitFncPtr DALRemote_InitFnc;
   DALRemote_DeinitFncPtr DALRemote_DeinitFnc;
   DALRemote_CreateEventFncPtr DALRemote_CreateEventFnc;
   DALRemote_CreateEventFncPtr DALRemote_CreatePayloadEventFnc;
   DALRemoteInterProcessCallFncPtr DALRemoteInterProcessCallFnc;
   DALRemote_IPCInitFcnPtr DALRemote_IPCInitFcn;
};
typedef struct DALSYSConfig DALSYSConfig;
struct DALSYSConfig
{
    void *pNativeEnv;
    uint32 dwConfig;
   DALRemoteVtbl *pRemoteVtbl;
};
  typedef unsigned int size_t;
extern __declspec(__nothrow) void *memcpy(void * __restrict  ,
                    const void * __restrict  , size_t  ) __attribute__((__nonnull__(1,2)));
extern __declspec(__nothrow) void *memmove(void *  ,
                    const void *  , size_t  ) __attribute__((__nonnull__(1,2)));
extern __declspec(__nothrow) char *strcpy(char * __restrict  , const char * __restrict  ) __attribute__((__nonnull__(1,2)));
extern __declspec(__nothrow) char *strncpy(char * __restrict  , const char * __restrict  , size_t  ) __attribute__((__nonnull__(1,2)));
extern __declspec(__nothrow) char *strcat(char * __restrict  , const char * __restrict  ) __attribute__((__nonnull__(1,2)));
extern __declspec(__nothrow) char *strncat(char * __restrict  , const char * __restrict  , size_t  ) __attribute__((__nonnull__(1,2)));
extern __declspec(__nothrow) int memcmp(const void *  , const void *  , size_t  ) __attribute__((__nonnull__(1,2)));
extern __declspec(__nothrow) int strcmp(const char *  , const char *  ) __attribute__((__nonnull__(1,2)));
extern __declspec(__nothrow) int strncmp(const char *  , const char *  , size_t  ) __attribute__((__nonnull__(1,2)));
extern __declspec(__nothrow) int strcasecmp(const char *  , const char *  ) __attribute__((__nonnull__(1,2)));
extern __declspec(__nothrow) int strncasecmp(const char *  , const char *  , size_t  ) __attribute__((__nonnull__(1,2)));
extern __declspec(__nothrow) int strcoll(const char *  , const char *  ) __attribute__((__nonnull__(1,2)));
extern __declspec(__nothrow) size_t strxfrm(char * __restrict  , const char * __restrict  , size_t  ) __attribute__((__nonnull__(2)));
extern __declspec(__nothrow) void *memchr(const void *  , int  , size_t  ) __attribute__((__nonnull__(1)));
extern __declspec(__nothrow) char *strchr(const char *  , int  ) __attribute__((__nonnull__(1)));
extern __declspec(__nothrow) size_t strcspn(const char *  , const char *  ) __attribute__((__nonnull__(1,2)));
extern __declspec(__nothrow) char *strpbrk(const char *  , const char *  ) __attribute__((__nonnull__(1,2)));
extern __declspec(__nothrow) char *strrchr(const char *  , int  ) __attribute__((__nonnull__(1)));
extern __declspec(__nothrow) size_t strspn(const char *  , const char *  ) __attribute__((__nonnull__(1,2)));
extern __declspec(__nothrow) char *strstr(const char *  , const char *  ) __attribute__((__nonnull__(1,2)));
extern __declspec(__nothrow) char *strtok(char * __restrict  , const char * __restrict  ) __attribute__((__nonnull__(2)));
extern __declspec(__nothrow) char *_strtok_r(char *  , const char *  , char **  ) __attribute__((__nonnull__(2,3)));
extern __declspec(__nothrow) char *strtok_r(char *  , const char *  , char **  ) __attribute__((__nonnull__(2,3)));
extern __declspec(__nothrow) void *memset(void *  , int  , size_t  ) __attribute__((__nonnull__(1)));
extern __declspec(__nothrow) char *strerror(int  );
extern __declspec(__nothrow) size_t strlen(const char *  ) __attribute__((__nonnull__(1)));
extern __declspec(__nothrow) size_t strlcpy(char *  , const char *  , size_t  ) __attribute__((__nonnull__(1,2)));
extern __declspec(__nothrow) size_t strlcat(char *  , const char *  , size_t  ) __attribute__((__nonnull__(1,2)));
extern __declspec(__nothrow) void _membitcpybl(void *  , const void *  , int  , int  , size_t  ) __attribute__((__nonnull__(1,2)));
extern __declspec(__nothrow) void _membitcpybb(void *  , const void *  , int  , int  , size_t  ) __attribute__((__nonnull__(1,2)));
extern __declspec(__nothrow) void _membitcpyhl(void *  , const void *  , int  , int  , size_t  ) __attribute__((__nonnull__(1,2)));
extern __declspec(__nothrow) void _membitcpyhb(void *  , const void *  , int  , int  , size_t  ) __attribute__((__nonnull__(1,2)));
extern __declspec(__nothrow) void _membitcpywl(void *  , const void *  , int  , int  , size_t  ) __attribute__((__nonnull__(1,2)));
extern __declspec(__nothrow) void _membitcpywb(void *  , const void *  , int  , int  , size_t  ) __attribute__((__nonnull__(1,2)));
extern __declspec(__nothrow) void _membitmovebl(void *  , const void *  , int  , int  , size_t  ) __attribute__((__nonnull__(1,2)));
extern __declspec(__nothrow) void _membitmovebb(void *  , const void *  , int  , int  , size_t  ) __attribute__((__nonnull__(1,2)));
extern __declspec(__nothrow) void _membitmovehl(void *  , const void *  , int  , int  , size_t  ) __attribute__((__nonnull__(1,2)));
extern __declspec(__nothrow) void _membitmovehb(void *  , const void *  , int  , int  , size_t  ) __attribute__((__nonnull__(1,2)));
extern __declspec(__nothrow) void _membitmovewl(void *  , const void *  , int  , int  , size_t  ) __attribute__((__nonnull__(1,2)));
extern __declspec(__nothrow) void _membitmovewb(void *  , const void *  , int  , int  , size_t  ) __attribute__((__nonnull__(1,2)));
void
DALSYS_InitMod(DALSYSConfig * pCfg);
void
DALSYS_DeInitMod(void);
void
DALSYS_InitSystemHandle(DalDeviceHandle *hDalDevice);
DALSYS_LogEventFncPtr
DALSYS_SetLogCfg(uint32 dwMaxLogLevel, DALSYS_LogEventFncPtr DALSysLogFcn);
DALResult
DALSYS_DestroyObject(DALSYSObjHandle hObj);
DALResult
DALSYS_CopyObject(DALSYSObjHandle hObjOrig, DALSYSObjHandle *phObjCopy );
DALResult
DALSYS_RegisterWorkLoop(uint32 dwPriority,
                  uint32 dwMaxNumEvents,
                  DALSYSWorkLoopHandle *phWorkLoop,
                  DALSYSWorkLoopObj *pWorkLoopObj);
DALResult
DALSYS_AddEventToWorkLoop(DALSYSWorkLoopHandle hWorkLoop,
                    DALSYSWorkLoopExecute pfnWorkLoopExecute,
                    void * pArg,
                    DALSYSEventHandle hEvent,
                    DALSYSSyncHandle hSync);
DALResult
DALSYS_DeleteEventFromWorkLoop(DALSYSWorkLoopHandle hWorkLoop,
                         DALSYSEventHandle hEvent);
DALResult
DALSYS_EventCreate(uint32 dwAttribs, DALSYSEventHandle *phEvent,
               DALSYSEventObj *pEventObj);
DALResult
DALSYS_EventCopy(DALSYSEventHandle hEvent,
             DALSYSEventHandle *phEventCopy,DALSYSEventObj *pEventObjCopy,
                 uint32 dwMarshalFlags);
DALResult
DALSYS_EventCtrlEx(DALSYSEventHandle hEvent, uint32 dwCtrl, uint32 dwParam,
                   void *pPayload, uint32 dwPayloadSize);
DALResult
DALSYS_EventWait(DALSYSEventHandle hEvent);
DALResult
DALSYS_EventMultipleWait(DALSYSEventHandle* phEvent, int nEvents,
                         uint32 dwTimeoutUs,uint32 *pdwEventIdx);
DALResult
DALSYS_SetupCallbackEvent(DALSYSEventHandle hEvent, DALSYSCallbackFunc cbFunc,
                          DALSYSCallbackFuncCtx cbFuncCtx);
DALResult
DALSYS_SyncCreate(uint32 dwAttribs,
                  DALSYSSyncHandle *phSync,
                  DALSYSSyncObj *pSyncObj);
void
DALSYS_SyncEnter(DALSYSSyncHandle hSync);
void
DALSYS_SyncLeave(DALSYSSyncHandle hSync);
DALResult
DALSYS_MemRegionAlloc(uint32 dwAttribs, DALSYSMemAddr VirtualAddr,
                      DALSYSMemAddr PhysicalAddr, uint32 dwLen, DALSYSMemHandle *phMem,
                  DALSYSMemObj *pMemObj);
DALResult
DALSYS_MemRegionMapPhys(DALSYSMemHandle hMem, uint32 dwVirtualBaseOffset,
                        DALSYSMemAddr PhysicalAddr, uint32 dwLen);
DALResult
DALSYS_MemInfo(DALSYSMemHandle hMem, DALSYSMemInfo *pMemInfo);
DALResult
DALSYS_CacheCommand(uint32 CacheCmd, DALSYSMemAddr VirtualAddr, uint32 dwLen);
DALResult
DALSYS_Malloc(uint32 dwSize, void **ppMem);
DALResult
DALSYS_Free(void *pmem);
void
DALSYS_BusyWait(uint32 pause_time_us);
DALResult
DALSYS_GetDALPropertyHandle(DALDEVICEID DeviceId,DALSYSPropertyHandle hDALProps);
DALResult
DALSYS_GetDALPropertyHandleStr(const char *pszDevName, DALSYSPropertyHandle hDALProps);
DALResult
DALSYS_GetPropertyValue(DALSYSPropertyHandle hDALProps, const char *pszName,
                  uint32 dwId,
                   DALSYSPropertyVar *pDALPropVar);
void
DALSYS_LogEvent(DALDEVICEID DeviceId, uint32 dwLogEventType, const char * pszFmt,
                ...);
DALRemoteVtbl *
DALSYS_GetRemoteInterfaceVtbl(void);
uint32 DALSYS_SetThreadPriority(uint32 priority);
uint32 _DALSYS_memscpy(void * pDest, uint32 iDestSz, 
      const void * pSrc, uint32 iSrcSize);
typedef uint32 DalChipInfoVersionType;
typedef uint32 DalChipInfoModemType;
typedef enum
{
  DALCHIPINFO_ID_UNKNOWN    = 0,
  DALCHIPINFO_ID_MDM1000    = 1,
  DALCHIPINFO_ID_ESM6235    = 2,
  DALCHIPINFO_ID_QSC6240    = 3,
  DALCHIPINFO_ID_MSM6245    = 4,
  DALCHIPINFO_ID_MSM6255    = 5,
  DALCHIPINFO_ID_MSM6255A   = 6,
  DALCHIPINFO_ID_MSM6260    = 7,
  DALCHIPINFO_ID_MSM6246    = 8,
  DALCHIPINFO_ID_QSC6270    = 9,
  DALCHIPINFO_ID_MSM6280    = 10,
  DALCHIPINFO_ID_MSM6290    = 11,
  DALCHIPINFO_ID_MSM7200    = 12,
  DALCHIPINFO_ID_MSM7201    = 13,
  DALCHIPINFO_ID_ESM7205    = 14,
  DALCHIPINFO_ID_ESM7206    = 15,
  DALCHIPINFO_ID_MSM7200A   = 16,
  DALCHIPINFO_ID_MSM7201A   = 17,
  DALCHIPINFO_ID_ESM7205A   = 18,
  DALCHIPINFO_ID_ESM7206A   = 19,
  DALCHIPINFO_ID_ESM7225    = 20,
  DALCHIPINFO_ID_MSM7225    = 21,
  DALCHIPINFO_ID_MSM7500    = 22,
  DALCHIPINFO_ID_MSM7500A   = 23,
  DALCHIPINFO_ID_MSM7525    = 24,
  DALCHIPINFO_ID_MSM7600    = 25,
  DALCHIPINFO_ID_MSM7601    = 26,
  DALCHIPINFO_ID_MSM7625    = 27,
  DALCHIPINFO_ID_MSM7800    = 28,
  DALCHIPINFO_ID_MDM8200    = 29,
  DALCHIPINFO_ID_QSD8650    = 30,
  DALCHIPINFO_ID_MDM8900    = 31,
  DALCHIPINFO_ID_QST1000    = 32,
  DALCHIPINFO_ID_QST1005    = 33,
  DALCHIPINFO_ID_QST1100    = 34,
  DALCHIPINFO_ID_QST1105    = 35,
  DALCHIPINFO_ID_QST1500    = 40,
  DALCHIPINFO_ID_QST1600    = 41,
  DALCHIPINFO_ID_QST1700    = 42,
  DALCHIPINFO_ID_QSD8250    = 36,
  DALCHIPINFO_ID_QSD8550    = 37,
  DALCHIPINFO_ID_QSD8850    = 38,
  DALCHIPINFO_ID_MDM2000    = 39,
  DALCHIPINFO_ID_MSM7227    = 43,
  DALCHIPINFO_ID_MSM7627    = 44,
  DALCHIPINFO_ID_QSC6165    = 45,
  DALCHIPINFO_ID_QSC6175    = 46,
  DALCHIPINFO_ID_QSC6185    = 47,
  DALCHIPINFO_ID_QSC6195    = 48,
  DALCHIPINFO_ID_QSC6285    = 49,
  DALCHIPINFO_ID_QSC6295    = 50,
  DALCHIPINFO_ID_QSC6695    = 51,
  DALCHIPINFO_ID_ESM6246    = 52,
  DALCHIPINFO_ID_ESM6290    = 53,
  DALCHIPINFO_ID_ESC6270    = 54,
  DALCHIPINFO_ID_ESC6240    = 55,
  DALCHIPINFO_ID_MDM8220    = 56,
  DALCHIPINFO_ID_MDM9200    = 57,
  DALCHIPINFO_ID_MDM9600    = 58,
  DALCHIPINFO_ID_MSM7630    = 59,
  DALCHIPINFO_ID_MSM7230    = 60,
  DALCHIPINFO_ID_ESM7227    = 61,
  DALCHIPINFO_ID_MSM7625D1  = 62,
  DALCHIPINFO_ID_MSM7225D1  = 63,
  DALCHIPINFO_ID_QSD8250A   = 64,
  DALCHIPINFO_ID_QSD8650A   = 65,
  DALCHIPINFO_ID_MSM7625D2  = 66,
  DALCHIPINFO_ID_MSM7227D1  = 67,
  DALCHIPINFO_ID_MSM7627D1  = 68,
  DALCHIPINFO_ID_MSM7627D2  = 69,
  DALCHIPINFO_ID_MSM8260    = 70,
  DALCHIPINFO_ID_MSM8660    = 71,
  DALCHIPINFO_ID_MDM8200A   = 72,
  DALCHIPINFO_ID_QSC6155    = 73,
  DALCHIPINFO_ID_MSM8255    = 74,
  DALCHIPINFO_ID_MSM8655    = 75,
  DALCHIPINFO_ID_ESC6295    = 76,
  DALCHIPINFO_ID_MDM3000    = 77,
  DALCHIPINFO_ID_MDM6200    = 78,
  DALCHIPINFO_ID_MDM6600    = 79,
  DALCHIPINFO_ID_MDM6210    = 80,
  DALCHIPINFO_ID_MDM6610    = 81,
  DALCHIPINFO_ID_QSD8672    = 82,
  DALCHIPINFO_ID_MDM6215    = 83,
  DALCHIPINFO_ID_MDM6615    = 84,
  DALCHIPINFO_ID_APQ8055    = 85,
  DALCHIPINFO_ID_APQ8060    = 86,
  DALCHIPINFO_ID_MSM8960    = 87,
  DALCHIPINFO_ID_MSM7225A   = 88,
  DALCHIPINFO_ID_MSM7625A   = 89,
  DALCHIPINFO_ID_MSM7227A   = 90,
  DALCHIPINFO_ID_MSM7627A   = 91,
  DALCHIPINFO_ID_ESM7227A   = 92,
  DALCHIPINFO_ID_QSC6195D2  = 93,
  DALCHIPINFO_ID_FSM9200    = 94,
  DALCHIPINFO_ID_FSM9800    = 95,
  DALCHIPINFO_ID_MSM7225AD1 = 96,
  DALCHIPINFO_ID_MSM7227AD1 = 97,
  DALCHIPINFO_ID_MSM7225AA   = 98,
  DALCHIPINFO_ID_MSM7225AAD1 = 99,
  DALCHIPINFO_ID_MSM7625AA   = 100,
  DALCHIPINFO_ID_MSM7227AA   = 101,
  DALCHIPINFO_ID_MSM7227AAD1 = 102,
  DALCHIPINFO_ID_MSM7627AA   = 103,
  DALCHIPINFO_ID_MDM9615     = 104,
  DALCHIPINFO_ID_MDM9615M    = DALCHIPINFO_ID_MDM9615,
  DALCHIPINFO_ID_MDM8215     = 106,
  DALCHIPINFO_ID_MDM9215     = 107,  
  DALCHIPINFO_ID_MDM9215M    = DALCHIPINFO_ID_MDM9215,
  DALCHIPINFO_ID_APQ8064     = 109,
  DALCHIPINFO_ID_QSC6270D1   = 110,
  DALCHIPINFO_ID_QSC6240D1   = 111,
  DALCHIPINFO_ID_ESC6270D1   = 112,
  DALCHIPINFO_ID_ESC6240D1   = 113,
  DALCHIPINFO_ID_MDM6270     = 114,
  DALCHIPINFO_ID_MDM6270D1   = 115,
  DALCHIPINFO_ID_MSM8930     = 116,
  DALCHIPINFO_ID_MSM8630     = 117,  
  DALCHIPINFO_ID_MSM8230     = 118,
  DALCHIPINFO_ID_APQ8030     = 119, 
  DALCHIPINFO_ID_MSM8627     = 120, 
  DALCHIPINFO_ID_MSM8227     = 121, 
  DALCHIPINFO_ID_MSM8660A    = 122, 
  DALCHIPINFO_ID_MSM8260A    = 123,
  DALCHIPINFO_ID_APQ8060A    = 124,
  DALCHIPINFO_ID_MPQ8062     = 125,
  DALCHIPINFO_ID_MSM8974     = 126,
  DALCHIPINFO_ID_MSM8225     = 127,
  DALCHIPINFO_ID_MSM8225D1   = 128,
  DALCHIPINFO_ID_MSM8625     = 129,
  DALCHIPINFO_ID_MPQ8064     = 130,
  DALCHIPINFO_ID_MSM7225AB   = 131,
  DALCHIPINFO_ID_MSM7225ABD1 = 132,
  DALCHIPINFO_ID_MSM7625AB   = 133,
  DALCHIPINFO_ID_MDM9625     = 134,
  DALCHIPINFO_ID_MSM7125A    = 135,
  DALCHIPINFO_ID_MSM7127A    = 136,
  DALCHIPINFO_ID_MSM8125AB   = 137,
  DALCHIPINFO_ID_MSM8960AB   = 138,
  DALCHIPINFO_ID_APQ8060AB   = 139,
  DALCHIPINFO_ID_MSM8260AB   = 140,
  DALCHIPINFO_ID_MSM8660AB   = 141,
  DALCHIPINFO_ID_MSM8930AA   = 142,
  DALCHIPINFO_ID_MSM8630AA   = 143,
  DALCHIPINFO_ID_MSM8230AA   = 144,
  DALCHIPINFO_ID_MSM8626     = 145,
  DALCHIPINFO_ID_MPQ8092     = 146,
  DALCHIPINFO_ID_MSM8610     = 147,
  DALCHIPINFO_ID_MDM8225     = 148,
  DALCHIPINFO_ID_MDM9225     = 149,
  DALCHIPINFO_ID_MDM9225M    = 150,
  DALCHIPINFO_ID_MDM8225M    = 151,
  DALCHIPINFO_ID_MDM9625M    = 152,
  DALCHIPINFO_ID_APQ8064_V2PRIME   = 153,
  DALCHIPINFO_ID_MSM8930AB   = 154,
  DALCHIPINFO_ID_MSM8630AB   = 155,
  DALCHIPINFO_ID_MSM8230AB   = 156,
  DALCHIPINFO_ID_APQ8030AB   = 157,
  DALCHIPINFO_ID_MSM8226     = 158,
  DALCHIPINFO_ID_MSM8526     = 159,
  DALCHIPINFO_ID_APQ8030AA   = 160,
  DALCHIPINFO_ID_MSM8110     = 161,  
  DALCHIPINFO_ID_MSM8210     = 162,  
  DALCHIPINFO_ID_MSM8810     = 163,  
  DALCHIPINFO_ID_MSM8212     = 164,  
  DALCHIPINFO_ID_MSM8612     = 165,  
  DALCHIPINFO_ID_MSM8112     = 166,
  DALCHIPINFO_ID_MSM8125     = 167,
  DALCHIPINFO_ID_MSM8225Q    = 168,
  DALCHIPINFO_ID_MSM8625Q    = 169,
  DALCHIPINFO_ID_MSM8125Q    = 170,
  DALCHIPINFO_ID_MDM9310     = 171,
  DALCHIPINFO_ID_APQ8064_SLOW_PRIME = 172,
  DALCHIPINFO_ID_MDM8110M    = 173,
  DALCHIPINFO_ID_MDM8615M    = 174,
  DALCHIPINFO_ID_MDM9320     = 175,  
  DALCHIPINFO_ID_MDM9225_1   = 176,  
  DALCHIPINFO_ID_MDM9225M_1  = 177,
  DALCHIPINFO_ID_APQ8084     = 178,
  DALCHIPINFO_ID_MSM8130     = 179,
  DALCHIPINFO_ID_MSM8130AA   = 180,
  DALCHIPINFO_ID_MSM8130AB   = 181,
  DALCHIPINFO_ID_MSM8627AA   = 182,
  DALCHIPINFO_ID_MSM8227AA   = 183,
  DALCHIPINFO_ID_APQ8074     = 184,
  DALCHIPINFO_ID_MSM8274     = 185,
  DALCHIPINFO_ID_MSM8674     = 186,
  DALCHIPINFO_ID_MDM9635     = 187,
  DALCHIPINFO_ID_FSM9900     = 188,
  DALCHIPINFO_ID_FSM9965     = 189,
  DALCHIPINFO_ID_FSM9955     = 190,
  DALCHIPINFO_ID_FSM9950     = 191,
  DALCHIPINFO_ID_FSM9915     = 192,
  DALCHIPINFO_ID_FSM9910     = 193,
  DALCHIPINFO_ID_MSM8974_PRO = 194,
  DALCHIPINFO_ID_MSM8962     = 195,
  DALCHIPINFO_ID_MSM8262     = 196,
  DALCHIPINFO_ID_APQ8062     = 197,
  DALCHIPINFO_ID_MSM8126     = 198,
  DALCHIPINFO_ID_APQ8026     = 199,
  DALCHIPINFO_ID_MSM8926     = 200,
  DALCHIPINFO_ID_MSM8326     = 205,
  DALCHIPINFO_ID_MSM8916     = 206,
  DALCHIPINFO_ID_MSM8994     = 207,
  DALCHIPINFO_ID_APQ8074_AA  = 208,
  DALCHIPINFO_ID_APQ8074_AB  = 209,
  DALCHIPINFO_ID_APQ8074_PRO = 210,
  DALCHIPINFO_ID_MSM8274_AA  = 211,
  DALCHIPINFO_ID_MSM8274_AB  = 212,
  DALCHIPINFO_ID_MSM8274_PRO = 213,
  DALCHIPINFO_ID_MSM8674_AA  = 214,
  DALCHIPINFO_ID_MSM8674_AB  = 215,
  DALCHIPINFO_ID_MSM8674_PRO = 216,
  DALCHIPINFO_ID_MSM8974_AA  = 217,
  DALCHIPINFO_ID_MSM8974_AB  = 218,
  DALCHIPINFO_ID_APQ8028     = 219,
  DALCHIPINFO_ID_MSM8128     = 220,
  DALCHIPINFO_ID_MSM8228     = 221,
  DALCHIPINFO_ID_MSM8528     = 222,
  DALCHIPINFO_ID_MSM8628     = 223,
  DALCHIPINFO_ID_MSM8928     = 224,
  DALCHIPINFO_ID_MSM8510     = 225,
  DALCHIPINFO_ID_MSM8512     = 226,
  DALCHIPINFO_ID_MDM9630     = 227,
  DALCHIPINFO_ID_MDM9635M    = DALCHIPINFO_ID_MDM9635,
  DALCHIPINFO_ID_MDM9230     = 228,
  DALCHIPINFO_ID_MDM9235M    = 229,
  DALCHIPINFO_ID_MDM8630     = 230,
  DALCHIPINFO_ID_MDM9330     = 231,
  DALCHIPINFO_ID_MPQ8091     = 232,
  DALCHIPINFO_ID_MSM8936     = 233,
  DALCHIPINFO_ID_MDM9240     = 234,
  DALCHIPINFO_ID_MDM9340     = 235,
  DALCHIPINFO_ID_MDM9640     = 236,
  DALCHIPINFO_ID_MDM9245M    = 237,
  DALCHIPINFO_ID_MDM9645M    = 238,
  DALCHIPINFO_ID_MSM8939     = 239,
  DALCHIPINFO_ID_APQ8036     = 240,
  DALCHIPINFO_ID_APQ8039     = 241,
  DALCHIPINFO_ID_MSM8236     = 242,
  DALCHIPINFO_ID_MSM8636     = 243,
  DALCHIPINFO_ID_APQ8064_AU  = 244,
  DALCHIPINFO_ID_MSM8909     = 245,
  DALCHIPINFO_ID_MSM8996     = 246,
  DALCHIPINFO_ID_APQ8016     = 247,
  DALCHIPINFO_ID_MSM8216     = 248,
  DALCHIPINFO_ID_MSM8116     = 249,
  DALCHIPINFO_ID_MSM8616     = 250,
  DALCHIPINFO_ID_MSM8992     = 251,
  DALCHIPINFO_ID_APQ8092     = 252,
  DALCHIPINFO_ID_APQ8094     = 253,
  DALCHIPINFO_ID_FSM9008     = 254,
  DALCHIPINFO_ID_FSM9010     = 255,
  DALCHIPINFO_ID_FSM9016     = 256,
  DALCHIPINFO_ID_FSM9055     = 257,
  DALCHIPINFO_ID_MSM8209     = 258,
  DALCHIPINFO_ID_MSM8208     = 259,
  DALCHIPINFO_ID_MDM9209     = 260,
  DALCHIPINFO_ID_MDM9309     = 261,
  DALCHIPINFO_ID_MDM9609     = 262,
  DALCHIPINFO_ID_MSM8239     = 263,
  DALCHIPINFO_ID_MSM8952	 = 264,
  DALCHIPINFO_ID_APQ8009	 = 265,
  DALCHIPINFO_ID_MSM8956	 = 266,
  DALCHIPINFO_ID_QDF2432	 = 267,
  DALCHIPINFO_ID_MSM8929     = 268,
  DALCHIPINFO_ID_MSM8629     = 269,
  DALCHIPINFO_ID_MSM8229     = 270,
  DALCHIPINFO_ID_APQ8029     = 271,
  DALCHIPINFO_ID_QCA9618     = 272,
  DALCHIPINFO_ID_QCA9619     = 273,
  DALCHIPINFO_ID_APQ8056     = 274,
  DALCHIPINFO_ID_MSM8609     = 275,
  DALCHIPINFO_ID_FSM9916     = 276,
  DALCHIPINFO_ID_APQ8076     = 277,
  DALCHIPINFO_ID_MSM8976     = 278,
  DALCHIPINFO_ID_MDM9650     = 279,
  DALCHIPINFO_ID_IPQ8065     = 280,
  DALCHIPINFO_ID_IPQ8069     = 281,
  DALCHIPINFO_ID_MSM8939_BC  = 282,
  DALCHIPINFO_NUM_IDS        = 283,
  DALCHIPINFO_ID_32BITS     = 0x7FFFFFF
} DalChipInfoIdType;
typedef enum
{
  DALCHIPINFO_FAMILY_UNKNOWN    = 0,
  DALCHIPINFO_FAMILY_MSM6246    = 1,
  DALCHIPINFO_FAMILY_MSM6260    = 2,
  DALCHIPINFO_FAMILY_QSC6270    = 3,
  DALCHIPINFO_FAMILY_MSM6280    = 4,
  DALCHIPINFO_FAMILY_MSM6290    = 5,
  DALCHIPINFO_FAMILY_MSM7200    = 6,
  DALCHIPINFO_FAMILY_MSM7500    = 7,
  DALCHIPINFO_FAMILY_MSM7600    = 8,
  DALCHIPINFO_FAMILY_MSM7625    = 9,
  DALCHIPINFO_FAMILY_MSM7X30    = 10,
  DALCHIPINFO_FAMILY_MSM7800    = 11,
  DALCHIPINFO_FAMILY_MDM8200    = 12,
  DALCHIPINFO_FAMILY_QSD8650    = 13,
  DALCHIPINFO_FAMILY_MSM7627    = 14,
  DALCHIPINFO_FAMILY_QSC6695    = 15,
  DALCHIPINFO_FAMILY_MDM9X00    = 16,
  DALCHIPINFO_FAMILY_QSD8650A   = 17,
  DALCHIPINFO_FAMILY_MSM8X60    = 18,
  DALCHIPINFO_FAMILY_MDM8200A   = 19,
  DALCHIPINFO_FAMILY_QSD8672    = 20,
  DALCHIPINFO_FAMILY_MDM6615    = 21,
  DALCHIPINFO_FAMILY_MSM8660    = DALCHIPINFO_FAMILY_MSM8X60,
  DALCHIPINFO_FAMILY_MSM8960    = 22,
  DALCHIPINFO_FAMILY_MSM7625A   = 23,
  DALCHIPINFO_FAMILY_MSM7627A   = 24,
  DALCHIPINFO_FAMILY_MDM9X15    = 25,
  DALCHIPINFO_FAMILY_MSM8930    = 26,
  DALCHIPINFO_FAMILY_MSM8630    = DALCHIPINFO_FAMILY_MSM8930,
  DALCHIPINFO_FAMILY_MSM8230    = DALCHIPINFO_FAMILY_MSM8930,
  DALCHIPINFO_FAMILY_APQ8030    = DALCHIPINFO_FAMILY_MSM8930,
  DALCHIPINFO_FAMILY_MSM8627    = 30,
  DALCHIPINFO_FAMILY_MSM8227    = DALCHIPINFO_FAMILY_MSM8627,
  DALCHIPINFO_FAMILY_MSM8974    = 32,
  DALCHIPINFO_FAMILY_MSM8625    = 33,
  DALCHIPINFO_FAMILY_MSM8225    = DALCHIPINFO_FAMILY_MSM8625,
  DALCHIPINFO_FAMILY_APQ8064    = 34,
  DALCHIPINFO_FAMILY_MDM9x25	= 35,
  DALCHIPINFO_FAMILY_MSM8960AB  = 36,
  DALCHIPINFO_FAMILY_MSM8930AB  = 37,
  DALCHIPINFO_FAMILY_MSM8x10	= 38,
  DALCHIPINFO_FAMILY_MPQ8092    = 39,
  DALCHIPINFO_FAMILY_MSM8x26    = 40,
  DALCHIPINFO_FAMILY_MSM8225Q	= 41,
  DALCHIPINFO_FAMILY_MSM8625Q	= 42,
  DALCHIPINFO_FAMILY_APQ8x94    = 43,
  DALCHIPINFO_FAMILY_APQ8084    = DALCHIPINFO_FAMILY_APQ8x94,
  DALCHIPINFO_FAMILY_MSM8x32    = 44,
  DALCHIPINFO_FAMILY_MDM9x35	= 45,
  DALCHIPINFO_FAMILY_MSM8974_PRO= 46,
  DALCHIPINFO_FAMILY_FSM9900	= 47,
  DALCHIPINFO_FAMILY_MSM8x62	= 48,
  DALCHIPINFO_FAMILY_MSM8926	= 49,
  DALCHIPINFO_FAMILY_MSM8994	= 50,
  DALCHIPINFO_FAMILY_IPQ8064	= 51,
  DALCHIPINFO_FAMILY_MSM8916	= 52,
  DALCHIPINFO_FAMILY_MSM8936	= 53,
  DALCHIPINFO_FAMILY_MDM9x45	= 54,
  DALCHIPINFO_FAMILY_APQ8096	= 55,
  DALCHIPINFO_FAMILY_MSM8996	= 56,
  DALCHIPINFO_FAMILY_MSM8992	= 57,
  DALCHIPINFO_FAMILY_MSM8909	= 58,
  DALCHIPINFO_FAMILY_FSM90xx	= 59,
  DALCHIPINFO_FAMILY_MSM8952	= 60,
  DALCHIPINFO_FAMILY_QDF2432	= 61,
  DALCHIPINFO_FAMILY_MSM8929    = 62,
  DALCHIPINFO_NUM_FAMILIES      = 63,
  DALCHIPINFO_FAMILY_32BITS     = 0x7FFFFFF
} DalChipInfoFamilyType;
typedef enum
{
  DALCHIPINFO_FOUNDRYID_UNKNOWN    = 0,
  DALCHIPINFO_FOUNDRYID_TSMC       = 1,
  DALCHIPINFO_FOUNDRYID_GF         = 2,
  DALCHIPINFO_FOUNDRYID_SS         = 3,
  DALCHIPINFO_FOUNDRYID_IBM        = 4,
  DALCHIPINFO_FOUNDRYID_UMC        = 5,
  DALCHIPINFO_NUM_FOUNDRYIDS       = 6,
  DALCHIPINFO_FOUNDRYID_32BITS     = 0x7FFFFFF
} DalChipInfoFoundryIdType;
typedef struct DalChipInfo DalChipInfo;
struct DalChipInfo
{
   DalDevice DalChipInfoDevice;
   DALResult (*GetChipVersion)(DalDeviceHandle * _h,  uint32  nNotUsed,  DalChipInfoVersionType * pnVersion);
   DALResult (*GetRawChipVersion)(DalDeviceHandle * _h,  uint32  nNotUsed,  uint32 * pnVersion);
   DALResult (*GetChipId)(DalDeviceHandle * _h,  uint32  nNotUsed,  DalChipInfoIdType * peId);
   DALResult (*GetRawChipId)(DalDeviceHandle * _h,  uint32  nNotUsed,  uint32 * pnId);
   DALResult (*GetChipIdString)(DalDeviceHandle * _h,  char * szIdString,  uint32  nMaxLength);
   DALResult (*GetChipFamily)(DalDeviceHandle * _h,  uint32  nNotUsed,  DalChipInfoFamilyType * peFamily);
   DALResult (*GetModemSupport)(DalDeviceHandle * _h,  uint32  nNotUsed,  DalChipInfoModemType * pnModem);
   DALResult (*GetFoundryId)(DalDeviceHandle * _h,  uint32  nNotUsed, DalChipInfoFoundryIdType * peFoundryId);
};
typedef struct DalChipInfoHandle DalChipInfoHandle; 
struct DalChipInfoHandle 
{
   uint32 dwDalHandleId;
   const DalChipInfo * pVtbl;
   void * pClientCtxt;
};
static __inline DALResult
DalChipInfo_GetChipVersion(DalDeviceHandle * _h,  DalChipInfoVersionType * pnVersion)
{
   if((((DALHandle)_h) & 0x00000001))
   {
      DalRemoteHandle *hRemote = (DalRemoteHandle *)(_h = (DalDeviceHandle *)(((DALHandle)_h) & ~0x00000001));
      return hRemote->pVtbl->FCN_2(((uint32 *)&((((DalChipInfoHandle *)_h)->pVtbl)->GetChipVersion)-(uint32 *)(((DalChipInfoHandle *)_h)->pVtbl)), _h, (uint32 )0, (uint32 *)pnVersion);
   }
   return ((DalChipInfoHandle *)_h)->pVtbl->GetChipVersion( _h, 0, pnVersion);
}
static __inline DALResult
DalChipInfo_GetRawChipVersion(DalDeviceHandle * _h,  uint32 * pnVersion)
{
   if((((DALHandle)_h) & 0x00000001))
   {
      DalRemoteHandle *hRemote = (DalRemoteHandle *)(_h = (DalDeviceHandle *)(((DALHandle)_h) & ~0x00000001));
      return hRemote->pVtbl->FCN_2(((uint32 *)&((((DalChipInfoHandle *)_h)->pVtbl)->GetRawChipVersion)-(uint32 *)(((DalChipInfoHandle *)_h)->pVtbl)), _h, (uint32 )0, (uint32 *)pnVersion);
   }
   return ((DalChipInfoHandle *)_h)->pVtbl->GetRawChipVersion( _h, 0, pnVersion);
}
static __inline DALResult
DalChipInfo_GetChipId(DalDeviceHandle * _h,  DalChipInfoIdType * peId)
{
   if((((DALHandle)_h) & 0x00000001))
{
      DalRemoteHandle *hRemote = (DalRemoteHandle *)(_h = (DalDeviceHandle *)(((DALHandle)_h) & ~0x00000001));
      return hRemote->pVtbl->FCN_2(((uint32 *)&((((DalChipInfoHandle *)_h)->pVtbl)->GetChipId)-(uint32 *)(((DalChipInfoHandle *)_h)->pVtbl)), _h, (uint32 )0, (uint32 *)peId);
   }
   return ((DalChipInfoHandle *)_h)->pVtbl->GetChipId( _h, 0, peId);
}
static __inline DALResult
DalChipInfo_GetRawChipId(DalDeviceHandle * _h,  uint32 * pnId)
{
   if((((DALHandle)_h) & 0x00000001))
{
      DalRemoteHandle *hRemote = (DalRemoteHandle *)(_h = (DalDeviceHandle *)(((DALHandle)_h) & ~0x00000001));
      return hRemote->pVtbl->FCN_2(((uint32 *)&((((DalChipInfoHandle *)_h)->pVtbl)->GetRawChipId)-(uint32 *)(((DalChipInfoHandle *)_h)->pVtbl)), _h, (uint32 )0, (uint32 *)pnId);
   }
   return ((DalChipInfoHandle *)_h)->pVtbl->GetRawChipId( _h, 0, pnId);
}
static __inline DALResult
DalChipInfo_GetChipIdString(DalDeviceHandle * _h,  void * szIdString,  uint32  nMaxLength)
{
   if((((DALHandle)_h) & 0x00000001))
   {
      DalRemoteHandle *hRemote = (DalRemoteHandle *)(_h = (DalDeviceHandle *)(((DALHandle)_h) & ~0x00000001));
      return hRemote->pVtbl->FCN_9(((uint32 *)&((((DalChipInfoHandle *)_h)->pVtbl)->GetChipIdString)-(uint32 *)(((DalChipInfoHandle *)_h)->pVtbl)), _h, (void * )szIdString, nMaxLength);
   }
   return ((DalChipInfoHandle *)_h)->pVtbl->GetChipIdString( _h, szIdString, nMaxLength);
}
static __inline DALResult
DalChipInfo_GetChipFamily(DalDeviceHandle * _h,  DalChipInfoFamilyType * peFamily)
{
   if((((DALHandle)_h) & 0x00000001))
{
      DalRemoteHandle *hRemote = (DalRemoteHandle *)(_h = (DalDeviceHandle *)(((DALHandle)_h) & ~0x00000001));
      return hRemote->pVtbl->FCN_2(((uint32 *)&((((DalChipInfoHandle *)_h)->pVtbl)->GetChipFamily)-(uint32 *)(((DalChipInfoHandle *)_h)->pVtbl)), _h, (uint32 )0, (uint32 *)peFamily);
   }
   return ((DalChipInfoHandle *)_h)->pVtbl->GetChipFamily( _h, 0, peFamily);
}
static __inline DALResult
DalChipInfo_GetModemSupport(DalDeviceHandle * _h,  DalChipInfoModemType * pnModem)
{
   if((((DALHandle)_h) & 0x00000001))
{
      DalRemoteHandle *hRemote = (DalRemoteHandle *)(_h = (DalDeviceHandle *)(((DALHandle)_h) & ~0x00000001));
      return hRemote->pVtbl->FCN_2(((uint32 *)&((((DalChipInfoHandle *)_h)->pVtbl)->GetModemSupport)-(uint32 *)(((DalChipInfoHandle *)_h)->pVtbl)), _h, (uint32 )0, (uint32 *)pnModem);
   }
   return ((DalChipInfoHandle *)_h)->pVtbl->GetModemSupport( _h, 0, pnModem);
}
static __inline DalChipInfoVersionType
DalChipInfo_ChipVersion(void)
{
  static DalDeviceHandle        *phChipInfo = 0;
  DALResult                     eResult;
  DalChipInfoVersionType        nVersion;
  if (phChipInfo == 0)
  {
    eResult = 
      DAL_DeviceAttachEx(0,0x0200006F,(((1&0xFFFF)<<16)|(0&0xFFFF)),&phChipInfo);
    if (eResult != 0)
    {
      return (DalChipInfoVersionType)0;
    }
  }
  DalChipInfo_GetChipVersion(phChipInfo, &nVersion);
  return nVersion;
}
static __inline DalChipInfoIdType
DalChipInfo_ChipId(void)
{
  static DalDeviceHandle        *phChipInfo = 0;
  DALResult                     eResult;
  DalChipInfoIdType             neId;
  if (phChipInfo == 0)
  {
    eResult = 
      DAL_DeviceAttachEx(0,0x0200006F,(((1&0xFFFF)<<16)|(0&0xFFFF)),&phChipInfo);
    if (eResult != 0)
    {
      return DALCHIPINFO_ID_UNKNOWN;
    }
  }
  DalChipInfo_GetChipId(phChipInfo, &neId);
  return neId;
}
static __inline DalChipInfoFamilyType
DalChipInfo_ChipFamily(void)
{
  static DalDeviceHandle        *phChipInfo = 0;
  DALResult                     eResult;
  DalChipInfoFamilyType         neFamily;
  if (phChipInfo == 0)
  {
    eResult = 
      DAL_DeviceAttachEx(0,0x0200006F,(((1&0xFFFF)<<16)|(0&0xFFFF)),&phChipInfo);
    if (eResult != 0)
    {
      return DALCHIPINFO_FAMILY_UNKNOWN;
    }
  }
  DalChipInfo_GetChipFamily(phChipInfo, &neFamily);
  return neFamily;
}
static __inline DALResult
DalChipInfo_GetFoundryId(DalDeviceHandle * _h,  DalChipInfoFoundryIdType * peId)
{
   if((((DALHandle)_h) & 0x00000001))
{
      DalRemoteHandle *hRemote = (DalRemoteHandle *)(_h = (DalDeviceHandle *)(((DALHandle)_h) & ~0x00000001));
      return hRemote->pVtbl->FCN_2(((uint32 *)&((((DalChipInfoHandle *)_h)->pVtbl)->GetFoundryId)-(uint32 *)(((DalChipInfoHandle *)_h)->pVtbl)), _h, (uint32 )0, (uint32 *)peId);
   }
   return ((DalChipInfoHandle *)_h)->pVtbl->GetFoundryId( _h, 0, peId);
}
typedef enum
{
    PM_ERR_FLAG__SUCCESS,
    PM_ERR_FLAG__SBI_OPT_ERR,  
    PM_ERR_FLAG__SBI_OPT2_ERR,
    PM_ERR_FLAG__SBI_OPT3_ERR,
    PM_ERR_FLAG__SBI_OPT4_ERR,
    PM_ERR_FLAG__I2C_OPT_ERR,  
    PM_ERR_FLAG__I2C_OPT2_ERR,  
    PM_ERR_FLAG__I2C_OPT3_ERR,  
    PM_ERR_FLAG__I2C_OPT4_ERR,  
    PM_ERR_FLAG__SPMI_OPT_ERR,
    PM_ERR_FLAG__SPMI_OPT2_ERR,
    PM_ERR_FLAG__SPMI_OPT3_ERR,
    PM_ERR_FLAG__SPMI_OPT4_ERR,
    PM_ERR_FLAG__SPMI_TRANSCOMM_ERR,
    PM_ERR_FLAG__PAR1_OUT_OF_RANGE,
    PM_ERR_FLAG__PAR2_OUT_OF_RANGE,
    PM_ERR_FLAG__PAR3_OUT_OF_RANGE,
    PM_ERR_FLAG__PAR4_OUT_OF_RANGE,
    PM_ERR_FLAG__PAR5_OUT_OF_RANGE,
    PM_ERR_FLAG__PAR6_OUT_OF_RANGE,
    PM_ERR_FLAG__VLEVEL_OUT_OF_RANGE,
    PM_ERR_FLAG__VREG_ID_OUT_OF_RANGE,
    PM_ERR_FLAG__FEATURE_NOT_SUPPORTED,
    PM_ERR_FLAG__INVALID_PMIC_MODEL,
    PM_ERR_FLAG__SECURITY_ERR,
    PM_ERR_FLAG__IRQ_LIST_ERR,
    PM_ERR_FLAG__DEV_MISMATCH,
    PM_ERR_FLAG__ADC_INVALID_RES,
    PM_ERR_FLAG__ADC_NOT_READY,
    PM_ERR_FLAG__ADC_SIG_NOT_SUPPORTED,
    PM_ERR_FLAG__ADC_VBATT_READ_ERR,
    PM_ERR_FLAG__RTC_BAD_DIS_MODE,
    PM_ERR_FLAG__RTC_READ_FAILED,
    PM_ERR_FLAG__RTC_WRITE_FAILED,
    PM_ERR_FLAG__RTC_HALTED,
    PM_ERR_FLAG__DBUS_IS_BUSY_MODE,
    PM_ERR_FLAG__ABUS_IS_BUSY_MODE,
    PM_ERR_FLAG__MACRO_NOT_RECOGNIZED,
    PM_ERR_FLAG__DATA_VERIFY_FAILURE,
    PM_ERR_FLAG__SETTING_TYPE_NOT_RECOGNIZED,
    PM_ERR_FLAG__MODE_NOT_DEFINED_FOR_MODE_GROUP,
    PM_ERR_FLAG__MODE_GROUP_NOT_DEFINED,
    PM_ERR_FLAG__PRESTUB_FAILURE,
    PM_ERR_FLAG__POSTSTUB_FAILURE,
    PM_ERR_FLAG__MODE_NOT_RECORDED_CORRECTLY,
    PM_ERR_FLAG__MODE_GROUP_STATE_NOT_FOUND,
    PM_ERR_FLAG__SUPERSTUB_FAILURE,
   PM_ERR_FLAG__TARGET_PROCESSOR_CAN_NOT_ACCESS_RESOURCE,
   PM_ERR_FLAG__INVALID_RESOURCE_ACCESS_ATTEMPTED,
    PM_ERR_FLAG__VBATT_CLIENT_TABLE_FULL,
    PM_ERR_FLAG__VBATT_REG_PARAMS_WRONG,
    PM_ERR_FLAG__VBATT_DEREGISTRATION_FAILED,
    PM_ERR_FLAG__VBATT_MODIFICATION_FAILED,
    PM_ERR_FLAG__VBATT_INTERROGATION_FAILED,
    PM_ERR_FLAG__VBATT_SET_FILTER_FAILED,
    PM_ERR_FLAG__VBATT_LAST_ERROR,  
    PM_ERR_FLAG__PMIC_NOT_SUPPORTED,
    PM_ERR_FLAG__INVALID_VIBRATOR_INDEXED ,
    PM_ERR_FLAG__INVALID_PWM_GENERATOR_INDEXED ,
    PM_ERR_FLAG__INVALID_CHG_INDEXED ,
    PM_ERR_FLAG__INVALID_CLK_INDEXED,
    PM_ERR_FLAG__INVALID_XO_INDEXED,
    PM_ERR_FLAG__INVALID_XOADC_INDEXED,
    PM_ERR_FLAG__INVALID_TCXO_INDEXED,
    PM_ERR_FLAG__INVALID_RTC_INDEXED,
    PM_ERR_FLAG__INVALID_SMBC_INDEXED,
    PM_ERR_FLAG__INVALID_BMS_INDEXED,
    PM_ERR_FLAG__API_NOT_IMPLEMENTED,
    PM_ERR_FLAG__INVALID_PAONCNTRL_INDEXED,
    PM_ERR_FLAG__INVALID_COINCELL_INDEXED ,
    PM_ERR_FLAG__INVALID_FLASH_INDEXED ,
    PM_ERR_FLAG__INVALID_OVP_INDEXED ,
    PM_ERR_FLAG__INVALID_KEYPAD_INDEXED ,
    PM_ERR_FLAG__INVALID_LVS_INDEXED ,
    PM_ERR_FLAG__INVALID_HSED_INDEXED ,
    PM_ERR_FLAG__INVALID_TALM_INDEXED ,
    PM_ERR_FLAG__INVALID_NCP_INDEXED ,
    PM_ERR_FLAG__INVALID_NFC_INDEXED ,
    PM_ERR_FLAG__INVALID_MVS_INDEXED,
    PM_ERR_FLAG__INVALID_HDMI_INDEXED,
    PM_ERR_FLAG__INVALID_VS_INDEXED,
    PM_ERR_FLAG__INVALID_UVLO_INDEXED,
    PM_ERR_FLAG__INVALID_AMUX_INDEXED,
    PM_ERR_FLAG__INVALID_KEYPAD_EVENT_COUNTER,
    PM_ERR_FLAG__INVALID_MPP_INDEXED,
    PM_ERR_FLAG__INVALID_BATTERY_CELL_NUMBER,
    PM_ERR_FLAG__INVALID_PWRON_INDEXED,
    PM_ERR_FLAG__INVALID_VBATT_INDEXED,
    PM_ERR_FLAG__INVALID_HSDKYPD_APP_INDEXED,
    PM_ERR_FLAG__INVALID_PWRKEY_APP_INDEXED,
    PM_ERR_FLAG__INVALID_EVENT_CALLBACK,
    PM_ERR_FLAG__SHADOW_REGISTER_INIT_FAILED ,
    PM_ERR_FLAG__PSDTE_ENV_FAILURE,
    PM_ERR_FLAG__PSDTE_PMIC_POWERUP_FAILED,
    PM_ERR_FLAG__PSDTE_PMIC_POWERDOWN_FAILED,
    PM_ERR_FLAG__FTS_CALCULATION_ERROR ,
    PM_ERR_FLAG__API_DEPRICATED_ERROR,
    PM_ERR_FLAG__RPC_PROCESSOR_NOT_RECOGNIZED_ERROR,
    PM_ERR_FLAG__VREG_VOTE_DEREGISTER_ERROR,
    PM_ERR_FLAG__VREG_VOTE_REGISTER_ERROR,
    PM_ERR_FLAG__INVALID_VS_STATUS,
    PM_ERR_FLAG__DAL_SERVICE_REGISTRATION_FAILED,
    PM_ERR_FLAG__DAL_SERVICE_FAILED,
    PM_ERR__MUTEX_CREATION_FAILED ,
    PM_ERR__MUTEX_RELEASE_FAILED ,
    PM_ERR__MUTEX_DELETION_FAILED ,
    PM_ERR__MUTEX_UNAVAILBLE ,
    PM_ERR_FLAG__COMM_TYPE_NOT_RECOGNIZED,
    PM_ERR_FLAG__IRQ_GPIO_SET_FAILED,
    PM_ERR_FLAG__PMAPP_EVENT_CLIENT_TABLE_FULL,
    PM_ERR_FLAG__PMAPP_EVENT_DEREGISTRATION_FAILED,
    PM_ERR_FLAG__PMAPP_EVENT_CLIENT_INDEX_FAILURE,
    PM_ERR_FLAG__INVALID_MISC_INDEXED,
    PM_ERR_FLAG__INVALID_MISC_TBD,
    PM_ERR_FLAG__INVALID_VREG_INDEXED,
    PM_ERR_FLAG__INVALID_POINTER,
    PM_ERR_FLAG__FUNCTION_NOT_SUPPORTED_AT_THIS_LEVEL,
    PM_ERR_FLAG__INVALID_LPG_INDEXED,
    PM_ERR_FLAG__INVALID_DISPBACKLIGHT_APP_INDEXED,
    PM_ERR_FLAG__INVALID_RGB_INDEXED,
    PM_ERR_FLAG__INVALID_SMBB_INDEXED,
    PM_ERR_FLAG__INVALID_LBC_INDEXED,
    PM_ERR_FLAG__SBL_CONFIG_REG_OPERATION_NOT_SUPPORTED,
    PM_ERR_FLAG__INVALID
} pm_err_flag_type;
typedef enum
{
   PMIC_IS_UNKNOWN   = 0,
   PMIC_IS_PM8941    = 1,
   PMIC_IS_PM8841    = 2,
   PMIC_IS_PM8019    = 3,
   PMIC_IS_PM8026    = 4,
   PMIC_IS_PM8110    = 5,
   PMIC_IS_PMA8084   = 6,
   PMIC_IS_PMI8962   = 7,
   PMIC_IS_PMD9635   = 8,
   PMIC_IS_PM8994    = 9,
   PMIC_IS_PMI8994   = 10,
   PMIC_IS_PM8916    = 11,
   PMIC_IS_INVALID   = 0x7FFFFFFF,
} pm_model_type;
typedef struct
{
  pm_model_type  ePmicModel;              
  uint32         nPmicAllLayerRevision;   
  uint32         nPmicMetalRevision;      
} pm_device_info_type;
typedef struct
{
  uint8          lot_id[12];   
  uint32         rom_version;                       
  uint32         ram_version;                       
  uint32         fab_id;                            
  uint32         wafer_id;                          
  uint32         x_coord;                           
  uint32         y_coord;                           
  uint32         test_pgm_rev;                      
} pm_pbs_info_type;
pm_model_type pm_get_pmic_model(uint8 pmic_device_index);
uint8 pm_get_pmic_revision(uint8 pmic_device_index);
pm_err_flag_type pm_get_pmic_info(uint8 pmic_device_index, pm_device_info_type* pmic_device_info);
pm_err_flag_type pm_get_pbs_info(uint8 pmic_device_index, pm_pbs_info_type* pbs_info);
typedef struct DalPlatformInfo DalPlatformInfo;
struct DalPlatformInfo
{
   struct DalDevice DalDevice;
   DALResult (*GetPlatform)(DalDeviceHandle * _h,  DalPlatformInfoPlatformType * pType);
   DALResult (*GetPlatformInfo)(DalDeviceHandle * _h,  DalPlatformInfoPlatformInfoType * pInfo);
   DALResult (*GetKeyValue)(DalDeviceHandle * _h,  DalPlatformInfoKeyType eKey, uint32 *pValue);
   DALResult (*CDTConfigPreDDR)(DalDeviceHandle * _h, void *platformAddress);
   DALResult (*CDTConfigPostDDR)(DalDeviceHandle * _h, void *platformAddress);
};
typedef struct DalPlatformInfoHandle DalPlatformInfoHandle;
struct DalPlatformInfoHandle
{
   uint32 dwDalHandleId;
   const DalPlatformInfo * pVtbl;
   void * pClientCtxt;
};
static __inline DALResult
DalPlatformInfo_GetPlatform (DalDeviceHandle * _h,  DalPlatformInfoPlatformType * pType)
{
   return ((DalPlatformInfoHandle *)_h)->pVtbl->GetPlatform( _h, pType);
}
static __inline DALResult
DalPlatformInfo_GetPlatformInfo (DalDeviceHandle * _h,  DalPlatformInfoPlatformInfoType * pInfo)
{
   return ((DalPlatformInfoHandle *)_h)->pVtbl->GetPlatformInfo( _h, pInfo);
}
static __inline DALResult
DalPlatformInfo_GetKeyValue (DalDeviceHandle * _h, DalPlatformInfoKeyType eKey, uint32 *pValue)
{
   return ((DalPlatformInfoHandle *)_h)->pVtbl->GetKeyValue( _h, eKey, pValue);
}
static __inline DALResult
DalPlatformInfo_CDTConfigPreDDR (DalDeviceHandle * _h,  void * pCDTConfig)
{
   return ((DalPlatformInfoHandle *)_h)->pVtbl->CDTConfigPreDDR( _h, pCDTConfig);
}
static __inline DALResult
DalPlatformInfo_CDTConfigPostDDR (DalDeviceHandle * _h,  void * pCDTConfig)
{
   return ((DalPlatformInfoHandle *)_h)->pVtbl->CDTConfigPostDDR( _h, pCDTConfig);
}
static __inline DalPlatformInfoPlatformType
DalPlatformInfo_Platform (void)
{
  static DalDeviceHandle      *phPlatformInfo = 0;
  DALResult                    eResult;
  DalPlatformInfoPlatformType  platform;
  if (phPlatformInfo == 0)
  {
    eResult = DAL_DeviceAttach(0x02000139, &phPlatformInfo);
    if (eResult != 0)
    {
      return DALPLATFORMINFO_TYPE_UNKNOWN;
    }
  }
  DalPlatformInfo_GetPlatform(phPlatformInfo, &platform);
  return platform;
}  
static __inline boolean
DalPlatformInfo_IsFusion (void)
{
  static DalDeviceHandle          *phPlatformInfo = 0;
  DALResult                        eResult;
  DalPlatformInfoPlatformInfoType  PlatformInfo;
  if (phPlatformInfo == 0)
  {
    eResult = DAL_DeviceAttach(0x02000139, &phPlatformInfo);
    if (eResult != 0)
    {
      return 0;
    }
  }
  DalPlatformInfo_GetPlatformInfo(phPlatformInfo, &PlatformInfo);
  return PlatformInfo.fusion;
}
<driver name="PlatformInfo">
  <device id=0x02000139>
  </device>
</driver>
