#<SYMDEFS># ARM Linker, 5.01 [Build 94]: Last Updated: Fri Jul 28 04:01:03 2017
0x00000000 N _printf_flags
0x00000000 N _printf_return_value
0x00000000 N _printf_sizespec
0x00000000 N _printf_widthprec
0x0022017d T sys_debug_enable_clocks
0x002201e1 T sys_debug_main_ctl
0x00220248 A boot_enable_aarch64
0x00220264 A boot_generate_warm_reset
0x00220288 A boot_configure_vbar
0x002202a1 T boot_hw_powerdown
0x002202ed T boot_hw_reset
0x00220325 T boot_switch_to_aarch64
0x00220369 T DDRPHY_CA_init_io_pads
0x00220393 T DDRPHY_CA_set_dev_type
0x002203a3 T DDRPHY_CA_site_clk_mode
0x002203e1 T DDRPHY_CA_init_cdc
0x002203f7 T DDRPHY_CA_init_ca_csr
0x0022045b T DDRPHY_CA_manual_io_cal
0x00220495 T DDRPHY_CA_auto_io_cal
0x00220509 T DDRPHY_CA_disable_auto_io_cal
0x00220517 T DDRPHY_CA_io_pads_odt_enable
0x0022053d T DDRPHY_CA_enable_csd_rx
0x00220575 T DDRPHY_CA_disable_csd_rx
0x0022059f T DDRPHY_CA_dcc_set
0x00220631 T EBI1_PHY_CFG_pads_odt_enable
0x0022065d T EBI1_PHY_CFG_ddr_phy_clk_mode
0x00220689 T EBI1_PHY_Set_Config_dq
0x002206ed T EBI1_PHY_Set_Config_ca
0x00220711 T EBI1_PHY_CFG_phy_init
0x0022074f T EBI1_PHY_CFG_print_log
0x00220751 T EBI1_PHY_CFG_enable_csd_rx
0x0022077d T EBI1_PHY_CFG_disable_csd_rx
0x002207a9 T EBI1_PHY_CFG_set_dqs_pad_pull
0x002207e1 T EBI1_PHY_CFG_dqs_pad_pull_status
0x002207f3 T EBI1_PHY_CFG_hw_info
0x00220809 T DDRPHY_DQ_init_io_pads
0x00220839 T DDRPHY_DQ_site_clk_mode
0x00220877 T DDRPHY_DQ_init_cdc
0x002208bb T DDRPHY_DQ_init_dq_csr
0x0022094d T DDRPHY_DQ_io_pads_odt_enable
0x00220993 T DDRPHY_DQ_enable_csd_rx
0x002209f1 T DDRPHY_DQ_disable_csd_rx
0x00220a33 T DDRPHY_DQ_dcc_set
0x00220b19 T ABHN_DPE_Disable_Clk_To_PHY
0x00220b31 T ABHN_DPE_Disable_Power_Down
0x00220b55 T ABHN_DPE_Enable_Clk_To_PHY
0x00220b71 T ABHN_DPE_Enable_Power_Down
0x00220bd1 T ABHN_DPE_Get_RL_From_REG
0x00220bdb T ABHN_DPE_Load_All_Config
0x00220be9 T ABHN_DPE_Post_Init_Setup
0x00220ca1 T ABHN_DPE_Program_MRW_AFTER_FREQ_SWITCH
0x00220d29 T ABHN_DPE_Program_ODT_OFF
0x00220d71 T ABHN_DPE_Program_ODTonmax_min
0x00220dc9 T ABHN_DPE_Program_RD_Latency
0x00220de5 T ABHN_DPE_Program_TREFBW_XO_DIV_6_CYCLES
0x00220dfd T ABHN_DPE_Program_WR_Latency
0x00220e15 T ABHN_DPE_Program_tCKE
0x00220e2d T ABHN_DPE_Program_tCKESR
0x00220e41 T ABHN_DPE_Program_tFAW
0x00220e5d T ABHN_DPE_Program_tMRR
0x00220e75 T ABHN_DPE_Program_tMRW_LP3
0x00220ea9 T ABHN_DPE_Program_tRASmin
0x00220ebd T ABHN_DPE_Program_tRCD
0x00220ed5 T ABHN_DPE_Program_tRFCAB
0x00220ee3 T ABHN_DPE_Program_tRFCPB
0x00220ef1 T ABHN_DPE_Program_tRP_AB
0x00220f0d T ABHN_DPE_Program_tRP_PB
0x00220f25 T ABHN_DPE_Program_tRRD
0x00220f3d T ABHN_DPE_Program_tRTP
0x00220f51 T ABHN_DPE_Program_tWR
0x00220f6d T ABHN_DPE_Program_tWTR
0x00220f89 T ABHN_DPE_Program_tXP
0x00220fc5 T ABHN_DPE_Program_tXPR_PCHG
0x00220fdd T ABHN_DPE_Program_tXSR
0x00220ff5 T ABHN_DPE_Program_tZQCL
0x0022100d T ABHN_DPE_Program_tZQCS
0x00221021 T ABHN_DPE_Recalc_AC_Parameters
0x00221039 T ABHN_DPE_Status_Check_SR
0x0022105d T ABHN_DPE_Update_Latency_LPDDR3
0x002210a5 T ABHN_SHKE_Device_Init
0x002210d5 T ABHN_SHKE_Device_Init_LPDDR3
0x00221261 T ABHN_SHKE_Disable_All_Periodic
0x0022128d T ABHN_SHKE_Disable_Auto_Refresh
0x002212bd T ABHN_SHKE_Disable_CK
0x002212e1 T ABHN_SHKE_Disable_CKE
0x00221305 T ABHN_SHKE_Disable_HW_Self_Refresh
0x00221345 T ABHN_SHKE_Disable_INITCOMPLETE
0x00221369 T ABHN_SHKE_Disable_Periodic_SRR
0x00221391 T ABHN_SHKE_Disable_Periodic_ZQCAL
0x002213b5 T ABHN_SHKE_Disable_Rank
0x002213f5 T ABHN_SHKE_Enable_All_Periodic
0x00221431 T ABHN_SHKE_Enable_Auto_Refresh
0x00221461 T ABHN_SHKE_Enable_CKE
0x00221485 T ABHN_SHKE_Enable_HW_Self_Refresh
0x002214e9 T ABHN_SHKE_Enable_INITCOMPLETE
0x0022150d T ABHN_SHKE_Enable_Periodic_SRR
0x00221529 T ABHN_SHKE_Enable_Periodic_ZQCAL
0x00221541 T ABHN_SHKE_Enter_Self_Refresh
0x00221589 T ABHN_SHKE_Exit_Self_Refresh
0x002215b5 T ABHN_SHKE_Extended_Write_MR
0x0022160d T ABHN_SHKE_Get_Auto_Refresh_Status
0x00221623 T ABHN_SHKE_Get_Init_Complete
0x0022164d T ABHN_SHKE_Post_Init_Setup
0x00221681 T ABHN_SHKE_Program_tREFI
0x002216c5 T ABHN_SHKE_Rank_Detection_LPDDR3
0x0022177d T ABHN_SHKE_Read_DQCAL
0x002217d5 T ABHN_SHKE_Read_MR
0x00221839 T ABHN_SHKE_Set_Auto_Refresh_Status
0x002218c9 T ABHN_SHKE_Write_MR
0x0022193d T BIMC_Clock_Switch_LPDDR3
0x00221989 T BIMC_DPE_Load_All_Config
0x00221991 T BIMC_DPE_Set_Config
0x002219b9 T BIMC_Device_Init
0x002219f9 T BIMC_Disable_All_Periodic
0x00221a21 T BIMC_Disable_CLK_To_PHY
0x00221a29 T BIMC_Disable_HW_Self_Refresh
0x00221a33 T BIMC_Disable_Rank
0x00221a3d T BIMC_Enable_All_Periodic
0x00221a71 T BIMC_Enable_CLK_To_PHY
0x00221a79 T BIMC_Enable_Rank
0x00221a83 T BIMC_Enter_Self_Refresh
0x00221a8d T BIMC_Exit_Self_Refresh
0x00221a99 T BIMC_GLOBAL0_Set_Config
0x00221ac1 T BIMC_Get_Auto_Refresh_Status
0x00221ac9 T BIMC_Get_Device_Type
0x00221acd T BIMC_Get_RL
0x00221ad7 T BIMC_Get_RL_From_REG
0x00221adf T BIMC_Get_WL
0x00221ae9 T BIMC_MISC_GLOBAL_CSR_Freq_Switch
0x00221af9 T BIMC_MISC_GLOBAL_CSR_Mode_Switch
0x00221b21 T BIMC_MISC_GLOBAL_CSR_Update_Clock_Period
0x00221b5d T BIMC_Post_Init_Setup
0x00221c87 T BIMC_Pre_Init_Setup
0x00221ce9 T BIMC_Ram_Size_Detection
0x00221ced T BIMC_Ram_Size_Detection_LPDDR3
0x00221dc5 T BIMC_Rank_Detection
0x00221df7 T BIMC_Read_MR
0x00221e05 T BIMC_SCMO_Set_Config
0x00221e2d T BIMC_SHKE_Set_Config
0x00221e55 T BIMC_Set_Auto_Refresh_Status
0x00221e5f T BIMC_Update_AC_Parameters
0x00221ea5 T BIMC_Update_AC_Parameters_LPDDR3
0x00221fa5 T BIMC_Update_Latency
0x00221ff1 T BIMC_Update_ODTOFF_MIN
0x0022201b T BIMC_Write_MR
0x00222029 T DDR_SYNC_INIT
0x0022202b T DDR_SYNC_LOCK
0x0022202d T DDR_SYNC_UNLOCK
0x00222031 T Ddr_get_chip_platform_info
0x0022205d T EBI1_PHY_CFG_DDR_CC_Pre_Init_Setup
0x00222065 T EBI_DDRCC_Set_Config
0x0022208d T Get_BIMC_Base_Address
0x002220a1 T Get_BIMC_LUT
0x002220e5 T HAL_SDRAM_DPE_Force_Update_Latency
0x0022218d T HAL_SDRAM_Enter_Self_Refresh
0x002221cd T HAL_SDRAM_Exit_Self_Refresh
0x0022222d T HAL_SDRAM_Get_Base_Addr
0x002223b1 T HAL_SDRAM_Init
0x00222431 T HAL_SDRAM_PHY_CA_Manual_IO_Cal
0x00222439 T HAL_SDRAM_PHY_Disable_IO_Cal
0x0022244b T HAL_SDRAM_PHY_Enable_IO_Cal
0x0022245d T HAL_SDRAM_PHY_Manual_IO_Cal
0x0022246f T HAL_SDRAM_Post_Clock_Switch
0x00222471 T HAL_SDRAM_Pre_Clock_Switch
0x00222589 T HAL_SDRAM_RL
0x002225a3 T HAL_SDRAM_Read_MR
0x002225b1 T HAL_SDRAM_WL
0x002225cb T HAL_SDRAM_Write_MR
0x002225df T HAL_bimc_EnableSlaveSegment
0x002225f1 T HAL_bimc_GetRemapSegment
0x002225ff T HAL_bimc_GetSlaveSegment
0x00222615 T HAL_bimc_Init
0x0022261f T HAL_bimc_IsRemapSupported
0x00222629 T HAL_bimc_SetRemapSegment
0x00222637 T HAL_bimc_SetSlaveSegment
0x0022264d T SCMO_CFG_Disable_Rank
0x00222695 T SCMO_CFG_Enable_Rank
0x002226c1 T SCMO_CFG_Post_Init_Setup
0x00222865 T bimc_EnableSlaveSegment
0x00222895 T bimc_GetRemapSegment
0x00222a21 T bimc_GetSlaveSegment
0x00222b4d T bimc_Init
0x00222b7d T bimc_IsRemapSupported
0x00222b8d T bimc_SetRemapSegment
0x00222cd5 T bimc_SetSlaveSegment
0x00222dc5 T ddr_busywait_init
0x00222de5 T ddr_divide_func
0x00222dfd T ddr_get_params
0x00222e21 T ddr_param_interleaved
0x00222e3d T ddr_restore_from_wdog_reset
0x00222ee1 T sys_debug_bric_settings
0x00223000 D wdog_reset
0x00223004 D BIMC_NUM_BYTES
0x00223008 D BIMC_chip_id
0x0022300c D LPDDR3_Freq_Param
0x0022316c D LPDDR3_bimc_global0_config
0x00223284 D LPDDR3_bimc_scmo_config
0x0022333c D LPDDR3_bimc_dpe_config
0x0022353c D LPDDR3_bimc_shke_config
0x002235c4 D ddrcc_config
0x0022372c D ca_pad_cfg0_lp_rec
0x00223730 D ca_pad_cfg1_lp_rec
0x00223734 D ca_pad_cfg2_lp_rec
0x00223738 D ca_pad_cfg3_lp_rec
0x0022373c D ca_pad_cfg4_lp_rec
0x00223740 D ca_pad_cfg5_lp_rec
0x00223a44 D dq_pad_cfg0_lp_rec
0x00223a48 D dq_pad_cfg1_lp_rec
0x00223a4c D dq_pad_cfg2_lp_rec
0x00223a50 D dq_pad_cfg3_lp_rec
0x00223a54 D dq_pad_cfg0_pc_rec
0x00223a58 D dq_pad_cfg1_pc_rec
0x00223a5c D dq_pad_cfg2_pc_rec
0x00223a60 D dq_pad_cfg3_pc_rec
0x00223d78 D ddr_func_tbl
0x08005021 T _printf_d
0x08005021 T _printf_percent
0x08005027 T _printf_u
0x0800502d T _printf_x
0x08005033 T _printf_c
0x08005039 T _printf_s
0x0800503f T _printf_percent_end
0x08005045 T __blocksCopy
0x080050c0 A __aeabi_uldivmod
0x080050c0 A _ll_udiv
0x080050d4 A _ll_udiv_donemoving
0x080053f1 T __aeabi_llsl
0x080053f1 T _ll_shift_l
0x08005419 T __2snprintf
0x08005451 T _printf_pre_padding
0x0800547f T _printf_post_padding
0x080054a3 T _printf_str
0x080054f5 T _printf_int_dec
0x08005569 T _printf_int_hex
0x08005569 T _printf_longlong_hex
0x080055c5 T __printf
0x08005751 T __aeabi_assert
0x08005751 T __assert
0x080057d1 T strchr
0x080057e5 T memcmp
0x0800583d T strlen
0x08005878 A strncmp
0x08005968 A __aeabi_memcpy
0x08005968 A __rt_memcpy
0x08005a1c A _memcpy_lastbytes
0x08005a3c A __aeabi_memmove
0x08005a3c A __rt_memmove
0x08005af0 A __memmove_lastfew
0x08005b10 A __aeabi_memcpy4
0x08005b10 A __aeabi_memcpy8
0x08005b10 A __rt_memcpy_w
0x08005b5c A _memcpy_lastbytes_aligned
0x08005b75 T __aeabi_memset
0x08005b85 T __aeabi_memclr
0x08005b85 T __rt_memclr
0x08005b89 T _memset
0x08005bc9 T __aeabi_memclr4
0x08005bc9 T __aeabi_memclr8
0x08005bc9 T __rt_memclr_w
0x08005bcd T _memset_w
0x08005c18 A strcmp
0x08005cb9 T __aeabi_uread4
0x08005cb9 T __rt_uread4
0x08005ccf T __aeabi_uwrite4
0x08005ccf T __rt_uwrite4
0x08005ce5 T __aeabi_uread8
0x08005ce5 T __rt_uread8
0x08005d13 T __aeabi_uwrite8
0x08005d13 T __rt_uwrite8
0x08005d40 A __aeabi_idiv
0x08005d40 A __aeabi_idivmod
0x08005f6d T __aeabi_idiv0
0x08005f71 T __aeabi_ldiv0
0x08005f75 T _printf_int_common
0x08006037 T _printf_char_common
0x0800605d T _sputc
0x08006067 T _snputc
0x08006077 T _printf_cs_common
0x0800608b T _printf_char
0x0800609b T _printf_string
0x080060a3 T abort
0x080060b3 T __assert_puts
0x080060c8 A __aeabi_memmove4
0x080060c8 A __aeabi_memmove8
0x080060c8 A __rt_memmove_w
0x080060f4 A __memmove_aligned
0x08006130 A __memmove_lastfew_aligned
0x08006148 A __rt_udiv10
0x08006175 T _ttywrch
0x08006185 T _sys_exit
0x08006191 T __rt_div0
0x0800619b T __rt_SIGABRT
0x080061a3 T __I$use$semihosting
0x080061a3 T __use_no_semihosting_swi
0x080061a5 T __rt_SIGFPE
0x080061a5 T __semihosting_library_function
0x080061ac A __aeabi_uidiv
0x080061ac A __aeabi_uidivmod
0x080061dc A apt_jump
0x080061e0 A apt_execute
0x080061e8 A apt_get_PTptr
0x080061f4 A mmu_invalidate_tlb
0x08006210 A mmu_invalidate_instruction_cache
0x0800622c A mmu_invalidate_data_cache
0x0800625c A mmu_enable_instruction_cache
0x08006280 A cache_mmu_disable
0x080062b0 A memory_barrier
0x080062b8 A cache_set_memory_barrier_location
0x080062c4 A dcache_clean_all
0x08006358 A dcache_flush_region
0x080063c0 A dcache_inval_region
0x0800643c A dcache_clean_region
0x080064a4 A mmu_flush_cache
0x080064c8 A mmu_flush_cache_and_disable
0x08006560 A mmu_relocate_page_table_base
0x080065a0 A mmu_get_page_table_base
0x080065b4 A mmu_set_dacr
0x080065cc A qmemset
0x080066d0 A __main
0x080066d0 A _main
0x08006724 A sbl_save_regs
0x08006814 A sbl_loop_here
0x0800688c A boot_read_l2esr
0x080068a8 A sbl1_external_abort_enable
0x08006b19 T HAL_SDRAM_Enter_Deep_Power_Down
0x08006b35 T HAL_SDRAM_Exit_Deep_Power_Down
0x08006b99 T BIMC_Enter_DPD
0x08006bf3 T BIMC_Exit_DPD
0x08006c19 T BIMC_Set_CA_Training_Pattern
0x08006cc7 T BIMC_CA_Training_Toggle_Pattern
0x08006ccf T BIMC_Exit_CA_Training
0x08006cfb T BIMC_Enable_RCW
0x08006d03 T BIMC_RCW_Exp_Pattern
0x08006d0b T BIMC_RCW_Training_Read_Check
0x08006d61 T BIMC_Program_RCW_START_DLY
0x08006d6d T BIMC_Save_RCW
0x08006d8d T BIMC_Restore_RCW
0x08006dc1 T BIMC_RCW_Get_Trained_Results
0x08006e17 T BIMC_RCW_Set_Trained_Results
0x08006e7d T ABHN_SHKE_Enter_DPD
0x08006edd T ABHN_SHKE_Exit_DPD
0x08006f2d T ABHN_SHKE_CA_Training_Toggle_Pattern
0x08006f4d T ABHN_DPE_Status_Check_DPD
0x08006f6f T ABHN_DPE_CA_Training_Pattern_PRE
0x08006fa3 T ABHN_DPE_CA_Training_Pattern
0x08006fd7 T ABHN_DPE_CA_Training_Pattern_POST
0x0800700b T ABHN_DPE_RCW_DQcal_read_check
0x08007223 T ABHN_DPE_RCW_Exp_Pattern
0x0800723f T ABHN_DPE_Rcw_Reset
0x0800726d T ABHN_DPE_Program_RCW_START_DLY
0x08007333 T ABHN_DPE_Program_RCW_START_DLY_All
0x0800733d T ABHN_DPE_Enable_RCW
0x08007360 A hal_sdcc_memcpy32
0x0800737c A hal_sdcc_memcpy_read
0x0800739c A hal_sdcc_memcpy_write
0x080073ed T AdcBoot_GetChannel
0x0800743d T AdcBoot_Init
0x0800758d T AdcBoot_Read
0x08007645 T AdcMapLinearInt32toInt32
0x080076d9 T BootTempCheck
0x08007781 T CeCLIOCtlCipherRegXfer
0x08007849 T CeCLIOCtlGetCipherCntx
0x0800788d T CeCLIOCtlGetHashCntx
0x080078fd T CeCLIOCtlHashRegXfer
0x08007a15 T CeCLIOCtlSetCipherCntx
0x08007b59 T CeCLIOCtlSetHashCntx
0x08007c51 T CeClClockDisable
0x08007c55 T CeClClockEnable
0x08007c59 T CeClIOCtlCipher
0x08007ccf T CeClIOCtlHash
0x08007d45 T CeClInit
0x08007d79 T CeELCipherRegXfer
0x08007da3 T CeELHashRegXfer
0x08007dc9 T CeElBamXferFunction
0x08007dcd T CeElDisableClock
0x08007dd1 T CeElEnableClock
0x08007dd5 T CeElGetXferModeList
0x08007ddd T CeElGetXferfunction
0x08007e01 T CeElInit
0x08007e05 T CeElMemcpy
0x08007e0f T CeElMemoryBarrier
0x08007e19 T CeElMemset
0x08007e29 T CeElRegXferFunction
0x08007eab T CeElfree
0x08007eb5 T CeElfree_Env
0x08007ed9 T CeElmalloc
0x08007ee5 T CeElmalloc_Env
0x08007f41 T CeMLDeInit
0x08007f45 T CeMLHashAtomic
0x08008039 T CeMLHashDeInit
0x08008065 T CeMLHashFinal
0x080081dd T CeMLHashInit
0x08008361 T CeMLHashUpdate
0x080086a9 T CeMLInit
0x080086dd T CeMlHashUpdate
0x080087e9 T ChipInfo_Close
0x080087f5 T ChipInfo_DalChipInfo_Attach
0x080088ad T ChipInfo_DeviceDeInit
0x080088b1 T ChipInfo_DeviceInit
0x080088b5 T ChipInfo_DriverDeInit
0x080088cd T ChipInfo_DriverInit
0x08008af5 T ChipInfo_GetChipFamily
0x08008b01 T ChipInfo_GetChipId
0x08008b0d T ChipInfo_GetChipIdString
0x08008b23 T ChipInfo_GetChipVersion
0x08008b31 T ChipInfo_GetFamily
0x08008b85 T ChipInfo_GetFamilyByPart
0x08008bd9 T ChipInfo_GetFoundry
0x08008c41 T ChipInfo_GetFoundryId
0x08008c4d T ChipInfo_GetModemSupport
0x08008c5d T ChipInfo_GetPart
0x08008c95 T ChipInfo_GetRawChipId
0x08008ca3 T ChipInfo_GetRawChipVersion
0x08008cb1 T ChipInfo_GetRawPart
0x08008d09 T ChipInfo_GetRawVersion
0x08008d61 T ChipInfo_GetVersion
0x08008e21 T ChipInfo_Info
0x08008e39 T ChipInfo_Open
0x08008e3d T ChipInfo_PowerEvent
0x08008e41 T Clock_APCSMuxMapToSource
0x08008e65 T Clock_BIMCConfigFSM
0x08008ec9 T Clock_BIMCIsFSMConfigured
0x08008ee1 T Clock_BIMCMuxMapToSource
0x08008f0d T Clock_BIMCQuery
0x08008fa1 T Clock_CCIMuxMapToSource
0x08008fc5 T Clock_ConfigBIMCMux
0x080090ad T Clock_ConfigMux
0x08009159 T Clock_ConfigurePLL
0x08009215 T Clock_ConfigureSource
0x080092fd T Clock_DDRSpeed
0x08009309 T Clock_DebugInit
0x08009355 T Clock_DetectMuxCfg
0x0800937d T Clock_DisableI2CClock
0x0800939d T Clock_DisablePLL
0x080093f1 T Clock_DisableUARTClock
0x0800941d T Clock_DisableUSB
0x0800947d T Clock_EnablePLL
0x0800955d T Clock_EnableSource
0x08009619 T Clock_ExitBoot
0x0800965d T Clock_ExtBuckGPIOMisc
0x080096b9 T Clock_GCCMuxMapToSource
0x080096db T Clock_I2CInit
0x080096e1 T Clock_Init
0x08009771 T Clock_InitCrypto
0x080097c1 T Clock_InitForDownloadMode
0x08009831 T Clock_InitUSB
0x0800987d T Clock_InitVotes
0x080098c1 T Clock_IsPLLEnabled
0x080098f1 T Clock_MuxMapToSource
0x08009911 T Clock_PreDDRInit
0x08009941 T Clock_PreDDRInitEx
0x08009b29 T Clock_RailwayConfig
0x08009b31 T Clock_ReplaceUSBBootClockEnable
0x08009b7d T Clock_SBLConfig
0x08009b85 T Clock_SetBIMCSpeed
0x08009df9 T Clock_SetCCIPerfLevel
0x08009e3d T Clock_SetCPUPerfLevel
0x08009ec9 T Clock_SetI2CClockFrequency
0x08009f65 T Clock_SetL2PerfLevel
0x08009f69 T Clock_SetSDCClockFrequency
0x08009f95 T Clock_SetSDCClockFrequencyExt
0x0800a0a1 T Clock_SetSysPerfLevel
0x0800a17d T Clock_SetUARTClockFrequency
0x0800a23d T Clock_SourceMapToAPCS
0x0800a25f T Clock_SourceMapToBIMC
0x0800a28b T Clock_SourceMapToCCI
0x0800a2ad T Clock_SourceMapToGCC
0x0800a2d1 T Clock_SourceMapToMux
0x0800a2ed T Clock_ToggleClock
0x0800a315 T Clock_TriggerUpdate
0x0800a347 T DALFW_AddRef
0x0800a363 T DALFW_AttachToDevice
0x0800a3e7 T DALFW_AttachToStringDevice
0x0800a505 T DALFW_Release
0x0800a545 T DALGLBCTXT_AllocCtxt
0x0800a5f1 T DALGLBCTXT_Init
0x0800a71f T DALSYS_BusyWait
0x0800a723 T DALSYS_DeInitMod
0x0800a725 T DALSYS_DestroyObject
0x0800a729 T DALSYS_EventCreate
0x0800a749 T DALSYS_EventMultipleWait
0x0800a751 T DALSYS_Free
0x0800a769 T DALSYS_GetDALPropertyHandle
0x0800a76d T DALSYS_GetDALPropertyHandleStr
0x0800a7b9 T DALSYS_GetPropDir
0x0800a7c5 T DALSYS_GetPropStructPtrArray
0x0800a7d1 T DALSYS_GetPropertyValue
0x0800a7d5 T DALSYS_HeapInit
0x0800a811 T DALSYS_InitMod
0x0800a821 T DALSYS_LogEvent
0x0800a845 T DALSYS_Malloc
0x0800a8bd T DALSYS_SyncCreate
0x0800a8d1 T DALSYS_SyncEnter
0x0800a8d3 T DALSYS_SyncLeave
0x0800a8d5 T DALTLMMState_Init
0x0800aa19 T DALTLMMState_MacroToStruct
0x0800aa33 T DALTLMMState_StructToMacro
0x0800aa61 T DAL_DeviceAttach
0x0800aa9f T DAL_DeviceAttachEx
0x0800aaf1 T DAL_DeviceAttachLocal
0x0800ab41 T DAL_DeviceDetach
0x0800ab6d T DAL_StringDeviceAttachEx
0x0800abc1 T DAL_StringDeviceAttachLocal
0x0800ac11 T DAL_StringDeviceObjectLookup
0x0800acf5 T DDRPHY_CA_ca_training_seq_read_cdc_perbit_deskew_delay
0x0800ad11 T DDRPHY_CA_ca_training_seq_restore_cdc_perbit_deskew_delay
0x0800ad21 T DDRPHY_CA_ca_training_seq_set_cdc_perbit_deskew_delay
0x0800aee1 T DDRPHY_CA_ca_training_seq_set_initial_cdc_perbit_deskew_delay
0x0800b009 T DDRPHY_CA_ca_training_seq_set_initial_cdc_wr90_delay
0x0800b029 T DDRPHY_CA_set_ca_cdc_wr90
0x0800b057 T DDRPHY_CA_wr90_auto_dcc_calibration
0x0800b093 T DDRPHY_CA_wr90_dcc_adj_status
0x0800b0a5 T DDRPHY_CA_wr90_dcc_cal
0x0800b18d T DDRPHY_CA_wr90_dcc_override
0x0800b1d9 T DDRPHY_CA_wr90_dcc_stop
0x0800b1e7 T DDRPHY_CA_wrlvl_auto_dcc_calibration
0x0800b223 T DDRPHY_CA_wrlvl_dcc_adj_status
0x0800b235 T DDRPHY_CA_wrlvl_dcc_cal
0x0800b31d T DDRPHY_CA_wrlvl_dcc_override
0x0800b365 T DDRPHY_CA_wrlvl_dcc_stop
0x0800b373 T DDRPHY_DQ_read_dq_training_status_for_ca_training
0x0800b379 T DDRPHY_DQ_ren_cfg_byte0_sel
0x0800b419 T DDRPHY_DQ_ren_cfg_byte1_sel
0x0800b4c5 T DDRPHY_DQ_ren_hw_mode
0x0800b4e7 T DDRPHY_DQ_ren_reset
0x0800b537 T DDRPHY_DQ_set_all_dq_cdc_rd90_to_coarse_fine
0x0800b549 T DDRPHY_DQ_set_all_dq_cdc_wr90_to_coarse_fine
0x0800b55b T DDRPHY_DQ_set_dq_cdc_rd90_value
0x0800b585 T DDRPHY_DQ_set_dq_cdc_wr90_value
0x0800b5af T DDRPHY_DQ_set_exit_dq_for_ca_training
0x0800b5c7 T DDRPHY_DQ_set_rd_deskew_value
0x0800b5df T DDRPHY_DQ_set_wr_deskew_value
0x0800b5eb T DDRPHY_DQ_wr90_auto_dcc_calibration
0x0800b665 T DDRPHY_DQ_wr90_dcc_adj_status
0x0800b683 T DDRPHY_DQ_wr90_dcc_cal
0x0800b7bd T DDRPHY_DQ_wr90_dcc_override
0x0800b839 T DDRPHY_DQ_wr90_dcc_stop
0x0800b853 T DDRPHY_DQ_wrlvl_auto_dcc_calibration
0x0800b8cd T DDRPHY_DQ_wrlvl_dcc_adj_status
0x0800b8eb T DDRPHY_DQ_wrlvl_dcc_cal
0x0800ba25 T DDRPHY_DQ_wrlvl_dcc_override
0x0800baa1 T DDRPHY_DQ_wrlvl_dcc_stop
0x0800babb T DDRSS_EBI1_PHY_Set_Training_Data
0x0800bb1d T DDRSS_RCW_training
0x0800bc6d T DDRSS_RCW_training_Per_Byte
0x0800bf15 T DDRSS_ca_training_histogram_update
0x0800c0a7 T DDRSS_ca_training_set_trained_results
0x0800c0f5 T DDRSS_dcc_cal
0x0800c1e1 T DDRSS_dcc_cal_set_trained_results
0x0800c229 T DDRSS_ddr_phy_ca_training
0x0800c741 T DDRSS_ddr_phy_dq_rd_training_ddrss
0x0800cced T DDRSS_ddr_phy_dq_wr_training_ddrss
0x0800d1f1 T DDRSS_dq_rd_set_dq_cdc_rd90_value
0x0800d241 T DDRSS_dq_rd_training_histogram_update
0x0800d325 T DDRSS_dq_rd_training_set_trained_results
0x0800d36d T DDRSS_dq_set_all_dq_cdc_rd90_to_coarse_fine
0x0800d39f T DDRSS_dq_set_all_dq_cdc_wr90_to_coarse_fine
0x0800d3d1 T DDRSS_dq_wr_set_dq_cdc_wr90_value
0x0800d421 T DDRSS_dq_wr_training_histogram_update
0x0800d4dd T DDRSS_dq_wr_training_set_trained_results
0x0800d525 T DDRSS_get_ca_exp_pattern
0x0800d5b7 T DDRSS_histogram_min_max_scan
0x0800d639 T DDRSS_look_up_table_full_cdc
0x0800d7c9 T EBI1_PHY_CFG_apply_dcc_cal_adj
0x0800d985 T EBI1_PHY_CFG_dcc_cal_stop
0x0800d9c1 T EBI1_PHY_CFG_dcc_init
0x0800db31 T EBI1_PHY_CFG_ddr_phy_ren_delay_update
0x0800db99 T EBI1_PHY_CFG_ddr_phy_ren_hw_mode
0x0800dbb7 T EBI1_PHY_CFG_ddr_phy_ren_reset
0x0800dbe1 T EBI1_PHY_CFG_ebi_ca_training_seq_read_cdc_perbit_deskew_delay
0x0800dbf1 T EBI1_PHY_CFG_ebi_ca_training_seq_restore_cdc_perbit_deskew_delay
0x0800dc01 T EBI1_PHY_CFG_ebi_ca_training_seq_set_cdc_perbit_deskew_delay
0x0800dc13 T EBI1_PHY_CFG_ebi_ca_training_seq_set_initial_cdc_perbit_deskew_delay
0x0800dc23 T EBI1_PHY_CFG_ebi_ca_training_seq_set_initial_cdc_wr90_delay
0x0800dc35 T EBI1_PHY_CFG_ebi_read_dq_training_status_for_ca_training
0x0800dd21 T EBI1_PHY_CFG_ebi_set_ca_cdc_wr90
0x0800dd31 T EBI1_PHY_CFG_ebi_set_exit_dq_for_ca_training
0x0800dd55 T EBI1_PHY_CFG_get_ren_cfg
0x0800dd79 T EBI1_PHY_CFG_set_ca_dcc_cal
0x0800dd85 T EBI1_PHY_CFG_set_dq_dcc_cal
0x0800ddb1 T EBI1_PHY_REN_Get_Trained_Results
0x0800de93 T HAL_config_timers
0x0800dea3 T HAL_config_vlimits
0x0800debf T HAL_rbcpr_bypass_sensor_all
0x0800ded9 T HAL_rbcpr_enable_block
0x0800df15 T HAL_rbcpr_get_rail_handle
0x0800df6d T HAL_rbcpr_mask_sensor_all
0x0800df87 T HAL_rbcpr_next_meas_en
0x0800df99 T HAL_rbcpr_pgm_timer
0x0800dfc9 T HAL_rbcpr_poll_result
0x0800e039 T HAL_rbcpr_poll_status_and_dont_return_until_not_busy
0x0800e095 T HAL_rbcpr_prgm_gcnt_target
0x0800e0b5 T HAL_rbcpr_read_efuse
0x0800e139 T HAL_rbcpr_read_fuse_setting
0x0800e14d T HAL_rbcpr_set_count_mode
0x0800e1a1 T HAL_rbcpr_use_redundant_fuses
0x0800e1a5 T HAL_rbcpr_write_consecutive_dn
0x0800e1bd T HAL_rbcpr_write_consecutive_up
0x0800e1d5 T HAL_rbcpr_write_dn_threshold
0x0800e1ed T HAL_rbcpr_write_stepquot
0x0800e219 T HAL_rbcpr_write_up_threshold
0x0800e239 T HAL_sdcc_DataControl
0x0800e271 T HAL_sdcc_FifoBlockRead
0x0800e2a5 T HAL_sdcc_FifoBlockWrite
0x0800e2ed T HAL_sdcc_HCModeEnable
0x0800e2f1 T HAL_sdcc_InitializeRegisters
0x0800e339 T HAL_sdcc_SetBusWidth
0x0800e36d T HAL_sdcc_SetSdCmd
0x0800e3c1 T HAL_sdcc_Supports8BitBus
0x0800e3c5 T HAL_sdcc_WaitWrActive
0x0800e3e1 T HAL_sdhci_PowerSave
0x0800e3e5 T HAL_tlmm_ConfigGpio
0x0800e441 T HAL_tlmm_Init
0x0800e455 T HAL_tlmm_SetPort
0x0800e471 T HAL_tlmm_WriteConfig
0x0800e489 T HAL_tlmm_WriteGpio
0x0800e4c5 T HAL_tsens_CalSelect
0x0800e4d5 T HAL_tsens_ConfigSensor
0x0800e505 T HAL_tsens_DisableInterrupt
0x0800e56d T HAL_tsens_EnableInterrupt
0x0800e5cd T HAL_tsens_GetBaseX1
0x0800e5e1 T HAL_tsens_GetBaseX2
0x0800e5f5 T HAL_tsens_GetMaxCode
0x0800e5fb T HAL_tsens_GetPointX1
0x0800e68b T HAL_tsens_GetPointX2
0x0800e715 T HAL_tsens_GetSensorPrevTemp
0x0800e731 T HAL_tsens_Init
0x0800e741 T HAL_tsens_Reset
0x0800e765 T HAL_tsens_SelectADCClkSrc
0x0800e791 T HAL_tsens_SetPeriod
0x0800e7ad T HAL_tsens_SetSensorsEnabled
0x0800e7dd T HAL_tsens_SetState
0x0800e809 T HAL_tsens_SetThreshold
0x0800e885 T HAL_tsens_TempMeasurementIsComplete
0x0800e89d T HAL_tsens_UseRedundant
0x0800e8a1 T HALuart_DisableInterrupts
0x0800e8b7 T HALuart_GetFifoSize
0x0800e8c7 T HALuart_GetInterruptStatus
0x0800e8d1 T HALuart_GetStatus
0x0800e8db T HALuart_GetTxFifoSize
0x0800e8e3 T HALuart_ResetErrorStatus
0x0800e8eb T HALuart_ResetReceiver
0x0800e8f3 T HALuart_ResetTransmitter
0x0800e8fb T HALuart_SetAutoInboundFlowCtl
0x0800e90d T HALuart_SetCharFormat
0x0800e92f T HALuart_SetCmdSynchronization
0x0800e941 T HALuart_SetDivider
0x0800e947 T HALuart_SetDmaEnable
0x0800e95d T HALuart_SetIrdaEnable
0x0800e977 T HALuart_SetLoopback
0x0800e98d T HALuart_SetOutboundFlowCtl
0x0800e99f T HALuart_SetRxEnable
0x0800e9ad T HALuart_SetRxSCEnable
0x0800e9c3 T HALuart_SetRxWatermark
0x0800e9e1 T HALuart_SetStaleEvent
0x0800e9f3 T HALuart_SetStaleTimeout
0x0800ea15 T HALuart_SetTxEnable
0x0800ea23 T HALuart_SetTxFifoSize
0x0800ea2b T HALuart_SetTxSCEnable
0x0800ea41 T HALuart_SetTxWatermark
0x0800ea57 T HALuart_SetupDmaRx
0x0800ea5b T HALuart_WriteTxFifo
0x0800eaad T I2CDEVQUP_CalcTransferInOutSize
0x0800ec09 T I2CDEVQUP_ConfigureQupIo
0x0800ed65 T I2CDEVQUP_ConfigureSequenceTransferIo
0x0800ee51 T I2CDEVQUP_InitInSeqInfo
0x0800ee67 T I2CDEVQUP_InitOutSeqInfo
0x0800eeb1 T I2CDEVQUP_ProcesQupHwEvts
0x0800f195 T I2CDEV_BatchTransfer
0x0800f255 T I2CDEV_DeInit
0x0800f2d7 T I2CDEV_Init
0x0800f3d5 T I2CDEV_SetPowerState
0x0800f3f9 T I2CDEV_Write
0x0800f4c5 T I2CPLATDEV_DeInitTarget
0x0800f575 T I2CPLATDEV_InitTarget
0x0800f5ed T I2CPLATDEV_ReadPlatConfig
0x0800f6bd T I2CPLATDEV_ReadProperties
0x0800f6cd T I2CPLATDEV_SetPowerState
0x0800f6fd T I2CSYS_BusyWait
0x0800f701 T I2CSYS_ClearEvent
0x0800f705 T I2CSYS_CloseHandle
0x0800f71d T I2CSYS_CreateCriticalSection
0x0800f75d T I2CSYS_CreateEvent
0x0800f761 T I2CSYS_DestroyCriticalSection
0x0800f78d T I2CSYS_DestroyEvent
0x0800f791 T I2CSYS_EnterCriticalSection
0x0800f79d T I2CSYS_Free
0x0800f7b1 T I2CSYS_LeaveCriticalSection
0x0800f7bd T I2CSYS_Malloc
0x0800f7dd T I2CSYS_Memset
0x0800f7ed T I2CSYS_RegisterISTHooks
0x0800f7f1 T I2CSYS_SetEvent
0x0800f7f5 T I2CSYS_UnRegisterISTHooks
0x0800f7f9 T I2CSYS_Wait
0x0800f7fd T I2C_DalI2C_Attach
0x0800f801 T ICB_Config_Init
0x0800fa2d T ICB_Get_Memmap
0x0800fa5f T ICB_Remap
0x0800fc1f T ICB_Segments_Init
0x0800fc9d T IsExternalMemReady
0x0800fcb7 T PlatformInfo_CDTConfigPostDDR
0x0800fce1 T PlatformInfo_CDTConfigPreDDR
0x0800fe1d T PlatformInfo_DeviceAttach
0x0800fe85 T PlatformInfo_DriverInit
0x0800fe89 T PlatformInfo_GetKeyValue
0x0800fed5 T PlatformInfo_GetPlatform
0x0800fee5 T PlatformInfo_GetPlatformInfo
0x08010189 T PmicArb_ConfigHW
0x0801018d T PmicArb_ExecuteCommand
0x080102ed T PmicArb_FindChannel
0x08010339 T PmicArb_GetHwStatus
0x0801035d T PmicArb_HasInterruptSupport
0x08010369 T PmicArb_Init
0x08010461 T PrngCL_getdata
0x0801050b T PrngCL_lite_deinit
0x08010511 T PrngCL_lite_init
0x08010529 T PrngEL_ClkDisable
0x0801052d T PrngEL_ClkEnable
0x08010531 T PrngML_getdata_lite
0x08010ce1 T SpmiBus_DeInit
0x08010d1d T SpmiBus_Init
0x08010d61 T SpmiBus_ReadLong
0x08010d81 T SpmiBus_WriteLong
0x08010da1 T SpmiCfg_ConfigureChannels
0x08010e6d T SpmiCfg_Init
0x08010ea5 T SpmiHal_Init
0x08010eb9 T SpmiMaster_ConfigHW
0x08011071 T SpmiMaster_LoadFirmware
0x08011191 T SpmiMaster_LoadRadixTree
0x0801123d T SpmiOsNhlos_GetDalProp
0x080112d5 T SpmiOs_Free
0x080112d9 T SpmiOs_GetAhbClkState
0x08011311 T SpmiOs_GetOwnerId
0x08011335 T SpmiOs_GetPmicArbBaseAddr
0x080113c9 T SpmiOs_GetSerialClkState
0x08011401 T SpmiOs_GetTimeTick
0x08011407 T SpmiOs_Malloc
0x0801140b T SpmiOs_RegisterISR
0x0801140f T SpmiOs_Wait
0x08011413 T System_DalSystem_Attach
0x0801141b T TLMM_Close
0x0801141f T TLMM_ConfigGpio
0x08011431 T TLMM_ConfigGpioGroup
0x0801150d T TLMM_DalTlmm_Attach
0x080115b9 T TLMM_DeviceDeInit
0x080115d1 T TLMM_DeviceInit
0x08011815 T TLMM_DriverDeInit
0x08011819 T TLMM_DriverInit
0x0801181d T TLMM_GpioOut
0x0801182b T TLMM_Info
0x08011845 T TLMM_Open
0x08011849 T TLMM_PostInit
0x080118a1 T TLMM_PowerEvent
0x080118a5 T TLMM_SetInactiveConfig
0x080118e9 T TLMM_SetPort
0x0801194d T Tlmm_ConfigGpioGroup
0x08011a71 T Tlmm_Init
0x08011b09 T Tsens_GetTemp
0x08011bf1 T Tsens_Init
0x08011df1 T Tsensi_CalibrationInit
0x08011f71 T Tsensi_ConvertFromDegC
0x08011fc5 T Tsensi_ConvertToDegC
0x08012061 T Uart_busy_wait
0x08012065 T Uart_clock_close
0x080120b1 T Uart_clock_open
0x08012135 T Uart_deinit
0x080121bd T Uart_get_driver_properties
0x08012225 T Uart_get_properties
0x08012325 T Uart_init
0x08012439 T Uart_tlmm_close
0x0801249d T Uart_tlmm_open
0x0801251b T Uart_transmit
0x08012595 T VAdcHalGetConversionCode
0x080125e9 T VAdcHalGetRevisionInfo
0x08012655 T VAdcHalGetStatus
0x080126e9 T VAdcHalRequestConversion
0x08012721 T VAdcHalSetConversionParameters
0x08012835 T VAdcHalSetEnable
0x08012899 T VAdcHalSetOpMode
0x080128fd T VAdcHalSetSequencerParameters
0x08012985 T VAdcHalStoreFabID
0x08012a01 T VAdcScalePmicTherm
0x08012a15 T VAdcScaleTdkNTCGTherm
0x08012a53 T VAdc_Calibrate
0x08012b4f T VAdc_Close
0x08012b75 T VAdc_DalAdcDevice_Attach
0x08012c73 T VAdc_DeviceDeInit
0x08012c95 T VAdc_DeviceInit
0x08012dd5 T VAdc_DriverDeInit
0x08012dd9 T VAdc_DriverInit
0x08012ddd T VAdc_GetChannel
0x08012e29 T VAdc_GetChannelStatus
0x08012e2f T VAdc_GetDeviceProperties
0x08012e3b T VAdc_Info
0x08012e55 T VAdc_Open
0x08012e75 T VAdc_PowerEvent
0x0801309f T VAdc_ReadChannelSync
0x080130ef T VAdc_RecalibrateChannel
0x080130f5 T VAdc_RecalibrateChannelSync
0x0801319d T VAdc_ScaleResult
0x08013201 T VAdc_ScaleResultAbsolute
0x08013259 T VAdc_StartConversion
0x08013459 T _DALSYS_GetDALPropertyHandle
0x0801349d T _DALSYS_GetPropertyValue
0x0801354b T _DALSYS_memscpy
0x080137d5 T __rt_raise
0x08013805 T __stack_chk_fail
0x080138e9 T _f_addentry
0x08013c99 T _f_addlfn
0x08013f15 T _f_alloc_cluster_for_dir
0x08014029 T _f_alloccluster
0x08014161 T _f_allocnextcluster
0x080142b9 T _f_check_handle
0x080142ed T _f_checkappendlocked
0x08014359 T _f_checklocked
0x08014419 T _f_checkreadlocked
0x080144bd T _f_checkstatus
0x080145bd T _f_clustertopos
0x08014605 T _f_cmp_wname
0x08014761 T _f_dobadblock
0x08014885 T _f_drivenum_to_index
0x080148d5 T _f_drvreadsector
0x0801495f T _f_emptywritebuffer
0x08014a1f T _f_emptywritecache
0x08014c01 T _f_fatcache_flush
0x08014de9 T _f_findopensize
0x08014fc9 T _f_fseek
0x080151c9 T _f_get16bitl
0x080151d3 T _f_get32bitl
0x0801531d T _f_getclustervalue
0x0801543d T _f_getcurrsector
0x080155e1 T _f_getdecluster
0x08015615 T _f_getdirsector
0x08015815 T _f_getmaxcluster
0x08015869 T _f_getvolume
0x08015991 T _f_initentry
0x080159e1 T _f_mutex_get
0x080159f1 T _f_mutex_put
0x08015dd3 T _f_readsector
0x08015e79 T _f_removechain
0x08016155 T _f_set16bitl
0x0801615d T _f_set32bitl
0x0801616d T _f_setclustervalue
0x080162ed T _f_setdecluster
0x08016481 T _f_syncfiles
0x0801651d T _f_syncfilescontent
0x08016599 T _f_updatefileentry
0x0801666d T _f_writedirsector
0x080166c9 T _f_writefatsector
0x08016733 T _f_writesector
0x08016743 T _f_writesector_is_udata
0x08016815 T _f_writesector_udata
0x08016825 T _f_writezeros
0x0801692d T _fn_initseekdivisor
0x08016989 T _fn_removeseekpos
0x080169bb T _fn_updateseekpos
0x08016a49 T _is_digit
0x08016a57 T add
0x08016c2b T adjust_channel
0x08016e17 T adjust_memory_map
0x0801719d T apt_test
0x080171b1 T bByteCompare
0x080171e1 T bLoad8
0x080171f5 T bStor8
0x08017219 T blockdev_close
0x0801724d T blockdev_devnull_get_ops
0x08017311 T blockdev_driver_get_total_devices
0x08017315 T blockdev_find_by_type
0x08017355 T blockdev_get_device_size
0x0801737d T blockdev_get_entire_device_id
0x08017395 T blockdev_get_name
0x080173ad T blockdev_get_type
0x080173c5 T blockdev_init
0x080173f9 T blockdev_is_embedded_device
0x08017415 T blockdev_is_present
0x08017431 T blockdev_open
0x0801744d T blockdev_read
0x08017491 T blockdev_reset
0x080174f5 T blockdev_sd_device_data_init
0x0801757d T blockdev_sd_get_device_data
0x080176f9 T blockdev_sd_get_ops
0x08017a65 T blockdev_uwrite
0x08017aa9 T blockdev_write
0x08017aed T boot_BootTempCheck
0x08017af1 T boot_CeMLDeInit
0x08017af5 T boot_CeMLHashDeInit
0x08017af9 T boot_CeMLHashFinal
0x08017afd T boot_CeMLHashInit
0x08017b01 T boot_CeMLHashUpdate
0x08017b11 T boot_CeMLInit
0x08017b15 T boot_DALSYS_HeapInit
0x08017b19 T boot_DALSYS_InitMod
0x08017b1d T boot_DAL_DeviceAttachEx
0x08017b21 T boot_DAL_DeviceDetach
0x08017b25 T boot_DalPlatformInfo_CDTConfigPostDDR
0x08017b2b T boot_DalPlatformInfo_CDTConfigPreDDR
0x08017b31 T boot_ICB_Config_Init
0x08017b35 T boot_ICB_Remap
0x08017b39 T boot_ICB_Segments_Init
0x08017b3d T boot_PrngML_getdata_lite
0x08017b41 T boot_Tsens_Init
0x08017b45 T boot_apt_test
0x08017b49 T boot_auth_image
0x08017c09 T boot_auth_load_header
0x08017d39 T boot_busywait
0x08017d3d T boot_busywait_init
0x08017d41 T boot_cache_set_memory_barrier
0x08017d75 T boot_check_device_temp
0x08017df1 T boot_clobber_add_global_protection_region
0x08017e89 T boot_clobber_add_local_hole
0x08017efd T boot_clobber_check_global_address_range
0x08017f71 T boot_clobber_check_global_whitelist_range
0x08017ff9 T boot_clobber_check_local_address_range
0x08018081 T boot_clobber_clear_whitelist_table
0x080180c5 T boot_clobber_import_whitelist_table
0x080180d1 T boot_clobber_local_init
0x080180dd T boot_clobber_remove_global_whitelist_region
0x08018145 T boot_clock_debug_init
0x08018149 T boot_clock_exit_boot
0x0801814d T boot_clock_get_apps_speed
0x08018151 T boot_clock_get_ddr_speed
0x08018155 T boot_clock_init
0x0801815d T boot_clock_set_L2_perf_level
0x08018161 T boot_clock_set_cpu_perf_level
0x08018165 T boot_config_data_table_init
0x08018225 T boot_config_process_bl
0x0801855d T boot_count_set_bits
0x0801856f T boot_cpr_init
0x08018575 T boot_data_abort_c_handler
0x0801859d T boot_ddr_do_ddr_training
0x080185a1 T boot_ddr_get_info
0x080185a5 T boot_ddr_get_partition
0x080185a9 T boot_ddr_get_size
0x080185ad T boot_ddr_initialize_device
0x080185b1 T boot_ddr_params_get_training_data
0x080185b5 T boot_ddr_params_is_training_on_rpm_required
0x080185b9 T boot_ddr_params_is_training_required
0x080185bd T boot_ddr_params_set_training_data
0x080185c1 T boot_ddr_post_init
0x080185c5 T boot_ddr_set_params
0x080185c9 T boot_ddr_test
0x080186cd T boot_dload_check
0x0801875d T boot_dload_clock_init
0x08018761 T boot_dload_dump_security_regions
0x080187b9 T boot_dload_entry
0x080187dd T boot_dload_is_dload_mode_set
0x080187f5 T boot_dload_set_cookie
0x08018805 T boot_dload_transition_enter_sahara
0x08018845 T boot_dload_transition_pbl_forced_dload
0x08018865 T boot_do_procedures
0x080188a9 T boot_efs_close
0x080188ad T boot_efs_closedir
0x080188b1 T boot_efs_handle_cookies
0x080188b5 T boot_efs_lseek
0x080188b9 T boot_efs_mkdir
0x080188bd T boot_efs_open
0x080188dd T boot_efs_opendir
0x080188e1 T boot_efs_unlink
0x080188e5 T boot_efs_write
0x08018aa1 T boot_elf_load_init_hash_segment
0x080191ad T boot_elf_set_auth_and_ssa_enable
0x080191d5 T boot_elf_verify_elf_hdr
0x08019605 T boot_elf_ziinit_structures
0x08019671 T boot_enable_led
0x08019699 T boot_err_fatal
0x080196c9 T boot_error_handler
0x080197c1 T boot_fiq_c_handler
0x080197f1 T boot_flash_dev_default_stub
0x080197f5 T boot_flash_dev_if_get_singleton
0x0801982d T boot_flash_dev_if_lock_singleton
0x08019869 T boot_flash_dev_if_register_singleton
0x080198a5 T boot_flash_dev_sdcc_if_get_singleton
0x080198e5 T boot_flash_dev_sdcc_if_register_singleton
0x08019929 T boot_flash_dev_sdcc_init_and_register
0x08019991 T boot_flash_init
0x080199e1 T boot_flash_target_init
0x08019b05 T boot_flash_trans_sdcc_factory_init
0x08019c69 T boot_get_config_data_block
0x08019d21 T boot_get_ddr_info
0x08019d5d T boot_get_delta_time
0x08019d7d T boot_get_elf_eident_class
0x08019d89 T boot_get_elf_entry_address
0x08019dad T boot_get_hash_buffer_size
0x08019db5 T boot_get_hash_segment_buffer
0x08019dbd T boot_get_hash_table_auth_result
0x08019dc9 T boot_get_sbl_auth_verified_info
0x08019dd1 T boot_get_time
0x08019e15 T boot_gpio_enable_led
0x08019e65 T boot_gpio_init
0x08019e95 T boot_hash
0x08019ec9 T boot_hashFinal
0x08019f61 T boot_hashInit
0x08019fc9 T boot_hashUpdate
0x0801a00d T boot_hotplug_close_device
0x0801a011 T boot_hotplug_dev_get_size
0x0801a015 T boot_hotplug_dev_read
0x0801a019 T boot_hotplug_dev_write
0x0801a01d T boot_hotplug_init
0x0801a021 T boot_hotplug_open_device_by_gpt_partition_type
0x0801a025 T boot_hotplug_open_device_by_partition_type
0x0801a029 T boot_hotplug_poll_and_mount_first_fat
0x0801a02d T boot_hotplug_poll_device
0x0801a031 T boot_image_populate_uuid
0x0801a035 T boot_image_version_initialize_version_table
0x0801a039 T boot_image_version_populate_version
0x0801a03d T boot_init_for_dload
0x0801a041 T boot_init_stack_chk_canary
0x0801a085 T boot_init_timer
0x0801a0f5 T boot_irq_c_handler
0x0801a125 T boot_is_auth_enabled
0x0801a145 T boot_l2_page_table_init
0x0801a211 T boot_led_gpio_set
0x0801a2a1 T boot_load_elf_image
0x0801a2c1 T boot_load_header_and_image
0x0801a401 T boot_log_apps_frequency
0x0801a465 T boot_log_boot_config_register
0x0801a4bd T boot_log_copy_ram
0x0801a53d T boot_log_ddr_frequency
0x0801a59d T boot_log_deinit_uart
0x0801a5a9 T boot_log_delta_time
0x0801a5af T boot_log_delta_time_optional_data
0x0801a5d7 T boot_log_dump
0x0801a5d9 T boot_log_forever_loop_check
0x0801a5f1 T boot_log_get_meta_info
0x0801a5fd T boot_log_get_time
0x0801a601 T boot_log_image_version
0x0801a67d T boot_log_init
0x0801a6a9 T boot_log_init_ram
0x0801a70d T boot_log_init_uart
0x0801a719 T boot_log_message
0x0801a71f T boot_log_message_optional_data
0x0801a749 T boot_log_message_ram
0x0801a7fd T boot_log_message_raw
0x0801a825 T boot_log_message_uart
0x0801a9b1 T boot_log_relocate
0x0801a9d5 T boot_log_set_meta_info
0x0801a9e1 T boot_log_set_ref_time
0x0801a9f1 T boot_log_start_timer
0x0801a9f5 T boot_log_stop_timer
0x0801a9fb T boot_log_stop_timer_optional_data
0x0801aaad T boot_mmu_copy_page_table
0x0801ab41 T boot_mmu_page_table_map_mem_block_list
0x0801abc5 T boot_mmu_page_table_map_single_mem_block
0x0801ac09 T boot_nested_exception_c_handler
0x0801ac0d T boot_pbl_get_flash_shared_data
0x0801ac41 T boot_pbl_get_flash_type
0x0801ac75 T boot_pbl_interface_init
0x0801ac91 T boot_pbl_is_auth_enabled
0x0801acad T boot_pbl_log_milestones
0x0801ad09 T boot_pm_dev_get_power_on_reason
0x0801ad0d T boot_pm_device_init
0x0801ad11 T boot_pm_driver_init
0x0801ad15 T boot_pm_enable_led
0x0801ad33 T boot_pm_init_smem
0x0801ad37 T boot_pm_oem_init
0x0801ad3b T boot_pm_pon_ps_hold_cfg
0x0801ad3f T boot_pm_pon_warm_reset_status
0x0801ad43 T boot_pm_pon_warm_reset_status_clear
0x0801ad47 T boot_pm_rtc_get_time
0x0801ad4b T boot_populate_cpr_settings
0x0801ad51 T boot_populate_ram_partition_table
0x0801adc7 T boot_pre_ddr_clock_init
0x0801adcb T boot_pre_i2c_clock_init
0x0801add1 T boot_prefetch_abort_c_handler
0x0801b41d T boot_qhsusb_al_bulk_init
0x0801b421 T boot_qsee_cond_zero_peripheral_memory
0x0801b435 T boot_qsee_is_memory_dump_allowed
0x0801b439 T boot_qsee_is_retail_unlocked
0x0801b43d T boot_qsee_zero_peripheral_memory
0x0801b441 T boot_railway_init
0x0801b4f9 T boot_ram_dump_header_init
0x0801b5cd T boot_ram_dump_to_raw_parition
0x0801b64d T boot_ram_dumps_to_sd_card
0x0801b6b9 T boot_ram_init
0x0801b7b5 T boot_reserved_c_handler
0x0801b871 T boot_rollback_get_fuse_version
0x0801b8f9 T boot_rollback_init_img_set_table
0x0801b955 T boot_rollback_update_img_version
0x0801b989 T boot_sahara_elf_segment_is_loadable
0x0801ba19 T boot_sahara_entry
0x0801cc4d T boot_sahara_set_is_ssa_enabled
0x0801cdd5 T boot_save_reset_register_log
0x0801cdd7 T boot_sbl_qsee_interface_get_eident
0x0801ce01 T boot_sbl_qsee_interface_get_entry_point
0x0801ce2b T boot_sbl_qsee_interface_get_secboot_info
0x0801ce55 T boot_sdcc_boot_set_device_info
0x0801ce59 T boot_secboot_ftbl_init
0x0801ce7d T boot_secboot_get_ftbl
0x0801ce81 T boot_secboot_hw_get_ftbl
0x0801ce85 T boot_secure_watchdog_init
0x0801cfa5 T boot_set_ddr_info
0x0801cffd T boot_set_hash_algo
0x0801d025 T boot_set_hash_table_auth_result
0x0801d031 T boot_set_sdcc_boot_device_info
0x0801d129 T boot_share_extended_ddr_info
0x0801d3c1 T boot_share_flash_data
0x0801d3c5 T boot_shared_imem_init
0x0801d3f1 T boot_smem_alloc
0x0801d3f5 T boot_smem_boot_debug_init
0x0801d3f9 T boot_smem_boot_init
0x0801d3fd T boot_smem_debug_init
0x0801d401 T boot_smem_init
0x0801d455 T boot_smem_store_pon_status
0x0801d481 T boot_start_timer
0x0801d499 T boot_statistics_flash_read_start
0x0801d4a9 T boot_statistics_flash_read_stop
0x0801d4d5 T boot_statistics_get_flash_byte_counter
0x0801d4f5 T boot_statistics_log_flash
0x0801d589 T boot_statistics_reset_flash_byte_counter
0x0801d595 T boot_stop_timer
0x0801d5d9 T boot_store_tpm_hash_block
0x0801d681 T boot_strlen
0x0801d699 T boot_swi_c_handler
0x0801d6c9 T boot_toggle_led
0x0801d6fd T boot_toggle_led_init
0x0801d711 T boot_uart_deinit
0x0801d715 T boot_uart_init
0x0801d719 T boot_uart_tx
0x0801d71d T boot_undefined_instruction_c_handler
0x0801d74d T boot_update_auth_image_info
0x0801d799 T boot_update_config_data_table
0x0801d9e1 T boot_update_section_header_table_by_index
0x0801dac1 T boot_usb_al_bulk_get_max_packet_size
0x0801dac5 T boot_usb_al_bulk_get_max_raw_data_size
0x0801dac9 T boot_usb_al_bulk_poll
0x0801dacd T boot_usb_al_bulk_receive
0x0801dad1 T boot_usb_al_bulk_shutdown
0x0801dad5 T boot_usb_al_bulk_transmit
0x0801dad9 T boot_usb_al_check_for_pbl_dload
0x0801db15 T booting_from_storage_media
0x0801db35 T busywait
0x0801db69 T busywait_init
0x0801dca1 T check_fec_error
0x0801ddc1 T clear_histogram
0x0801de19 T clear_remaps
0x0801debd T compare
0x0801dee3 T compress_regions
0x0801e267 T configure_remaps
0x0801e36d T convert_ddr_regions
0x0801e553 T count_leading_zeroes
0x0801e567 T count_set_bits
0x0801e5c7 T count_trailing_zeroes
0x0801e5f5 T crc_30_step
0x0801e681 T crc_32_calc
0x0801e835 T dci_clk_regime_msm_reset_assert
0x0801e871 T dci_clk_regime_msm_reset_deassert
0x0801e8a9 T dci_dcache_flush
0x0801e8ad T dci_dcache_inval
0x0801e8b1 T dci_detect_charger_type
0x0801ee6d T dci_init_phy
0x0801eec9 T dci_is_streaming_mode_disable_required
0x0801ef35 T dci_set_bulk_progress
0x0801ef5d T dci_skip_enumeration
0x0801efed T ddr_do_phy_training
0x0801f16d T ddr_enter_deep_power_down
0x0801f1dd T ddr_enter_self_refresh
0x0801f24d T ddr_exit_deep_power_down
0x0801f2c5 T ddr_exit_self_refresh
0x0801f335 T ddr_get_info
0x0801f37d T ddr_get_partition
0x0801f3f1 T ddr_get_shared_header
0x0801f3fd T ddr_get_size
0x0801f449 T ddr_get_trained_params
0x0801f465 T ddr_get_training_checksum
0x0801f481 T ddr_get_training_cookie
0x0801f495 T ddr_init
0x0801f4dd T ddr_initialize_device
0x0801f585 T ddr_mem_read
0x0801f5a5 T ddr_mem_write_high_speed
0x0801f5cd T ddr_mem_write_low_speed
0x0801f64d T ddr_params_get_training_data
0x0801f65d T ddr_params_is_training_on_rpm_required
0x0801f661 T ddr_params_is_training_required
0x0801f67d T ddr_params_set_training_data
0x0801f6ad T ddr_phy_training
0x0801f7f1 T ddr_post_clock_switch
0x0801f7f9 T ddr_post_init
0x0801f825 T ddr_pre_clock_switch
0x0801f82d T ddr_set_params
0x0801f88d T ddr_set_training_checksum
0x0801f8b5 T ddr_set_training_cookie
0x0801f8c9 T ddr_target_init
0x0801f951 T ddr_test
0x0801fbe5 T ddr_test_all
0x0801fe11 T ddr_test_exit
0x08020225 T ddr_training_is_required
0x0802029d T ddr_update_info
0x08020491 T ddr_update_size
0x080204f5 T ddr_write
0x0802083d T dev_sdcc_read_bytes
0x080209cd T dev_sdcc_write_bytes
0x08020e2d T dload_debug_add_region
0x08020ea5 T dload_debug_add_restricted_region
0x08020edd T dload_mem_debug_filename
0x08020f05 T dload_mem_debug_init
0x08021069 T dload_mem_debug_is_device_retail_unlocked
0x08021079 T dload_mem_debug_is_restricted_addr
0x08021101 T dload_mem_debug_len
0x08021165 T dload_mem_debug_len_init
0x08021171 T dload_mem_debug_mem_base
0x08021199 T dload_mem_debug_mem_length
0x080211c1 T dload_mem_debug_num_ent
0x080211cd T dload_mem_debug_supported
0x08021231 T dload_mem_debug_table_addr
0x08021239 T dload_mem_debug_target_init
0x08021361 T dload_mem_debug_verify_addr
0x080213e9 T dload_mem_debug_zero_peripheral_memory
0x08021b49 T efs_boot_init_romfs
0x08021bcd T efs_close
0x08021c0d T efs_closedir
0x08021c71 T efs_get_errno_address
0x08021c85 T efs_handle_cookies
0x08021d2d T efs_lseek
0x08021e95 T efs_mkdir
0x08021f01 T efs_mount
0x08021f99 T efs_open
0x080220fd T efs_opendir
0x080221c5 T efs_unlink
0x08022281 T efs_write
0x080228e9 T f_mutex_create
0x080228f1 T f_mutex_delete
0x080228f9 T f_mutex_get
0x08022909 T f_mutex_put
0x08022929 T fill_lfn_entry
0x08022a0d T find_bn_MSB1
0x08022be5 T fm_close
0x08022c09 T fm_delvolume
0x08022c2d T fm_enable_lfn_support
0x08022c31 T fm_ftruncate
0x08022c59 T fm_getfreespace
0x08022c81 T fm_getlabel
0x08022cad T fm_initvolume
0x08022cd9 T fm_read
0x08022d0f T fm_seek
0x08022d3b T fm_setlabel
0x08022d63 T fm_wdelete
0x08022d87 T fm_wfindfirst
0x08022daf T fm_wfindnext
0x08022dd3 T fm_wmkdir
0x08022df7 T fm_wopen
0x08022e1f T fm_wrename
0x08022edf T fm_write
0x08022f15 T fm_wrmdir
0x08022f39 T fm_wsetaccmodtime
0x08022f6f T fm_wsetattr
0x08022f97 T fm_wstat
0x08022fc1 T fnSetTask
0x08023065 T fn_close
0x08023159 T fn_createdriver
0x080231d9 T fn_delvolume
0x08023289 T fn_enable_lfn_support
0x08023295 T fn_ftruncate
0x080232e1 T fn_getdrive
0x080232f5 T fn_getfreespace
0x08023499 T fn_getlabel
0x080235ad T fn_getsize_from_fp
0x080235c9 T fn_gettaskID
0x080235cd T fn_init
0x08023619 T fn_initvolume
0x080236d5 T fn_initvolumepartition
0x08023751 T fn_read
0x080239ad T fn_releasedriver
0x08023a19 T fn_seek
0x08023ae9 T fn_seteof
0x08023bdd T fn_setlabel
0x08023db5 T fn_setlasterror
0x08023dbd T fn_setlasterror_noret
0x08023dc3 T fn_wdelete
0x08023f5b T fn_wfindfirst
0x08023fd1 T fn_wfindnext
0x080240f5 T fn_wgetdcwd
0x080241a5 T fn_wmkdir
0x080244bd T fn_wmove
0x08024acd T fn_wopen
0x08025195 T fn_wrename
0x080254bd T fn_write
0x080257e9 T fn_wrmdir
0x08025a21 T fn_wsetaccmodtime
0x08025b39 T fn_wsetattr
0x08025c3f T fn_wstat
0x08025da7 T free
0x08025ded T fs_ConvertUTF16toUTF8
0x08025eed T fs_ConvertUTF8toUTF16
0x080260ad T fs_cookie_get_handle_for_ram
0x08026109 T fs_cookie_init
0x08026189 T fs_cookie_iter_close
0x0802619d T fs_cookie_iter_get_next
0x080261d5 T fs_cookie_iter_open
0x08026301 T fs_cookie_release_handle
0x08026359 T fs_cookie_remove_all_cookies
0x080263b1 T fs_desc_alloc
0x0802641d T fs_desc_free
0x08026425 T fs_desc_init
0x08026431 T fs_desc_lookup
0x0802644d T fs_efs2_protect_memory
0x0802644f T fs_efs2_unprotect_memory
0x08026451 T fs_extfs_init
0x080264b1 T fs_fat_to_posix_time
0x080264f3 T fs_global_lock
0x080264f9 T fs_global_lock_init
0x0802650d T fs_global_unlock
0x08026511 T fs_hfat_init
0x0802653d T fs_inode_construct
0x0802657b T fs_isLegalUTF8
0x08026611 T fs_is_path_valid
0x08026629 T fs_memscpy
0x0802669d T fs_memsmove
0x08026789 T fs_mount_init
0x080267b9 T fs_mount_mount
0x080267d9 T fs_mount_register
0x0802680d T fs_mount_root
0x08026831 T fs_namei
0x08026aa5 T fs_nodevfs_init
0x08026ad1 T fs_os_self
0x08026bed T fs_posix_to_fat_date
0x08026c39 T fs_posix_to_fat_time
0x0802715d T fs_rmts_guid_get_mbr_partition_id
0x080271c9 T fs_romfs_init
0x08027205 T fs_time
0x0802722d T fs_time_ms
0x08027235 T fs_time_ms_u64
0x0802724d T fs_vnode_alloc
0x08027275 T fs_vnode_getref
0x08027279 T fs_vnode_init
0x080272bd T fs_vnode_invalid_borrow_ram
0x080272c3 T fs_vnode_invalid_chmod
0x080272c9 T fs_vnode_invalid_chown
0x080272cf T fs_vnode_invalid_closedir
0x080272d5 T fs_vnode_invalid_create
0x080272db T fs_vnode_invalid_fs_init_complete
0x080272e1 T fs_vnode_invalid_get_device_attr
0x080272e7 T fs_vnode_invalid_get_fs_data
0x080272ed T fs_vnode_invalid_get_group_info
0x080272f3 T fs_vnode_invalid_get_item
0x080272f9 T fs_vnode_invalid_get_volume_name
0x080272ff T fs_vnode_invalid_getsize
0x08027305 T fs_vnode_invalid_getstat
0x0802730b T fs_vnode_invalid_image_prepare
0x08027311 T fs_vnode_invalid_link
0x08027317 T fs_vnode_invalid_lock_efs
0x0802731d T fs_vnode_invalid_lookup
0x08027323 T fs_vnode_invalid_make_golden_copy
0x08027329 T fs_vnode_invalid_mkdir
0x0802732f T fs_vnode_invalid_mknod
0x08027335 T fs_vnode_invalid_opendir
0x08027339 T fs_vnode_invalid_put_item
0x0802733f T fs_vnode_invalid_read
0x08027345 T fs_vnode_invalid_readdir
0x0802734b T fs_vnode_invalid_readlink
0x08027351 T fs_vnode_invalid_rename
0x08027357 T fs_vnode_invalid_rmdir
0x0802735d T fs_vnode_invalid_scrub
0x08027363 T fs_vnode_invalid_set_quota
0x08027369 T fs_vnode_invalid_set_reservation
0x0802736f T fs_vnode_invalid_set_volume_name
0x08027375 T fs_vnode_invalid_shred
0x0802737b T fs_vnode_invalid_store_data_in_sb
0x08027381 T fs_vnode_invalid_symlink
0x08027387 T fs_vnode_invalid_sync_end
0x0802738d T fs_vnode_invalid_sync_get_status
0x08027393 T fs_vnode_invalid_sync_no_wait
0x08027399 T fs_vnode_invalid_sync_start
0x0802739f T fs_vnode_invalid_sync_wait
0x080273a5 T fs_vnode_invalid_truncate
0x080273ab T fs_vnode_invalid_unlink
0x080273b1 T fs_vnode_invalid_utime
0x080273b7 T fs_vnode_invalid_write
0x080273bd T fs_vnode_lookup
0x08027441 T fs_vnode_named_lookup
0x080274fd T fs_vnode_ref
0x08027505 T fs_vnode_unref
0x08027545 T get_device_configuration
0x080276d1 T get_hotplug_dev_handle
0x08027809 T get_largest_valid_size
0x08027839 T get_minimum_segment_count
0x080279ed T get_partition_category
0x08027ad7 T get_sfn_checksum
0x08027b09 T get_simple_segment_count
0x08027b7d T get_system_memory_map
0x080285f1 T hfat_allocate_f_lfnint_buffer
0x08028639 T hfat_allocate_f_name_buffer
0x08028679 T hfat_allocate_path_buffer
0x080286b9 T hfat_device_init
0x08028743 T hfat_free_f_lfnint_buffer
0x0802875b T hfat_free_f_name_buffer
0x08028773 T hfat_free_path_buffer
0x0802878b T hfat_get_hidden_sectors
0x08028791 T hfat_getphy
0x080287d5 T hfat_getstatus
0x080287d9 T hfat_init
0x080287dd T hfat_lfn_init
0x080287ed T hfat_readmultiplesector
0x080287fb T hfat_readsector
0x08028931 T hfat_write_udata_multiplesector
0x0802893f T hfat_write_udata_sector
0x0802894d T hfat_writemultiplesector
0x0802895b T hfat_writesector
0x08028c15 T hotplug_add_hdev_to_phy_hdev
0x08028cc5 T hotplug_add_partition
0x08028ce1 T hotplug_change_physical_dev_state
0x08028e19 T hotplug_close_device
0x08028e55 T hotplug_close_device_by_handle
0x08028eb5 T hotplug_close_device_by_image_type
0x08028f49 T hotplug_counters_init
0x08028f5d T hotplug_counters_update
0x08028f91 T hotplug_dev_get_size
0x08028fbb T hotplug_dev_read
0x08028fff T hotplug_dev_write
0x08029043 T hotplug_dev_write_udata
0x0802908d T hotplug_discover_device
0x0802912d T hotplug_fat_parse_check
0x08029141 T hotplug_find_partition
0x080291b5 T hotplug_find_physical_device
0x08029215 T hotplug_get_partition_size_by_image_id
0x080292b5 T hotplug_get_physical_start_sector
0x080292bb T hotplug_gpt_parse_close
0x080292c9 T hotplug_gpt_parse_open
0x0802931d T hotplug_gpt_parse_read
0x08029349 T hotplug_hdev_alloc
0x0802938d T hotplug_hdev_free
0x080293ed T hotplug_init_no_poll
0x0802943d T hotplug_init_partitions
0x080294f9 T hotplug_is_gpt_data_partition
0x0802951d T hotplug_is_it_a_fat_partition
0x08029541 T hotplug_is_mbr_fat_partition
0x0802956f T hotplug_is_valid_hdev
0x08029591 T hotplug_is_valid_hdev_for_read_write
0x080295d7 T hotplug_is_valid_parti
0x080295ed T hotplug_is_valid_physical_hdev
0x08029645 T hotplug_iter_close
0x0802965d T hotplug_iter_get_next
0x080298e9 T hotplug_iter_init
0x080298f5 T hotplug_iter_open
0x08029913 T hotplug_mbr_check_extended
0x08029979 T hotplug_mbr_parse_close
0x08029985 T hotplug_mbr_parse_open
0x080299a9 T hotplug_mbr_read_extended
0x08029a4d T hotplug_mbr_read_primary
0x08029ac5 T hotplug_open_device
0x08029b87 T hotplug_open_device_by_gpt_partition_type
0x08029bdd T hotplug_open_device_by_partition_type
0x08029c25 T hotplug_partition_alloc
0x08029c71 T hotplug_partition_ref
0x08029cb9 T hotplug_partition_unref
0x08029d29 T hotplug_poll_and_mount_first_fat
0x08029da5 T hotplug_poll_before_mounting_root_helper
0x08029e41 T hotplug_poll_device
0x08029f55 T hotplug_pparser_cache_init
0x08029fd1 T hotplug_remove_hdev_from_phy_hdev
0x08029ffd T hotplug_set_general_partition_id
0x0802a03d T hotplug_task_discover_device
0x0802a149 T hotplug_validate_physical_hdev
0x0802a179 T image_uuid
0x0802a199 T image_version_initialize_version_table
0x0802a1b5 T image_version_populate_version
0x0802a391 T inverse32
0x0802a3c7 T is_trailing_dot_or_doubledots
0x0802a477 T isonlydotordoubledots
0x0802a49d T isonlydotsandspaces
0x0802a64d T malloc
0x0802a6ad T map_segments
0x0802ad09 T memscpy
0x0802ad27 T memsmove
0x0802ae49 T mod_exp
0x0802b059 T montmul_one_ref
0x0802b0df T montmul_ref1
0x0802b1b3 T mult_R_mod_m
0x0802b217 T mult_base_mod_m
0x0802b477 T pbl_clk_julian_to_secs
0x0802b5a7 T pbl_secasn1_close_sequence
0x0802b5c5 T pbl_secasn1_decode_bit_string
0x0802b61b T pbl_secasn1_decode_boolean
0x0802b659 T pbl_secasn1_decode_length
0x0802b6f7 T pbl_secasn1_decode_tag
0x0802b74b T pbl_secasn1_decode_time
0x0802b889 T pbl_secasn1_end
0x0802b8a7 T pbl_secasn1_next_field
0x0802b99f T pbl_secasn1_start
0x0802ba05 T pbl_secx509_check_cert_list
0x0802baa3 T pbl_secx509_check_issued
0x0802bb3d T pbl_secx509_check_purpose
0x0802bb61 T pbl_secx509_get_asn1_cert_size
0x0802bbb9 T pbl_secx509_name_cmp
0x0802bbd7 T pbl_secx509_parse_auth_key_id
0x0802bc5b T pbl_secx509_parse_basic_constraint
0x0802bd11 T pbl_secx509_parse_cert_buffer
0x0802be49 T pbl_secx509_parse_certificate
0x0802bfcd T pbl_secx509_parse_dn
0x0802c32d T pbl_secx509_parse_ex_key_usage
0x0802c471 T pbl_secx509_parse_extensions
0x0802c6b9 T pbl_secx509_parse_gen_name_for_dir
0x0802c703 T pbl_secx509_parse_key_usage
0x0802c769 T pbl_secx509_parse_pub_key
0x0802c8ed T pbl_secx509_parse_sig_algorithm
0x0802c9bd T pbl_secx509_parse_signature
0x0802ca45 T pbl_secx509_parse_unique_id
0x0802ca6f T pbl_secx509_parse_validity
0x0802cb3d T pbl_secx509_parse_version
0x0802cb8f T pbl_secx509_skip_num_certs
0x0802cbf9 T pm_cfg_device_index
0x0802cc09 T pm_chg_battery_and_debug_board_detect_state
0x0802ccad T pm_chg_bootup_ok_state
0x0802ccfd T pm_chg_cdp_charging_state
0x0802cd1d T pm_chg_charger_detect_state
0x0802ce0d T pm_chg_dcp_charging_state
0x0802ce2d T pm_chg_driver_init
0x0802ce55 T pm_chg_enable_usb_charging
0x0802d00d T pm_chg_float_charging_state
0x0802d02d T pm_chg_get_battery_volt_level
0x0802d089 T pm_chg_get_chg_option
0x0802d0b5 T pm_chg_get_enum_timer_expired
0x0802d0e1 T pm_chg_get_enum_timer_status
0x0802d10d T pm_chg_is_battery_present
0x0802d169 T pm_chg_is_battery_weak
0x0802d199 T pm_chg_is_charger_present
0x0802d1fb T pm_chg_is_debug_board_present
0x0802d315 T pm_chg_sbl_charging_state_entry
0x0802d351 T pm_chg_sdp_charging_state
0x0802d3d9 T pm_chg_set_atc_led
0x0802d411 T pm_chg_set_battery_threshold
0x0802d451 T pm_chg_set_boot_done
0x0802d479 T pm_chg_set_comp_override
0x0802d4af T pm_chg_set_ibat_max
0x0802d4e5 T pm_chg_set_ibat_safe
0x0802d515 T pm_chg_set_itrkl
0x0802d541 T pm_chg_set_iusb_max
0x0802d56d T pm_chg_set_mode
0x0802d5a3 T pm_chg_set_vin_min
0x0802d5d5 T pm_chg_shutdown_state
0x0802d601 T pm_chg_stop_enum_timer
0x0802d629 T pm_clk_busy_wait
0x0802d639 T pm_clk_driver_init
0x0802d781 T pm_device_init
0x0802d851 T pm_driver_init
0x0802d869 T pm_driver_post_init
0x0802d8b1 T pm_get_pbs_info
0x0802d915 T pm_get_pmic_info
0x0802d951 T pm_get_pmic_model
0x0802d97d T pm_get_pmic_revision
0x0802d9ad T pm_get_slave_id
0x0802da85 T pm_gpio_driver_init
0x0802db19 T pm_lbc_chg_get_battery_present
0x0802db7d T pm_lbc_chg_get_charger_present
0x0802dc2b T pm_lbc_chg_get_chg_option
0x0802dc7d T pm_lbc_chg_get_enum_timer_expired
0x0802dcd7 T pm_lbc_chg_get_enum_timer_staus
0x0802dd2d T pm_lbc_chg_set_atc_led
0x0802dd79 T pm_lbc_chg_set_battery_threshold
0x0802de5d T pm_lbc_chg_set_boot_done
0x0802dea3 T pm_lbc_chg_set_comp_override
0x0802df23 T pm_lbc_chg_set_ibat_max
0x0802df91 T pm_lbc_chg_set_ibat_safe
0x0802dfff T pm_lbc_chg_set_mode
0x0802e069 T pm_lbc_chg_set_vin_min
0x0802e0c9 T pm_lbc_chg_stop_enum_timer
0x0802e111 T pm_lbc_driver_init
0x0802e1a5 T pm_lbc_get_data
0x0802e1bd T pm_ldo_driver_init
0x0802e361 T pm_ldo_get_data
0x0802e461 T pm_ldo_volt_level
0x0802e485 T pm_lpg_config_pwm_type
0x0802e4ed T pm_lpg_driver_init
0x0802e57d T pm_lpg_get_data
0x0802e591 T pm_lpg_pattern_config
0x0802e5f5 T pm_lpg_pwm_clock_sel
0x0802e637 T pm_lpg_pwm_enable
0x0802e67f T pm_lpg_pwm_set_pre_divide
0x0802e6c7 T pm_lpg_pwm_set_pwm_value
0x0802e741 T pm_lpg_set_pwm_bit_size
0x0802e785 T pm_malloc
0x0802e88d T pm_mpp_config_analog_input
0x0802e92f T pm_mpp_config_i_sink
0x0802ea1d T pm_mpp_driver_init
0x0802eb29 T pm_mpp_enable
0x0802eb75 T pm_mpp_get_data
0x0802eb8d T pm_oem_init
0x0802eb91 T pm_pbs_client_driver_init
0x0802ec31 T pm_pbs_config_access
0x0802ec91 T pm_pbs_disable_access
0x0802ec9d T pm_pbs_enable_access
0x0802eca9 T pm_pbs_info_init
0x0802f059 T pm_pbs_info_store_glb_ctxt
0x0802f0d1 T pm_pbs_ram_image_load
0x0802f11d T pm_pbs_ram_image_verify
0x0802f18d T pm_pon_get_all_pon_reasons
0x0802f1d9 T pm_pon_init
0x0802f2b1 T pm_pon_ps_hold_cfg
0x0802f3b5 T pm_pon_reset_source_cfg
0x0802f59d T pm_pon_warm_reset_status
0x0802f5f1 T pm_pon_warm_reset_status_clear
0x0802f61d T pm_processor_create_comm_channel
0x0802f64d T pm_processor_init
0x0802f769 T pm_processor_resolve_peripheral_version
0x0802f779 T pm_pwr_volt_level_alg
0x0802f9c9 T pm_resource_manager_init
0x0802fa7d T pm_rgb_driver_init
0x0802fb0d T pm_rgb_enable
0x0802fbcd T pm_rgb_get_data
0x0802fbe1 T pm_rgb_led_config
0x0802fd27 T pm_rgb_led_config_8x26
0x0802fd95 T pm_rgb_set_voltage_source
0x0802fde9 T pm_rpm_resolve_chip_revision
0x0802fdfd T pm_rtc_driver_init
0x0802fe49 T pm_rtc_get_data
0x0802fe5d T pm_rtc_get_time
0x0802feb9 T pm_sbl_config
0x0802ff6d T pm_sbl_validate_reg_config
0x08030005 T pm_smb_enable_charging
0x08030071 T pm_smbb_chg_get_attached_charger
0x08030137 T pm_smbb_chg_get_battery_present
0x080301d7 T pm_smbb_chg_set_atc_led
0x08030221 T pm_smbb_chg_set_battery_threshold
0x08030305 T pm_smbb_chg_set_comp_override
0x08030391 T pm_smbb_chg_set_ibat_max
0x080303fd T pm_smbb_chg_set_itrkl
0x08030465 T pm_smbb_chg_set_iusb_max
0x0803052d T pm_smbb_chg_set_mode
0x080305e9 T pm_smbb_driver_init
0x08030699 T pm_smbb_get_data
0x080306b1 T pm_smem_init
0x080306c1 T pm_smps_driver_init
0x08030919 T pm_smps_get_data
0x080309cb T pm_smps_volt_level
0x080309f1 T pm_spmi_lite_read_byte
0x08030a45 T pm_spmi_lite_read_byte_array
0x08030a99 T pm_spmi_lite_write_byte
0x08030ae1 T pm_spmi_lite_write_byte_array
0x08030b29 T pm_spmi_lite_write_byte_mask
0x08030bad T pm_target_information_get_common_info
0x08030bd1 T pm_target_information_get_count_info
0x08030bf5 T pm_target_information_get_specific_info
0x08030c19 T pm_target_information_init
0x08030dc9 T pm_target_information_read_peripheral_rev
0x08030e51 T pm_target_information_spmi_chnl_cfg
0x08030f31 T pm_version_detect
0x0803102d T pm_vib_driver_init
0x080310d9 T pm_vs_driver_init
0x080311e9 T pmiC_CommInfo_Init
0x08031213 T pmiC_CommInfo_InitCopy
0x0803126b T pmiC_CommManager_AddCommInterface
0x080312f1 T pmiC_CommManager_CreateSingleton
0x08031311 T pmiC_CommManager_GetComm
0x0803131d T pmiC_CommManager_GetSingleton
0x08031331 T pmiC_CommManager_ResetNumberComms
0x08031387 T pmiC_DeviceInfo_Init
0x080313c5 T pmiC_IComm_Init
0x08031401 T pmiC_SpmiLiteCommV1_Init
0x08031819 T qhsusb_al_bulk_get_max_packet_size
0x0803181f T qhsusb_al_bulk_get_max_raw_data_size
0x08031825 T qhsusb_al_bulk_handle_rx_zlp_mode
0x08031855 T qhsusb_al_bulk_init
0x0803191d T qhsusb_al_bulk_poll
0x08031991 T qhsusb_al_bulk_receive
0x08031a7d T qhsusb_al_bulk_receive_zlp
0x08031c8d T qhsusb_al_bulk_setup_timer
0x08031cbd T qhsusb_al_bulk_shutdown
0x08031d01 T qhsusb_al_bulk_start_timer
0x08031d29 T qhsusb_al_bulk_stop_timer
0x08031d41 T qhsusb_al_bulk_transmit
0x08031de5 T qhsusb_al_check_for_pbl_dload
0x08031de9 T qhsusb_al_check_timer_for_expiry
0x08031e25 T qhsusb_al_chg_deinit
0x08031e39 T qhsusb_al_chg_disconnect_from_host
0x08031e4f T qhsusb_al_chg_enumerate_usb
0x08031ed5 T qhsusb_al_chg_get_charger_port_type
0x08031eed T qhsusb_al_chg_init
0x08031f19 T qhsusb_al_chg_is_vbus_present
0x08031f39 T qhsusb_al_chg_poll
0x08031fb5 T qhsusb_al_chg_should_chg_be_on
0x08031fdd T qhsusb_boot_dload_get_dload_info_ptr
0x08031fe1 T qhsusb_boot_dload_is_dload_info_pid_valid
0x08031ffd T qhsusb_boot_dload_is_dload_info_serial_num_valid
0x08032019 T qhsusb_dcd_control_transfer
0x08032049 T qhsusb_dcd_init
0x080320a5 T qhsusb_dcd_poll
0x080320b1 T qhsusb_dcd_port_status_changed
0x0803217f T qhsusb_dcd_set_config
0x0803227d T qhsusb_dcd_shutdown
0x080322b9 T qhsusb_dci_cancel_transfer
0x08032371 T qhsusb_dci_cancel_transfer_wo_dqh_dtd
0x080323c5 T qhsusb_dci_check_for_pbl_dload
0x08032465 T qhsusb_dci_clk_disable
0x08032469 T qhsusb_dci_clk_enable
0x0803246d T qhsusb_dci_clk_is_usb_system_clk_on
0x08032479 T qhsusb_dci_config_endpoint
0x08032549 T qhsusb_dci_connect
0x08032565 T qhsusb_dci_dcache_flush
0x08032569 T qhsusb_dci_dcache_inval
0x0803256d T qhsusb_dci_delay_ms
0x08032587 T qhsusb_dci_delay_us
0x0803258b T qhsusb_dci_detect_charger_type
0x080325ad T qhsusb_dci_disconnect
0x080325c9 T qhsusb_dci_fs_clk_disable
0x080325cd T qhsusb_dci_get_enum_flag
0x080325d9 T qhsusb_dci_get_line_state
0x08032609 T qhsusb_dci_get_speed
0x0803262d T qhsusb_dci_init
0x080326ed T qhsusb_dci_is_attached
0x08032709 T qhsusb_dci_is_suspended
0x08032731 T qhsusb_dci_is_wall_charger
0x08032735 T qhsusb_dci_poll_events
0x08032809 T qhsusb_dci_read_scratch
0x08032835 T qhsusb_dci_set_address
0x08032865 T qhsusb_dci_set_enum_flag
0x08032871 T qhsusb_dci_set_max_packet_size
0x0803287d T qhsusb_dci_set_runstop_bit
0x080328a1 T qhsusb_dci_shutdown
0x080328f9 T qhsusb_dci_stall_endpoint
0x0803294d T qhsusb_dci_start_timer
0x080329a9 T qhsusb_dci_transfer_request
0x08032a75 T qhsusb_dci_ulpi_read
0x08032ad1 T qhsusb_dci_ulpi_write
0x08032b49 T qhsusb_dci_unconfig_endpoint
0x08032b99 T qhsusb_dci_unstall_endpoint
0x08032bfd T qhsusb_dci_write_scratch
0x08032c25 T qhsusb_fd_chg_detect_charger_type
0x08032c41 T qhsusb_fd_chg_init
0x08032c91 T qhsusb_fd_chg_shutdown
0x08032c9d T qhsusb_fd_hdlc_bulk_in_progress
0x08032ca1 T qhsusb_fd_hdlc_init
0x08032ec9 T qhsusb_fd_hdlc_rx_pkt
0x08032f39 T qhsusb_fd_hdlc_set_core
0x08032f65 T qhsusb_fd_hdlc_shutdown
0x08032f81 T qhsusb_fd_hdlc_tx_pkt
0x08033101 T qhsusb_fd_set_bulk_mode
0x08033115 T qhsusb_get_shared_imem_address
0x0803311d T qhsusb_is_device_configured
0x08033129 T qhsusb_log
0x08033161 T qhsusb_loop_here
0x08033171 T qhsusb_submit_urb
0x080331b1 T qmemcpy
0x080332a1 T qsee_is_memory_dump_allowed
0x080332bd T qsee_is_retail_unlocked
0x0803344d T qsee_zero_peripheral_memory
0x08033629 T rail_id
0x08033669 T railway_aggregated_voltage_target_uv
0x080336f1 T railway_corner_vote
0x08033735 T railway_create_voter
0x08033891 T railway_get_corner_voltage
0x080338f5 T railway_get_current_settings
0x08033959 T railway_init
0x08033b09 T railway_set_corner_voltage
0x08033b99 T railway_target_init
0x08033c05 T railway_transition_rails
0x08033c41 T railway_transitioner_init
0x08033d85 T rbcpr_corner_params
0x08033dcd T rbcpr_enable_clock
0x08033e01 T rbcpr_externalize_state
0x08033f05 T rbcpr_init
0x08034061 T rbcpr_init_hw_revision_specifics
0x08034235 T rbcpr_init_rail
0x08034375 T rbcpr_settle_voltage
0x0803476d T sbl1_boot_logger_deinit
0x080347fd T sbl1_cleanse_security_regions
0x08034835 T sbl1_ddr_init
0x0803495d T sbl1_ddr_set_params
0x08034b39 T sbl1_dload_entry
0x08034b65 T sbl1_efs_handle_cookies
0x08034bc1 T sbl1_hw_deinit
0x08034bf1 T sbl1_hw_dload_init
0x08034bf5 T sbl1_hw_get_pmictimer_status
0x08034c01 T sbl1_hw_get_reset_status
0x08034c0d T sbl1_hw_init
0x08034ca5 T sbl1_hw_init_secondary
0x08034d59 T sbl1_hw_platform_pre_ddr
0x08034de1 T sbl1_hw_platform_smem
0x08034e25 T sbl1_init_sbl_qsee_interface
0x08034e71 T sbl1_load_ddr_training_data
0x08034ecd T sbl1_load_ddr_training_data_from_partition
0x08034f8d T sbl1_load_sec_partition
0x080350cd T sbl1_main_ctl
0x0803527d T sbl1_populate_initial_mem_map
0x080352d9 T sbl1_post_ddr_init
0x08035315 T sbl1_post_ddr_training_init
0x08035331 T sbl1_relocate_page_table_to_ddr
0x0803545d T sbl1_save_ddr_training_data
0x080354a9 T sbl1_save_ddr_training_data_to_partition
0x08035531 T sbl1_tlmm_init
0x0803561d T sbl1_wait_for_ddr_training
0x080356ed T sbl_error_handler
0x080357c5 T sbl_sahara_check
0x08035929 T sbl_sahara_entry
0x08035a89 T sbl_sahara_get_interface
0x08035bb5 T sdcc_activity_timeout_event
0x08035bb9 T sdcc_boot_set_device_info
0x08035be5 T sdcc_bsp_config_clock
0x08035cc9 T sdcc_bsp_get_cache_align_size
0x08035ccd T sdcc_bsp_get_max_supported_clk
0x08035ce1 T sdcc_bsp_get_slot_type
0x08035cf5 T sdcc_bsp_gpio_control
0x08035d41 T sdcc_bsp_hw_busy_wait_init
0x08035d55 T sdcc_bsp_hw_clk_busy_wait
0x08035df9 T sdcc_command
0x08035e11 T sdcc_command_qc_mode
0x08035e75 T sdcc_command_sdhci_mode
0x08035e79 T sdcc_complete_data_xfer
0x08035ec1 T sdcc_config_clk
0x08035fc5 T sdcc_config_memory_device
0x0803607d T sdcc_config_mmc_bus_width
0x080360c9 T sdcc_config_mmc_modes_segment
0x080362dd T sdcc_config_rca
0x080363a5 T sdcc_decode_extCSD
0x08036583 T sdcc_decode_mmc_cid
0x080365fb T sdcc_decode_mmc_mfr_date
0x080365ff T sdcc_decode_scr
0x08036627 T sdcc_decode_sd_cid
0x08036687 T sdcc_decode_sd_mfr_date
0x0803668b T sdcc_decode_sd_status
0x08036727 T sdcc_decode_switch_data
0x080367d1 T sdcc_deinit
0x08036819 T sdcc_deregister_client_handle
0x0803683b T sdcc_display_mem_device_info
0x08036875 T sdcc_do_transfer
0x08036887 T sdcc_do_transfer_qc_mode
0x080369fb T sdcc_do_transfer_sdhci_mode
0x08036a5d T sdcc_find_mmc_device
0x08036ae1 T sdcc_find_sd_device
0x08036bc9 T sdcc_get_cid
0x08036c1d T sdcc_get_config_info
0x08036c35 T sdcc_get_ext_csd
0x08036c87 T sdcc_get_memory_info
0x08036dbd T sdcc_get_scr
0x08036e0d T sdcc_get_sd_speed_class
0x08036e35 T sdcc_get_sd_status
0x08036e85 T sdcc_get_slot_handle
0x08036ec1 T sdcc_handle_close
0x08036edd T sdcc_handle_find_card
0x08036fad T sdcc_handle_is_mem_present
0x08036fe9 T sdcc_handle_mem_get_device_info
0x08037111 T sdcc_handle_open
0x08037245 T sdcc_handle_optimized_open
0x080372e5 T sdcc_handle_read
0x08037391 T sdcc_handle_set_power_on_write_protection
0x08037395 T sdcc_handle_write
0x0803743f T sdcc_hc_config_buswidth
0x08037443 T sdcc_hc_enable_ddr50
0x08037447 T sdcc_hc_set_clock
0x0803744b T sdcc_init_memory_device
0x080374b1 T sdcc_init_qc_mode
0x080375a9 T sdcc_init_sdhci_mode
0x080375ad T sdcc_is_device_still_in_use
0x080375e1 T sdcc_is_partial_enumeration
0x08037659 T sdcc_mmc_get_phy_partition_info
0x080376ff T sdcc_mmc_is_phy_partition_bootable
0x08037731 T sdcc_mmc_set_partition_access
0x08037779 T sdcc_mmc_switch
0x080378a5 T sdcc_poll_status
0x08037961 T sdcc_read_fifo
0x08037a0d T sdcc_register_client_handle
0x08037a51 T sdcc_reset_reinit
0x08037ac5 T sdcc_sd_switch_to_hs
0x08037c0d T sdcc_select_card
0x08037c3f T sdcc_send_app_command
0x08037c71 T sdcc_send_cmd
0x08037d11 T sdcc_send_status
0x08037d95 T sdcc_set_partition
0x08037dc3 T sdcc_set_sd_bus_width
0x08037e2d T sdcc_setup_data_xfer
0x08037e95 T sdcc_slot_has_support
0x08037ebf T sdcc_wait_card_ready
0x08037ee9 T sdcc_wait_data_xfer_complete
0x08037f35 T sdcc_wait_prog_done
0x08037f89 T sdcc_write_fifo
0x08038075 T secboot_authenticate
0x08038391 T secboot_authenticate_image
0x080384b5 T secboot_cal_cert_num
0x0803852d T secboot_deinit
0x08038541 T secboot_get_ftbl
0x080385fd T secboot_hash
0x080388c9 T secboot_hw_get_ftbl
0x08038923 T secboot_hw_get_msm_hw_id
0x08038983 T secboot_hw_get_root_cert_info
0x08038a17 T secboot_hw_get_root_cert_sel
0x08038a2d T secboot_hw_get_root_of_trust
0x08038aed T secboot_hw_get_serial_num
0x08038b01 T secboot_hw_get_use_serial_num
0x08038b1f T secboot_hw_is_auth_enabled
0x08038b55 T secboot_hw_update_and_read_root_cert_sel
0x08038b8d T secboot_init
0x08038c41 T secboot_init_fuses
0x08039839 T secmath_BIGINT_modexp
0x080398ad T secmath_BIGINT_read_unsigned_bin
0x08039a81 T smem_alloc
0x08039c55 T smem_boot_debug_init
0x08039c75 T smem_boot_init
0x08039d71 T smem_ext_get_smem_base
0x08039d75 T smem_ext_get_smem_size
0x08039d79 T smem_get_addr
0x08039e4d T smem_get_base_addr
0x08039e5d T smem_get_offset
0x08039ea1 T smem_get_phys_base_addr
0x08039eb9 T smem_get_size
0x08039ed1 T smem_get_static_size
0x08039f69 T smem_init
0x08039fed T smem_map_base_va
0x08039ff1 T smem_map_memory_va
0x08039ffd T smem_map_smem_targ_info
0x0803a019 T smem_map_spinlock_region_va
0x0803a01d T smem_os_ext_get_smem_base
0x0803a041 T smem_os_ext_get_smem_size
0x0803a065 T smem_save_targ_smem_info
0x0803a0bd T smem_set_base_addr
0x0803a0e1 T smem_set_ext_mem_region
0x0803a135 T smem_set_spin_lock_api
0x0803a139 T smem_set_spinlock_base_addr
0x0803a2fd T smem_spin_lock
0x0803a2ff T smem_spin_lock_init
0x0803a301 T smem_spin_unlock
0x0803a303 T smem_version_set
0x0803a357 T strlcat
0x0803a3ad T strlcpy
0x0803a3ef T sub
0x0803a53d T uart_log
0x0803a86d T v_romfs_closedir
0x0803a9b5 T v_romfs_opendir
0x0803a9dd T v_romfs_read
0x0803aa09 T v_romfs_readdir
0x0803ad6d T wstrlcpy
0x0803adb1 T __fpl_dcheck_NaN1
0x0803adc1 T __aeabi_d2uiz
0x0803adc1 T _dfixu
0x0803ae1b T __aeabi_ui2d
0x0803ae1b T _dfltu
0x0803ae41 T __aeabi_dmul
0x0803ae41 T _dmul
0x0803af95 T __fpl_dnaninf
0x0803b031 T __fpl_dretinf
0x0803b03d T __fpl_return_NaN
0x0803b0a1 T __ARM_scalbn
0x0803b0fd T __fpl_cmpreturn
0x0803b12c N __I$use$fp
0x0803b12c D sbl_initial_memory_map
0x0803b20c D sbl1_addtional_memory_map
0x0803b420 D QC_IMAGE_VERSION_STRING_AUTO_UPDATED
0x0803b44d D IMAGE_VARIANT_STRING_AUTO_UPDATED
0x0803b46c D OEM_IMAGE_VERSION_STRING_AUTO_UPDATED
0x0803b489 D OEM_IMAGE_UUID_STRING_AUTO_UPDATED
0x0803b4df D mob_sw_rev
0x0803b518 D path_id
0x0803b588 D DALSystem_DriverInfo
0x0803b6b8 D Clock_I2CRegs
0x0803b864 D DALPROP_PropBin
0x0803c4c4 D driver_list
0x0803c5fc D DALPROP_PropsInfo
0x0803c60c D smem_buf_data_tbl
0x0803c678 D tsmc_tn3_cpr_settings
0x0803c688 D hw_version_specific_settings_8929
0x0803c694 D rbcpr_supported_hw_array
0x0803c69c D rbcpr_rail_const_info
0x0803c70c D RAILWAY_CONFIG_DATA
0x0803c744 D pbl_secx509_ext_auth_key_id
0x0803c747 D pbl_secx509_ext_sub_key_id
0x0803c74a D pbl_secx509_ext_key_usage
0x0803c74d D pbl_secx509_ext_sub_alt_name
0x0803c750 D pbl_secx509_ext_basic_constraint
0x0803c753 D pbl_secx509_ext_name_constraint
0x0803c756 D pbl_secx509_ext_policy_constraint
0x0803c759 D pbl_secx509_ext_ex_key_usage
0x0803c75c D pbl_secx509_ext_cert_policies
0x0803c75f D sha1_codehash_str
0x0803c764 D debug_string
0x0803c76a D sw_id_string
0x0803c770 D hw_id_string
0x0803c776 D sha256_codehash_str
0x0803c77d D pbl_secx509_ex_key_sauth
0x0803c785 D pbl_secx509_ex_key_cauth
0x0803c78d D pbl_secx509_ex_key_code
0x0803c795 D pbl_secx509_ex_key_email
0x0803c79d D pbl_secx509_ex_key_time
0x0803c7a5 D pbl_secx509_asn1_rsa
0x0803c7ae D pbl_secx509_md5WithRSAEncryption
0x0803c7b7 D pbl_secx509_md2WithRSAEncryption
0x0803c7c0 D pbl_secx509_sha1WithRSAEncryption
0x0803c7c9 D pbl_secx509_sha256WithRSAEncryption
0x0803c7d2 D pbl_secx509_ex_key_ms_sgc
0x0803c7dc D pbl_secx509_ex_key_ns_sgc
0x0803c7e5 D crash_dump_string
0x0803c970 D crc30_table
0x0803cd70 D crc16_table
0x0803cf70 D crc_16_l_table
0x0803d170 D crc32_table
0x0803d5f0 D fs_rmts_guid_map
0x0803d650 D extfs_ops
0x0803dae8 D fs_vnode_nodev_ops
0x0803dcb4 D DALI2C_DriverInfo
0x0803de74 D AdcBootBsp
0x0803e294 D VAdcBsp
0x0803e2f8 D DALVAdc_DriverInfo
0x0803e304 D BootTempCheckBsp
0x0803e3e8 D TsensBootBsp
0x0803e408 D smem_partition_toc_entries
0x0803e510 D HAL_rbcpr_bsp_data
0x0803e560 D fs_hfat_ops
0x0803e5bc D SDCCSdhciEnable
0x0803e5c0 D DALChipInfo_DriverInfo
0x0803e5cc D Clock_SDCCRegs
0x0803e62c D DALPlatformInfo_DriverInfo
0x0803e670 D pm_spmi_periph_cfg_pm8936
0x0803e888 D pm_num_periph_pm8936
0x0803e8e4 D DALTLMM_DriverInfo
0x0803eff8 D fs_convert_utf8
0x0805b008 D L2_parity_error_in_sbl
0x0805b010 D page_table_is_in_ddr
0x0805b014 D sbl1_ddr_mem_block
0x0805b070 D boot_crash_dump_regs_ptr
0x0805b074 D sbl_dload_entry
0x0805b084 D load_qsee_pre_procs
0x0805b0c0 D load_qsee_post_procs
0x0805b0f4 D sbl1_pre_dload_procs
0x0805b108 D sbl1_config_table
0x0805b2fc D config_data_table
0x0805b6fc D config_data_table_size
0x0805b700 D boot_rollback_version_img_set_table
0x0805b7f0 D boot_rollback_version_img_set_num
0x0805b924 D __stack_chk_guard
0x0805b92c D bl_err_if
0x0805b96c D sahara_start_of_segment_load
0x0805b974 D sahara_shared_data
0x0805b98c D sahara_cmd_exec_data
0x0805b9c8 D last_loaded_segment_end_offset
0x0805b9cc D remaining_elf_segments_data
0x0805b9d8 D non_block_mode
0x0805b9dc D sbl_hash_algorithm
0x0805b9e0 D sbl_hash_len
0x0805ba0d D image_partition_id
0x0805bb25 D appsbl_partition_id
0x0805bb35 D qsee_partition_id
0x0805bb45 D qhee_partition_id
0x0805bb55 D rpm_partition_id
0x0805bb65 D ddr_params_partition_id
0x0805bb75 D cdt_partition_id
0x0805bb85 D ram_dump_partition_id
0x0805bb95 D sec_partition_id
0x0805bba8 D config_data_table_info
0x0805bbb0 D boot_shared_imem_cookie_ptr
0x0805bbb4 D boot_ddr_info_set
0x0805bbec D ddr_init_done
0x0805bbf0 D ddr_bus_width
0x0805bd7c D dev_config_valid
0x0805bd98 D gDALProcessDriverModList
0x0805bdc4 D bIsLessThanV3
0x0805bdc8 D gnTsensLastTemp
0x0805bdcc D guTsensLastSensor
0x0805bddc D regular_init_done
0x0805bde8 D railway
0x0805bdec D _fs_catch
0x0805bdf0 D fs_in_boot_mode
0x0805bdf4 D efs_boot_init_romfs_complete
0x0805bf78 D wrlvl_status_g
0x0805bf80 D wrlvl_delay_g
0x0805bf88 D dcc_wait_time_swc
0x0805bfa8 D dcc_div_ref_swc
0x0805bfc8 D dcc_man_adj_swc
0x0805bfe8 D dcc_adj_sw_val_swc
0x0805c008 D dcc_man_adj_swc_pll2
0x0805c028 D dcc_adj_sw_val_swc_pll2
0x0805c048 D mr1_without_wrlvl
0x0805c04c D mr1_with_wrlvl
0x0805c050 D auto_refresh_status
0x0805c054 D wrlvl_cfg_sel
0x0805c058 D byte0_wrlvl_dly
0x0805c05c D byte1_wrlvl_dly
0x0805c060 D need_ck_half_cycle_delay
0x0805c064 D wrlvl_training_pass
0x0805c068 D apply_ck_half_cycle
0x0805c06c D byte0_one_count
0x0805c074 D byte0_zero_count
0x0805c07c D byte1_one_count
0x0805c084 D byte1_zero_count
0x0805c08c D byte0_neg_wrlvl_flag
0x0805c094 D byte1_neg_wrlvl_flag
0x0805c09c D byte0_small_wrlvl_delay
0x0805c0a4 D byte1_small_wrlvl_delay
0x0805c0ac D dq_training_pattern
0x0805c16c D ca_training_pattern
0x0805c204 D pmicArbHwioBase
0x0805c208 D DALPROP_StructPtrs
0x0805c2b8 D gDALModDriverInfoList
0x0805c2c0 D DAL_Mod_driver_list
0x0805c2d8 D DAL_Mod_Info
0x0805c2fc D smem_hw_mutex_base_ptr
0x0805c304 D smem_init_info
0x0805c508 D gf_tn3_cpr_settings
0x0805c518 D rbcpr_bsp_data
0x0805c538 D rbcpr_checksum_config_data
0x0805c59c D fs_global_lock_init_complete
0x0805c5a4 D fs_root_dev
0x0805c5ac D fs_root_mpoint
0x0805c5b0 D fs_root_vnode
0x0805c5bc D hotplug_init_complete
0x0805c5c0 D hotplug_init_no_poll_complete
0x0805c5c4 D hotplug_crit_sect
0x0805c5c8 D hotplug_total_devices
0x0805c5cc D hotplug_total_physical_devices
0x0805c5d0 D hotplug_total_partitions
0x0805c5d4 D sdcc_mini_boot_device_info
0x0805c5f0 D Clock_SBLConfigData
0x0805d018 D Clock_SBL_MuxMap
0x0805d02c D Clock_SBL_SourceMap
0x0805d040 D BIMCPLLConfig
0x0805d232 D hdlc_usb_config_obex
0x0805d252 D hdlc_usb_config_obex_only
0x0805d3b0 D sw_config
0x0805d3c0 D sw_device
0x0805d464 D sw_strings
0x0805d518 D icbcfg_boot_data
0x0805d7d4 D icbcfg_boot_prop
0x0805d7e0 D map_ddr_regions
0x0805d7f0 D channel_map
0x0805d7f4 D bimc_hal_info
0x0805d818 D safe_reset_seg
0x0805d838 D msm8929_all
0x0805d86c D configs
0x0805d870 D icbcfg_info
0x0805d884 D uart_driver_props
0x0805d888 D static_uart_context
0x0805d8d0 D bAdcInitialized
0x0805d90c D MagicNumber
0x0805d914 D hfat_crit_sect
0x0805d918 D fat_gmutex
0x0805d91c D hfat_lfn_enabled
0x0805d920 D blockdev_driver_list
0x0805d944 D hwio_init_done
0x0805d948 D sdcc_reg_base
0x0805d950 D sdcc_reg_phys
0x0805d958 D sdhc_reg_base
0x0805d960 D sdhc_reg_phys
0x0805d9fc D ult_buck_range_1
0x0805da00 D ult_buck_volt_1
0x0805da18 D ult_buck_range_2
0x0805da1c D ult_buck_volt_2
0x0805da28 D pmos_range
0x0805da2c D pmos_volt
0x0805da38 D nmos_range
0x0805da3c D nmos_volt
0x0805da48 D clk_ldo_range
0x0805da4c D clk_ldo_volt
0x0805da64 D clk_reg
0x0805da6e D clk_sleep_reg
0x0805da72 D clk_xo_reg
0x0805da76 D pbs_client_reg
0x0805da90 D clk_common
0x0805da9e D gpio_reg
0x0805dac6 D mpp_reg
0x0805daf2 D smps_reg
0x0805db12 D ldo_reg
0x0805db32 D lpg_reg
0x0805db5a D vib_reg
0x0805db64 D smbb_reg
0x0805db8e D lbc_reg
0x0805dbba D mpp_specific
0x0805dbbe D vib_specific
0x0805dbc2 D chg_app_ds
0x0805dbf4 D pm_sbl_seq
0x0805e944 D pm_pbs_seq
0x0805ed6c D pDevListHead
0x0805ed70 D uart_log_struct
0x0805ef78 D gVAdcDrvCtxt
0x0805f150 D CeMLCntxHandleBuff
0x0805f158 D fs_convert
0x0805f174 D blockdev_devnull_driver
0x0805f184 D blockdev_sd_driver
0x0805f2b0 D TLMM_DriverCtxt
0x0805f568 D amPartMap
0x0805f648 D chipIdMap
0x0805f738 D pgLowPowerConfigs
0x0805f740 D gnTotalGPIO
0x0805f744 D hNonDalProps
0x0805f750 D pgtState
0x0805f75c D boot_err_log_ptr
0x0805f7c0 D bl_shared_data
0x0805fa40 D sbl_verified_info
0x080619f8 D ddr_physical_size
0x08061a30 D ddr_system_size
0x08061a60 D ddr_status
0x08061cd8 D spmiBusInfo
0x08062024 D ca_jcpll_dcc_training_g
0x08062064 D dq_jcpll_dcc_training_g
0x08062164 D fail_count_histogram_perbit
0x08063964 D wrlvl_freq_plan_g
0x08063c00 D spmiPmicArbInfo
0x08063f88 D spmiLogBuf
0x08064008 D version_internal_uuid
0x08064188 D smem_ext_heap_info
0x080641a0 D hotplug_devices
0x08064220 D hotplug_physical_devices
0x0806437c D hotplug_partitions
0x080652c0 D RCW_Start_Delay_Result
0x080652e0 D RCW_Hcycle_Delay_Result
0x080654a0 D RCW_Coarse_Delay_Result
0x08065660 D RCW_Fine_Delay_Result
0x08065820 D local_dq_ren_training
0x08065900 D start_dly_result
0x08065970 D training_clk_freq_in_khz
0x080659ac D hotplug_counter
0x08065f48 D smps_phase_lut_a
0x86700a2c D fs_cookie_list_manager_objs
0x86700a48 D f_filesystem
0x86719488 D f_volume_map
0x867194a4 D g_multi
0x867198b8 D CeMLIovecTypeArray
0x86719918 D CeMLHashCipherAlgoCntxTypeBuff
0x86719ac8 D hfat_path_buffers
0x8671a2d8 D hfat_f_name_buffers
0x8671aae8 D hfat_f_lfnint_buffers
0x8672774c D nameidata_buffer
0x86727890 D nameidata_buf2
0x8672829c D fs_mpoints
0x86729e04 D hfat_iterators
0x86768000 D mmu_l1_pagetable
0x8676c000 D mmu_l2_pagetable
0x86771000 D expected_hash_ptr
0x86773078 D sahara_packet_buffer
0x86773e48 D qhsusb_dload_info
0x86776980 D dci_core_info
0x867782d0 D raw_dump_header
0x86778308 D raw_dump_section_header_table
