#<SYMDEFS># ARM Linker, 5.01 [Build 94]: Last Updated: Wed Feb  7 02:08:32 2018
0x00000000 A TZAPPENTRY
0x00000000 A __main
0x00000000 A _main
0x00000000 N _printf_flags
0x00000000 N _printf_return_value
0x00000000 N _printf_sizespec
0x00000000 N _printf_widthprec
0x00000064 A read_app_rw_base
0x00000070 A set_rw_base
0x0000007d T qsee_hash
0x000000a1 T qsee_hash_init
0x000000c3 T qsee_hash_reset
0x000000e3 T qsee_hash_update
0x00000107 T qsee_hash_final
0x0000012b T qsee_hash_free_ctx
0x0000014b T qsee_hash_set_param
0x0000016f T qsee_hashcipher_encrypt
0x000001a9 T qsee_hashcipher_decrypt
0x000001e3 T qsee_cipher_init
0x00000205 T qsee_cipher_reset
0x00000225 T qsee_cipher_free_ctx
0x00000245 T qsee_cipher_set_param
0x00000269 T qsee_cipher_get_param
0x0000028d T qsee_cipher_encrypt
0x000002b1 T qsee_cipher_decrypt
0x000002d5 T qsee_hmac
0x000002f9 T qsee_hmac_init
0x0000031b T qsee_hmac_update
0x0000033f T qsee_hmac_final
0x00000363 T qsee_hmac_free_ctx
0x00000383 T qsee_cmac
0x000003b9 T qsee_prng_getdata
0x000003db T qsee_crypto_lock_engine
0x000003fd T qsee_kdf_shim
0x0000041f T qsee_set_bandwidth
0x00000443 T qsee_dcache_inval_region
0x00000465 T qsee_dcache_flush_region
0x00000487 T qsee_dcache_clean_region
0x000004a9 T qsee_kdf
0x00000503 T qsee_sfs_getSize
0x00000535 T qsee_sfs_open
0x00000567 T qsee_sfs_close
0x00000597 T qsee_sfs_read
0x000005d7 T qsee_sfs_write
0x00000617 T qsee_sfs_seek
0x00000657 T qsee_sfs_mkdir
0x00000687 T qsee_sfs_rmdir
0x000006b7 T qsee_sfs_rm
0x000006e7 T qsee_sfs_error
0x00000717 T qsee_sfs_get_file_list
0x00000749 T qsee_sfs_clean_file_list
0x00000775 T qsee_sfs_is_anti_rollback_enabled
0x000007a3 T qsee_log
0x0000080d T open
0x0000083f T read
0x0000087f T write
0x000008bf T close
0x000008ef T lstat
0x00000921 T mkdir
0x00000953 T frename
0x00000985 T opendir
0x000009b3 T readdir
0x000009e3 T closedir
0x00000a11 T rmdir
0x00000a41 T testdir
0x00000a71 T file_get_partition_free_size
0x00000aa3 T fstat
0x00000ad5 T lseek
0x00000b15 T time_getsystime
0x00000b47 T time_getutcsec
0x00000b79 T time_gethlosutc
0x00000bab T time_is_leap_year
0x00000bdd T remove
0x00000c0f T unlink
0x00000c3f T link
0x00000c71 T telldir
0x00000ca3 T fsync
0x00000cd5 T openat
0x00000d15 T unlinkat
0x00000d55 T fcntl
0x00000d89 T creat
0x00000dbd T file_dir_chown_chmod
0x00000e1b T qsee_get_uptime
0x00000e3d T qsee_wdog_stop
0x00000e5d T qsee_wdog_pet
0x00000e7d T memscpy
0x00000e9b T strlcpy
0x00000edd T timesafe_memcmp
0x00000f1b T memcmp
0x00000f73 T strlen
0x00000fad T __aeabi_memset
0x00000fbd T __aeabi_memclr
0x00000fbd T __rt_memclr
0x00000fc1 T _memset
0x00001001 T __aeabi_memclr4
0x00001001 T __aeabi_memclr8
0x00001001 T __rt_memclr_w
0x00001005 T _memset_w
0x0000104f T _printf_pre_padding
0x0000107d T _printf_post_padding
0x000010a1 T _printf_truncate_signed
0x000010b3 T _printf_truncate_unsigned
0x000010c5 T _printf_str
0x00001117 T _printf_charcount
0x00001141 T _sputc
0x0000114b T _snputc
0x0000115b T _is_digit
0x00001169 T _printf_n
0x00001169 T _printf_percent
0x0000116f T _printf_p
0x00001175 T _printf_f
0x0000117b T _printf_e
0x00001181 T _printf_g
0x00001187 T _printf_a
0x0000118d T _printf_ll
0x00001197 T _printf_i
0x0000119d T _printf_d
0x000011a3 T _printf_u
0x000011a9 T _printf_o
0x000011af T _printf_x
0x000011b5 T _printf_lli
0x000011bb T _printf_lld
0x000011c1 T _printf_llu
0x000011c7 T _printf_llo
0x000011cd T _printf_llx
0x000011d3 T _printf_l
0x000011dd T _printf_c
0x000011e3 T _printf_s
0x000011e9 T _printf_lc
0x000011ef T _printf_ls
0x000011f5 T _printf_percent_end
0x000011f9 T __rt_lib_init_cpp_2
0x000011f9 T __rt_lib_init_lc_ctype_2
0x000011f9 T __rt_lib_init_lc_numeric_2
0x000011f9 T _printf_fp_dec
0x000011fd T _printf_int_common
0x000012b5 T __lib_sel_fp_printf
0x00001461 T _printf_fp_dec_real
0x000016cd T _printf_cs_common
0x000016e1 T _printf_char
0x000016f1 T _printf_string
0x000016f9 T _printf_lcs_common
0x0000170d T _printf_wchar
0x0000171d T _printf_wstring
0x00001725 T _wcrtomb
0x00001765 T _btod_d2e
0x000017a3 T _d2e_norm_op1
0x00001803 T _d2e_denorm_low
0x00001849 T _btod_emul
0x00001871 T _btod_ediv
0x00001899 T _e2e
0x0000195f T __btod_mult_common
0x00001ba3 T __btod_div_common
0x00001edb T __ARM_fpclassify
0x00001eda N __I$use$fp
0x00001f15 T qsee_err_fatal
0x00001f37 T platform_err_fatal
0x00001f39 T platform_get_random
0x00001f3d T __stack_chk_fail
0x00001f3f T _sys_command_string
0x00001f43 T get_stack_base
0x00001f4f T get_stack_size
0x00001f67 T get_app_maxObjs
0x00001f6b T get_app_acceptBufSize
0x00001f71 T get_app_acceptBuf
0x00001f7d T get_ta_app_name
0x00001f89 T qsee_cmnlib_free
0x00001fbf T qsee_cmnlib_malloc
0x00001ffb T qsee_mem_heap_get_totals
0x0000202d T qsee_free
0x00002061 T qsee_malloc
0x00002097 T tzlib_app_entry
0x0000225b T get_app_entry
0x00002267 T server_exit
0x00002287 T serverLoop
0x000022db T get_app_serverloop_entry
0x000022e1 T get_app_req_resp
0x000022ed T qsee_read_register
0x0000230d T qsee_request_service
0x0000235f T qsee_wait
0x00002381 T qsee_register_shared_buffer
0x000023a3 T qsee_deregister_shared_buffer
0x000023c3 T qsee_prepare_shared_buf_for_nosecure_read
0x000023e5 T qsee_prepare_shared_buf_for_secure_read
0x00002407 T qsee_set_global_flag
0x00002427 T qsee_get_global_flag
0x00002449 T qsee_oem_process_cmd
0x0000246d T qsee_encapsulate_inter_app_message
0x00002491 T qsee_decapsulate_inter_app_message
0x000024b5 T qsee_enforce_hdmi_hdcp_encryption
0x000024d5 T qsee_get_secure_state
0x000025ac A tz_app_init
0x000025e0 A tz_app_cmd_handler
0x000026f4 A tz_app_shutdown
0x0000271c A set_internal_test_flag
0x0000280c A rmp_cmd_handler
0x00002a34 A pvr_cmd_handler
0x00002c14 A sdmx_cmd_handler
0x00004214 A rmp_initialize
0x000048e8 A rmp_terminate
0x000049b8 A rmp_allocate_stn_specific_ctx
0x00004a68 A rmp_free_stn_specific_ctx
0x00004c60 A rmp_allocate_kl_index
0x00004d44 A rmp_free_kl_index
0x00004e0c A rmp_process_emm
0x000052cc A rmp_process_ecm
0x00005690 A rmp_provision_unencrypt
0x00005730 A rmp_provision_encrypt
0x000057d0 A rmp_provision_cek
0x00005868 A rmp_provision_finalize
0x00005a9c A rmp_provision_challenge
0x00005d04 A rmp_provision_delete
0x00005db0 A rmp_delete_stn_files
0x00005f74 A rmp_set_device_key
0x000060dc A rmp_validate_device_key
0x00006224 A rmp_challenge_ks
0x00006310 A rmp_multi2_test
0x000065f0 A rmp_file_test
0x000067a8 A rmp_dummy
0x000068fc A cas_decrypt
0x00006a54 A cas_mark_key_is_fresh
0x00006a70 A cas_check_key_freshness
0x000077ec A PVR_allocate_id
0x000078f0 A PVR_local_encryption
0x00007b34 A PVR_local_decryption
0x00008418 A sdmx_buf_cyclic_read
0x00008c8c A sdmx_buf_remove_pkt
0x00008ddc A sdmx_buf_remove_data
0x00008f9c A sdmx_buf_finalize_pkt
0x00009204 A sdmx_buf_write
0x00009700 A sdmx_ll_add_assign_id
0x00009754 A sdmx_ll_add_node
0x0000978c A sdmx_ll_remove_node_by_ptr
0x000097cc A sdmx_ll_get_node
0x0000980c A sdmx_ll_remove_node_by_id
0x0000982c A sdmx_ll_get_next
0x00009844 A sdmx_ll_set_node_id
0x00009854 A sdmx_ll_get_node_id
0x00009940 A sdmx_new_section_filt
0x000099ac A sdmx_remove_section_filt
0x0000a230 A sdmx_sec_filter
0x0000a3ec A sdmx_is_protected_content
0x0000a408 A sdmx_is_secure_buffer
0x0000a57c A sdmx_content_protection_sequence_test
0x0000aaa9 T qsee_exec_protect_memory
0x0000aacd T qsee_is_sw_fuse_blown
0x0000aaf1 T qsee_blow_sw_fuse
0x0000ab11 T qsee_read_jtag_id
0x0000ab33 T qsee_read_serial_num
0x0000ab55 T qsee_fuse_write
0x0000ab79 T qsee_fuse_read
0x0000ab9d T qsee_is_ns_range
0x0000abc1 T qsee_is_s_tag_area
0x0000abe7 T qsee_i2c_open
0x0000ac07 T qsee_i2c_read
0x0000ac2b T qsee_i2c_write
0x0000ac4f T qsee_i2c_close
0x0000ac6f T qsee_spi_open
0x0000ac8f T qsee_spi_read
0x0000acb3 T qsee_spi_write
0x0000acd7 T qsee_spi_close
0x0000acf7 T qsee_spi_full_duplex
0x0000ad1b T qsee_ks_decrypt
0x0000ad47 T qsee_ks_get_key
0x0000ad73 T qsee_ks_delete_key
0x0000ad97 T qsee_ce_pipe_key_select
0x0000adbb T qsee_hdmi_status_read
0x0000addf T qsee_mem_usage_count
0x0000adff T qsee_sd_get_session
0x0000ae21 T qsee_tag_mem
0x0000ae45 T qsee_read_hw_version
0x0000ae6d T __c89vsnprintf
0x0000aea0 A __aeabi_memcpy
0x0000aea0 A __rt_memcpy
0x0000af28 A _memcpy_lastbytes
0x0000af48 A __aeabi_idiv
0x0000af48 A __aeabi_idivmod
0x0000b174 A __aeabi_uidiv
0x0000b174 A __aeabi_uidivmod
0x0000b1a5 T __cpp_initialize__aeabi_
0x0000b1c9 T _printf_int_dec
0x0000b247 T _printf_char_common
0x0000b26d T _printf_wctomb
0x0000b325 T _printf_longlong_dec
0x0000b39d T _printf_longlong_oct
0x0000b3e9 T _printf_int_oct
0x0000b401 T _printf_ll_oct
0x0000b415 T _printf_longlong_hex
0x0000b471 T _printf_int_hex
0x0000b48d T _printf_ll_hex
0x0000b499 T _printf_hex_ptr
0x0000b4b1 T __printf
0x0000b638 A __aeabi_memcpy4
0x0000b638 A __aeabi_memcpy8
0x0000b638 A __rt_memcpy_w
0x0000b69c A _memcpy_lastbytes_aligned
0x0000b6b4 A _ll_udiv10
0x0000b74c A __rt_udiv10
0x0000b779 T __rt_ctype_table
0x0000b789 T __rt_locale
0x0000b795 T _printf_fp_infnan
0x0000b815 T _btod_etento
0x0000b8ed T _get_lc_numeric
0x0000b919 T _get_lc_ctype
0x0000b944 A strcmp
0x0000b9e8 A sdmx_log
0x0000baa4 A sdmx_cleanup_ns_buffer
0x0000bbb8 A sdmx_prepare_ns_buffer
0x0000bfc0 A sdmx_add_filt_indicator
0x0000c278 A sdmx_calc_payload_ptr
0x0000d46c A SDMX_init
0x0000d498 A SDMX_open_session
0x0000d6a8 A SDMX_close_session
0x0000d908 A SDMX_set_session_cfg
0x0000dd7c A SDMX_set_KL_ind
0x0000e024 A SDMX_invalidate_KL_ind
0x0000e29c A SDMX_add_filter
0x0000ee88 A SDMX_remove_filter
0x0000f1a4 A SDMX_add_raw_pid
0x0000f650 A SDMX_remove_raw_pid
0x00010624 A SDMX_process
0x000114d8 A SDMX_get_dbg_counters
0x00011798 A SDMX_reset_dbg_counters
0x00011954 A SDMX_get_version
0x00011a0c A SDMX_set_debug_level
0x00011e98 A multi2_stream_key_schedule
0x00011fc8 A multi2_stream_encrypt
0x00012258 A multi2_stream_decrypt
0x000124e0 A crc_32_calc
0x00012600 A app_export_init_info_to_qsee
0x00012630 A qsee_printf_syscall
0x00012648 A qsee_wait_default_signal_syscall
0x00012674 A qsee_generic_syscall
0x00012698 A mink_generic_syscall
0x00013844 D crc32_table
0x00013d09 D __ctype
0x00014004 D pgCmnlib
0x00014008 D tzapp_lib
0x0001400c D cmnlib_rw_base
0x00014010 D app_rw_base
0x00014014 D __stack_chk_guard
0x00014018 D dummy_str
0x0001401c D app_cmd_invoker_obj
0x00014024 D mink_api_service_obj
0x0001402c D mink_user_sscall_service_obj
0x00014034 D mink_opener_obj
0x0001403c D magic_num
0x00014050 D magic_num_index_array
0x0001405a D TZ_APP_NAME
0x00014064 D g_internal_test_flag
0x0001406c D g_pvr_function
0x00014084 D g_sdmx_function
0x00014114 D g_rmp_function
0x0001428c D gAppCntxt
0x000142a0 D application_heap
0x000142d4 D mem_magic_number
0x000142e0 D apps_request_resp
0x000142f4 D acceptBuf
0x000160c0 D g_key_ladder
