#<SYMDEFS># ARM Linker, 5.01 [Build 94]: Last Updated: Fri Jul 28 04:00:06 2017
0x00216000 D emmcbld_api_pack
0x00216020 D packet_data
0x00216840 D aligned_buffer
0x00216c44 D reply_buffer
0x00217444 D reply_buffer_temp
0x00217c44 D size_msg
0x00217c84 D log_msg_buffer
0x00217d08 D spmiBusInfo
0x00217f38 D qhsusb_dload_info
0x00221a40 D mbr_buffer
0x00221c40 D sblhd_buffer
0x00221e40 D spmiPmicArbInfo
0x002221e0 D dci_core_info
0x08005050 A __emmcbld_entry
0x08005050 A __main
0x0800509d T _printf_d
0x0800509d T _printf_percent
0x080050a3 T _printf_percent_end
0x080050a9 T empty_init_function
0x080050d5 T main_c
0x08005111 T rex_int_lock
0x08005115 T rex_int_free
0x08005119 T boot_hw_kick_watch_dog
0x0800511b T DALSYS_BusyWait
0x080051f1 T memory_init
0x0800520d T emmcbld_bsp_target_reset
0x08005229 T emmcbld_bsp_hw_init
0x0800522b T emmcbld_bsp_kick_wdog
0x0800522d T emmcbld_bsp_freeze_wdog
0x08005235 T alignmemcpy
0x08005269 T packet_init
0x080052a5 T process_current_packet
0x080052d1 T force_xmit_reply
0x0800536f T compute_reply_crc
0x08005391 T my_strlen
0x080053a9 T xmit_log_message
0x080053db T packet_handle_incoming
0x0800543b T packet_handle_incoming_buf
0x0800559f T log_size_msg
0x08005605 T transmit_error
0x08005685 T handle_invalid
0x08005693 T handle_hello
0x080057b9 T handle_simple_read
0x080057c7 T handle_partition_info
0x08005935 T handle_reset
0x08005973 T handle_simple_write
0x08005981 T handle_stream_write
0x08005a01 T handle_erase
0x08005ccf T handle_sync
0x08005cfb T handle_power_off
0x08005d15 T handle_open
0x08005d65 T handle_close
0x08005da9 T handle_security_mode
0x08005dd7 T handle_parti_tbl
0x08005e5f T handle_open_multi
0x08005eeb T packet_process
0x08006011 T packet_loop
0x08006241 T SpmiCfg_Init
0x08006273 T SpmiCfg_DeInit
0x0800627b T SpmiCfg_GetChannelInfo
0x080062e7 T SpmiCfg_GetPeripherialInfo
0x08006349 T SpmiCfg_ConfigureChannels
0x0800640d T SpmiCfg_ConfigurePvcPort
0x080064c5 T SpmiCfg_SetPortPriorities
0x08006513 T SpmiCfg_SetPVCPortsEnabled
0x08006763 T SpmiBus_Init
0x0800679f T SpmiBus_DeInit
0x080067d7 T SpmiBus_ReadLong
0x080067f7 T SpmiBus_WriteLong
0x08006817 T SpmiBus_Command
0x0800685b T SpmiBus_RegisterIsr
0x08006903 T SpmiBus_UnregisterIsr
0x0800697f T SpmiBus_ReadModifyWriteLongByte
0x080069d7 T memscpy
0x080069f5 T crc_16_calc
0x08006a55 T crc_16_l_calc
0x08006ab1 T crc_30_calc
0x08006b0d T crc_30_step
0x08006b6d T crc_16_step
0x08006b97 T crc_16_l_step
0x08006bc1 T crc_32_calc
0x08006c2d T pm_pon_init
0x08006cd9 T pm_pon_overtemp_reset_cfg
0x08006d93 T pm_pon_ps_hold_cfg
0x08006e9b T pm_pon_reset_source_cfg
0x08007089 T pm_pon_reset_source_ctl
0x080070e3 T pm_pon_stage3_reset_source_cfg
0x08007157 T pm_pon_get_pon_reason
0x08007193 T pm_pon_get_poff_reason
0x080071d9 T pm_pon_get_warm_reset_reason
0x0800721f T pm_pon_get_soft_reset_reason
0x08007265 T pm_pon_get_all_pon_reasons
0x080072ab T pm_pon_debounce_ctl
0x0800730d T pm_pon_irq_enable
0x08007363 T pm_pon_irq_clear
0x080073a5 T pm_pon_irq_set_trigger
0x0800745b T pm_pon_irq_status
0x08007515 T pm_pon_config_uvlo
0x080075bd T pm_pon_warm_reset_status
0x08007609 T pm_pon_warm_reset_status_clear
0x08007745 T qhsusb_fd_hdlc_set_core
0x0800776d T qhsusb_fd_set_bulk_mode
0x0800779d T qhsusb_fd_hdlc_init
0x08007977 T qhsusb_fd_hdlc_shutdown
0x0800798d T qhsusb_fd_hdlc_tx_byte
0x080079d7 T qhsusb_fd_hdlc_tx_pkt
0x08007ad3 T qhsusb_fd_hdlc_is_tx_active
0x08007b01 T qhsusb_fd_hdlc_rx_pkt
0x08007b4d T qhsusb_fd_hdlc_rx_completed
0x08007b61 T qhsusb_fd_hdlc_update_vid_pid
0x08007b7f T qhsusb_fd_hdlc_get_vid_pid
0x08007ba7 T qhsusb_fd_hdlc_rx_completed_int_buf_mode
0x08007bc1 T qhsusb_fd_hdlc_bulk_in_progress
0x08007c8b T qhsusb_dcd_set_config
0x08007d6d T qhsusb_submit_urb
0x08007da7 T qhsusb_dcd_control_transfer
0x08008045 T qhsusb_dcd_port_status_changed
0x08008141 T qhsusb_dcd_init
0x08008197 T qhsusb_dcd_poll
0x080081a3 T qhsusb_dcd_shutdown
0x080081db T qhsusb_dcd_is_enumerated
0x080081fd T qhsusb_dci_get_enum_flag
0x08008203 T qhsusb_loop_here
0x080082a7 T dci_skip_enumeration
0x080082c3 T qhsusb_dci_init
0x0800853b T qhsusb_dci_poll_events
0x080085f9 T qhsusb_dci_set_address
0x08008621 T qhsusb_dci_stall_endpoint
0x0800866f T qhsusb_dci_unstall_endpoint
0x080086cd T qhsusb_dci_config_endpoint
0x0800878f T qhsusb_dci_unconfig_endpoint
0x08008a57 T qhsusb_dci_transfer_request
0x08008b17 T qhsusb_dci_cancel_transfer
0x08008bc1 T qhsusb_dci_cancel_transfer_wo_dqh_dtd
0x08008c11 T qhsusb_dci_shutdown
0x08008c67 T qhsusb_dci_start_timer
0x08008cbb T qhsusb_dci_stop_timer
0x08008cdb T qhsusb_dci_get_time_usec
0x08008d0b T qhsusb_dci_get_speed
0x08008d29 T qhsusb_dci_set_max_packet_size
0x08008d2f T qhsusb_dci_is_suspended
0x08008d53 T qhsusb_dci_get_line_state
0x08008d71 T qhsusb_dci_set_runstop_bit
0x08008d91 T qhsusb_dci_ulpi_read
0x08008de7 T qhsusb_dci_ulpi_write
0x08008e59 T qhsusb_dci_detect_charger_type
0x08008e95 T qhsusb_dci_set_enum_flag
0x08008e9b T qhsusb_dci_write_scratch
0x08008ebf T qhsusb_dci_read_scratch
0x08008ee7 T dci_set_bulk_progress
0x08008ef5 T partition_locate_by_type
0x08009041 T flash_device_init_data
0x08009043 T storage_device_name
0x08009047 T storage_device_sectors
0x080090a9 T do_security_mode
0x080090ad T do_partition_table
0x080090b1 T do_open
0x08009163 T do_open_multi
0x080092bb T do_close
0x080092bf T do_simple_write
0x080092c3 T do_stream_write
0x0800938f T do_create_gpp
0x08009393 T do_erase
0x0800943d T set_active_boot
0x0800948b T do_write
0x080094ef T do_read
0x080094f3 T do_partition_info
0x08009769 T PmicArb_ConfigHW
0x0800976d T PmicArb_Init
0x08009859 T PmicArb_GetHwStatus
0x08009879 T PmicArb_HasInterruptSupport
0x0800987f T PmicArb_FindChannel
0x080098c5 T PmicArb_SetInterruptEnabled
0x080098f9 T PmicArb_ExecuteCommand
0x08009b7d T SpmiMaster_ConfigHW
0x08009d1b T SpmiMaster_LoadRadixTree
0x08009d85 T SpmiOs_GetOwnerId
0x08009d8d T SpmiOs_GetPmicArbBaseAddr
0x08009d97 T SpmiOs_Wait
0x08009d9b T SpmiOs_Malloc
0x08009d9f T SpmiOs_Free
0x08009da3 T SpmiOs_RegisterISR
0x08009da7 T SpmiOs_GetTimeTick
0x08009dad T SpmiOs_GetSerialClkState
0x08009db1 T SpmiOs_GetAhbClkState
0x08009db5 T SpmiHal_Init
0x08009dc9 T sdcc_handle_close
0x08009de3 T sdcc_handle_open
0x08009f0d T sdcc_handle_mem_get_device_info
0x0800a033 T sdcc_handle_is_mem_present
0x0800a06f T sdcc_handle_set_sps_end_point
0x0800a073 T sdcc_handle_get_sps_end_point
0x0800a077 T sdcc_handle_read
0x0800a123 T sdcc_handle_write
0x0800a1cd T sdcc_handle_write_iovec
0x0800a1d1 T sdcc_get_config_info
0x0800a1f1 T sdcc_slot_has_support
0x0800a21b T sdcc_activity_timeout_event
0x0800a21f T sdcc_poll_card_status
0x0800a29d T sdcc_handle_erase
0x0800a36b T sdcc_enable_hw_reset
0x0800a38f T sdcc_handle_set_active_bootable_partition
0x0800a3b5 T sdcc_handle_set_power_on_write_protection
0x0800a3b9 T sdcc_boot_set_device_info
0x0800a3e1 T sdcc_handle_force_erase
0x0800a3e5 T sdcc_config_emmc_gpp_enh
0x0800a3f3 T sdcc_get_slot_type
0x0800a4cb T sdcc_handle_fw_update
0x0800a50b T sdcc_handle_get_ffu_status
0x0800a529 T sdcc_handle_get_fw_version
0x0800a549 T sdcc_deinit_device
0x0800a585 T pm_spmi_lite_read_byte
0x0800a5d3 T pm_spmi_lite_write_byte
0x0800a617 T pm_spmi_lite_write_byte_mask
0x0800a693 T pm_spmi_lite_write_byte_array
0x0800a6d7 T pm_spmi_lite_read_byte_array
0x0800a72d T pm_version_detect
0x0800a809 T pm_get_pmic_model
0x0800a82d T pm_get_pmic_revision
0x0800a853 T pm_get_pmic_info
0x0800a885 T pm_get_slave_id
0x0800a8cd T qhsusb_dci_is_attached
0x0800a8e1 T qhsusb_dci_is_wall_charger
0x0800a8e5 T qhsusb_dci_is_connected
0x0800a8eb T qhsusb_dci_connect
0x0800a8fd T qhsusb_dci_disconnect
0x0800a90f T qhsusb_get_shared_imem_address
0x0800a913 T dci_clk_regime_msm_reset_assert
0x0800a947 T dci_clk_regime_msm_reset_deassert
0x0800a993 T qhsusb_dci_fs_clk_disable
0x0800a995 T dci_init_phy
0x0800a9e5 T qhsusb_dci_check_for_pbl_dload
0x0800aa7f T qhsusb_dci_soft_reset_core
0x0800aa99 T dci_dcache_inval
0x0800aa9d T dci_dcache_flush
0x0800ab09 T dci_enable_ulpi_control_for_charger_block
0x0800abfb T dci_detect_charger_type
0x0800ad83 T dci_is_streaming_mode_disable_required
0x0800ad89 T qhsusb_dci_clk_enable
0x0800ad8d T qhsusb_dci_clk_is_usb_system_clk_on
0x0800ad97 T qhsusb_dci_clk_disable
0x0800ad9b T qhsusb_dci_usb_reset_assert
0x0800add1 T qhsusb_dci_usb_reset_deassert
0x0800adfb T qhsusb_dci_delay_ms
0x0800ae15 T qhsusb_dci_delay_us
0x0800ae19 T qhsusb_dci_dcache_flush
0x0800ae1b T qhsusb_dci_dcache_inval
0x0800ae2d T qhsusb_log_init
0x0800ae2f T qhsusb_log
0x0800ae31 T SpmiMaster_LoadFirmware
0x0800af51 T sdcc_init_pal
0x0800af55 T sdcc_process_signals
0x0800af6b T sdcc_handle_find_card
0x0800b035 T sdcc_setup_data_xfer
0x0800b099 T sdcc_config_rca
0x0800b0dd T sdcc_wait_card_ready
0x0800b107 T sdcc_wait_data_xfer_complete
0x0800b14b T sdcc_init_memory_device
0x0800b1ff T sdcc_config_memory_device
0x0800b2b7 T sdcc_complete_data_xfer
0x0800b2fd T sdcc_read_fifo
0x0800b3ab T sdcc_write_fifo
0x0800b48d T sdcc_set_partition
0x0800b4bb T sdcc_send_app_command
0x0800b4ed T sdcc_do_transfer_qc_mode
0x0800b661 T sdcc_do_transfer
0x0800b671 T sdcc_get_cid
0x0800b7cb T sdcc_handle_optimized_open
0x0800b867 T sdcc_is_partial_enumeration
0x0800b88d T sdcc_get_slot_handle
0x0800b8a5 T sdcc_config_clk
0x0800ba67 T sdcc_poll_status
0x0800bae3 T sdcc_send_status
0x0800bb13 T sdcc_wait_prog_done
0x0800bb61 T sdcc_send_cmd
0x0800bbf9 T sdcc_command_qc_mode
0x0800bc5d T sdcc_command
0x0800bc73 T sdcc_init_qc_mode
0x0800bd77 T sdcc_deinit
0x0800bdb9 T sdcc_reset_reinit
0x0800bf87 T sdcc_get_memory_info
0x0800c057 T sdcc_select_card
0x0800c091 T sdcc_display_mem_device_info
0x0800c0cb T sdcc_tx_test
0x0800c1f3 T sdcc_rx_test
0x0800c381 T sdcc_mmc_switch
0x0800c443 T sdcc_decode_extCSD
0x0800c5fb T sdcc_get_ext_csd
0x0800c749 T sdcc_find_mmc_device
0x0800c7e1 T sdcc_config_mmc_bus_width
0x0800c82d T sdcc_config_mmc_modes_segment
0x0800ca2f T sdcc_decode_mmc_mfr_date
0x0800ca33 T sdcc_decode_mmc_cid
0x0800caab T sdcc_mmc_set_partition_access
0x0800caed T sdcc_mmc_get_phy_partition_info
0x0800cb93 T sdcc_mmc_set_pwr_on_write_prot
0x0800cbdf T sdcc_mmc_is_phy_partition_bootable
0x0800cc11 T sdcc_mmc_set_active_bootable_partition
0x0800cc81 T sdcc_mmc_config_gpp_enh
0x0800cd9b T sdcc_mmc_get_ext_csd_rev
0x0800cda3 T sdcc_mmc_is_ffu_allowed
0x0800cdc5 T sdcc_mmc_set_mode_config
0x0800cddb T sdcc_mmc_get_ffu_argument
0x0800cde1 T sdcc_mmc_get_ffu_status
0x0800ce21 T sdcc_mmc_get_fw_version
0x0800ce4d T sdcc_init_client_handle_list
0x0800cec5 T sdcc_register_client_handle
0x0800cf03 T sdcc_deregister_client_handle
0x0800cf25 T sdcc_is_device_still_in_use
0x0800cf59 T sdcc_bsp_hw_clk_busy_wait
0x0800cf5d T sdcc_bsp_config_clock
0x0800d021 T sdcc_bsp_hw_busy_wait_init
0x0800d02f T sdcc_bsp_get_slot_type
0x0800d03f T sdcc_bsp_get_slot_access_type
0x0800d04f T sdcc_bsp_vdd_control
0x0800d053 T sdcc_bsp_vdd_configure
0x0800d057 T sdcc_bsp_gpio_control
0x0800d095 T sdcc_bsp_get_default_slot
0x0800d0b1 T sdcc_bsp_get_cache_align_size
0x0800d0b5 T sdcc_bsp_set_vreg_level
0x0800d0b7 T sdcc_bsp_cache_operation
0x0800d0c3 T sdcc_bsp_get_max_supported_clk
0x0800d0fd T sdcc_init_sdhci_mode
0x0800d101 T sdcc_hc_set_clock
0x0800d105 T sdcc_do_transfer_sdhci_mode
0x0800d109 T sdcc_hc_config_buswidth
0x0800d10d T sdcc_command_sdhci_mode
0x0800d111 T sdcc_hc_enable_ddr50
0x0800d115 T HAL_sdcc_WaitWrActive
0x0800d12d T HAL_sdcc_SetSdCmd
0x0800d17b T HAL_sdcc_DataControl
0x0800d1ab T HAL_sdcc_GetIntState
0x0800d1b5 T HAL_sdcc_EnableInt
0x0800d1eb T HAL_sdcc_IsIntEnabled
0x0800d22d T HAL_sdcc_DisableInt
0x0800d26d T HAL_sdcc_IntStateGet
0x0800d279 T HAL_sdcc_IntStateSet
0x0800d283 T HAL_sdcc_FifoBlockRead
0x0800d2af T HAL_sdcc_FifoBlockWrite
0x0800d2f9 T HAL_sdcc_InitializeRegisters
0x0800d32b T HAL_sdcc_SetBusWidth
0x0800d35b T HAL_sdcc_Supports8BitBus
0x0800d35f T HAL_sdcc_GetNumBitsDataLength
0x0800d363 T HAL_sdhci_SetCapabilities
0x0800d421 T busywait_init
0x0800d42b T busywait
0x0800d45d T Clock_SetSDCClockFrequencyExt
0x0800d567 T Clock_SetSDCClockFrequency
0x0800d591 T Clock_InitUSB
0x0800d5d1 T Clock_DisableUSB
0x0800d639 T sdcc_find_sd_device
0x0800d71b T sdcc_decode_scr
0x0800d743 T sdcc_get_scr
0x0800d78f T sdcc_decode_sd_status
0x0800d7a9 T sdcc_get_sd_status
0x0800d7f5 T sdcc_decode_switch_data
0x0800d89f T sdcc_sd_switch_to_hs
0x0800d9d5 T sdcc_get_sd_speed_class
0x0800d9fd T sdcc_set_sd_bus_width
0x0800da79 T sdcc_decode_sd_mfr_date
0x0800da7d T sdcc_decode_sd_cid
0x0800dadd T HAL_sdcc_HCModeEnable
0x0800dadf T HAL_sdhci_PowerSave
0x0800dae1 T Clock_SBLConfig
0x0800dae5 T Clock_SourceMapToMux
0x0800dafd T Clock_MuxMapToSource
0x0800db01 T Clock_SourceMapToGCC
0x0800db2d T Clock_SourceMapToAPCS
0x0800db4f T Clock_SourceMapToAPSSTCUASYNC
0x0800db7b T Clock_EnableSource
0x0800dbe9 T Clock_ConfigureSource
0x0800dc9d T Clock_TriggerUpdate
0x0800dccf T Clock_ConfigurePLL
0x0800dd8b T Clock_EnablePLL
0x0800de6b T Clock_DisablePLL
0x0800debf T Clock_IsPLLEnabled
0x0800deef T Clock_ConfigMux
0x0800df9b T Clock_ToggleClock
0x0800dfc3 T Clock_DetectMuxCfg
0x0800dfec A __aeabi_uldivmod
0x0800dfec A _ll_udiv
0x0800e000 A _ll_udiv_donemoving
0x0800e31d T __aeabi_llsl
0x0800e31d T _ll_shift_l
0x0800e345 T __2snprintf
0x0800e379 T __printf
0x0800e3e5 T _printf_int_dec
0x0800e459 T memcmp
0x0800e4b0 A __aeabi_memcpy
0x0800e4b0 A __rt_memcpy
0x0800e518 A _memcpy_lastbytes
0x0800e539 T __aeabi_memclr
0x0800e539 T __rt_memclr
0x0800e53d T _memset
0x0800e57d T __aeabi_memclr4
0x0800e57d T __aeabi_memclr8
0x0800e57d T __rt_memclr_w
0x0800e581 T _memset_w
0x0800e5cc A __aeabi_idiv
0x0800e5cc A __aeabi_idivmod
0x0800e7f9 T _printf_int_common
0x0800e8bb T _printf_char_common
0x0800e8e1 T _sputc
0x0800e8eb T _snputc
0x0800e8fc A __aeabi_memcpy4
0x0800e8fc A __aeabi_memcpy8
0x0800e8fc A __rt_memcpy_w
0x0800e948 A _memcpy_lastbytes_aligned
0x0800e960 A __rt_udiv10
0x0800e98c A __aeabi_uidiv
0x0800e98c A __aeabi_uidivmod
0x0800e9bc A hal_sdcc_memcpy32
0x0800e9d8 A hal_sdcc_memcpy_read
0x0800e9f8 A hal_sdcc_memcpy_write
0x0800ea48 D digs
0x0800ea9c D max_packet_handler
0x0800eaa0 D crc30_table
0x0800eea0 D crc16_table
0x0800f0a0 D crc_16_l_table
0x0800f2a0 D crc32_table
0x0800f6a0 D pon_s1_timer_arr_size
0x0800f6a4 D pon_s2_timer_arr_size
0x0800f6a8 D pon_s3_timer_arr_size
0x0800f6ac D pon_debounce_time_arr_size
0x0800f8cc D SDCCSdhciEnable
0x0800f8cd D DMASupportEnable
0x0800f8d0 D Clock_SDCCRegs
0x0800fc48 D emmcbld_init_fn_en1
0x0800fc4c D emmcbld_init_fn_en2
0x0800fc50 D emmcbld_init_fn_en3
0x0800fc54 D emmcbld_init_fn_en4
0x0800fc58 D disptbl
0x0800fc7c D usb_dispatch_table
0x0800fc94 D zero_init_needed
0x0800fc9a D process_packet_flag
0x0800fc9d D partition_status
0x0800fc9e D open_multi_status
0x0800fcac D size_msg_fixed
0x0800fcb0 D size_msg_overrun
0x0800fcb4 D enable_crc_check
0x0800fcb8 D free_list
0x0800fcbc D waiting
0x0800fcc0 D waiting_last
0x0800fcc4 D current
0x0800fcc8 D reply_length
0x0800fccc D packet_handler
0x0800fe96 D hdlc_usb_config_obex
0x0800feb6 D hdlc_usb_config_obex_only
0x0800ff18 D sw_config
0x0800ff28 D sw_device
0x0800ffcc D sw_strings
0x08010030 D curr_opened_image
0x08010031 D sector_addresses_enabled
0x08010034 D hsdev_handle_user
0x08010038 D hsdev_handle_boot1
0x0801003c D hsdev_handle_boot2
0x08010040 D hsdev_handle_gpp1
0x08010044 D hsdev_handle_gpp2
0x08010048 D hsdev_handle_gpp3
0x0801004c D hsdev_handle_gpp4
0x08010050 D curr_opened_offset
0x08010054 D sdcc_err_string
0x080100dc D pmicArbHwioBase
0x080100e0 D sdcc_mini_boot_device_info
0x080100f8 D dci_core_base_address
0x08010114 D hwio_init_done
0x08010118 D sdcc_reg_base
0x08010120 D sdcc_reg_phys
0x08010128 D sdhc_reg_base
0x08010130 D sdhc_reg_phys
0x08010138 D Clock_SBLConfigData
0x08010630 D Clock_SBL_MuxMap
