#<SYMDEFS># ARM Linker, 5.01 [Build 94]: Last Updated: Wed Feb  7 02:09:39 2018
0x00000000 A TZAPPENTRY
0x00000000 A __main
0x00000000 A _main
0x00000000 N _printf_flags
0x00000000 N _printf_return_value
0x00000000 N _printf_sizespec
0x00000000 N _printf_widthprec
0x00000064 A read_app_rw_base
0x00000070 A set_rw_base
0x0000007d T qsee_kdf
0x000000d7 T qsee_sfs_getSize
0x00000109 T qsee_sfs_open
0x0000013b T qsee_sfs_close
0x0000016b T qsee_sfs_read
0x000001ab T qsee_sfs_write
0x000001eb T qsee_sfs_seek
0x0000022b T qsee_sfs_mkdir
0x0000025b T qsee_sfs_rmdir
0x0000028b T qsee_sfs_rm
0x000002bb T qsee_sfs_error
0x000002eb T qsee_sfs_get_file_list
0x0000031d T qsee_sfs_clean_file_list
0x00000349 T qsee_sfs_is_anti_rollback_enabled
0x00000377 T qsee_log
0x000003e1 T open
0x00000413 T read
0x00000453 T write
0x00000493 T close
0x000004c3 T lstat
0x000004f5 T mkdir
0x00000527 T frename
0x00000559 T opendir
0x00000587 T readdir
0x000005b7 T closedir
0x000005e5 T rmdir
0x00000615 T testdir
0x00000645 T file_get_partition_free_size
0x00000677 T fstat
0x000006a9 T lseek
0x000006e9 T time_getsystime
0x0000071b T time_getutcsec
0x0000074d T time_gethlosutc
0x0000077f T time_is_leap_year
0x000007b1 T remove
0x000007e3 T unlink
0x00000813 T link
0x00000845 T telldir
0x00000877 T fsync
0x000008a9 T openat
0x000008e9 T unlinkat
0x00000929 T fcntl
0x0000095d T creat
0x00000991 T file_dir_chown_chmod
0x000009ef T memscpy
0x00000a0d T strlcat
0x00000a63 T strlcpy
0x00000aa5 T qsee_hash
0x00000ac9 T qsee_hash_init
0x00000aeb T qsee_hash_reset
0x00000b0b T qsee_hash_update
0x00000b2f T qsee_hash_final
0x00000b53 T qsee_hash_free_ctx
0x00000b73 T qsee_hash_set_param
0x00000b97 T qsee_hashcipher_encrypt
0x00000bd1 T qsee_hashcipher_decrypt
0x00000c0b T qsee_cipher_init
0x00000c2d T qsee_cipher_reset
0x00000c4d T qsee_cipher_free_ctx
0x00000c6d T qsee_cipher_set_param
0x00000c91 T qsee_cipher_get_param
0x00000cb5 T qsee_cipher_encrypt
0x00000cd9 T qsee_cipher_decrypt
0x00000cfd T qsee_hmac
0x00000d21 T qsee_hmac_init
0x00000d43 T qsee_hmac_update
0x00000d67 T qsee_hmac_final
0x00000d8b T qsee_hmac_free_ctx
0x00000dab T qsee_cmac
0x00000de1 T qsee_prng_getdata
0x00000e03 T qsee_crypto_lock_engine
0x00000e25 T qsee_kdf_shim
0x00000e47 T qsee_set_bandwidth
0x00000e6b T qsee_get_uptime
0x00000e8d T qsee_wdog_stop
0x00000ead T qsee_wdog_pet
0x00000ecd T qsee_dcache_inval_region
0x00000eef T qsee_dcache_flush_region
0x00000f11 T qsee_dcache_clean_region
0x00000f33 T gdFontGetgdfontqcomreg100propExt
0x00000f5d T gdFontGetgdfontqcomreg100monoExt
0x00000f87 T gdFontGetgdfontqcomreg42propExt
0x00000fb1 T gdFontGetgdfontqcomreg30propExt
0x00000fdb T gdFontGetgdfontqcomreg48propExt
0x00001005 T load_layout_images
0x00001205 T secure_memset
0x00001219 T png_get_valid
0x00001227 T png_get_rowbytes
0x00001233 T png_get_channels
0x0000123f T png_get_signature
0x0000124d T png_get_IHDR
0x000012c5 T png_get_PLTE
0x000012e3 T png_get_compression_buffer_size
0x000012ef T png_read_data
0x000012f9 T png_set_read_fn
0x0000130d T gdColorMatch
0x000013d7 T overflow2
0x0000141b T png_free_default
0x0000142b T png_free
0x0000143f T png_destroy_png_struct
0x00001467 T png_malloc_base
0x00001483 T png_malloc
0x000014a3 T png_calloc
0x000014e3 T png_malloc_array
0x00001503 T png_realloc_array
0x00001573 T png_malloc_default
0x00001593 T png_malloc_warn
0x000015a3 T png_set_mem_fn
0x000015b5 T png_get_mem_ptr
0x000015c1 T get_crc_table
0x00001b2d T crc32
0x00001c03 T crc32_combine
0x00001c05 T crc32_combine64
0x00001c07 T adler32
0x00001e91 T adler32_combine
0x00001e93 T adler32_combine64
0x00001e95 T inflate_table
0x00002237 T malloc
0x00002295 T free
0x000022e3 T vfprintf
0x000022ed T _printf_pre_padding
0x0000231b T _printf_post_padding
0x0000233f T _is_digit
0x0000234d T _printf_n
0x0000234d T _printf_percent
0x00002353 T _printf_p
0x00002359 T _printf_f
0x0000235f T _printf_e
0x00002365 T _printf_g
0x0000236b T _printf_a
0x00002371 T _printf_ll
0x0000237b T _printf_i
0x00002381 T _printf_d
0x00002387 T _printf_u
0x0000238d T _printf_o
0x00002393 T _printf_x
0x00002399 T _printf_lli
0x0000239f T _printf_lld
0x000023a5 T _printf_llu
0x000023ab T _printf_llo
0x000023b1 T _printf_llx
0x000023b7 T _printf_l
0x000023c1 T _printf_c
0x000023c7 T _printf_s
0x000023cd T _printf_lc
0x000023d3 T _printf_ls
0x000023d9 T _printf_percent_end
0x000023dd T fputs
0x000023ff T abort
0x0000240f T memcmp
0x00002467 T strlen
0x000024a1 T __aeabi_memset
0x000024b1 T __aeabi_memclr
0x000024b1 T __rt_memclr
0x000024b5 T _memset
0x000024f5 T __aeabi_memclr4
0x000024f5 T __aeabi_memclr8
0x000024f5 T __rt_memclr_w
0x000024f9 T _memset_w
0x00002543 T __aeabi_dadd
0x00002543 T _dadd
0x00002555 T __aeabi_ddiv
0x00002555 T _ddiv
0x00002567 T __aeabi_d2iz
0x00002567 T _dfix
0x00002575 T __aeabi_d2uiz
0x00002575 T _dfixu
0x00002583 T __aeabi_ui2d
0x00002583 T _dfltu
0x00002591 T __aeabi_i2d
0x00002591 T _dflt
0x0000259f T __aeabi_dmul
0x0000259f T _dmul
0x000025b1 T __aeabi_f2d
0x000025b1 T _f2d
0x000025bf T __aeabi_fdiv
0x000025bf T _fdiv
0x000025d1 T __aeabi_i2f
0x000025d1 T _fflt
0x000025df T atan2
0x000025f3 T cos
0x00002603 T floor
0x00002613 T sin
0x00002623 T sqrt
0x00002689 T __use_no_heap
0x0000268b T __heap$guard
0x0000268d T _terminate_user_alloc
0x0000268f T _init_user_alloc
0x00002691 T __Heap_Full
0x000026b1 T __Heap_Broken
0x000026b7 T _init_alloc
0x00002715 T __Heap_Initialize
0x0000271f T __Heap_DescSize
0x00002723 T __read_errno
0x0000272d T __set_errno
0x00002739 T _printf_truncate_signed
0x0000274b T _printf_truncate_unsigned
0x0000275d T _printf_str
0x000027af T _printf_int_common
0x00002867 T _printf_charcount
0x00002891 T _sputc
0x0000289b T _snputc
0x000028ab T fputc
0x000028c5 T __rt_SIGABRT
0x000028d3 T __fpl_dcmp_Inf
0x000028d3 T __rt_lib_init_cpp_2
0x000028d3 T __rt_lib_init_heap_2
0x000028d3 T __rt_lib_init_lc_ctype_2
0x000028d3 T __rt_lib_init_lc_numeric_2
0x000028d3 T __rt_lib_init_stdio_2
0x000028eb T __fpl_dnaninf
0x00002987 T _printf_fp_dec
0x0000298b T _printf_fp_hex
0x0000298e N __I$use$fp
0x0000298f T atan
0x0000299f T fabs
0x000029bd T _sys_open
0x000029d1 T _sys_close
0x000029dd T _sys_write
0x000029ed T _sys_read
0x000029fb T _sys_istty
0x00002a07 T _sys_seek
0x00002a15 T _sys_ensure
0x00002a17 T _sys_flen
0x00002a23 T __I$use$semihosting
0x00002a23 T __use_no_semihosting_swi
0x00002a25 T __Heap_ProvideMemory
0x00002a25 T __semihosting_library_function
0x00002a57 T __lib_sel_fp_printf
0x00002c03 T _printf_fp_dec_real
0x00002e6f T _printf_cs_common
0x00002e83 T _printf_char
0x00002e93 T _printf_string
0x00002e9b T _printf_lcs_common
0x00002eaf T _printf_wchar
0x00002ebf T _printf_wstring
0x00002ec7 T ferror
0x00002ecf T __flsbuf
0x00002ecf T __flsbuf_byte
0x00002ecf T __flsbuf_wide
0x000030ad T _ftell_internal
0x000030ad T ftell
0x000030f3 T setvbuf
0x00003139 T _fclose_internal
0x00003139 T fclose
0x00003185 T _wcrtomb
0x000031c5 T __sig_exit
0x000031cf T __rt_SIGRTRED
0x000031dd T __rt_SIGRTMEM
0x000031eb T __ARM_fpclassify
0x000031eb T __rt_lib_shutdown_stdio_2
0x0000321b T __kernel_poly
0x00003295 T _btod_d2e
0x000032d3 T _d2e_norm_op1
0x00003333 T _d2e_denorm_low
0x00003379 T _btod_emul
0x000033a1 T _btod_ediv
0x000033c9 T _e2e
0x0000348f T __btod_mult_common
0x000036d3 T __btod_div_common
0x00003a0b T __default_signal_display
0x00003a3d T _ttywrch
0x00003a4d T copy_dot
0x00003ae1 T draw_dot
0x00003d55 T provision
0x00003e25 T tz_app_init
0x0000430f T test_app_buffer
0x00004337 T alloc_init_screen
0x000046f3 T start_disp_fullscreen
0x00004835 T show_image
0x000048fd T show_image_ptr
0x00004d89 T tz_app_cmd_handler
0x00005005 T tz_app_shutdown
0x00005581 T sec_ui_stop_disp
0x0000566b T sec_ui_get_disp_properties
0x00005ad7 T sec_ui_start_disp_fullscreen
0x00005bd1 T session_is_unchanged
0x00005c6b T sec_ui_show_buf
0x00005e95 T sec_ui_copy_to_buffer
0x000060bf T sec_ui_hlos_release
0x000061a5 T sec_ui_alloc_app_buffer
0x00006255 T sec_ui_free_app_buffer
0x00006a27 T manage_layout_event
0x00007e6b T qsee_tui_init
0x00007e6f T qsee_tui_dialog
0x000080ed T qsee_tui_get_secure_indicator_buffer
0x00008135 T qsee_tui_release_secure_indicator
0x00008155 T qsee_tui_tear_down
0x00008189 T secUiProcessCmd
0x0000824f T secUiCmd
0x000082d1 T secUiRegisterTouchCallback
0x000082df T secUiTouchIsActive
0x000082f3 T secUiSetPanelSize
0x0000839d T secUiTouchStop
0x0000840d T processCmdStopTouch
0x000084f9 T qsee_exec_protect_memory
0x0000851d T qsee_is_sw_fuse_blown
0x00008541 T qsee_blow_sw_fuse
0x00008561 T qsee_read_jtag_id
0x00008583 T qsee_read_serial_num
0x000085a5 T qsee_fuse_write
0x000085c9 T qsee_fuse_read
0x000085ed T qsee_is_ns_range
0x00008611 T qsee_is_s_tag_area
0x00008637 T qsee_i2c_open
0x00008657 T qsee_i2c_read
0x0000867b T qsee_i2c_write
0x0000869f T qsee_i2c_close
0x000086bf T qsee_spi_open
0x000086df T qsee_spi_read
0x00008703 T qsee_spi_write
0x00008727 T qsee_spi_close
0x00008747 T qsee_spi_full_duplex
0x0000876b T qsee_ks_decrypt
0x00008797 T qsee_ks_get_key
0x000087c3 T qsee_ks_delete_key
0x000087e7 T qsee_ce_pipe_key_select
0x0000880b T qsee_hdmi_status_read
0x0000882f T qsee_mem_usage_count
0x0000884f T qsee_sd_get_session
0x00008871 T qsee_tag_mem
0x00008895 T qsee_read_hw_version
0x000088bd T qsee_err_fatal
0x000088df T platform_err_fatal
0x000088e1 T platform_get_random
0x000088e5 T __stack_chk_fail
0x000088e7 T _sys_command_string
0x000088eb T get_stack_base
0x000088f7 T get_stack_size
0x0000890f T get_app_maxObjs
0x00008913 T get_app_acceptBufSize
0x00008919 T get_app_acceptBuf
0x00008925 T get_ta_app_name
0x00008931 T qsee_cmnlib_free
0x00008967 T qsee_cmnlib_malloc
0x000089a3 T qsee_mem_heap_get_totals
0x000089d5 T qsee_free
0x00008a09 T qsee_malloc
0x00008a3f T tzlib_app_entry
0x00008c03 T get_app_entry
0x00008c0f T server_exit
0x00008c2f T serverLoop
0x00008c83 T get_app_serverloop_entry
0x00008c89 T get_app_req_resp
0x00008c95 T qsee_read_register
0x00008cb5 T qsee_request_service
0x00008d07 T qsee_wait
0x00008d29 T qsee_register_shared_buffer
0x00008d4b T qsee_deregister_shared_buffer
0x00008d6b T qsee_prepare_shared_buf_for_nosecure_read
0x00008d8d T qsee_prepare_shared_buf_for_secure_read
0x00008daf T qsee_set_global_flag
0x00008dcf T qsee_get_global_flag
0x00008df1 T qsee_oem_process_cmd
0x00008e15 T qsee_encapsulate_inter_app_message
0x00008e39 T qsee_decapsulate_inter_app_message
0x00008e5d T qsee_enforce_hdmi_hdcp_encryption
0x00008e7d T qsee_get_secure_state
0x00008f55 T touchClose
0x00009397 T layout_mgr_delete_input_last_character
0x000097cd T layout_mgr_load_layout
0x0000985f T layout_mgr_eval_event
0x000099ff T layout_mgr_render_layout
0x00009c87 T layout_mgr_set_label_text
0x00009d33 T set_label_buffer
0x00009d3f T layout_mgr_set_label_buffer
0x00009dd7 T layout_mgr_set_input_display_mode
0x00009e6f T layout_mgr_set_show_flag
0x00009ecb T layout_mgr_set_dirty_bit
0x00009f21 T layout_mgr_set_button_disabled
0x0000a15b T layout_mgr_set_focus_input
0x0000a1c9 T layout_mgr_set_image
0x0000a25d T layout_mgr_set_active_keyboard
0x0000a2cd T layout_mgr_randomize_keyboard
0x0000a657 T layout_mgr_get_input_len
0x0000a6eb T layout_mgr_set_input_len_to_max
0x0000a753 T layout_mgr_clear_input_buffer
0x0000a831 T create_message_single
0x0000ab41 T create_message_double
0x0000af7f T create_message_triple
0x0000b48f T create_pin
0x0000ca47 T create_login_username_password
0x00014fcf T create_login_password_only
0x0001d24f T create_layout
0x0001d2e9 T processCmdStartTouch
0x0001d441 T processCmdProcessTouch
0x0001d685 T processCmdPrepareRequest
0x0001d769 T processCmdStoreIndicator
0x0001d8e5 T setVisible
0x0001d8ff T showKeyboard
0x0001d989 T updateKeyboard
0x0001d9bb T unclickObject
0x0001d9ff T findObject
0x0001e0ad T verifyLayout
0x0001e8cb T updatePage
0x0001eff5 T touchOpen
0x0001f1a9 T touchGetData
0x0001f25b T drNotifyEvent
0x0001f3c9 T get_utf8_len
0x00020c13 T render_layout
0x000212f3 T dumpT9
0x00021387 T dumpT100
0x000213e1 T dumpT15
0x000214d9 T dumpT42
0x000214f9 T processT9
0x00021599 T processT100
0x0002187f T atmel_drTsOpen
0x00021eb9 T atmel_drTsClose
0x00021f2f T atmel_drTsProcessEvents
0x0002220b T synReadF12
0x0002241d T synaptics_drTsOpen
0x00022bfd T synaptics_drTsClose
0x00022f7d T synaptics_drTsProcessEvents
0x000230ed T gd_stderr_error
0x0002317f T gd_error_ex
0x000231a1 T gd_error
0x000231b7 T gdSetErrorMethod
0x000231c5 T gdClearErrorMethod
0x000231d7 T gdImageCreate
0x000231db T gdImageCreateExt
0x000232ab T gdImageCreateTrueColor
0x000232af T gdImageCreateTrueColorExt
0x00023385 T gdImageDestroyEx
0x000233bf T gdImageColorClosestAlpha
0x0002345d T gdImageColorClosest
0x0002346d T gdImageColorExactAlpha
0x000234d9 T gdImageColorExact
0x00023529 T gdImageColorAllocateAlpha
0x000235a5 T gdImageColorAllocate
0x000235b5 T gdImageColorResolveAlpha
0x00023699 T gdImageColorResolve
0x000236a9 T gdImageColorDeallocate
0x000236c9 T gdImageColorTransparent
0x0002370b T gdImagePaletteCopy
0x00023805 T gdAlphaBlend
0x000238a9 T gdImageGetPixel
0x000239d7 T gdImageGetTrueColorPixel
0x00023b81 T gdImageSetPixel
0x00023c8d T gdImageColorReplace
0x00023d65 T gdImageColorReplaceThreshold
0x0002402b T gdImageSetLine
0x0002405b T gdImageAABlend
0x0002405d T gdImageFilledRectangle
0x00024411 T gdImageLine
0x000247d9 T gdImageDashedLine
0x00024a25 T gdImageBoundsSafe
0x00024a55 T gdImageChar
0x00024ad5 T gdImageCharUp
0x00024b61 T gdFontFindIndex
0x00024b99 T gdImageCharExt
0x00024c23 T gdImageString
0x00024c69 T gdImageStringUp
0x00024caf T getUnicode
0x00024d4d T gdImageStringExt
0x00024d99 T gdImageCharVarWidth
0x00024e47 T gdImageStringVarWidth
0x00024e8d T gdGetMaxLenForWidth
0x00024ed3 T gdIsValidUTF8String
0x00024f61 T gdImageString16
0x00024fa9 T gdImageStringUp16
0x00024ff1 T lsqrt
0x00025003 T gdImageOpenPolygon
0x0002503f T gdImagePolygon
0x0002507d T gdImageFilledPolygon
0x000252d5 T gdImageFilledArc
0x00025539 T gdImageArc
0x0002555d T gdImageEllipse
0x0002560d T gdImageFilledEllipse
0x000256dd T gdImageGradientFilledEllipse
0x00025b43 T gdImageFillToBorder
0x00025c8b T gdImageRectangle
0x00025e11 T gdImageQuickFilledRectangle
0x00025e8d T gdImageFilledRoundedRectangle
0x00025fb3 T gdImageGradientFilledRectangle
0x00026233 T gdImageCopyResized
0x00026503 T gdImageSetThickness
0x0002650b T gdImageSetBrush
0x00026599 T gdImageSetTile
0x00026629 T gdImageSetAntiAliased
0x0002663f T gdImageSetAntiAliasedDontBlend
0x00026655 T gdImageInterlace
0x0002665d T gdImageCompare
0x000267b7 T gdImageAlphaBlending
0x000267bf T gdImageSaveAlpha
0x000267c7 T gdImageSetClip
0x00026825 T gdImageGetClip
0x00026855 T gdImageSetResolution
0x00026881 T png_set_sig_bytes
0x000268a1 T png_sig_cmp
0x00026903 T png_zalloc
0x00026931 T png_zfree
0x00026935 T png_reset_crc
0x00026949 T png_calculate_crc
0x000269a1 T png_get_header_ver
0x000269a5 T png_user_version_check
0x00026a33 T png_create_png_struct
0x00026aa5 T png_create_info_struct
0x00026ad1 T png_free_data
0x00026b13 T png_destroy_info_struct
0x00026b59 T png_data_freer
0x00026b7d T png_get_io_ptr
0x00026b87 T png_get_copyright
0x00026b93 T png_get_libpng_ver
0x00026b95 T png_get_header_version
0x00026b99 T png_reset_zstream
0x00026ba7 T png_access_version_number
0x00026bad T png_zstream_error
0x00026c03 T png_check_IHDR
0x00026df9 T malloc_fn
0x00026dff T free_fn
0x00026e05 T png_create_read_struct_2
0x00026e3d T png_create_read_struct
0x00026e5b T png_read_info
0x00026f3b T png_read_update_info
0x00026f51 T png_start_read_image
0x00026f67 T png_read_row
0x00027079 T png_read_rows
0x000270eb T png_read_image
0x00027133 T png_read_end
0x00027223 T png_destroy_read_struct
0x00027259 T png_set_read_status_fn
0x00027265 T dumpHex
0x00027339 T png_longjmp
0x00027343 T png_err
0x00027359 T png_safecat
0x0002738f T png_chunk_report
0x00027399 T png_set_error_fn
0x000273a3 T png_get_error_ptr
0x000273b1 T png_get_uint_31
0x000273d9 T png_read_sig
0x0002743f T png_check_chunk_name
0x00027467 T png_read_chunk_header
0x000274d5 T png_crc_read
0x000274fb T png_crc_error
0x0002757d T png_crc_finish
0x000276e9 T png_handle_IHDR
0x000277f5 T png_handle_PLTE
0x00027955 T png_handle_IEND
0x0002798f T png_handle_unknown
0x000279af T png_combine_row
0x00027c6f T png_read_filter_row
0x00027cab T png_read_IDAT_data
0x00027df9 T png_read_finish_IDAT
0x00027e4f T png_read_finish_row
0x00027e5f T png_read_start_row
0x00027f51 T inflateResetKeep
0x00027f9f T inflateReset
0x00027fb5 T inflateReset2
0x00028015 T inflateInit2_
0x0002809b T inflateInit_
0x000280a3 T inflatePrime
0x000281c9 T inflate
0x000292d7 T inflateEnd
0x00029301 T inflateGetDictionary
0x00029343 T inflateSetDictionary
0x000293b5 T inflateGetHeader
0x00029415 T inflateSync
0x000294e3 T inflateSyncPoint
0x00029503 T inflateCopy
0x000295fb T inflateUndermine
0x00029613 T inflateMark
0x00029649 T atmel_i2cReadReg
0x000296a5 T atmel_i2cOpen
0x000296df T atmel_i2cClose
0x0002978d T synaptics_i2cReadReg
0x000297e3 T synaptics_i2cWriteReg
0x0002980d T synaptics_i2cOpen
0x00029813 T synaptics_i2cClose
0x00029875 T png_set_IHDR
0x0002992b T png_set_PLTE
0x000299c9 T png_set_compression_buffer_size
0x000299ef T png_set_invalid
0x00029a11 T inflate_fast
0x00029dc5 T zlibVersion
0x00029dc9 T zlibCompileFlags
0x00029dcd T zError
0x00029de1 T zcalloc
0x00029dfd T zcfree
0x00029e11 T vsnprintf
0x00029e45 T __2snprintf
0x00029e7d T _printf_longlong_hex
0x00029ed9 T _printf_int_hex
0x00029ef5 T _printf_ll_hex
0x00029f01 T _printf_hex_ptr
0x00029f19 T __printf
0x0002a0a1 T _do_fflush
0x0002a0d7 T fflush
0x0002a108 A strncmp
0x0002a1f8 A __aeabi_memcpy4
0x0002a1f8 A __aeabi_memcpy8
0x0002a1f8 A __rt_memcpy_w
0x0002a25c A _memcpy_lastbytes_aligned
0x0002a274 A __aeabi_memcpy
0x0002a274 A __rt_memcpy
0x0002a2fc A _memcpy_lastbytes
0x0002a31c A strcmp
0x0002a3bc A __aeabi_idiv
0x0002a3bc A __aeabi_idivmod
0x0002a5e8 A __aeabi_uidiv
0x0002a5e8 A __aeabi_uidivmod
0x0002a619 T __cpp_initialize__aeabi_
0x0002a63d T __aeabi_cdcmpeq
0x0002a63d T _dcmpeq
0x0002a66d T __aeabi_cdcmple
0x0002a66d T _dcmple
0x0002a685 T __fpl_dcmple_InfNaN
0x0002a69d T _sys_exit
0x0002a6a9 T __rt_heap_descriptor
0x0002a6b5 T _printf_int_dec
0x0002a733 T _printf_char_common
0x0002a759 T _printf_char_file
0x0002a77d T _printf_wctomb
0x0002a835 T _printf_longlong_dec
0x0002a8ad T _printf_longlong_oct
0x0002a8f9 T _printf_int_oct
0x0002a911 T _printf_ll_oct
0x0002a925 T _fseek
0x0002a925 T fseek
0x0002aa1d T _seterr
0x0002aa31 T _writebuf
0x0002aa85 T _fflush
0x0002aacb T _deferredlazyseek
0x0002ab0d T _initio
0x0002abfd T _terminateio
0x0002ac69 T __aeabi_errno_addr
0x0002ac69 T __errno
0x0002ac69 T __rt_errno_addr
0x0002ac74 A _ll_udiv10
0x0002ac75 T _maybe_terminate_alloc
0x0002ad0d T _printf_fp_hex_real
0x0002b011 T freopen
0x0002b0af T fopen
0x0002b0fd T __rt_SIGABRT_inner
0x0002b12c A __rt_udiv10
0x0002b159 T __rt_heap_escrow
0x0002b16f T __rt_heap_expand
0x0002b1a9 T __rt_ctype_table
0x0002b1b9 T __rt_locale
0x0002b1c5 T _printf_fp_infnan
0x0002b245 T _btod_etento
0x0002b31d T _get_lc_numeric
0x0002b349 T __rt_SIGRTRED_inner
0x0002b37d T __rt_SIGRTMEM_inner
0x0002b3cd T _get_lc_ctype
0x0002b3f9 T __hardfp_atan2
0x0002b5a1 T __hardfp_cos
0x0002b659 T __hardfp_floor
0x0002b749 T __hardfp_sin
0x0002b801 T __hardfp_atan
0x0002ba01 T __kernel_cos
0x0002bad9 T __ieee754_rem_pio2
0x0002bdd9 T __kernel_sin
0x0002be81 T __mathlib_dbl_underflow
0x0002bf00 A app_export_init_info_to_qsee
0x0002bf30 A qsee_printf_syscall
0x0002bf48 A qsee_wait_default_signal_syscall
0x0002bf74 A qsee_generic_syscall
0x0002bf98 A mink_generic_syscall
0x0002c672 D inflate_copyright
0x0002c6a1 D z_errmsg
0x0002c81a D __stdin_name
0x0002c81e D __stdout_name
0x0002c822 D __stderr_name
0x00032d60 D gdCosT
0x00033300 D gdSinT
0x00035965 D __ctype
0x00035b30 D __mathlib_zero
0x00036004 D dispH
0x00036008 D dispW
0x0003600c D dispS
0x00036010 D pixelW
0x00036014 D rotation
0x00036018 D g_screen
0x0003601c D g_screen_last
0x00036020 D sec_ind_size
0x00036024 D logo_size
0x00036028 D status
0x0003602c D sec_ind_buffer
0x00036030 D logo_buffer
0x00036034 D received_pin_len
0x00036038 D received_username_len
0x0003603c D received_password_len
0x00036040 D fs_sec_ind_path
0x0003605c D fs_logo_path
0x00036075 D sfs_sec_ind_path
0x000360a8 D TZ_APP_NAME
0x00036164 D g_sid
0x00036168 D g_touch_callback
0x0003616c D g_width
0x00036170 D g_height
0x0003619c D pgCmnlib
0x000361a0 D tzapp_lib
0x000361a4 D cmnlib_rw_base
0x000361a8 D app_rw_base
0x000361ac D __stack_chk_guard
0x000361b0 D dummy_str
0x000361b4 D app_cmd_invoker_obj
0x000361bc D mink_api_service_obj
0x000361c4 D mink_user_sscall_service_obj
0x000361cc D mink_opener_obj
0x000361d4 D magic_num
0x000361e8 D magic_num_index_array
0x00036324 D gdFontgdfontqcomreg100propExt
0x00036328 D gdFontgdfontqcomreg100propData
0x00077aa8 D gdFontgdfontqcomreg100propRep
0x00077abc D gdFontgdfontqcomreg100monoExt
0x00077ac0 D gdFontgdfontqcomreg100monoData
0x000b136c D gdFontgdfontqcomreg100monoRep
0x000b1380 D gdFontgdfontqcomreg42propExt
0x000b1384 D gdFontgdfontqcomreg42propData
0x000c91c0 D gdFontgdfontqcomreg42propRep
0x000c91d4 D gdFontgdfontqcomreg30propExt
0x000c91d8 D gdFontgdfontqcomreg30propData
0x000dac94 D gdFontgdfontqcomreg30propRep
0x000daca8 D gdFontgdfontqcomreg48propExt
0x000dacac D gdFontgdfontqcomreg48propData
0x000f6598 D gdFontgdfontqcomreg48propRep
0x000f65ac D g_drTs_sid
0x000f65b0 D g_fingers_ptr
0x000f65b4 D bgi_buffer_11
0x000f719f D bgi_buffer_25
0x000f8ae8 D bgi_buffer_52
0x000f9b12 D bgi_buffer_10
0x000fab92 D bgi_buffer_45
0x000fc60b D bgi_buffer_53
0x000fdf54 D bgi_buffer_55
0x000ff45e D bgi_buffer_58
0x00100968 D bgi_buffer_57
0x001023e2 D bgi_buffer_35
0x001032b9 D bgi_buffer_9
0x001046d1 D bgi_buffer_30
0x00105526 D bgi_buffer_56
0x00106e6f D bgi_buffer_31
0x00107cc4 D bgi_buffer_50
0x00109220 D bgi_buffer_33
0x0010a2a0 D bgi_buffer_20
0x0010ae1b D bgi_buffer_42
0x0010bc70 D bgi_buffer_54
0x0010d6ea D bgi_buffer_5
0x0010e85c D bgi_buffer_59
0x00115cc3 D bgi_buffer_51
0x00117386 D bgi_buffer_39
0x00118cbb D bgi_buffer_19
0x00119836 D bgi_buffer_2
0x00120c79 D bgi_buffer_37
0x00122382 D bgi_buffer_44
0x00123c47 D bgi_buffer_46
0x001251c8 D bgi_buffer_43
0x0012601d D bgi_buffer_36
0x0012767a D bgi_buffer_34
0x00128625 D bgi_buffer_28
0x0012886f D bgi_buffer_8
0x00129dea D bgi_buffer_26
0x0012b864 D bgi_buffer_12
0x0012c567 D bgi_buffer_29
0x0012c7b1 D bgi_buffer_6
0x0012da4a D bgi_buffer_47
0x0012f30f D bgi_buffer_49
0x00130890 D bgi_buffer_1
0x00137cf7 D bgi_buffer_48
0x00139770 D bgi_buffer_40
0x0013b1ce D bgi_buffer_21
0x0013bd48 D bgi_buffer_0
0x0014319e D bgi_buffer_27
0x00144790 D __aeabi_stdin
0x00144794 D __aeabi_stdout
0x00144798 D __aeabi_stderr
0x001447a0 D queue
0x00145114 D red_dot
0x0014513c D green_dot
0x00145164 D received_pin
0x00145358 D received_username
0x0014554c D received_password
0x001467b0 D gAppCntxt
0x001467c4 D application_heap
0x001467f8 D mem_magic_number
0x00146804 D apps_request_resp
0x00146818 D acceptBuf
0x00158474 D g_ts_dr_func
0x00158480 D img_array
0x001b02c0 D layout_images_buffers
0x001b0518 D __stdin
0x001b056c D __stdout
0x001b05c0 D __stderr
