


ARM Macro Assembler    Page 1 


    1 00000000                 EXPORT           __main
    2 00000000                 EXPORT           _main
    3 00000000                 EXPORT           TZAPPENTRY
    4 00000000                 EXPORT           read_app_rw_base
    5 00000000                 EXPORT           set_rw_base
    6 00000000                 IMPORT           app_export_init_info_to_qsee
    7 00000000                 IMPORT           tzlib_app_entry
    8 00000000                 IMPORT           get_stack_base
    9 00000000                 IMPORT           get_stack_size
   10 00000000                 IMPORT           get_app_entry
   11 00000000                 IMPORT           get_ta_app_name
   12 00000000                 IMPORT           get_app_maxObjs
   13 00000000                 IMPORT           get_app_acceptBuf
   14 00000000                 IMPORT           get_app_acceptBufSize
   15 00000000                 IMPORT           get_app_serverloop_entry
   16 00000000                 PRESERVE8
   17 00000000                 AREA             TZAPPENTRYCODE, CODE, READONLY
   18 00000000                 CODE32
   19 00000000         __main
   20 00000000         _main
   21 00000000                 ENTRY
   22 00000000         TZAPPENTRY
   23 00000000 E3500002        cmp              r0, #02
   24 00000004 1A000002        bne              version_check_failed
   25 00000008 E3510001        cmp              r1, #01
   26 0000000C 1A000000        bne              version_check_failed
   27 00000010 EA000001        b                version_check_passed
   28 00000014         version_check_failed
   29 00000014 E3A000FF        mov              r0, #0xFF
   30 00000018 FAFFFFFE        blx              app_export_init_info_to_qsee
   31 0000001C         version_check_passed
   32 0000001C FAFFFFFE        blx              get_app_maxObjs
   33 00000020 E1A05000        mov              r5, r0
   34 00000024 FAFFFFFE        blx              get_app_acceptBuf
   35 00000028 E1A06000        mov              r6, r0
   36 0000002C FAFFFFFE        blx              get_app_acceptBufSize
   37 00000030 E1A07000        mov              r7, r0
   38 00000034 FAFFFFFE        blx              get_app_serverloop_entry
   39 00000038 E1A08000        mov              r8, r0
   40 0000003C FAFFFFFE        blx              get_stack_size
   41 00000040 E1A02000        mov              r2, r0
   42 00000044 FAFFFFFE        blx              get_stack_base
   43 00000048 E1A03000        mov              r3, r0
   44 0000004C FAFFFFFE        blx              get_ta_app_name
   45 00000050 E1A04000        mov              r4, r0
   46 00000054 FAFFFFFE        blx              get_app_entry
   47 00000058 E1A01000        mov              r1, r0
   48 0000005C E3A00000        mov              r0, #0
   49 00000060 FAFFFFFE        blx              app_export_init_info_to_qsee
   50 00000064         read_app_rw_base
   51 00000064 E92D4010        push             {r4,lr}
   52 00000068 E1A00009        mov              r0, r9      ; Return RW base
   53 0000006C E8BD8010        pop              {r4,pc}     ; Return.
   54 00000070         set_rw_base
   55 00000070 E92D4010        push             {r4,lr}
   56 00000074 E1A09000        mov              r9, r0      ; set RW base
   57 00000078 E8BD8010        pop              {r4,pc}     ; Return.
   58 0000007C                 END
Command Line: --debug --dwarf2 --cpu=QSP.no_neon.no_vfp --apcs=/noswst/interwor



ARM Macro Assembler    Page 2 


k//ropi/rwpi --no_unaligned_access -o/local/mnt/workspace/CRMBuilds/TZ.BF.3.0.c
3-00052-M8936AAAAANAZT-1_20180207_015142/b/trustzone_images/core/securemsm/trus
tzone/qsapps/libs/applib/qsee/build/sampleapp/scorpion/MAFAANAA/src/tzapp_entry
.o -I/local/mnt/workspace/CRMBuilds/TZ.BF.3.0.c3-00052-M8936AAAAANAZT-1_2018020
7_015142/b/trustzone_images/core/securemsm/trustzone/qsapps/libs/applib/qsee/bu
ild -I/local/mnt/workspace/CRMBuilds/TZ.BF.3.0.c3-00052-M8936AAAAANAZT-1_201802
07_015142/b/trustzone_images/build/cust -I. -I/local/mnt/workspace/CRMBuilds/TZ
.BF.3.0.c3-00052-M8936AAAAANAZT-1_20180207_015142/b/trustzone_images/core/secur
emsm/trustzone/qsee/include -I/local/mnt/workspace/CRMBuilds/TZ.BF.3.0.c3-00052
-M8936AAAAANAZT-1_20180207_015142/b/trustzone_images/core/api/services -I/local
/mnt/workspace/CRMBuilds/TZ.BF.3.0.c3-00052-M8936AAAAANAZT-1_20180207_015142/b/
trustzone_images/core/api/dal -I/local/mnt/workspace/CRMBuilds/TZ.BF.3.0.c3-000
52-M8936AAAAANAZT-1_20180207_015142/b/trustzone_images/core/securemsm/trustzone
/qsee/mink/include -I/local/mnt/workspace/CRMBuilds/TZ.BF.3.0.c3-00052-M8936AAA
AANAZT-1_20180207_015142/b/trustzone_images/core/securemsm/trustzone/qsee/mink/
core/inc -I/local/mnt/workspace/CRMBuilds/TZ.BF.3.0.c3-00052-M8936AAAAANAZT-1_2
0180207_015142/b/trustzone_images/core/services/utils/src -I/local/mnt/workspac
e/CRMBuilds/TZ.BF.3.0.c3-00052-M8936AAAAANAZT-1_20180207_015142/b/trustzone_ima
ges/core/dal/framework/inc -I/local/mnt/workspace/CRMBuilds/TZ.BF.3.0.c3-00052-
M8936AAAAANAZT-1_20180207_015142/b/trustzone_images/core/dal/framework/sys/inc 
-I/local/mnt/workspace/CRMBuilds/TZ.BF.3.0.c3-00052-M8936AAAAANAZT-1_20180207_0
15142/b/trustzone_images/core/dal/config -I/local/mnt/workspace/CRMBuilds/TZ.BF
.3.0.c3-00052-M8936AAAAANAZT-1_20180207_015142/b/trustzone_images/core/api/secu
remsm/trustzone/qsee -I/local/mnt/workspace/CRMBuilds/TZ.BF.3.0.c3-00052-M8936A
AAAANAZT-1_20180207_015142/b/trustzone_images/core/api/services -I/local/mnt/wo
rkspace/CRMBuilds/TZ.BF.3.0.c3-00052-M8936AAAAANAZT-1_20180207_015142/b/trustzo
ne_images/core/securemsm/trustzone/qsee/include -I/local/mnt/workspace/CRMBuild
s/TZ.BF.3.0.c3-00052-M8936AAAAANAZT-1_20180207_015142/b/trustzone_images/core/s
ecuremsm/trustzone/qsapps/libs/applib/common/src -I/local/mnt/workspace/CRMBuil
ds/TZ.BF.3.0.c3-00052-M8936AAAAANAZT-1_20180207_015142/b/trustzone_images/core/
api/kernel/libstd --list=/local/mnt/workspace/CRMBuilds/TZ.BF.3.0.c3-00052-M893
6AAAAANAZT-1_20180207_015142/b/trustzone_images/core/securemsm/trustzone/qsapps
/libs/applib/qsee/build/sampleapp/scorpion/MAFAANAA/src/tzapp_entry.o.lst --sit
elicense /local/mnt/workspace/CRMBuilds/TZ.BF.3.0.c3-00052-M8936AAAAANAZT-1_201
80207_015142/b/trustzone_images/core/securemsm/trustzone/qsapps/libs/applib/qse
e/build/sampleapp/scorpion/MAFAANAA/src/tzapp_entry.o.i
