


ARM Macro Assembler    Page 1 


    1 00000000                 EXPORT           app_export_init_info_to_qsee
    2 00000000                 EXPORT           qsee_printf_syscall
    3 00000000                 EXPORT           qsee_wait_default_signal_syscal
l
    4 00000000                 EXPORT           qsee_generic_syscall
    5 00000000                 EXPORT           mink_generic_syscall
    6 00000000                 IMPORT           apps_request_resp
    7 00000000                 IMPORT           get_app_req_resp
    8 00000000                 AREA             tzapp_syscall_asm, CODE, align=
8
    9 00000000                 CODE32
   10 00000000         app_export_init_info_to_qsee
   11 00000000 E1A0C008        mov              r12, r8
   12 00000004 E1A08004        mov              r8, r4
   13 00000008 E1A09005        mov              r9, r5
   14 0000000C E1A0A006        mov              r10, r6
   15 00000010 E1A0B007        mov              r11, r7
   16 00000014 E1A04000        mov              r4, r0
   17 00000018 E1A05001        mov              r5, r1
   18 0000001C E1A06002        mov              r6, r2
   19 00000020 E1A07003        mov              r7, r3
   20 00000024 E3E000FF        mov              r0, #(0xffffff00 + 0x0)
   21 00000028 EF001400        swi              (0x1400 + 0x0)
   22 0000002C E12FFF1E        bx               r14
   23 00000030         qsee_printf_syscall
   24 00000030 E92D5FF0        push             {r4-r12, r14}
   25 00000034 E1A04000        mov              r4, r0
   26 00000038 E1A05001        mov              r5, r1
   27 0000003C E3E00006        mov              r0, #(0xffffff00 + 0xF9)
   28 00000040 EF0014F9        swi              (0x1400 + 0xF9)
   29 00000044 E8BD9FF0        pop              {r4-r12, pc}
   30 00000048         qsee_wait_default_signal_syscall
   31 00000048 E92D5FF0        push             {r4-r12, r14}
   32 0000004C E3E000FE        mov              r0, #(0xffffff00 + 0x1)
   33 00000050 EF001401        swi              (0x1400 + 0x1)
   34 00000054 E1A05000        mov              r5, r0
   35 00000058 E1A06001        mov              r6, r1
   36 0000005C FAFFFFFE        blx              get_app_req_resp
   37 00000060 E1A07000        mov              r7, r0
   38 00000064 E1A00005        mov              r0, r5
   39 00000068 E1A01006        mov              r1, r6
   40 0000006C E887001F        stm              r7, {r0-r4}
   41 00000070 E8BD9FF0        pop              {r4-r12, pc}
   42 00000074         qsee_generic_syscall
   43 00000074 E92D5FF0        push             {r4-r12, r14}
   44 00000078 E1A04001        mov              r4, r1
   45 0000007C E1A05002        mov              r5, r2
   46 00000080 E1A06003        mov              r6, r3
   47 00000084 E59D7028        ldr              r7, [sp,#0x28]
   48 00000088 E59D802C        ldr              r8, [sp,#0x2C]
   49 0000008C E59D9030        ldr              r9, [sp,#0x30]
   50 00000090 EF001400        swi              0x1400
   51 00000094 E8BD9FF0        pop              {r4-r12, pc}
   52 00000098         mink_generic_syscall
   53 00000098 E92D5FFF        push             {r0-r12, r14}
   54 0000009C E1A00001        mov              r0, r1      ; SWI num
   55 000000A0 E1A04002        mov              r4, r2      ; arg 0
   56 000000A4 E1A05003        mov              r5, r3      ; arg 1
   57 000000A8 E59D6038        ldr              r6, [sp,#0x38] ; arg 2



ARM Macro Assembler    Page 2 


   58 000000AC E59D703C        ldr              r7, [sp,#0x3C] ; arg 3
   59 000000B0 EF001400        swi              0x1400
   60 000000B4 E59D2000        ldr              r2, [sp]    ; ret addr
   61 000000B8 E1C200F0        strd             r0, r1, [r2] 
                                                            ; store return vals
                                                            
   62 000000BC E28DD010        add              r13, r13, #0x10 ;adjust pc
   63 000000C0 E8BD9FF0        pop              {r4-r12, pc}
   64 000000C4                 END
Command Line: --debug --dwarf2 --cpu=QSP.no_neon.no_vfp --apcs=/noswst/interwor
k//ropi/rwpi --no_unaligned_access -o/local/mnt/workspace/CRMBuilds/TZ.BF.3.0.c
3-00052-M8936AAAAANAZT-1_20180207_015142/b/trustzone_images/core/securemsm/trus
tzone/qsapps/libs/applib/qsee/build/chamomile/scorpion/MAFAANAA/src/tzapp_sysca
ll.o -I/local/mnt/workspace/CRMBuilds/TZ.BF.3.0.c3-00052-M8936AAAAANAZT-1_20180
207_015142/b/trustzone_images/core/securemsm/trustzone/qsapps/libs/applib/qsee/
build -I/local/mnt/workspace/CRMBuilds/TZ.BF.3.0.c3-00052-M8936AAAAANAZT-1_2018
0207_015142/b/trustzone_images/build/cust -I. -I/local/mnt/workspace/CRMBuilds/
TZ.BF.3.0.c3-00052-M8936AAAAANAZT-1_20180207_015142/b/trustzone_images/core/sec
uremsm/trustzone/qsee/include -I/local/mnt/workspace/CRMBuilds/TZ.BF.3.0.c3-000
52-M8936AAAAANAZT-1_20180207_015142/b/trustzone_images/core/api/services -I/loc
al/mnt/workspace/CRMBuilds/TZ.BF.3.0.c3-00052-M8936AAAAANAZT-1_20180207_015142/
b/trustzone_images/core/api/dal -I/local/mnt/workspace/CRMBuilds/TZ.BF.3.0.c3-0
0052-M8936AAAAANAZT-1_20180207_015142/b/trustzone_images/core/securemsm/trustzo
ne/qsee/mink/include -I/local/mnt/workspace/CRMBuilds/TZ.BF.3.0.c3-00052-M8936A
AAAANAZT-1_20180207_015142/b/trustzone_images/core/securemsm/trustzone/qsee/min
k/core/inc -I/local/mnt/workspace/CRMBuilds/TZ.BF.3.0.c3-00052-M8936AAAAANAZT-1
_20180207_015142/b/trustzone_images/core/services/utils/src -I/local/mnt/worksp
ace/CRMBuilds/TZ.BF.3.0.c3-00052-M8936AAAAANAZT-1_20180207_015142/b/trustzone_i
mages/core/dal/framework/inc -I/local/mnt/workspace/CRMBuilds/TZ.BF.3.0.c3-0005
2-M8936AAAAANAZT-1_20180207_015142/b/trustzone_images/core/dal/framework/sys/in
c -I/local/mnt/workspace/CRMBuilds/TZ.BF.3.0.c3-00052-M8936AAAAANAZT-1_20180207
_015142/b/trustzone_images/core/dal/config -I/local/mnt/workspace/CRMBuilds/TZ.
BF.3.0.c3-00052-M8936AAAAANAZT-1_20180207_015142/b/trustzone_images/core/api/se
curemsm/trustzone/qsee -I/local/mnt/workspace/CRMBuilds/TZ.BF.3.0.c3-00052-M893
6AAAAANAZT-1_20180207_015142/b/trustzone_images/core/api/services -I/local/mnt/
workspace/CRMBuilds/TZ.BF.3.0.c3-00052-M8936AAAAANAZT-1_20180207_015142/b/trust
zone_images/core/securemsm/trustzone/qsee/include -I/local/mnt/workspace/CRMBui
lds/TZ.BF.3.0.c3-00052-M8936AAAAANAZT-1_20180207_015142/b/trustzone_images/core
/securemsm/trustzone/qsapps/libs/applib/common/src -I/local/mnt/workspace/CRMBu
ilds/TZ.BF.3.0.c3-00052-M8936AAAAANAZT-1_20180207_015142/b/trustzone_images/cor
e/api/kernel/libstd --list=/local/mnt/workspace/CRMBuilds/TZ.BF.3.0.c3-00052-M8
936AAAAANAZT-1_20180207_015142/b/trustzone_images/core/securemsm/trustzone/qsap
ps/libs/applib/qsee/build/chamomile/scorpion/MAFAANAA/src/tzapp_syscall.o.lst -
-sitelicense /local/mnt/workspace/CRMBuilds/TZ.BF.3.0.c3-00052-M8936AAAAANAZT-1
_20180207_015142/b/trustzone_images/core/securemsm/trustzone/qsapps/libs/applib
/qsee/build/chamomile/scorpion/MAFAANAA/src/tzapp_syscall.o.i
