#<SYMDEFS># ARM Linker, 5.01 [Build 94]: Last Updated: Wed Feb  7 02:07:25 2018
0x00000000 A CMNLIBENTRY
0x00000000 A __cmnlib_main
0x00000000 A _cmnlib_main
0x00000000 N _printf_flags
0x00000000 N _printf_return_value
0x00000000 N _printf_sizespec
0x00000000 N _printf_widthprec
0x0000000c A set_cmnlib_rw_base
0x00000019 T cmp_char_i
0x00000035 T qsee_strnicmp
0x00000079 T qsee_strlcpy
0x000000b5 T qsee_strlcat
0x0000010d T qsee_wstrlen
0x0000011f T wstrlcpy
0x00000153 T qsee_wstrlcat
0x000001c1 T qsee_strtowstr
0x0000024d T qsee_wstrtostr
0x0000027f T qsee_wstrchr
0x00000297 T qsee_wstrcmp
0x000002af T secmath_BIGINT_read_unsigned_bin_wrapper
0x000002f3 T secmath_BIGINT_read_radix_wrapper
0x00000337 T secpkcs8_parse_wrapper
0x0000037b T ce_rsa_key_gen_wrapper
0x000003c5 T ce_rsa_encrypt_wrapper
0x00000419 T ce_rsa_decrypt_wrapper
0x0000046d T ce_rsa_sign_hash_wrapper
0x000004bb T ce_rsa_verify_signature_wrapper
0x00000509 T ce_util_init_s_bigint_wrapper
0x00000541 T ce_util_free_s_bigint_wrapper
0x00000577 T ce_util_count_bytes_wrapper
0x000005af T ce_rsa_exptmod_wrapper
0x00000603 T SW_ECC_PubPrivate_Key_generate_wrapper
0x00000643 T SW_ECDH_Shared_Key_Derive_wrapper
0x00000687 T SW_ECDSA_Sign_wrapper
0x000006cb T SW_ECDSA_Verify_wrapper
0x0000070f T SW_ECDH_mult_basepoint_wrapper
0x0000074f T ECC_hash_to_bigval_wrapper
0x0000078f T toggle_random_bit_wrapper
0x000007cf T in_curveP_wrapper
0x00000807 T get_random_bytes_wrapper
0x00000847 T SW_ECDH_generate_wrapper
0x00000887 T SW_ECDH_derive_wrapper
0x000008cb T SW_GENERIC_ECC_init_wrapper
0x00000919 T SW_GENERIC_ECDSA_sign_wrapper
0x00000967 T SW_GENERIC_ECDSA_verify_wrapper
0x000009b5 T SW_GENERIC_ECDH_shared_key_derive_wrapper
0x000009ff T SW_GENERIC_ECC_keypair_generate_wrapper
0x00000a43 T SW_GENERIC_ECC_binary_to_bigval_wrapper
0x00000a91 T SW_GENERIC_ECC_bigval_to_binary_wrapper
0x00000adf T SW_GENERIC_ECC_compare_wrapper
0x00000b23 T SW_Cipher_Init_wrapper
0x00000b63 T SW_Cipher_DeInit_wrapper
0x00000ba3 T SW_CipherData_wrapper
0x00000bed T SW_Cipher_SetParam_wrapper
0x00000c37 T SW_Cipher_GetParam_wrapper
0x00000c81 T SW_AE_UpdateAAD_wrapper
0x00000cc5 T SW_AE_UpdateData_wrapper
0x00000d0f T SW_AE_FinalData_wrapper
0x00000d59 T SW_Cipher_DES_Init_wrapper
0x00000d99 T SW_Cipher_DES_DeInit_wrapper
0x00000dd1 T SW_CipherDESData_wrapper
0x00000e1b T SW_Cipher_DES_SetParam_wrapper
0x00000e65 T SW_Hash_Init_wrapper
0x00000ea5 T SW_Hash_Update_wrapper
0x00000ee9 T SW_Hash_Final_wrapper
0x00000f29 T SW_Hmac_wrapper
0x00000f83 T qsee_hash
0x00000fa7 T qsee_hash_init
0x00000fc9 T qsee_hash_reset
0x00000fe9 T qsee_hash_update
0x0000100d T qsee_hash_final
0x00001031 T qsee_hash_free_ctx
0x00001051 T qsee_hash_set_param
0x00001075 T qsee_hashcipher_encrypt
0x000010a3 T qsee_hashcipher_decrypt
0x000010d1 T qsee_cipher_init
0x000010f3 T qsee_cipher_reset
0x00001113 T qsee_cipher_free_ctx
0x00001133 T qsee_cipher_set_param
0x00001157 T qsee_cipher_get_param
0x0000117b T qsee_cipher_encrypt
0x0000119f T qsee_cipher_decrypt
0x000011c3 T qsee_hmac
0x000011e7 T qsee_hmac_init
0x00001209 T qsee_hmac_update
0x0000122d T qsee_hmac_final
0x00001251 T qsee_hmac_free_ctx
0x00001271 T qsee_cmac
0x0000129f T qsee_prng_getdata
0x000012c1 T qsee_crypto_lock_engine
0x000012e3 T qsee_kdf_shim
0x00001305 T qsee_set_bandwidth
0x00001329 T qsee_counter_set_folder
0x00001349 T qsee_create_counter
0x00001367 T qsee_query_counter
0x00001389 T qsee_increment_counter
0x000013a9 T qsee_delete_counter
0x000013c9 T qsee_query_rpmb_version
0x000013e9 T qsee_query_rpmb_enablement
0x00001445 T mem_heap_get_random_num
0x00001527 T mem_init_heap
0x00001685 T mem_deinit_heap
0x0000180f T mem_malloc
0x00001967 T mem_free
0x00001acb T mem_heap_block_iterator_reset
0x00001adf T mem_heap_block_iterator_next
0x00001b6d T mem_heap_block_iterator_init
0x00001b8d T mem_get_block_logical_size
0x00001baf T mem_heap_get_totals
0x00001cbb T secmath_BIGINT_read_radix
0x00001d0d T secmath_BIGINT_read_unsigned_bin
0x00001db1 T ce_rsa_encrypt
0x00001eeb T ce_rsa_decrypt
0x00001ffb T ce_rsa_exptmod
0x0000217f T ce_rsa_sign_hash
0x00002283 T ce_rsa_verify_signature
0x000023df T ce_util_count_bits
0x0000240f T ce_util_count_bytes
0x00002453 T ce_util_init_s_bigint
0x0000247d T ce_util_free_s_bigint
0x00002487 T ce_util_reverse_str
0x000024a5 T ce_util_cmp
0x00002519 T ce_util_cmp_d
0x00002549 T ce_util_to_unsigned_bin
0x000025d9 T ce_util_read_unsigned_bin
0x000025dd T ce_util_replace_zeros
0x0000260f T secpkcs8_parse
0x0000296d T time_getutcsec
0x000029e9 T time_gethlosutc
0x00002a71 T time_getsystime
0x00002add T time_getmsec
0x00002b39 T time_is_leap_year
0x00002b71 T time_end
0x00002bcd T qsee_kdf
0x00002bfb T ECC_hash_to_bigval
0x00002c69 T ECDH_derive
0x00002c99 T ECDH_derive_pt
0x00002d11 T ECDH_generate
0x00002d3f T ECDH_mult_basepoint
0x00002d53 T ECDSA_sign
0x00002dd3 T ECDSA_verify
0x00002f67 T big_add
0x0000309d T big_cmp
0x0000323f T big_get_random_n
0x000032fb T big_is_zero
0x00003847 T bigval_to_binary
0x00003889 T binary_to_bigval
0x000038c9 T get_random_bytes
0x000038e5 T in_curveP
0x00003b0f T pointAddAffine
0x00003e3b T toggle_random_bit
0x00003e93 T SW_Cipher_Init
0x00003ed3 T SW_Cipher_DeInit
0x00003efd T SW_Cipher_Reset
0x00003fbb T SW_CipherData
0x0000461f T SW_AE_UpdateAAD
0x000046c5 T SW_AE_UpdateData
0x00004851 T SW_AE_FinalData
0x00004a1b T SW_Cipher_SetParam
0x00004c33 T SW_Cipher_GetParam
0x00004cb3 T SW_Cipher_DES_Init
0x00004ce3 T SW_Cipher_DES_DeInit
0x00004ce9 T SW_CipherDESData
0x00005205 T SW_Cipher_DES_SetParam
0x000052f1 T SW_ECC_PubPrivate_Key_generate
0x00005309 T SW_ECDH_Shared_Key_Derive
0x00005333 T SW_ECDSA_Sign
0x0000534d T SW_ECDSA_Verify
0x00005367 T SW_ECDH_mult_basepoint
0x0000537f T SW_ECDH_generate
0x0000538d T SW_ECDH_derive
0x0000539b T SW_GENERIC_ECC_init
0x000053e5 T SW_GENERIC_ECDSA_sign
0x00005427 T SW_GENERIC_ECDSA_verify
0x00005473 T SW_GENERIC_ECDH_shared_key_derive
0x00005497 T SW_GENERIC_ECC_keypair_generate
0x000054b3 T SW_GENERIC_ECC_binary_to_bigval
0x000054e5 T SW_GENERIC_ECC_bigval_to_binary
0x00005513 T SW_GENERIC_ECC_compare
0x0000552f T SW_Hash_Final
0x00005603 T SW_Hash_Init
0x0000567f T SW_Hash_Update
0x0000574f T SW_Hmac
0x000059e7 T mod_exp
0x00005bdd T secmath_BIGINT_modexp
0x00005c87 T secmath_no_c_strnlen
0x00005c9d T secmath_hex_str_to_bin
0x00005d49 T LSB
0x00005d4f T BIGINT_LSB
0x00005d57 T check_trivially_composite
0x00005d65 T BIGINT_RAND
0x00005ddd T is_one
0x00005e35 T secmath_BIGINT_prime_test
0x000060d3 T ce_util_lshd
0x0000616f T ce_util_rshd
0x00006227 T ce_util_unsigned_add
0x00006305 T ce_util_unsigned_sub
0x000063e7 T ce_util_add
0x00006435 T ce_util_sub
0x00006491 T ce_util_mul
0x000065b5 T ce_util_div_2d
0x0000663b T ce_util_mul_d
0x0000670b T ce_util_mul_2d
0x000067ab T ce_util_div
0x00006df3 T ce_util_div_2
0x00006e91 T ce_util_mod
0x00006ef3 T ce_util_gcd
0x0000700d T ce_util_lcm
0x000070a1 T S_BIGINT_ISEVEN
0x000070b9 T S_BIGINT_ISODD
0x000070d1 T ce_util_invmod_slow
0x0000755f T ce_util_invmod
0x00007803 T secrsa_memset
0x00007807 T RSA_CRT_exponent_bignum
0x00007963 T RSA_CRT_exponent
0x00007a69 T ce_pkcs1_v1_5_padding_encode
0x00007bcb T ce_pkcs1_v1_5_padding_decode
0x00007c91 T i2osp
0x00007cdd T ce_pkcs1_mgf1
0x00007dff T ce_pkcs1_oaep_padding_encode
0x000080c5 T ce_pkcs1_oaep_padding_decode
0x00008325 T ce_pkcs1_pss_padding_encode
0x0000851b T ce_pkcs1_pss_padding_verify
0x000086ed T ce_pkcs1_pss_padding_verify_auto_recover_saltlen
0x000088eb T secasn1_decode_tag
0x0000893f T secasn1_decode_length
0x000089ad T secasn1_start
0x00008a11 T secasn1_end
0x00008a3d T secasn1_close_sequence
0x00008a95 T secasn1_next_field
0x00008b63 T secasn1_decode_bit_string
0x00008b8b T secasn1_decode_boolean
0x00008baf T qsee_oem_set_kdf_derive_key
0x00008bb9 T qsee_sfs_set_segment_size
0x00008bbf T qsee_sfs_set_safe_mode
0x00008bc3 T qsee_sfs_set_root_path
0x00008bcf T sfs_ll_alloc_size
0x00008bd7 T sfs_ll_open
0x00008bf9 T sfs_ll_close
0x00008c0f T sfs_ll_read
0x00008c3b T sfs_ll_write
0x00008c43 T sfs_ll_exists
0x00008c73 T sfs_ll_isdir
0x00008c99 T sfs_ll_rm
0x00008cab T sfs_ll_mkdir
0x00008cdb T sfs_ll_rmdir
0x00008ceb T timesafe_memcmp
0x00008d29 T aes_decrypt_block
0x00008fc1 T aes_encrypt_block
0x00009259 T aes_set_key
0x0000966d T gcm_auth_data
0x0000979d T gcm_auth_header
0x000098cd T gcm_compute_tag
0x000099cf T gcm_crypt_data
0x00009b59 T gcm_decrypt
0x00009b79 T gcm_decrypt_message
0x00009be9 T gcm_encrypt
0x00009c09 T gcm_encrypt_message
0x00009c61 T gcm_end
0x00009c71 T gcm_init_and_key
0x00009cb7 T gcm_init_message
0x00009d79 T gf_mul_hh
0x00009e7b T ccm_auth_data
0x00009ff7 T ccm_auth_header
0x0000a1b5 T ccm_compute_tag
0x0000a2f1 T ccm_crypt_data
0x0000a4ff T ccm_decrypt
0x0000a51f T ccm_decrypt_message
0x0000a591 T ccm_encrypt
0x0000a5b1 T ccm_encrypt_message
0x0000a617 T ccm_end
0x0000a627 T ccm_init_and_key
0x0000a653 T ccm_init_message
0x0000aab5 T des_cbc_decrypt
0x0000abdf T des_cbc_encrypt
0x0000ad0b T des_encrypt
0x0000afab T des_set_key
0x0000b29b T qrlbn_add
0x0000b30d T qrlbn_binary_to_bn
0x0000b397 T qrlbn_bn_to_binary
0x0000b417 T qrlbn_compare
0x0000b47f T qrlbn_decimal_string_to_bn
0x0000b535 T qrlbn_full_reduce
0x0000b67f T qrlbn_hex_string_to_bn
0x0000b797 T qrlbn_is_zero
0x0000b7b9 T qrlbn_modular_2_to_k
0x0000b819 T qrlbn_modular_adjust
0x0000b903 T qrlbn_modular_shift_left
0x0000ba17 T qrlbn_modulus_data_constructor
0x0000ba31 T qrlbn_modulus_data_post_init
0x0000bb49 T qrlbn_mont_mul
0x0000bb87 T qrlbn_mont_mul_one
0x0000bbb5 T qrlbn_multiply_add_small
0x0000bc3b T qrlbn_reduce
0x0000bd3d T qrlbn_shift_right
0x0000bd9d T qrlbn_sub
0x0000be17 T qrlbn_vet
0x0000bf41 T gen_random_QR
0x0000bfbf T qrlbn_ECC_bigval_to_binary
0x0000c03d T qrlbn_ECC_convert_input_to_bigval
0x0000c08f T qrlbn_ECC_domain_field_pointer
0x0000c195 T qrlbn_ecc_domain_init_str
0x0000c287 T qrlbn_ecc_domain_post_init
0x0000c42d T qrlbn_ecc_domain_setup_structure
0x0000c477 T qrlbn_ecc_hash_to_bigval
0x0000c541 T qrlbn_ecc_square_root
0x0000c5e9 T qrlbn_modexp_for_ecc
0x0000c68b T qrlbn_negate
0x0000c697 T qrlbn_point_add
0x0000ccf1 T qrlbn_point_dbl
0x0000d035 T qrlbn_point_multiply
0x0000d587 T qrlbn_point_to_affine
0x0000dac5 T qrlbn_ECDH_derive
0x0000dc1b T qrlbn_ECDH_generate
0x0000dc1f T qrlbn_ECDSA_sign
0x0000dfb1 T qrlbn_ECDSA_verify
0x0000e307 T qrlbn_EC_keypair_generate
0x0000e391 T qrlbn_EC_keypair_generate_internal
0x0000e47b T qrlbn_cofactor_ECDH_derive
0x0000e607 T qrlbn_export_point
0x0000e6af T qrlbn_import_point
0x0000e807 T rol1
0x0000e80d T rol24
0x0000e813 T rol30
0x0000e819 T rol5
0x0000e81f T rol8
0x0000e825 T sechsharm_sha1_init
0x0000e85f T sechsharm_sha1_transform
0x0000fc49 T sechsharm_sha1_update
0x0000fcd1 T sechsharm_sha256_final
0x0000fd27 T sechsharm_sha256_init
0x000109c5 T sechsharm_sha256_update
0x00010a8b T uc_free
0x00010a95 T uc_malloc
0x00010aad T uc_memcmp
0x00010abd T uc_memcpy
0x00010ac7 T uc_memset
0x00010ad7 T uc_rand
0x00010af5 T montmul_ref
0x00010bd9 T montmul_one_ref
0x00010c9b T compare
0x00010cc1 T increment
0x00010ceb T decrement
0x00010d25 T negate
0x00010d9b T sub
0x00010dcb T add
0x00010df9 T addition
0x00010e27 T find_MSB32
0x00010e5b T find_bn_MSB
0x00010ec3 T inverse32
0x00010f01 T right_shift
0x000110f1 T mult_base_mod_m
0x000111d5 T mult_R_mod_m
0x000113ad T bignum_mod_uint16
0x00011457 T bignum_mod_uint32
0x000114ff T is_prime_div_chk
0x000115ed T ce_bignum_add
0x00011639 T ce_bignum_sub
0x000116ad T ce_bignum_modular_reduction
0x00011845 T ce_bignum_util_mul
0x0001196d T secmath_BIGNUM_modexp
0x00011a5d T memscpy
0x00011a7b T strlcpy
0x00011acf T gf_mul
0x00011bad T gf_mul_256
0x00011d19 T init_256_table
0x00011e09 T qrlbn_modular_divide
0x00012037 T qrlbn_random_bit_vec
0x00012071 T qrlbn_random_element
0x0001212f T qrlbn_random_range
0x00012191 T ffs
0x000121af T find_MSB
0x0001221d T microfree
0x0001222b T micromalloc
0x00012247 T qrlbn_count_trailing_zeros
0x000122a1 T qrlbn_multiplexed_copy_arrays
0x00012339 T qrlbn_zeroize
0x0001236b T qrlbn_zeroize_words
0x0001237d T __aeabi_llsl
0x0001237d T _ll_shift_l
0x000123a3 T __aeabi_llsr
0x000123a3 T _ll_ushift_r
0x000123c9 T __aeabi_lasr
0x000123c9 T _ll_sshift_r
0x000123ef T isblank
0x0001240f T _printf_str
0x00012461 T _is_digit
0x0001246f T _printf_n
0x0001246f T _printf_percent
0x00012475 T _printf_p
0x0001247b T _printf_f
0x00012481 T _printf_e
0x00012487 T _printf_g
0x0001248d T _printf_a
0x00012493 T _printf_ll
0x0001249d T _printf_i
0x000124a3 T _printf_d
0x000124a9 T _printf_u
0x000124af T _printf_o
0x000124b5 T _printf_x
0x000124bb T _printf_lli
0x000124c1 T _printf_lld
0x000124c7 T _printf_llu
0x000124cd T _printf_llo
0x000124d3 T _printf_llx
0x000124d9 T _printf_l
0x000124e3 T _printf_c
0x000124e9 T _printf_s
0x000124ef T _printf_lc
0x000124f5 T _printf_ls
0x000124fb T _printf_percent_end
0x000124ff T memcmp
0x00012557 T strlen
0x00012591 T memset
0x000125a7 T __aeabi_memset
0x000125b7 T __aeabi_memclr
0x000125b7 T __rt_memclr
0x000125bb T _memset
0x000125fb T __aeabi_memclr4
0x000125fb T __aeabi_memclr8
0x000125fb T __rt_memclr_w
0x000125ff T _memset_w
0x00012649 T __aeabi_uread4
0x00012649 T __rt_uread4
0x0001265f T __aeabi_uwrite4
0x0001265f T __rt_uwrite4
0x00012675 T __aeabi_uread8
0x00012675 T __rt_uread8
0x000126a3 T __aeabi_uwrite8
0x000126a3 T __rt_uwrite8
0x000126cd T _printf_pre_padding
0x000126fb T _printf_post_padding
0x0001271f T _printf_truncate_signed
0x00012731 T _printf_truncate_unsigned
0x00012743 T _printf_int_common
0x000127fb T _printf_charcount
0x00012825 T _sputc
0x0001282f T _snputc
0x0001283f T _printf_cs_common
0x00012853 T _printf_char
0x00012863 T _printf_string
0x0001286b T _printf_fp_dec
0x0001286f T __lib_sel_fp_printf
0x00012a1b T _printf_fp_dec_real
0x00012c87 T _printf_lcs_common
0x00012c9b T _printf_wchar
0x00012cab T _printf_wstring
0x00012cb3 T _wcrtomb
0x00012cf3 T _btod_d2e
0x00012d31 T _d2e_norm_op1
0x00012d91 T _d2e_denorm_low
0x00012dd7 T _btod_emul
0x00012dff T _btod_ediv
0x00012e27 T _e2e
0x00012eed T __btod_mult_common
0x00013131 T __btod_div_common
0x00013469 T __ARM_fpclassify
0x00013468 N __I$use$fp
0x00013469 T __rt_lib_init_lc_ctype_2
0x00013469 T __rt_lib_init_lc_numeric_2
0x00013499 T cmnlib_release_lib
0x00013549 T mem_get_heap_detail_wrapper
0x0001356b T mem_free_wrapper
0x00013595 T mem_malloc_wrapper
0x000135bf T mem_deinit_heap_wrapper
0x000135e1 T mem_init_heap_wrapper
0x0001360f T cmnlib_get_lib_interface
0x00013b8d T cmnlib_main
0x00013d6f T qsee_err_fatal
0x00013d91 T qsee_printf
0x00013dcd T qsee_request_service
0x00013df1 T cmnlib_malloc
0x00013e13 T cmnlib_free
0x00013e35 T sfs_kdf_wrapper
0x00013e83 T qsee_sfs_getSize_wrapper
0x00013ec3 T qsee_sfs_open_wrapper
0x00013f03 T qsee_sfs_close_wrapper
0x00013f3b T qsee_sfs_read_wrapper
0x00013f7f T qsee_sfs_write_wrapper
0x00013fc3 T qsee_sfs_seek_wrapper
0x00014007 T qsee_sfs_mkdir_wrapper
0x0001403f T qsee_sfs_rmdir_wrapper
0x00014077 T qsee_sfs_rm_wrapper
0x000140af T qsee_sfs_error_wrapper
0x000140e7 T qsee_sfs_get_file_list_wrapper
0x00014127 T qsee_sfs_clean_file_list_wrapper
0x0001415d T qsee_sfs_is_anti_rollback_enabled_wrapper
0x00014195 T qsee_log_wrapper
0x000141d3 T open_wrapper
0x00014213 T read_wrapper
0x00014257 T write_wrapper
0x0001429b T close_wrapper
0x000142d3 T lstat_wrapper
0x00014313 T mkdir_wrapper
0x00014353 T rename_wrapper
0x00014393 T opendir_wrapper
0x000143cb T readdir_wrapper
0x0001440b T closedir_wrapper
0x00014443 T rmdir_wrapper
0x0001447b T testdir_wrapper
0x000144b3 T file_get_partition_free_size_wrapper
0x000144f3 T fstat_wrapper
0x00014533 T lseek_wrapper
0x00014577 T time_getsystime_wrapper
0x000145b5 T time_getutcsec_wrapper
0x000145ed T time_gethlosutc_wrapper
0x00014625 T time_is_leap_year_wrapper
0x0001465d T remove_wrapper
0x00014695 T link_wrapper
0x000146d5 T unlink_wrapper
0x0001470d T telldir_wrapper
0x00014745 T fsync_wrapper
0x0001477d T openat_wrapper
0x000147c1 T unlinkat_wrapper
0x00014805 T fcntl_wrapper
0x00014845 T creat_wrapper
0x00014885 T file_dir_chown_chmod_wrapper
0x000148d5 T ce_rsa_CRT_parameter_calc
0x00014961 T ce_rsa_key_gen
0x00014f55 T qsee_log
0x00014fb5 T open
0x0001506f T dbg_open
0x000150fd T dbg_open_malloc
0x00015211 T openat
0x000152dd T unlinkat
0x000153a9 T fcntl
0x000154ad T creat
0x0001556f T read
0x00015661 T write
0x00015781 T close
0x0001580d T lseek
0x000158b9 T link
0x000159a5 T unlink
0x00015a57 T rmdir
0x00015b87 T fstat
0x00015c1d T lstat
0x00015ce3 T mkdir
0x00015da5 T testdir
0x00015e57 T telldir
0x00015f09 T remove
0x00015fbb T file_end
0x00016043 T file_dir_chown_chmod
0x000161a3 T fsync
0x00016225 T frename
0x0001630d T file_get_partition_free_size
0x00016403 T opendir
0x00016527 T readdir
0x000167d1 T closedir
0x000168d0 A __ARM_common_memclr1_12
0x000168fc A __ARM_common_memclr1_8
0x00016921 T qsee_sfs_init
0x00016ad9 T qsee_sfs_getSize
0x00016b0b T qsee_sfs_open
0x00016b41 T qsee_sfs_close
0x00016b63 T qsee_sfs_read
0x00016b9d T qsee_sfs_write
0x00016bff T qsee_sfs_seek
0x00016c2b T qsee_sfs_mkdir
0x00016c39 T qsee_sfs_rmdir
0x00016c47 T qsee_sfs_rm
0x00016c75 T qsee_sfs_error
0x00017069 T qsee_sfs_get_file_list
0x000170ad T qsee_sfs_clean_file_list
0x000170b7 T qsee_sfs_is_anti_rollback_enabled
0x0001715d T sfs_def_init
0x0001717f T sfs_get_size
0x0001719b T sfs_mangle_seg_npath
0x00017245 T sfs_close_seg
0x00017333 T sfs_open_seg
0x00017479 T sfs_backup_segment
0x000174f9 T sfs_backup_index_file
0x00017977 T sfs_backup_before_write
0x00017a5d T sfs_trunc
0x00017b37 T sfs_seek_pos
0x00017c97 T sfs_append
0x00017c9b T sfs_clean_file_handle
0x00017cd1 T sfs_clean_backup_files
0x00018027 T sfs_close_mfile
0x000180d5 T sfs_seg_flush
0x00018147 T sfs_delete_fragment
0x00018211 T sfs_open_mfile
0x000187a3 T sfs_delete
0x00018815 T sfs_read_bytes
0x00018b81 T sfs_update_segment_version
0x00018c8f T sfs_write_bytes
0x00018e39 T sfs_recover_file
0x00019113 T sfs_get_file_list
0x000194a9 T sechsharm_sha1_final
0x00019569 T sfs_segment_recover
0x0001963b T sfs_open_index_info
0x00019c05 T sfs_open_index_first_segment
0x00019c8b T sfs_get_index_info
0x00019ec9 T sfs_update_index_info
0x0001a91d T sfs_sec_hmac
0x0001aa61 T sfs_sec_endec
0x0001ab7d T sfs_b64fs_encode
0x0001ac3b T sfs_sec_mangle
0x0001acad T sfs_get_sec_key
0x0001b07c A __aeabi_uldivmod
0x0001b07c A _ll_udiv
0x0001b090 A _ll_udiv_donemoving
0x0001b3ad T __c89vsnprintf
0x0001b3e1 T __2snprintf
0x0001b419 T _printf_int_dec
0x0001b48d T __printf
0x0001b614 A __aeabi_memcpy4
0x0001b614 A __aeabi_memcpy8
0x0001b614 A __rt_memcpy_w
0x0001b678 A _memcpy_lastbytes_aligned
0x0001b690 A __aeabi_memcpy
0x0001b690 A __rt_memcpy
0x0001b718 A _memcpy_lastbytes
0x0001b738 A __aeabi_memmove
0x0001b738 A __rt_memmove
0x0001b7c8 A __memmove_lastfew
0x0001b7e8 A strcmp
0x0001b888 A __aeabi_idiv
0x0001b888 A __aeabi_idivmod
0x0001bab4 A __aeabi_uidiv
0x0001bab4 A __aeabi_uidivmod
0x0001bae5 T __rt_ctype_table
0x0001baff T _printf_char_common
0x0001bb25 T _printf_wctomb
0x0001bbdd T _printf_longlong_dec
0x0001bc55 T _printf_longlong_oct
0x0001bca1 T _printf_int_oct
0x0001bcb9 T _printf_ll_oct
0x0001bccd T _printf_longlong_hex
0x0001bd29 T _printf_int_hex
0x0001bd45 T _printf_ll_hex
0x0001bd51 T _printf_hex_ptr
0x0001bd68 A __aeabi_memmove4
0x0001bd68 A __aeabi_memmove8
0x0001bd68 A __rt_memmove_w
0x0001bd94 A __memmove_aligned
0x0001bdd0 A __memmove_lastfew_aligned
0x0001bde8 A __rt_udiv10
0x0001be15 T __rt_locale
0x0001be20 A _ll_udiv10
0x0001beb9 T _get_lc_ctype
0x0001bee5 T _printf_fp_infnan
0x0001bf65 T _btod_etento
0x0001c03d T _get_lc_numeric
0x0001c100 A app_export_init_info_to_qsee
0x0001c120 A qsee_printf_syscall
0x0001c138 A qsee_generic_syscall
0x0001c164 D pkcs8_RSAEncryption
0x0001c16d D sfs_root
0x0001c17c D s_box
0x0001c27c D inv_s_box
0x0001c3b6 D prime_list
0x0001d3b6 D gf_tab
0x0001d6f0 D DER_enc_hash
0x0001dc14 D rcon_tab
0x0001dc88 D ft_tab
0x0001ec88 D it_tab
0x0001fc88 D fl_tab
0x00020c88 D il_tab
0x00021c88 D im_tab
0x00022e4b D sfs_data_bin2ascii_fs
0x00022f75 D __ctype
0x00023128 D big_zero
0x0002314c D big_one
0x00023228 D modulusP256
0x00023270 D orderP256
0x00024004 D pgAppCntxt
0x00024008 D cur_app_rw_base
0x00024014 D lhash_0_sha1
0x00024028 D lhash_0_sha256
0x00024048 D SFS_SAFE_MODE
0x00024050 D global_sfs_error
0x000251a8 D qrlbn_options
0x00025298 D sfs_root_folder
