002E0258
00260440
00225303
001E1304
00182D05
00142F06
00061107
0000341B
00003019
001A3B0A
00121D0B
00061B0C
00007C3F
00002A3D
000E2D0F
000A2710
00062511
0000924A
00002848
00062B14
0000763C
0000723A
000A3517
00063318
00006E38
00006C13
0006391B
00006835
00006433
000E4B1E
000A451F
00064320
00006031
00005C2F
00064923
0000582D
00002212
00085126
00065127
00005610
0000522A
001E652A
001A5F2B
00165857
00065D2D
0000A252
00009E50
00066330
00009A4E
0000964C
001A8B33
00167D34
00127935
000A7336
00067137
00008C47
00008845
0006773A
00004C27
00004825
00067A0F
0000860E
00101B3F
000E8340
00044423
000A8742
00004021
0006881F
0000841E
00169B46
00129747
000A9348
0000160C
0004134A
00003A0A
000C0F4C
0008101C
0012A54E
000E9E41
000AA006
00040751
00000805
000EAB53
0006A802
00000001
0008A756
0006AE56
0000A855
00000000
00000000
00000000
00000000
00000000
00000000
00000000
00000000
00000000
00000000
00000000
00000000
00000000
00000000
00000000
00000000
00000000
00000000
00000000
00000000
00000000
00000000
00000000
00000000
00000000
00000000
00000000
00000000
00000000
00000000
00000000
00000000
00000000
00000000
00000000
00000000
00000000
00000000
00000000
00000000
00000000
00000000
00000000
00000000
00000000
00000000
00000000
00000000
00000000
00000000
00000000
00000000
00000000
00000000
00000000
00000000
00000000
00000000
00000000
00000000
00000000
00000000
00000000
00000000
00000000
00000000
00000000
00000000
00000000
00000000
00000000
00000000
00000000
00000000
00000000
00000000
00000000
00000000
00000000
00000000
00000000
00000000
00000000
00000000
00000000
00000000
00000000
00000000
00000000
00000000
00000000
00000000
00000000
00000000
00000000
00000000
00000000
00000000
00000000
00000000
00000000
00000000
00000000
00000000
00000000
00000000
00000000
00000000
00000000
00000000
00000000
00000000
00000000
00000000
00000000
00000000
00000000
00000000
00000000
00000000
00000000
00000000
00000000
00000000
00000000
00000000
00000000
00000000
00000000
00000000
00000000
00000000
00000000
00000000
00000000
00000000
00000000
00000000
00000000
00000000
00000000
00000000
00000000
00000000
00000000
00000000
00000000
00000000
00000000
00000000
00000000
00000000
00000000
00000000
00000000
00000000
00000000
00000000
00000000
00000000
00000000
00000000
00000000
00000000
00000000
00000000
00000000
