#<SYMDEFS># ARM Linker, 5.01 [Build 94]: Last Updated: Wed Feb  7 02:09:40 2018
0x00000000 A TZAPPENTRY
0x00000000 A __main
0x00000000 A _main
0x00000000 N _printf_flags
0x00000000 N _printf_return_value
0x00000000 N _printf_sizespec
0x00000000 N _printf_widthprec
0x00000064 A read_app_rw_base
0x00000070 A set_rw_base
0x0000007d T qsee_hash
0x000000a1 T qsee_hash_init
0x000000c3 T qsee_hash_reset
0x000000e3 T qsee_hash_update
0x00000107 T qsee_hash_final
0x0000012b T qsee_hash_free_ctx
0x0000014b T qsee_hash_set_param
0x0000016f T qsee_hashcipher_encrypt
0x000001a9 T qsee_hashcipher_decrypt
0x000001e3 T qsee_cipher_init
0x00000205 T qsee_cipher_reset
0x00000225 T qsee_cipher_free_ctx
0x00000245 T qsee_cipher_set_param
0x00000269 T qsee_cipher_get_param
0x0000028d T qsee_cipher_encrypt
0x000002b1 T qsee_cipher_decrypt
0x000002d5 T qsee_hmac
0x000002f9 T qsee_hmac_init
0x0000031b T qsee_hmac_update
0x0000033f T qsee_hmac_final
0x00000363 T qsee_hmac_free_ctx
0x00000383 T qsee_cmac
0x000003b9 T qsee_prng_getdata
0x000003db T qsee_crypto_lock_engine
0x000003fd T qsee_kdf_shim
0x0000041f T qsee_set_bandwidth
0x00000443 T qsee_dcache_inval_region
0x00000465 T qsee_dcache_flush_region
0x00000487 T qsee_dcache_clean_region
0x000004a9 T qsee_kdf
0x00000503 T qsee_sfs_getSize
0x00000535 T qsee_sfs_open
0x00000567 T qsee_sfs_close
0x00000597 T qsee_sfs_read
0x000005d7 T qsee_sfs_write
0x00000617 T qsee_sfs_seek
0x00000657 T qsee_sfs_mkdir
0x00000687 T qsee_sfs_rmdir
0x000006b7 T qsee_sfs_rm
0x000006e7 T qsee_sfs_error
0x00000717 T qsee_sfs_get_file_list
0x00000749 T qsee_sfs_clean_file_list
0x00000775 T qsee_sfs_is_anti_rollback_enabled
0x000007a3 T qsee_log
0x0000080d T open
0x0000083f T read
0x0000087f T write
0x000008bf T close
0x000008ef T lstat
0x00000921 T mkdir
0x00000953 T frename
0x00000985 T opendir
0x000009b3 T readdir
0x000009e3 T closedir
0x00000a11 T rmdir
0x00000a41 T testdir
0x00000a71 T file_get_partition_free_size
0x00000aa3 T fstat
0x00000ad5 T lseek
0x00000b15 T time_getsystime
0x00000b47 T time_getutcsec
0x00000b79 T time_gethlosutc
0x00000bab T time_is_leap_year
0x00000bdd T remove
0x00000c0f T unlink
0x00000c3f T link
0x00000c71 T telldir
0x00000ca3 T fsync
0x00000cd5 T openat
0x00000d15 T unlinkat
0x00000d55 T fcntl
0x00000d89 T creat
0x00000dbd T file_dir_chown_chmod
0x00000e1b T memscpy
0x00000e39 T memcmp
0x00000e91 T __aeabi_memclr4
0x00000e91 T __aeabi_memclr8
0x00000e91 T __rt_memclr_w
0x00000e95 T _memset_w
0x00000edf T _printf_pre_padding
0x00000f0d T _printf_post_padding
0x00000f31 T _printf_truncate_signed
0x00000f43 T _printf_truncate_unsigned
0x00000f55 T _printf_str
0x00000fa7 T _printf_charcount
0x00000fd1 T _sputc
0x00000fdb T _snputc
0x00000feb T _is_digit
0x00000ff9 T _printf_n
0x00000ff9 T _printf_percent
0x00000fff T _printf_p
0x00001005 T _printf_f
0x0000100b T _printf_e
0x00001011 T _printf_g
0x00001017 T _printf_a
0x0000101d T _printf_ll
0x00001027 T _printf_i
0x0000102d T _printf_d
0x00001033 T _printf_u
0x00001039 T _printf_o
0x0000103f T _printf_x
0x00001045 T _printf_lli
0x0000104b T _printf_lld
0x00001051 T _printf_llu
0x00001057 T _printf_llo
0x0000105d T _printf_llx
0x00001063 T _printf_l
0x0000106d T _printf_c
0x00001073 T _printf_s
0x00001079 T _printf_lc
0x0000107f T _printf_ls
0x00001085 T _printf_percent_end
0x00001089 T __rt_lib_init_cpp_2
0x00001089 T __rt_lib_init_lc_ctype_2
0x00001089 T __rt_lib_init_lc_numeric_2
0x00001089 T _printf_fp_dec
0x0000108d T _printf_fp_hex
0x00001091 T _printf_int_common
0x00001149 T __lib_sel_fp_printf
0x000012f5 T _printf_fp_dec_real
0x00001561 T _printf_cs_common
0x00001575 T _printf_char
0x00001585 T _printf_string
0x0000158d T _printf_lcs_common
0x000015a1 T _printf_wchar
0x000015b1 T _printf_wstring
0x000015b9 T _wcrtomb
0x000015f9 T _btod_d2e
0x00001637 T _d2e_norm_op1
0x00001697 T _d2e_denorm_low
0x000016dd T _btod_emul
0x00001705 T _btod_ediv
0x0000172d T _e2e
0x000017f3 T __btod_mult_common
0x00001a37 T __btod_div_common
0x00001d6f T __ARM_fpclassify
0x00001d6e N __I$use$fp
0x00001da1 T qsee_err_fatal
0x00001dc3 T platform_err_fatal
0x00001dc5 T platform_get_random
0x00001dc9 T __stack_chk_fail
0x00001dcb T _sys_command_string
0x00001dcf T get_stack_base
0x00001ddb T get_stack_size
0x00001df3 T get_app_maxObjs
0x00001df7 T get_app_acceptBufSize
0x00001dfd T get_app_acceptBuf
0x00001e09 T get_ta_app_name
0x00001e15 T qsee_cmnlib_free
0x00001e4b T qsee_cmnlib_malloc
0x00001e87 T qsee_mem_heap_get_totals
0x00001eb9 T qsee_free
0x00001eed T qsee_malloc
0x00001f23 T tzlib_app_entry
0x000020e7 T get_app_entry
0x000020f3 T server_exit
0x00002113 T serverLoop
0x00002167 T get_app_serverloop_entry
0x0000216d T get_app_req_resp
0x00002179 T qsee_read_register
0x00002199 T qsee_request_service
0x000021eb T qsee_wait
0x0000220d T qsee_register_shared_buffer
0x0000222f T qsee_deregister_shared_buffer
0x0000224f T qsee_prepare_shared_buf_for_nosecure_read
0x00002271 T qsee_prepare_shared_buf_for_secure_read
0x00002293 T qsee_set_global_flag
0x000022b3 T qsee_get_global_flag
0x000022d5 T qsee_oem_process_cmd
0x000022f9 T qsee_encapsulate_inter_app_message
0x0000231d T qsee_decapsulate_inter_app_message
0x00002341 T qsee_enforce_hdmi_hdcp_encryption
0x00002361 T qsee_get_secure_state
0x00002439 T tz_app_init
0x00002493 T tz_app_cmd_handler
0x000024c1 T tz_app_shutdown
0x000024ed T processCmdProvisionData
0x000028b0 A tzcommon_cmd_handler
0x000029dd T chamomile_generate_provisioning_key
0x00002a6f T chamomile_verify_mac
0x00002af7 T chamomile_decrypt_prov_data
0x00002cb1 T HashSeedA
0x00002ce7 T ExtractSeedA
0x00002d41 T get_image_provisioning_seed
0x00002fa0 A appsver_checkversion
0x00002fbc A get_internal_test_flag
0x00002fc4 A qsapps_cpcheck_toggle
0x00003030 A get_internal_test_CP_flag
0x00003038 A check_is_secfuse_state_inconsistent
0x000030d8 A get_internal_test_IVconstraint_flag
0x000030e1 T vsnprintf
0x00003114 A __aeabi_memcpy
0x00003114 A __rt_memcpy
0x0000319c A _memcpy_lastbytes
0x000031bc A strcmp
0x0000325d T __cpp_initialize__aeabi_
0x00003281 T _printf_int_dec
0x000032ff T _printf_char_common
0x00003325 T _printf_wctomb
0x000033dd T _printf_longlong_dec
0x00003455 T _printf_longlong_oct
0x000034a1 T _printf_int_oct
0x000034b9 T _printf_ll_oct
0x000034cd T _printf_longlong_hex
0x00003529 T _printf_int_hex
0x00003545 T _printf_ll_hex
0x00003551 T _printf_hex_ptr
0x00003569 T __printf
0x000036f0 A __aeabi_memcpy4
0x000036f0 A __aeabi_memcpy8
0x000036f0 A __rt_memcpy_w
0x00003754 A _memcpy_lastbytes_aligned
0x0000376c A _ll_udiv10
0x00003805 T _printf_fp_hex_real
0x00003b08 A __rt_udiv10
0x00003b35 T __rt_ctype_table
0x00003b45 T __rt_locale
0x00003b51 T _printf_fp_infnan
0x00003bd1 T _btod_etento
0x00003ca9 T _get_lc_numeric
0x00003cd4 A __aeabi_idiv
0x00003cd4 A __aeabi_idivmod
0x00003f01 T _get_lc_ctype
0x00004000 A app_export_init_info_to_qsee
0x00004030 A qsee_printf_syscall
0x00004048 A qsee_wait_default_signal_syscall
0x00004074 A qsee_generic_syscall
0x00004098 A mink_generic_syscall
0x000041a0 D commandsLen
0x0000433d D __ctype
0x00005004 D pgCmnlib
0x00005008 D tzapp_lib
0x0000500c D cmnlib_rw_base
0x00005010 D app_rw_base
0x00005014 D __stack_chk_guard
0x00005018 D dummy_str
0x0000501c D app_cmd_invoker_obj
0x00005024 D mink_api_service_obj
0x0000502c D mink_user_sscall_service_obj
0x00005034 D mink_opener_obj
0x0000503c D magic_num
0x00005050 D magic_num_index_array
0x0000505c D sse_log_tag
0x00005060 D commands
0x00005068 D g_tz_apps_version
0x0000506c D TZ_APP_NAME
0x0000509c D g_internal_test_IVflag
0x000050a0 D g_config
0x000064a0 D gAppCntxt
0x000064b4 D application_heap
0x000064e8 D mem_magic_number
0x000064f4 D apps_request_resp
0x00006508 D acceptBuf
