#<SYMDEFS># ARM Linker, 6010048: Last Updated: Wed Feb  7 02:07:43 2018
0x0000000086500000 N CPU_RESET_ENTRY
0x0000000086500080 N MON_COLD_ENTRY
0x0000000086500310 X resume_cold_boot_post_cci_wa
0x00000000865003bc X vfp_handler_func
0x0000000086500484 X load_vfp_regs
0x0000000086500548 X smc_handler
0x0000000086500554 X smc_from_s
0x0000000086500584 X common_monitor_exit
0x0000000086500b9c X smc_from_ns
0x0000000086500bb8 X secure_svc_entry
0x0000000086501170 X clear_el1_ns_ctx
0x0000000086501250 X tzbsp_get_default_region_tz_cfg
0x0000000086501314 X add_block_to_default_memory_map
0x000000008650146c X add_to_default_memory_map
0x00000000865014a0 X add_block_to_default_memory_map_and_apply
0x00000000865014d4 X add_map_to_default_memory_map_and_apply
0x0000000086501508 X apply_default_memory_map
0x0000000086501514 X get_mon_tt_base_addr
0x0000000086501520 X get_mon_tt_len
0x0000000086501550 X get_mon_data_base_addr
0x000000008650155c X get_mon_data_len
0x0000000086501580 X get_mon_uc_data_base_addr
0x000000008650158c X get_mon_uc_data_len
0x00000000865015b0 X get_mon_code_base_addr
0x00000000865015bc X get_mon_code_len
0x00000000865015ec X get_el1_tt_base_addr
0x00000000865015f8 X get_el1_tt_len
0x0000000086501628 X set_tzbsp_is_ext_os_config
0x0000000086501638 X __rt_raise
0x000000008650163c X __default_signal_handler
0x0000000086501640 X _sys_exit
0x0000000086501644 X __stack_chk_fail
0x0000000086501648 X cpu_init
0x0000000086501738 X cold_boot
0x000000008650193c X enter_pc
0x0000000086501a10 X set_sysdbg_entry_and_buf
0x0000000086501a20 X mon_get_sysdbg_entry_addr
0x0000000086501a2c X mon_get_sysdbg_buf_addr
0x0000000086501a3c X mon_get_has_cpu_cold_booted
0x0000000086501a4c X mon_get_cpu_pc_state
0x0000000086501a5c X el1_smp_notifier
0x0000000086501a98 X set_secure_os_smp_notifier
0x0000000086501aa4 X spmi_bus_disable
0x0000000086501acc X mon_call_from_ns
0x0000000086501bf8 X mon_do_mode_switch
0x0000000086501c60 X tzbsp_set_cpu_timer
0x0000000086501c64 X tzbsp_get_cpu_timer_count
0x0000000086501c68 X tzbsp_oneshot_start_cpu_timer
0x0000000086501cb4 X mon_dump_context
0x0000000086501d44 X mon_save_ns_vfp_context
0x0000000086501d7c X mon_call_from_secure
0x000000008650200c X sysini_arch
0x000000008650204c X mon_chip_is_shere_v1_v2
0x0000000086502068 X mon_disable_spm_post_cci_reset
0x00000000865020a8 X mon_pc_cpu_spm_disable_arch
0x0000000086502148 X mon_disable_l2_tcm_arch
0x000000008650220c X mon_set_boot_lock_arch
0x0000000086502218 X mon_set_sdi_wa
0x0000000086502228 X mon_enable_cluster_coherency_arch
0x00000000865022bc X mon_cci_reset_wa_arch
0x00000000865025a4 X get_secure_os_entry_addr_arch
0x00000000865025b0 X get_secure_os_mem_rgns_arch
0x00000000865025bc X get_secure_os_rgn_lens_arch
0x00000000865025cc X get_num_secure_os_rgns_arch
0x00000000865025d4 X get_tz_image_imem_base_addr_arch
0x00000000865025e0 X get_tz_image_len_arch
0x00000000865025e8 X mon_secboot_set_shared_info_arch
0x0000000086502628 X secure_io_write
0x000000008650265c X secure_io_read
0x0000000086502688 X tzbsp_mmu_map_block
0x0000000086502c8c X tzbsp_mmu_map
0x0000000086502cbc X tzbsp_init_tts
0x0000000086502e68 X init_tt_entries
0x0000000086502ea0 X mmu_map_block
0x0000000086503814 X mmu_map
0x0000000086503848 X mmu_map_init
0x0000000086503ecc X a53_dump_tlb
0x0000000086503f38 X a53_get_tlb_dump_len
0x0000000086503f40 X a53_dump_cache
0x00000000865041d4 X a53_get_cache_dump_len
0x0000000086504208 X memcpy
0x0000000086504234 X memset
0x0000000086504278 X __aeabi_memcpy4
0x0000000086504278 X __aeabi_memcpy8
0x00000000865042ec X __aeabi_memcpy
0x00000000865042ec X __rt_memcpy
0x00000000865043c0 X _memset_w
0x00000000865043f8 X _memset
0x0000000086504434 X __aeabi_memclr
0x0000000086504434 X __rt_memclr
0x000000008650443c X __aeabi_memclr4
0x000000008650443c X __aeabi_memclr8
0x000000008650443c X __rt_memclr_w
0x0000000086504448 X cpu_init_asm
0x0000000086504548 X get_el3_sp
0x000000008650457c X el1_smp_notifier_asm
0x0000000086504954 X get_ns_context_addr
0x0000000086504968 X get_ns_state
0x0000000086504994 X set_ns_return_registers
0x0000000086504cac X mon_post_cci_reset_wa_arch
0x0000000086504e80 X sysdbg_reset_check
0x0000000086504ec4 X sysdbg_entry_handler
0x0000000086505088 X warm_init_and_enable_el3_mmu
0x00000000865050bc X cold_init_and_enable_el3_mmu
0x00000000865050ec X disable_el3_mmu
0x0000000086505108 X enable_el3_mmu
0x0000000086505138 X set_hcr_el2
0x0000000086505140 X get_hcr_el2
0x0000000086505148 X set_sctlr_el1
0x0000000086505150 X get_sctlr_el1
0x0000000086505158 X set_cntfrq_el0
0x0000000086505160 X get_cptr_el3
0x0000000086505168 X set_cptr_el3
0x0000000086505170 X get_sp_el2
0x0000000086505178 X get_elr_el2
0x0000000086505180 X get_spsr_el2
0x0000000086505188 X el3_set_scr_s
0x0000000086505198 X el3_set_scr_ns
0x00000000865051a8 X get_mpidr_el1
0x00000000865051b0 X set_cntps_ctl_el1
0x00000000865051b8 X get_cntpct_el0
0x00000000865051c0 X set_cntps_cval_el1
0x00000000865051c8 X set_mdcr_el3
0x00000000865051d0 X set_sder32_el3
0x00000000865051d8 X a53_aarch64_sysini
0x0000000086505650 X a53_grant_el1_cpuectlr_access
0x0000000086505740 X clean_all_dcache
0x0000000086505748 X clean_and_inval_all_dcache
0x0000000086505750 X clean_and_inval_all_dcache_louis
0x0000000086505758 X inval_all_dcache
0x0000000086505760 X clean_and_inval_dcache_region
0x000000008650579c X inval_dcache_region
0x00000000865057d8 X clean_dcache_region
0x0000000086505814 X enable_el3_icache
0x0000000086505830 X enable_el3_dcache
0x000000008650584c X disable_el3_icache
0x000000008650586c X disable_el3_dcache
0x000000008650588c X disable_el1_dcache
0x00000000865058ac X is_el3_icache_enabled
0x00000000865058c0 X is_el3_dcache_enabled
0x00000000865058f0 D tzbsp_memtype_map
0x0000000086505930 D tzbsp_ap_map
0x0000000086505950 D mair
0x0000000086505958 D tcr
0x0000000086505960 D NUM_PARAMS_FROM_SBL
0x0000000086506484 X set_ns_el3_elr
0x000000008650649c X set_ns_cpsr
0x0000000086506500 X fiq_handler
0x0000000086506784 X get_ns_el1_ttbr0
0x0000000086506798 X get_ns_el1_x30
0x00000000865067b0 X get_el3_vector_addr
0x0000000086508160 D ns_state
0x000000008650d220 D shared_boot_info_params
0x000000008650d248 D secboot_shared_info
0x000000008650d4d0 D elessar_l1_d_cache_t_for_debug
0x000000008650d4d8 D elessar_l1_i_cache_t_for_debug
0x000000008650d4e0 D ns_vfp_cxt
0x000000008650d5f0 D s_vfp_cxt
0x000000008650e000 D mon_l1
0x0000000086514000 D l1
0x0000000086518000 D l2
0x000000008651c400 D is_ext_os_config
0x000000008651d000 D has_cpu_cold_booted
0x000000008651d020 D cpu_pwr_dbg
0x000000008651d100 D l2_gdhs_state
0x000000008651d108 D boot_lock_addr
0x000000008651d10c D sdi_wa_flag
0x000000008651d110 D boot_cpu_cold_booted
0x000000008651d114 D cci_wa_done
0x000000008651d118 D boot_cpu_idx
0x000000008651d11c D l2_spm_state_dbg
