<driver name=NULL>
<device id="/rpm/pmic/common">
<props id=1 type=DALPROP_ATTR_TYPE_STRUCT_PTR>
clk_reg
</props>
<props id=6 type=DALPROP_ATTR_TYPE_STRUCT_PTR>
fts_volt
</props>
<props id=7 type=DALPROP_ATTR_TYPE_STRUCT_PTR>
hfs_volt
</props>
<props id=10 type=DALPROP_ATTR_TYPE_STRUCT_PTR>
n600_volt
</props>
<props id=11 type=DALPROP_ATTR_TYPE_STRUCT_PTR>
n1200_volt 
</props>
<props id=8 type=DALPROP_ATTR_TYPE_STRUCT_PTR>
boost_volt
</props>
<props id=14 type=DALPROP_ATTR_TYPE_STRUCT_PTR>
fts_range
</props>
<props id=15 type=DALPROP_ATTR_TYPE_STRUCT_PTR>
hfs_range
</props>
<props id=16 type=DALPROP_ATTR_TYPE_STRUCT_PTR>
boost_range
</props>
<props id=2 type=DALPROP_ATTR_TYPE_STRUCT_PTR>
smps_reg 
</props>
<props id=3 type=DALPROP_ATTR_TYPE_STRUCT_PTR>
ldo_reg
</props>
<props id=9 type=DALPROP_ATTR_TYPE_STRUCT_PTR>
nmos_volt
</props>
<props id=41 type=DALPROP_ATTR_TYPE_STRUCT_PTR>
ult_nmos_volt
</props>
<props id=12 type=DALPROP_ATTR_TYPE_STRUCT_PTR>
pmos_volt 
</props>
<props id=39 type=DALPROP_ATTR_TYPE_STRUCT_PTR>
ult_pmos_volt
</props>
<props id=17 type=DALPROP_ATTR_TYPE_STRUCT_PTR>
nmos_range 
</props>
<props id=40 type=DALPROP_ATTR_TYPE_STRUCT_PTR>
ult_nmos_range
</props>
<props id=20 type=DALPROP_ATTR_TYPE_STRUCT_PTR>
pmos_range 
</props>
<props id=38 type=DALPROP_ATTR_TYPE_STRUCT_PTR>
ult_pmos_range
</props>
<props id=32 type=DALPROP_ATTR_TYPE_STRUCT_PTR>
ult_buck_range_1 
</props>
<props id=33 type=DALPROP_ATTR_TYPE_STRUCT_PTR>
ult_buck_volt_1 
</props>
<props id=34 type=DALPROP_ATTR_TYPE_STRUCT_PTR>
ult_buck_range_2 
</props>
<props id=35 type=DALPROP_ATTR_TYPE_STRUCT_PTR>
ult_buck_volt_2 
</props>
<props id=36 type=DALPROP_ATTR_TYPE_STRUCT_PTR>
clk_ldo_range 
</props>
<props id=37 type=DALPROP_ATTR_TYPE_STRUCT_PTR>
clk_ldo_volt
</props>
<props id=22 type=DALPROP_ATTR_TYPE_STRUCT_PTR>
ldo_settling_time 
</props> 
<props id=23 type=DALPROP_ATTR_TYPE_STRUCT_PTR>
smps_settling_time 
</props> 
<props id=26 type=DALPROP_ATTR_TYPE_STRUCT_PTR>
clk_sleep_reg 
</props>
<props id=27 type=DALPROP_ATTR_TYPE_STRUCT_PTR>
clk_xo_reg 
</props>  
<props id=28 type=DALPROP_ATTR_TYPE_STRUCT_PTR>
clk_common
</props>
</device> 
</driver>
