<driver name=NULL>
<device id="/rpm/pmic/target">
<props id=101  type=DALPROP_ATTR_TYPE_UINT32>
1
</props>
<props id=106  type=DALPROP_ATTR_TYPE_UINT32 >
0 
</props>
<props id=127  type=DALPROP_ATTR_TYPE_UINT32 >
0 
</props>
<props id=102  type=DALPROP_ATTR_TYPE_UINT32 >
4 
</props>
<props id=104  type=DALPROP_ATTR_TYPE_UINT32 >
20 
</props>
<props id=108  type=DALPROP_ATTR_TYPE_STRUCT_PTR>
mx_rail
</props>
<props id=109  type=DALPROP_ATTR_TYPE_STRUCT_PTR>
cx_rail
</props>
<props id=111  type=DALPROP_ATTR_TYPE_STRUCT_PTR>
ldo_dep_a
</props>
<props id=112  type=DALPROP_ATTR_TYPE_STRUCT_PTR>
smps_dep_a
</props>
<props id=115  type=DALPROP_ATTR_TYPE_STRUCT_PTR>
clk_dep_a
</props>
<props id=119  type=DALPROP_ATTR_TYPE_STRUCT_PTR>
ldo_rail_a
</props>
<props id=120  type=DALPROP_ATTR_TYPE_STRUCT_PTR>
smps_rail_a
</props>
<props id=124  type=DALPROP_ATTR_TYPE_STRUCT_PTR>
clk_info_a
</props>
</device>
</driver>
