#<SYMDEFS># ARM Linker, 5.01 [Build 94]: Last Updated: Wed Feb  7 02:08:31 2018
0x00000000 A TZAPPENTRY
0x00000000 N __ARM_use_no_argv
0x00000000 A __main
0x00000000 A _main
0x00000000 N _printf_flags
0x00000000 N _printf_return_value
0x00000000 N _printf_sizespec
0x00000000 N _printf_widthprec
0x00000064 A read_app_rw_base
0x00000070 A set_rw_base
0x000000b9 T mem_heap_get_random_num
0x0000019b T mem_init_heap
0x000002f9 T mem_deinit_heap
0x00000483 T mem_malloc
0x000005db T mem_free
0x0000073f T mem_heap_block_iterator_reset
0x00000753 T mem_heap_block_iterator_next
0x000007e1 T mem_heap_block_iterator_init
0x00000801 T mem_get_block_logical_size
0x00000823 T mem_heap_get_totals
0x0000092f T qsee_hash
0x00000953 T qsee_hash_init
0x00000975 T qsee_hash_reset
0x00000995 T qsee_hash_update
0x000009b9 T qsee_hash_final
0x000009dd T qsee_hash_free_ctx
0x000009fd T qsee_hash_set_param
0x00000a21 T qsee_hashcipher_encrypt
0x00000a5b T qsee_hashcipher_decrypt
0x00000a95 T qsee_cipher_init
0x00000ab7 T qsee_cipher_reset
0x00000ad7 T qsee_cipher_free_ctx
0x00000af7 T qsee_cipher_set_param
0x00000b1b T qsee_cipher_get_param
0x00000b3f T qsee_cipher_encrypt
0x00000b63 T qsee_cipher_decrypt
0x00000b87 T qsee_hmac
0x00000bab T qsee_hmac_init
0x00000bcd T qsee_hmac_update
0x00000bf1 T qsee_hmac_final
0x00000c15 T qsee_hmac_free_ctx
0x00000c35 T qsee_cmac
0x00000c6b T qsee_prng_getdata
0x00000c8d T qsee_crypto_lock_engine
0x00000caf T qsee_kdf_shim
0x00000cd1 T qsee_set_bandwidth
0x00000cf5 T qsee_dcache_inval_region
0x00000d17 T qsee_dcache_flush_region
0x00000d39 T qsee_dcache_clean_region
0x00000d5b T qsee_kdf
0x00000db5 T qsee_sfs_getSize
0x00000de7 T qsee_sfs_open
0x00000e19 T qsee_sfs_close
0x00000e49 T qsee_sfs_read
0x00000e89 T qsee_sfs_write
0x00000ec9 T qsee_sfs_seek
0x00000f09 T qsee_sfs_mkdir
0x00000f39 T qsee_sfs_rmdir
0x00000f69 T qsee_sfs_rm
0x00000f99 T qsee_sfs_error
0x00000fc9 T qsee_sfs_get_file_list
0x00000ffb T qsee_sfs_clean_file_list
0x00001027 T qsee_sfs_is_anti_rollback_enabled
0x00001055 T qsee_log
0x000010bf T open
0x000010f1 T read
0x00001131 T write
0x00001171 T close
0x000011a1 T lstat
0x000011d3 T mkdir
0x00001205 T frename
0x00001237 T opendir
0x00001265 T readdir
0x00001295 T closedir
0x000012c3 T rmdir
0x000012f3 T testdir
0x00001323 T file_get_partition_free_size
0x00001355 T fstat
0x00001387 T lseek
0x000013c7 T time_getsystime
0x000013f9 T time_getutcsec
0x0000142b T time_gethlosutc
0x0000145d T time_is_leap_year
0x0000148f T remove
0x000014c1 T unlink
0x000014f1 T link
0x00001523 T telldir
0x00001555 T fsync
0x00001587 T openat
0x000015c7 T unlinkat
0x00001607 T fcntl
0x0000163b T creat
0x0000166f T file_dir_chown_chmod
0x000016cd T qsee_get_uptime
0x000016ef T qsee_wdog_stop
0x0000170f T qsee_wdog_pet
0x0000172f T cmp_char_i
0x0000174b T qsee_strnicmp
0x00001771 T qsee_strlcpy
0x000017b3 T qsee_strlcat
0x00001809 T qsee_wstrlen
0x0000181b T wstrlcpy
0x00001853 T qsee_wstrlcat
0x00001883 T qsee_strtowstr
0x000018d3 T qsee_wstrtostr
0x00001903 T qsee_wstrchr
0x0000191b T qsee_wstrcmp
0x0000192f T _SetupLicEvalObjectToShare
0x00001939 T Drm_Initialize
0x00001943 T Drm_Uninitialize
0x00001945 T Drm_Reinitialize
0x0000194f T Drm_Revocation_SetBuffer
0x00001959 T Drm_Revocation_GetBuffer
0x00001963 T Drm_Revocation_StoreRevListArray
0x0000196d T Drm_Revocation_StorePackage
0x00001977 T Drm_Content_SetProperty
0x00001981 T Drm_Content_UpdateEmbeddedStore
0x0000198b T Drm_Content_UpdateEmbeddedStore_Commit
0x00001995 T Drm_SyncListItem_InitEnum
0x0000199f T Drm_SyncListItem_EnumNext
0x000019a9 T Drm_LicenseAcq_GenerateChallenge
0x000019b3 T Drm_Device_GetProperty
0x000019bd T Drm_Content_GetProperty
0x000019c7 T Drm_LicenseAcq_ProcessResponse
0x000019d1 T Drm_Reader_Bind
0x000019db T Drm_License_GetProperty
0x000019e5 T Drm_Reader_Commit
0x000019ef T Drm_Reader_InitDecrypt
0x000019f9 T Drm_Reader_Decrypt
0x00001a03 T Drm_LicenseQuery_GetState
0x00001a0d T Drm_LicenseAcq_GetContentHeader
0x00001a17 T Drm_Sync_GenerateChallenge
0x00001a21 T Drm_SecureClock_ProcessResponse
0x00001a2b T Drm_SecureClock_GenerateChallenge
0x00001a35 T Drm_SecureClock_GetValue
0x00001a3f T Drm_StoreMgmt_CleanupStore
0x00001a49 T Drm_LicenseQuery_IsAllowed
0x00001a53 T Drm_Revocation_GetList
0x00001a5d T Drm_StoreMgmt_DeleteLicenses
0x00001a67 T Drm_ProcessCommand
0x00001a71 T Drm_ProcessRequest
0x00001a7b T Drm_Envelope_Open
0x00001a85 T Drm_Envelope_DuplicateFileContext
0x00001a8f T Drm_Envelope_InitializeRead
0x00001a99 T Drm_Envelope_Close
0x00001aa3 T Drm_Envelope_GetSize
0x00001aad T Drm_Envelope_Read
0x00001ab7 T Drm_Envelope_Seek
0x00001ac1 T Drm_Envelope_GetOriginalFilename
0x00001acb T Drm_Platform_Initialize
0x00001ad5 T Drm_Platform_Uninitialize
0x00001adf T Drm_Activation_ProcessResponseGenerateChallenge
0x00001ae9 T Drm_GetContextSizes
0x00001af3 T Drm_Reader_CloneDecryptContext
0x00001afd T Drm_Envelope_WritePlayReadyObject
0x00001b07 T Drm_SecureStore_GetExtendedTokenValue
0x00001b11 T Drm_SecureStore_SetExtendedTokenValue
0x00001b1b T Drm_Writer_Encrypt
0x00001b25 T DRM_B64_EncodeW
0x00001b2f T Drm_GetAdditionalResponseData
0x00001b39 T Drm_ResizeOpaqueBuffer
0x00001b43 T Drm_GetOpaqueBuffer
0x00001b4d T DRM_B64_DecodeW
0x00001b57 T DRM_B64_DecodeA
0x00001b61 T DRM_B64_EncodeA
0x00001b6b T memscpy
0x00001b89 T DRM_DOMAIN_IsDomainSupported
0x00001b8d T DRM_DOMAIN_IsDomainUnsupported
0x00001b91 T Drm_JoinDomain_GenerateChallenge
0x00001b9b T Drm_JoinDomain_ProcessResponse
0x00001ba5 T Drm_LeaveDomain_GenerateChallenge
0x00001baf T Drm_LeaveDomain_ProcessResponse
0x00001bb9 T Drm_DomainCert_Find
0x00001bc3 T Drm_DomainCert_InitEnum
0x00001bcd T Drm_DomainCert_EnumNext
0x00001bd7 T DRM_DOMST_OpenStore
0x00001bdb T DRM_DOMST_CloseStore
0x00001bdf T DRM_DOMST_AddCert
0x00001be9 T DRM_DOMST_GetCert
0x00001bf3 T DRM_DOMST_DeleteCert
0x00001bfd T DRM_DOMST_InitEnumCert
0x00001c07 T DRM_DOMST_EnumNextCert
0x00001c11 T DRM_DOMST_AddKey
0x00001c1b T DRM_DOMST_GetKey
0x00001c25 T DRM_DOMST_DeleteKey
0x00001c2f T DRM_DOMST_DeleteKeys
0x00001c39 T DRM_DOMST_InitEnumKey
0x00001c43 T DRM_DOMST_EnumNextKey
0x00001c4d T DRM_DOMST_CreateDomainStorePassword
0x00001c57 T DRM_DOMKEYXMR_GetHeader
0x00001c61 T DRM_DOMKEYXMR_GetSessionKey
0x00001c6b T DRM_DOMKEYXMR_GetPrivKeyContainer
0x00001c75 T DRM_DOMKEYXMR_GetPrivkey
0x00001c7f T DRM_DOM_IsLicenseValidForELS
0x00001c89 T DRM_DOM_LA_CalcDomainCertsCharCount
0x00001c8d T DRM_DOM_LA_BuildDomainCertsXML
0x00001c97 T DRM_DOM_ARCLK_ClockRollbackDetected
0x00001c9b T DRM_DOM_ARCLK_LEVL_DisableOnRollback
0x00001c9f T DRM_DOM_ARCLK_CreateDomainStorePassword
0x00001ca9 T DRM_DOM_ARCLK_GetDomainSavedDateTime
0x00001cb3 T Drm_MeterCert_InitEnum
0x00001cbd T Drm_MeterCert_EnumNext
0x00001cc7 T Drm_MeterCert_Update
0x00001cd1 T Drm_MeterCert_Invalidate
0x00001cdb T Drm_MeterCert_Delete
0x00001ce5 T Drm_Metering_GenerateChallenge
0x00001cef T Drm_Metering_ProcessResponse
0x00001cf9 T DRM_METERING_UpdateData
0x00001d03 T Drm_MeterCert_GenerateChallenge
0x00001d0d T Drm_MeterCert_ProcessResponse
0x00001d17 T Oem_Platform_Init
0x00001d1b T Oem_Platform_UnInit
0x00001d1f T Oem_MemAlloc
0x00001d29 T Oem_MemFree
0x00001d2d T Oem_MemRealloc
0x00001d39 T Oem_Random_SetSeed
0x00001d6d T Oem_Random_GetBytes
0x00001e25 T Oem_GetCurrentThreadId
0x00001e29 T DRM_SHA_Init
0x00001e69 T DRM_SHA_UpdateOffset
0x00001ec1 T DRM_SHA_Update
0x00001ec9 T DRM_SHA_Finalize
0x00001f81 T DRM_ACTIVATION_IsActivationSupported
0x00001f85 T DRM_ACTIVATION_IsActivationUnsupported
0x00002035 T Oem_Clock_SystemTimeToFileTime
0x00002089 T Oem_Clock_FileTimeToSystemTime
0x000020e7 T Oem_Clock_GetSystemTimeAsFileTime
0x0000213b T Oem_Clock_GetSystemTime
0x000021a5 T Oem_Clock_SetSystemTime
0x000021a7 T Oem_Clock_GetTickCount
0x000021b1 T Oem_Clock_QueryPerformanceCounter
0x000021b7 T Oem_Clock_QueryPerformanceFrequency
0x0000238b T DRM_SHA1_Init
0x000023db T DRM_SHA1_UpdateOffset
0x00002497 T DRM_SHA1_Update
0x0000249f T DRM_SHA1_Finalize
0x0000252b T DRM_SHA256_Init
0x00002f7d T DRM_SHA256_UpdateOffset
0x0000308d T DRM_SHA256_Update
0x00003091 T DRM_SHA256_Finalize
0x000031b1 T DRM_STR_StringCchLengthW
0x000031bb T DRM_STR_StringCchLengthA
0x000031c5 T DRM_STR_StringCchCopyNW
0x000031cf T DRM_STR_StringCchCopyNA
0x000031d9 T DRM_STR_StringCchCopyW
0x000031e3 T DRM_STR_StringCchCopyA
0x000031ed T DRM_STR_StringCchCatW
0x000031f7 T DRM_STR_StringCchCatA
0x00003201 T DRM_STR_StringCchCatNW
0x0000320b T DRM_STR_StringCchCatNA
0x00003215 T DRM_STR_NumberToString
0x0000321f T DRM_STR_StringCchPrintfExW_1
0x00003229 T DRM_STR_StringCchPrintfW_1
0x00003233 T DRM_STR_DstrCat
0x0000323d T DRM_STR_StringCchToLower
0x00003247 T DRM_STR_DstrToLower
0x00003251 T DRM_UTL_DateLessThan
0x0000325b T DRM_UTL_GetVersionAsString
0x00003265 T DRM_UTL_GetVersionFromString
0x0000326f T DRM_UTL_StringToGuid
0x00003279 T DRM_UTL_DASSSTRStringsEqual
0x00003283 T DRM_UTL_GuidToString
0x0000328d T DRM_UTL_StringInsertBlankSubString
0x00003297 T DRM_UTL_StringInsertBlankSubStringA
0x000032a1 T DRM_UTL_StringInsertSubString
0x000032ab T DRM_UTL_StringRemoveSubString
0x000032b5 T DRM_UTL_DSTRStringsEqual
0x000032b9 T DRM_UTL_DASTRStringsEqual
0x000032bd T DRM_UTL_DASSTRStringsEqual
0x000032c1 T DRM_UTL_DASSTRStrings_CI_Equal
0x000032c5 T DRM_UTL_EnsureDataAlignment
0x000032cf T DRM_UTL_DecodeKID
0x000032d9 T _promoteASCIItoUNICODE
0x000032db T DRM_UTL_PromoteASCIItoUNICODE
0x000032dd T DRM_UTL_DemoteUNICODEtoASCII
0x000032df T DRM_UTL_DSTRSearch
0x000032e9 T DRM_UTL_DSTRSearchReverse
0x000032f3 T DRM_UTL_XMLDecode
0x000032fd T DRM_UTL_XMLDecodeUA
0x00003307 T DRM_UTL_XMLDecodeA
0x00003311 T DRM_UTL_XMLEncodeA
0x0000331b T DRM_XOR
0x0000331d T DRM_UTL_ReadGUID
0x00003327 T DRM_UTL_IsZeros
0x00003331 T DRM_UTL_LShift
0x0000333b T DRM_UTL_RShift
0x00003345 T DRM_UTL_MultiplyDWORDs
0x0000334f T DRMCRT_wcsncmp
0x00003353 T DRMCRT_wcsicmp
0x0000336f T DRMCRT_wcsnicmp
0x0000338f T DRMCRT_wcslen
0x00003393 T DRMCRT_strncmp
0x00003397 T DRMCRT_iswxdigit
0x0000339b T DRMCRT_iswdigit
0x0000339f T DRMCRT_isdigit
0x000033b7 T DRMCRT_iswalpha
0x000033bb T DRMCRT_towlower
0x000033c5 T DRMCRT_iswspace
0x000033c9 T DRMCRT_strlen
0x000033cd T DRMCRT_memmove
0x000033d1 T DRMCRT_memcpy
0x000033d5 T DRMCRT_memset
0x000033df T DRMCRT_memcmp
0x000033e3 T DRMCRT_abs
0x000033eb T free
0x00003439 T iswalpha
0x00003445 T iswspace
0x00003449 T iswdigit
0x00003455 T iswxdigit
0x00003461 T towlower
0x0000346b T strstr
0x0000348f T memcmp
0x000034e7 T strrchr
0x000034fd T strlen
0x00003537 T wcsncpy
0x00003551 T wcscmp
0x00003569 T wcsncmp
0x0000358b T wcslen
0x0000359d T __aeabi_memset
0x000035ad T __aeabi_memclr
0x000035ad T __rt_memclr
0x000035b1 T _memset
0x000035f1 T __aeabi_memclr4
0x000035f1 T __aeabi_memclr8
0x000035f1 T __rt_memclr_w
0x000035f5 T _memset_w
0x0000363f T __aeabi_uread4
0x0000363f T __rt_uread4
0x00003655 T __aeabi_uwrite4
0x00003655 T __rt_uwrite4
0x0000366b T __aeabi_uread8
0x0000366b T __rt_uread8
0x00003699 T __I$use$semihosting
0x00003699 T __use_no_semihosting_swi
0x0000369b T __semihosting_library_function
0x0000369b T __use_no_heap
0x0000369d T __heap$guard
0x0000369f T _terminate_user_alloc
0x000036a1 T _init_user_alloc
0x000036a3 T __Heap_Full
0x000036c3 T __Heap_Broken
0x000036c9 T _init_alloc
0x00003727 T malloc
0x00003785 T tolower
0x0000379f T _iswspace
0x000037ab T _wclass
0x0000380f T _printf_pre_padding
0x0000383d T _printf_post_padding
0x00003861 T _printf_truncate_signed
0x00003873 T _printf_truncate_unsigned
0x00003885 T _printf_str
0x000038d7 T _printf_charcount
0x00003901 T _sputc
0x0000390b T _snputc
0x0000391b T _is_digit
0x00003929 T _printf_n
0x00003929 T _printf_percent
0x0000392f T _printf_p
0x00003935 T _printf_f
0x0000393b T _printf_e
0x00003941 T _printf_g
0x00003947 T _printf_a
0x0000394d T _printf_ll
0x00003957 T _printf_i
0x0000395d T _printf_d
0x00003963 T _printf_u
0x00003969 T _printf_o
0x0000396f T _printf_x
0x00003975 T _printf_lli
0x0000397b T _printf_lld
0x00003981 T _printf_llu
0x00003987 T _printf_llo
0x0000398d T _printf_llx
0x00003993 T _printf_l
0x0000399d T _printf_c
0x000039a3 T _printf_s
0x000039a9 T _printf_lc
0x000039af T _printf_ls
0x000039b5 T _printf_percent_end
0x000039b9 T __rt_lib_init_clock_2
0x000039b9 T __rt_lib_init_cpp_2
0x000039b9 T __rt_lib_init_heap_2
0x000039b9 T __rt_lib_init_lc_ctype_2
0x000039b9 T __rt_lib_init_lc_numeric_2
0x000039b9 T __rt_lib_init_stdio_2
0x000039b9 T _printf_fp_dec
0x000039bd T __Heap_Initialize
0x000039c7 T __Heap_DescSize
0x000039cb T __Heap_ProvideMemory
0x000039fd T _printf_int_common
0x00003ab5 T __lib_sel_fp_printf
0x00003c61 T _printf_fp_dec_real
0x00003ecd T _printf_cs_common
0x00003ee1 T _printf_char
0x00003ef1 T _printf_string
0x00003ef9 T _printf_lcs_common
0x00003f0d T _printf_wchar
0x00003f1d T _printf_wstring
0x00003f25 T ferror
0x00003f2d T fputc
0x00003f47 T _wcrtomb
0x00003f87 T __rt_SIGRTMEM
0x00003f95 T _sys_open
0x00003fa9 T _sys_close
0x00003fb5 T _sys_write
0x00003fc5 T _sys_read
0x00003fd3 T _sys_istty
0x00003fdf T _sys_seek
0x00003fed T _sys_ensure
0x00003fef T _sys_flen
0x00003ffb T _btod_d2e
0x00004039 T _d2e_norm_op1
0x00004099 T _d2e_denorm_low
0x000040df T _btod_emul
0x00004107 T _btod_ediv
0x0000412f T _e2e
0x000041f5 T __btod_mult_common
0x00004439 T __btod_div_common
0x00004771 T __flsbuf
0x00004771 T __flsbuf_byte
0x00004771 T __flsbuf_wide
0x0000494f T setvbuf
0x00004995 T _fclose_internal
0x00004995 T fclose
0x000049e1 T __sig_exit
0x000049eb T __rt_SIGRTRED
0x000049f9 T __ARM_fpclassify
0x000049f8 N __I$use$fp
0x000049f9 T __rt_lib_shutdown_stdio_2
0x00004a29 T __default_signal_display
0x00004a5b T _ttywrch
0x00004a69 T _ftell_internal
0x00004a69 T ftell
0x00004ab9 T qsee_err_fatal
0x00004adb T platform_err_fatal
0x00004add T platform_get_random
0x00004ae1 T __stack_chk_fail
0x00004ae3 T _sys_command_string
0x00004ae7 T get_stack_base
0x00004af3 T get_stack_size
0x00004b0b T get_app_maxObjs
0x00004b0f T get_app_acceptBufSize
0x00004b15 T get_app_acceptBuf
0x00004b21 T get_ta_app_name
0x00004b2d T qsee_cmnlib_free
0x00004b63 T qsee_cmnlib_malloc
0x00004b9f T qsee_mem_heap_get_totals
0x00004bd1 T qsee_free
0x00004c05 T qsee_malloc
0x00004c3b T tzlib_app_entry
0x00004dff T get_app_entry
0x00004e0b T server_exit
0x00004e2b T serverLoop
0x00004e7f T get_app_serverloop_entry
0x00004e85 T get_app_req_resp
0x00004e91 T qsee_read_register
0x00004eb1 T qsee_request_service
0x00004f03 T qsee_wait
0x00004f25 T qsee_register_shared_buffer
0x00004f47 T qsee_deregister_shared_buffer
0x00004f67 T qsee_prepare_shared_buf_for_nosecure_read
0x00004f89 T qsee_prepare_shared_buf_for_secure_read
0x00004fab T qsee_set_global_flag
0x00004fcb T qsee_get_global_flag
0x00004fed T qsee_oem_process_cmd
0x00005011 T qsee_encapsulate_inter_app_message
0x00005035 T qsee_decapsulate_inter_app_message
0x00005059 T qsee_enforce_hdmi_hdcp_encryption
0x00005079 T qsee_get_secure_state
0x00005150 A main
0x00005158 A tz_app_init
0x00005168 A tz_app_cmd_handler
0x000051b4 A tz_app_shutdown
0x000051b8 A tz_app_get_app_id
0x000051d0 A tzcommon_cmd_handler
0x000052fc A drmprov_cmd_handler
0x00005788 A playready_cmd_handler
0x00008673 T playready_reader_decrypt_wmdrm
0x00008749 T prStoreCtx
0x000087af T prDuplicateCtx
0x0000887f T prGetCtx
0x0000892b T prDelCtx
0x000089b7 T pr_enforce_hdmi_hdcp_encryption
0x0000938d T playready_en_decrypt_with_HK
0x000097c7 T playready_encrypt_and_cache_keys
0x00009849 T playready_update_aes_file
0x00009acb T playready_save_keys
0x00009ff3 T playready_reprov_keys
0x0000a073 T prDelCtxFromTable
0x0000a269 T playready_uninitialize
0x0000a365 T prStoredCtxToTable
0x0000a405 T playready_initialize
0x0000a651 T playready_verify_keys
0x0000a68b T playready_delete_keys
0x0000a9a7 T playready_duplicate_ctx
0x0000a9f3 T playready_cleanup_data_store
0x0000aa7b T playready_reset
0x0000ac37 T playready_licacq_generate_challenge
0x0000afff T playready_licacq_process_response
0x0000b511 T playready_delete_licenses
0x0000b5cf T playready_storemgmt_deletelicenses
0x0000b6c7 T playready_reader_decrypt
0x0000bbf3 T playready_set_header
0x0000bf5f T playready_get_license_rights
0x0000c3d5 T playready_reader_bind
0x0000c91f T playready_reader_commit
0x0000c98b T playready_update_embeddedstore
0x0000c9d5 T playready_update_embeddedstore_commit
0x0000ca1f T playready_get_property
0x0000ccc5 T playready_encrypt
0x0000ce95 T playready_reader_decrypt_audio
0x0000d3d3 T playready_reader_initdecrypt
0x0000d44f T playready_reinitialize
0x0000d521 T playready_getadditional_responsedata
0x0000d79f T playready_nonsilenturl_parsing_toggle
0x0000d7d9 T playready_set_robustness_version
0x0000d813 T playready_save_aes_keyfile
0x0000d83d T prDelAllCtxFromTable
0x0000d87d T prResetCtxFromTable
0x0000d8a5 T Playready_Content_SetProperty
0x0000de17 T playready_IVconstraintcheck_toogle
0x0000de53 T mem_seg_copy
0x0000e053 T Content_Protection_Copy_NonsecureToSecure
0x0000e3c4 A config_set_pk_path
0x0000e6b8 A config_set_prov_path
0x0000e728 A config_set_log_path
0x0000e780 A config_set_widevine_path
0x0000e8b0 A config_set_widevine_dash_path
0x0000e908 A config_set_test_path
0x0000e960 A config_set_aes_key_path
0x0000ea10 A config_set_prov_finalize_flag_path
0x0000ea5c A init_tzdrm_config_path
0x0000eb24 A get_IV_constraint_flag
0x0000eb38 A get_proprietary_play_enabler_video_protect
0x0000eb4c A get_proprietary_play_enabler_default_behaviour
0x0000eb60 A get_robustness_ver
0x0000eb74 A set_robustness_ver
0x0000eb88 A get_aes_key_path
0x0000ebbc A get_audio_CP_enable_flag
0x0000ebd0 A get_proprietary_play_enabler_profile
0x0000ebe4 A get_proprietary_opl_profile_0
0x0000ebf8 A oem_disable_security_stream_check
0x0000ec10 A oem_get_IV_constraint
0x0000ec68 A get_prov_constraint_flag
0x0000ec7c A oem_use_legacy_hdmi_hdcp_check
0x0000ec84 A oem_get_maximum_hdcp_2x_capability
0x0000ec98 A oem_get_widevine_kcb_logging_flag
0x0000ecac A oem_get_widevine_use_rpmb_anti_rb_flag
0x0000f0e4 A drm_save_keys
0x0000fc88 A drm_verify_keys
0x0000ffd8 A drm_prov_finalize
0x000101fc A drm_app_save_qsee_ipc_wrapped_keys
0x00010d3c A drm_app_encapsulate_save_keys
0x00011824 A drm_save_wrapped_keys
0x000121b8 A appsver_checkversion
0x000121d5 T qsee_exec_protect_memory
0x000121f9 T qsee_is_sw_fuse_blown
0x0001221d T qsee_blow_sw_fuse
0x0001223d T qsee_read_jtag_id
0x0001225f T qsee_read_serial_num
0x00012281 T qsee_fuse_write
0x000122a5 T qsee_fuse_read
0x000122c9 T qsee_is_ns_range
0x000122ed T qsee_is_s_tag_area
0x00012313 T qsee_i2c_open
0x00012333 T qsee_i2c_read
0x00012357 T qsee_i2c_write
0x0001237b T qsee_i2c_close
0x0001239b T qsee_spi_open
0x000123bb T qsee_spi_read
0x000123df T qsee_spi_write
0x00012403 T qsee_spi_close
0x00012423 T qsee_spi_full_duplex
0x00012447 T qsee_ks_decrypt
0x00012473 T qsee_ks_get_key
0x0001249f T qsee_ks_delete_key
0x000124c3 T qsee_ce_pipe_key_select
0x000124e7 T qsee_hdmi_status_read
0x0001250b T qsee_mem_usage_count
0x0001252b T qsee_sd_get_session
0x0001254d T qsee_tag_mem
0x00012571 T qsee_read_hw_version
0x00012599 T mcf_intgr_strncmp
0x0001259d T mcf_intgr_wstrlen
0x000125a1 T mcf_intgr_strlen
0x000125a5 T mcf_intgr_strtowstr
0x000125a9 T mcf_intgr_strlcat
0x000125ad T mcf_intgr_wcstombs
0x000125c5 T mcf_intgr_strrchr
0x000125c9 T mcf_intgr_malloc
0x000125cd T mcf_intgr_realloc
0x000125e7 T mcf_intgr_free
0x000125eb T mcf_intgr_memset
0x000125f5 T mcf_intgr_memcmp
0x000125f9 T mcf_intgr_memcpy
0x000125fd T mcf_intgr_memmove
0x00012601 T mcf_intgr_time_to_seconds
0x000126e1 T mcf_intgr_seconds_to_time
0x00012963 T mcf_intgr_getutcseconds
0x0001298f T mcf_intgr_get_time
0x00012991 T mcf_intgr_get_systime
0x00012a71 T mcf_intgr_get_time_msec
0x00012aa9 T mcf_intgr_localtime
0x00012aad T mcf_intgr_setsystemtime
0x00012aaf T mcf_intgr_file_test
0x00012aef T mcf_intgr_open_file
0x00012b69 T mcf_intgr_mkdir
0x00012b9f T mcf_intgr_set_cache_size
0x00012ba3 T mcf_intgr_close_file
0x00012bbb T mcf_intgr_get_file_size_by_handle
0x00012bfd T mcf_intgr_read_file
0x00012c21 T mcf_intgr_write_file
0x00012c45 T mcf_intgr_seek_file
0x00012c7d T mcf_intgr_file_truncate
0x00012c81 T mcf_intgr_file_flush
0x00012ca9 T mcf_intgr_file_remove
0x00012cdb T mcf_intgr_get_file_size
0x00012d2d T mcf_intgr_get_rand
0x00012d57 T mcf_intgr_get_hw_kdf_key
0x00012dbb T mcf_intgr_get_hw_id
0x000131b5 T playready_set_domainid
0x00013251 T playready_joindomain_generate_challenge
0x000132db T playready_joindomain_process_response
0x00013385 T playready_leavedomain_generate_challenge
0x000133ff T playready_leavedomain_process_response
0x000134a5 T playready_domaincert_find
0x00013509 T playready_domaincert_initenum
0x000135d9 T playready_domaincert_enumnext
0x00013945 T playready_envelope_open
0x00013a01 T playready_envelope_close
0x00013a57 T playready_envelope_initialize_read
0x00013aaf T playready_envelope_read
0x00013b3b T playready_envelope_seek
0x00013ba3 T playready_envelope_duplicate_filecontext
0x00013c6d T playready_envelope_get_originalfilename
0x00013cc9 T playready_envelope_get_size
0x00013fc5 T playready_envelope_write_playreadyobject
0x000140c9 T playready_sync_generate_challenge
0x0001415f T playready_metering_generate_challenge
0x000141f3 T playready_metering_process_response
0x000142af T playready_get_license_state
0x0001436b T playready_get_device_certificate
0x000143bb T playready_process_command
0x00014495 T playready_process_request
0x00014831 T PRCipher
0x0001483d T prcipher_init
0x0001484d T prcipher_deinit
0x00014fdf T decryptAESCTRContent
0x00015340 A tzbsp_exec_isTampered
0x000153bc A tzmemArray_getSegSize
0x00015410 A tzmemArray_getSegAddress
0x00015464 A tzmemArray_getSegNumber
0x0001555c A tzmemArray_printInfo
0x00015620 A tzmemArray_checkSizeAndNum
0x00015728 A tzmemArray_randomdivided
0x00015870 A tzmemArray_evenlydivided
0x00015af8 A tzmem_new
0x00015b70 A tzmem_delete
0x00015b80 A tzmem_is_s_area_tag
0x00015c70 A tzmem_cacheflush_deregister
0x00015d10 A tzmem_cacheflush_register
0x00015dc4 A tzmem_copy
0x00015fe8 A tzmem_copy_noflush
0x0001601c A tzmem_decrypt
0x000162d0 A tzmem_reverseByteOrder
0x00016328 A get_internal_test_flag
0x00016330 A qsapps_cpcheck_toggle
0x0001639c A get_internal_test_CP_flag
0x000163a4 A check_is_secfuse_state_inconsistent
0x00016444 A get_internal_test_IVconstraint_flag
0x0001644c A oem_unwrap_keys
0x000165af T Oem_Device_GetKey
0x000166ab T Oem_Device_SetKey
0x00016743 T Oem_Device_GetCert
0x00016837 T Oem_Device_GetSecureStoreGlobalPasswordSeed
0x00016859 T Oem_Device_SetCert
0x000168f1 T Oem_Device_GetUniqueId
0x00016b95 T drm_log_msg
0x00016c1f T drm_log_hex_buffer
0x00016c77 T Oem_File_GetSize
0x00016cdb T Oem_File_Open
0x00016f11 T Oem_File_Delete
0x0001731b T Oem_File_Close
0x00017553 T Oem_File_Read
0x000179b7 T Oem_File_Write
0x00017bb9 T Oem_File_SetFilePointer
0x00017f51 T Oem_File_Lock
0x00017f5f T Oem_File_Unlock
0x00017f6d T Oem_File_SetEndOfFile
0x00017f71 T Oem_File_FlushBuffers
0x00017fd9 T _GetDRMFullPathName
0x00018231 T _GetPrivateKey
0x0001831b T _GetHWID
0x00018335 T Oem_Clock_GetResetState
0x00018351 T Oem_Clock_SetResetState
0x00018361 T Oem_Device_GetModelInfo
0x00018431 T clock
0x00018443 T _clock_init
0x00018459 T __rt_ctype_table
0x00018468 A __aeabi_uldivmod
0x00018468 A _ll_udiv
0x0001847c A _ll_udiv_donemoving
0x00018799 T __c89vsnprintf
0x000187cd T __2printf
0x000187ec A strncmp
0x000188e0 A memmove
0x000188ec A __aeabi_memcpy4
0x000188ec A __aeabi_memcpy8
0x000188ec A __rt_memcpy_w
0x00018950 A _memcpy_lastbytes_aligned
0x0001896c A __aeabi_memcpy
0x0001896c A __rt_memcpy
0x000189f4 A _memcpy_lastbytes
0x00018a18 A __aeabi_memmove
0x00018a18 A __rt_memmove
0x00018aa8 A __memmove_lastfew
0x00018ac9 T __cpp_initialize__aeabi_
0x00018aed T __rt_heap_descriptor
0x00018af9 T __rt_locale
0x00018b05 T _printf_int_dec
0x00018b83 T _printf_char_common
0x00018ba9 T _printf_char_file
0x00018bcd T _printf_wctomb
0x00018c85 T _printf_longlong_dec
0x00018cfd T _printf_longlong_oct
0x00018d49 T _printf_int_oct
0x00018d61 T _printf_ll_oct
0x00018d75 T _printf_longlong_hex
0x00018dd1 T _printf_int_hex
0x00018ded T _printf_ll_hex
0x00018df9 T _printf_hex_ptr
0x00018e11 T __printf
0x00018f99 T _get_lc_ctype
0x00018fc4 A __aeabi_memmove4
0x00018fc4 A __aeabi_memmove8
0x00018fc4 A __rt_memmove_w
0x00018ff0 A __memmove_aligned
0x0001902c A __memmove_lastfew_aligned
0x00019044 A __aeabi_idiv
0x00019044 A __aeabi_idivmod
0x00019270 A _ll_udiv10
0x00019271 T _maybe_terminate_alloc
0x00019309 T _initio
0x000193f9 T _terminateio
0x00019464 A strcmp
0x00019504 A __rt_udiv10
0x00019531 T __rt_heap_escrow
0x00019547 T __rt_heap_expand
0x00019581 T _printf_fp_infnan
0x00019601 T _btod_etento
0x000196d9 T freopen
0x00019777 T fopen
0x000197c5 T _get_lc_numeric
0x000197f1 T __rt_SIGRTMEM_inner
0x00019841 T _sys_exit
0x0001984d T _fseek
0x0001984d T fseek
0x00019945 T _seterr
0x00019959 T _writebuf
0x000199ad T _fflush
0x000199f3 T _deferredlazyseek
0x00019a35 T __rt_SIGRTRED_inner
0x00019a69 T __aeabi_errno_addr
0x00019a69 T __errno
0x00019a69 T __rt_errno_addr
0x00019a78 A security_stream_checker_get_version
0x00019a88 A security_stream_checker_register_callback
0x00019ab4 A security_stream_checker_init
0x00019b10 A security_stream_checker
0x0001a144 A tzbuf_init
0x0001a208 A tzbuf_getOffset
0x0001a31c A tzbuf_getSize
0x0001a354 A tzbuf_convertAddress
0x0001a428 A tzbuf_ops
0x0001a66c A tzbuf_ops_onsrc
0x0001a858 A tzbuf_register_secure_buffer
0x0001aa4c A tzbuf_deregister_secure_buffer
0x0001ab58 A tzbuf_memcpy_2
0x0001ad54 A tzbuf_memcpy
0x0001add4 A tzbuf_printInfo
0x0001ae10 A crc_16_calc
0x0001aeb8 A crc_16_l_calc
0x0001af54 A crc_30_calc
0x0001aff4 A crc_30_step
0x0001b094 A crc_16_step
0x0001b0e8 A crc_16_l_step
0x0001b13c A crc_32_calc
0x0001b200 A app_export_init_info_to_qsee
0x0001b230 A qsee_printf_syscall
0x0001b248 A qsee_wait_default_signal_syscall
0x0001b274 A qsee_generic_syscall
0x0001b298 A mink_generic_syscall
0x0001b644 D g_chPathSeparator
0x0001b67e D __stdin_name
0x0001b682 D __stdout_name
0x0001b686 D __stderr_name
0x0001b76c D g_wchPathSeparator
0x0001b780 D g_wchPathSeperator
0x0001b782 D g_wchNull
0x0001b784 D g_wchForwardSlash
0x0001d934 D g_fDecodeAllowed
0x0001ebe0 D crc30_table
0x0001efe0 D crc16_table
0x0001f1e0 D crc_16_l_table
0x0001f3e0 D crc32_table
0x0001fcd5 D __ctype
0x00020004 D pgCmnlib
0x00020008 D tzapp_lib
0x0002000c D cmnlib_rw_base
0x00020010 D app_rw_base
0x00020014 D __stack_chk_guard
0x00020018 D dummy_str
0x0002001c D app_cmd_invoker_obj
0x00020024 D mink_api_service_obj
0x0002002c D mink_user_sscall_service_obj
0x00020034 D mink_opener_obj
0x0002003c D magic_num
0x00020050 D magic_num_index_array
0x0002005a D TZ_APP_NAME
0x00020064 D g_app_id
0x00020075 D g_isGood_utc_time
0x0002007c D returned_size
0x00020090 D g_tz_apps_version
0x0002009c D g_dstrDataStoreFile
0x000200d8 D file_truncation_flag
0x00020153 D g_internal_test_IVflag
0x000201b0 D g_fDeviceResetState
0x000201b4 D g_dstrPrivKey
0x000201c8 D __aeabi_stdin
0x000201cc D __aeabi_stdout
0x000201d0 D __aeabi_stderr
0x000201d8 D gAppCntxt
0x000201ec D application_heap
0x00020220 D mem_magic_number
0x0002022c D apps_request_resp
0x00020240 D acceptBuf
0x00020340 D g_key_cache_tbl
0x000224f4 D g_pr_context_id_table
0x00022684 D g_pr_context_table
0x000228dc D g_pr_cxt_tbl
0x00022900 D g_playready_data_store
0x00022a00 D g_playready_cert_path
0x00022b00 D g_playready_cert_templ_path
0x00022c00 D g_playready_priv_path
0x00022d00 D g_playready_sfs_prt_path
0x00022e00 D g_tz_log_file_name
0x00022f00 D g_wv_keybox_lv3_file_path
0x00023000 D g_wv_keybox_lv1_file_path
0x00023100 D g_wv_device_id_file_path
0x00023200 D g_wv_keybox_sfs_dir
0x00023300 D g_wv_dash_keybox_file_path
0x00023400 D g_wv_dash_keybox_sfs_dir
0x00023500 D g_drmtest_dir
0x00023600 D g_prov_path
0x00023700 D g_single_time_prov_flag
0x00023800 D g_playready_aes_key_file_path
0x00023988 D __stdin
0x000239dc D __stdout
0x00023a30 D __stderr
