


ARM Macro Assembler    Page 1 


    1 00000000         ;
    2 00000000         ; CPSR mode and bit definitions
    3 00000000 00000013 
                       Mode_SVC
                               EQU              0x13
    4 00000000 00000017 
                       Mode_ABT
                               EQU              0x17
    5 00000000 0000001B 
                       Mode_UND
                               EQU              0x1b
    6 00000000 0000001F 
                       Mode_SYS
                               EQU              0x1f
    7 00000000 00000011 
                       Mode_FIQ
                               EQU              0x11
    8 00000000 00000012 
                       Mode_IRQ
                               EQU              0x12
    9 00000000 00000080 
                       I_Bit   EQU              0x80
   10 00000000 00000040 
                       F_Bit   EQU              0x40
   11 00000000         ; CPSR Control Masks 
   12 00000000 00000040 
                       PSR_Fiq_Mask
                               EQU              0x40
   13 00000000 00000080 
                       PSR_Irq_Mask
                               EQU              0x80
   14 00000000         ; Processor mode definitions 
   15 00000000 00000013 
                       PSR_Supervisor
                               EQU              0x13
   16 00000000         ;=======================================================
                       =====================
   17 00000000         ;
   18 00000000         ;                             MODULE IMPORTS
   19 00000000         ;
   20 00000000         ;=======================================================
                       =====================
   21 00000000         ; Import the external symbols that are referenced in thi
                       s module.
   22 00000000                 IMPORT           deviceprogrammer_main_ctl
   23 00000000                 IMPORT           main_firehose
   24 00000000         ;=======================================================
                       =====================
   25 00000000         ;
   26 00000000         ;                             MODULE EXPORTS
   27 00000000         ;
   28 00000000         ;=======================================================
                       =====================
   29 00000000         ; Export the symbols __main and _main to prevent the lin
                       ker from
   30 00000000         ; including the standard runtime library and startup rou
                       tine.
   31 00000000                 EXPORT           _main
   32 00000000                 EXPORT           __main



ARM Macro Assembler    Page 2 


   33 00000000         ;=======================================================
                       =====================
   34 00000000         ; BOOT LOADER ENTRY POINT
   35 00000000         ;
   36 00000000         ; Execution of boot rom begins here.
   37 00000000         ;=======================================================
                       =====================
   38 00000000                 AREA             DEVICEPROGRAMMER_ENTRY_POINT, C
ODE, READONLY
   39 00000000                 CODE32
   40 00000000                 PRESERVE8
   41 00000000                 ENTRY
   42 00000000         _main
   43 00000000         __main
   44 00000000         ;=======================================================
                       =====================
   45 00000000         ; The mARM exception vector table located in boot ROM co
                       ntains four bytes
   46 00000000         ; for each vector.  The boot ROM vector table will conta
                       in long branches that
   47 00000000         ; allow branching anywhere within the 32 bit address spa
                       ce.  Long branches
   48 00000000         ; will be used for all vectors except the reset vector. 
                        Each long branch
   49 00000000         ; consists of a 32 bit LDR instruction using the PC rela
                       tive 12 bit immediate
   50 00000000         ; offset address mode (ARM address mode 2).
   51 00000000         ;=======================================================
                       =====================
   52 00000000 EA000006        b                deviceprogrammer_reset_handler 
                                                            ; reset vector
   53 00000004 EA000005        b                deviceprogrammer_reset_handler 
                                                            ; undef_instr_vect 
                                                            vector
   54 00000008 EA000004        b                deviceprogrammer_reset_handler 
                                                            ; swi_vector
   55 0000000C EA000003        b                deviceprogrammer_reset_handler 
                                                            ; prefetch_abort_ve
                                                            ctor
   56 00000010 EA000002        b                deviceprogrammer_reset_handler 
                                                            ; data_abort_vector
                                                            
   57 00000014 EA000001        b                deviceprogrammer_reset_handler 
                                                            ; reserved_vector
   58 00000018 EA000000        b                deviceprogrammer_reset_handler 
                                                            ; irq_vector
   59 0000001C EAFFFFFF        b                deviceprogrammer_reset_handler 
                                                            ; fiq_vector
   60 00000020         ;=======================================================
                       =====================
   61 00000020         ; The following initializes the relevant MSM circuits fo
                       r IMEM operation
   62 00000020         ; then transfers control to the main control code in "C"
                        which continues the
   63 00000020         ; boot strap process.
   64 00000020         ;=======================================================
                       =====================
   65 00000020         deviceprogrammer_reset_handler
   66 00000020         ;Change to Supervisor Mode



ARM Macro Assembler    Page 3 


   67 00000020 E321F0D3        msr              CPSR_c, #Mode_SVC:OR:I_Bit:OR:F
_Bit
   68 00000024         ; Save the passing parameter from PBL
   69 00000024 E1A07000        mov              r7, r0
   70 00000028         ; Setup the supervisor mode stack
   71 00000028 E59F0020        ldr              r0, =0x08035000
   72 0000002C E1A0D000        mov              r13, r0
   73 00000030         ; Switch to undefined mode and setup the undefined mode 
                       stack
   74 00000030 E321F0DB        msr              CPSR_c, #Mode_UND:OR:I_Bit:OR:F
_Bit
   75 00000034 E1A0D000        mov              r13, r0
   76 00000038         ; Switch to abort mode and setup the abort mode stack
   77 00000038 E321F0D7        msr              CPSR_c, #Mode_ABT:OR:I_Bit:OR:F
_Bit
   78 0000003C E1A0D000        mov              r13, r0
   79 00000040         ; Return to supervisor mode
   80 00000040 E321F0D3        msr              CPSR_c, #Mode_SVC:OR:I_Bit:OR:F
_Bit
   81 00000044         ; Restore the passing parameter
   82 00000044 E1A00007        mov              r0, r7
   83 00000048         ; ------------------------------------------------------
                       ------------
   84 00000048         ; This function never returns.
   85 00000048         ; deviceprogrammer_main_ctl();
   86 00000048         ; ------------------------------------------------------
                       ------------
   87 00000048 EAFFFFFE        b                deviceprogrammer_main_ctl
   88 0000004C         deviceprogrammer_self_loop
   89 0000004C EAFFFFFE        b                deviceprogrammer_self_loop
   90 00000050                 END
              08035000 
Command Line: --cpu=7-A.security --apcs=/noswst/interwork -o/local/mnt/workspac
e/CRMBuilds/BOOT.BF.3.0.c8-00023-M8936AAAAANAZB-1_20170728_035427/b/boot_images
/core/storage/tools/deviceprogrammer/build/prog_emmc_firehose_8929/a53/KAAAANAZ
/firehose/deviceprogrammer_start.o -I/local/mnt/workspace/CRMBuilds/BOOT.BF.3.0
.c8-00023-M8936AAAAANAZB-1_20170728_035427/b/boot_images/core/storage/tools/dev
iceprogrammer/build -I/local/mnt/workspace/CRMBuilds/BOOT.BF.3.0.c8-00023-M8936
AAAAANAZB-1_20170728_035427/b/boot_images/build/cust -I. -I/local/mnt/workspace
/CRMBuilds/BOOT.BF.3.0.c8-00023-M8936AAAAANAZB-1_20170728_035427/b/boot_images/
core/api/boot -I/local/mnt/workspace/CRMBuilds/BOOT.BF.3.0.c8-00023-M8936AAAAAN
AZB-1_20170728_035427/b/boot_images/core/api/boot/qfprom -I/local/mnt/workspace
/CRMBuilds/BOOT.BF.3.0.c8-00023-M8936AAAAANAZB-1_20170728_035427/b/boot_images/
core/api/dal -I/local/mnt/workspace/CRMBuilds/BOOT.BF.3.0.c8-00023-M8936AAAAANA
ZB-1_20170728_035427/b/boot_images/core/api/systemdrivers/hwio/msm8929 -I/local
/mnt/workspace/CRMBuilds/BOOT.BF.3.0.c8-00023-M8936AAAAANAZB-1_20170728_035427/
b/boot_images/core/buses/api/spmi -I/local/mnt/workspace/CRMBuilds/BOOT.BF.3.0.
c8-00023-M8936AAAAANAZB-1_20170728_035427/b/boot_images/core/buses/api/icb -I/l
ocal/mnt/workspace/CRMBuilds/BOOT.BF.3.0.c8-00023-M8936AAAAANAZB-1_20170728_035
427/b/boot_images/core/buses/api/uart -I/local/mnt/workspace/CRMBuilds/BOOT.BF.
3.0.c8-00023-M8936AAAAANAZB-1_20170728_035427/b/boot_images/core/buses/api/i2c 
-I/local/mnt/workspace/CRMBuilds/BOOT.BF.3.0.c8-00023-M8936AAAAANAZB-1_20170728
_035427/b/boot_images/core/api/debugtools -I/local/mnt/workspace/CRMBuilds/BOOT
.BF.3.0.c8-00023-M8936AAAAANAZB-1_20170728_035427/b/boot_images/core/api/hwengi
nes -I/local/mnt/workspace/CRMBuilds/BOOT.BF.3.0.c8-00023-M8936AAAAANAZB-1_2017
0728_035427/b/boot_images/core/api/mproc -I/local/mnt/workspace/CRMBuilds/BOOT.
BF.3.0.c8-00023-M8936AAAAANAZB-1_20170728_035427/b/boot_images/core/api/power -
I/local/mnt/workspace/CRMBuilds/BOOT.BF.3.0.c8-00023-M8936AAAAANAZB-1_20170728_
035427/b/boot_images/core/api/securemsm -I/local/mnt/workspace/CRMBuilds/BOOT.B



ARM Macro Assembler    Page 4 


F.3.0.c8-00023-M8936AAAAANAZB-1_20170728_035427/b/boot_images/core/securemsm/se
cboot/api -I/local/mnt/workspace/CRMBuilds/BOOT.BF.3.0.c8-00023-M8936AAAAANAZB-
1_20170728_035427/b/boot_images/core/api/kernel/libstd/stringl -I/local/mnt/wor
kspace/CRMBuilds/BOOT.BF.3.0.c8-00023-M8936AAAAANAZB-1_20170728_035427/b/boot_i
mages/core/api/services -I/local/mnt/workspace/CRMBuilds/BOOT.BF.3.0.c8-00023-M
8936AAAAANAZB-1_20170728_035427/b/boot_images/core/api/storage -I/local/mnt/wor
kspace/CRMBuilds/BOOT.BF.3.0.c8-00023-M8936AAAAANAZB-1_20170728_035427/b/boot_i
mages/core/api/systemdrivers -I/local/mnt/workspace/CRMBuilds/BOOT.BF.3.0.c8-00
023-M8936AAAAANAZB-1_20170728_035427/b/boot_images/core/api/systemdrivers/pmic 
-I/local/mnt/workspace/CRMBuilds/BOOT.BF.3.0.c8-00023-M8936AAAAANAZB-1_20170728
_035427/b/boot_images/core/api/wiredconnectivity -I/local/mnt/workspace/CRMBuil
ds/BOOT.BF.3.0.c8-00023-M8936AAAAANAZB-1_20170728_035427/b/boot_images/core/api
/kernel/libstd -I/local/mnt/workspace/CRMBuilds/BOOT.BF.3.0.c8-00023-M8936AAAAA
NAZB-1_20170728_035427/b/boot_images/core/boot/secboot3/src -I/local/mnt/worksp
ace/CRMBuilds/BOOT.BF.3.0.c8-00023-M8936AAAAANAZB-1_20170728_035427/b/boot_imag
es/core/boot/ddr/common -I/local/mnt/workspace/CRMBuilds/BOOT.BF.3.0.c8-00023-M
8936AAAAANAZB-1_20170728_035427/b/boot_images/core/boot/ddr/hw/msm8929 -I/local
/mnt/workspace/CRMBuilds/BOOT.BF.3.0.c8-00023-M8936AAAAANAZB-1_20170728_035427/
b/boot_images/core/boot/ddr/hw/phy -I/local/mnt/workspace/CRMBuilds/BOOT.BF.3.0
.c8-00023-M8936AAAAANAZB-1_20170728_035427/b/boot_images/core/boot/ddr/hw/contr
oller -I/local/mnt/workspace/CRMBuilds/BOOT.BF.3.0.c8-00023-M8936AAAAANAZB-1_20
170728_035427/b/boot_images/core/boot/secboot3/hw/msm8929 -I/local/mnt/workspac
e/CRMBuilds/BOOT.BF.3.0.c8-00023-M8936AAAAANAZB-1_20170728_035427/b/boot_images
/core/dal/src -I/local/mnt/workspace/CRMBuilds/BOOT.BF.3.0.c8-00023-M8936AAAAAN
AZB-1_20170728_035427/b/boot_images/core/dal/config -I/local/mnt/workspace/CRMB
uilds/BOOT.BF.3.0.c8-00023-M8936AAAAANAZB-1_20170728_035427/b/boot_images/core/
debugtools/version/src -I/local/mnt/workspace/CRMBuilds/BOOT.BF.3.0.c8-00023-M8
936AAAAANAZB-1_20170728_035427/b/boot_images/core/mproc/smem/inc -I/local/mnt/w
orkspace/CRMBuilds/BOOT.BF.3.0.c8-00023-M8936AAAAANAZB-1_20170728_035427/b/boot
_images/core/securemsm/cryptodrivers/ce/shared/inc -I/local/mnt/workspace/CRMBu
ilds/BOOT.BF.3.0.c8-00023-M8936AAAAANAZB-1_20170728_035427/b/boot_images/core/s
ecuremsm/cryptodrivers/ce/test/inc -I/local/mnt/workspace/CRMBuilds/BOOT.BF.3.0
.c8-00023-M8936AAAAANAZB-1_20170728_035427/b/boot_images/core/securemsm/cryptod
rivers/prng/shared/inc -I/local/mnt/workspace/CRMBuilds/BOOT.BF.3.0.c8-00023-M8
936AAAAANAZB-1_20170728_035427/b/boot_images/core/securemsm/cryptodrivers/prng/
test/inc -I/local/mnt/workspace/CRMBuilds/BOOT.BF.3.0.c8-00023-M8936AAAAANAZB-1
_20170728_035427/b/boot_images/core/securemsm/cryptodrivers/prng/shared/src -I/
local/mnt/workspace/CRMBuilds/BOOT.BF.3.0.c8-00023-M8936AAAAANAZB-1_20170728_03
5427/b/boot_images/core/api/securemsm/secboot -I/local/mnt/workspace/CRMBuilds/
BOOT.BF.3.0.c8-00023-M8936AAAAANAZB-1_20170728_035427/b/boot_images/core/api/se
curemsm/seccfg -I/local/mnt/workspace/CRMBuilds/BOOT.BF.3.0.c8-00023-M8936AAAAA
NAZB-1_20170728_035427/b/boot_images/core/securemsm/secmath/shared/inc -I/local
/mnt/workspace/CRMBuilds/BOOT.BF.3.0.c8-00023-M8936AAAAANAZB-1_20170728_035427/
b/boot_images/core/securemsm/fuseprov/chipset/msm8929/inc -I/local/mnt/workspac
e/CRMBuilds/BOOT.BF.3.0.c8-00023-M8936AAAAANAZB-1_20170728_035427/b/boot_images
/core/services/utils/src -I/local/mnt/workspace/CRMBuilds/BOOT.BF.3.0.c8-00023-
M8936AAAAANAZB-1_20170728_035427/b/boot_images/core/storage/flash/src/dal -I/lo
cal/mnt/workspace/CRMBuilds/BOOT.BF.3.0.c8-00023-M8936AAAAANAZB-1_20170728_0354
27/b/boot_images/core/storage/flash/src/hal -I/local/mnt/workspace/CRMBuilds/BO
OT.BF.3.0.c8-00023-M8936AAAAANAZB-1_20170728_035427/b/boot_images/core/storage/
flash/tools/inc -I/local/mnt/workspace/CRMBuilds/BOOT.BF.3.0.c8-00023-M8936AAAA
ANAZB-1_20170728_035427/b/boot_images/core/storage/flash/inc -I/local/mnt/works
pace/CRMBuilds/BOOT.BF.3.0.c8-00023-M8936AAAAANAZB-1_20170728_035427/b/boot_ima
ges/core/storage/sdcc/src -I/local/mnt/workspace/CRMBuilds/BOOT.BF.3.0.c8-00023
-M8936AAAAANAZB-1_20170728_035427/b/boot_images/core/storage/sdcc/src/hal -I/lo
cal/mnt/workspace/CRMBuilds/BOOT.BF.3.0.c8-00023-M8936AAAAANAZB-1_20170728_0354
27/b/boot_images/core/storage/sdcc/src/bsp -I/local/mnt/workspace/CRMBuilds/BOO
T.BF.3.0.c8-00023-M8936AAAAANAZB-1_20170728_035427/b/boot_images/core/storage/e
fs/inc -I/local/mnt/workspace/CRMBuilds/BOOT.BF.3.0.c8-00023-M8936AAAAANAZB-1_2



ARM Macro Assembler    Page 5 


0170728_035427/b/boot_images/core/storage/hfat/inc -I/local/mnt/workspace/CRMBu
ilds/BOOT.BF.3.0.c8-00023-M8936AAAAANAZB-1_20170728_035427/b/boot_images/core/s
torage/hotplug/inc -I/local/mnt/workspace/CRMBuilds/BOOT.BF.3.0.c8-00023-M8936A
AAAANAZB-1_20170728_035427/b/boot_images/core/storage/tools/emmcbld/inc -I/loca
l/mnt/workspace/CRMBuilds/BOOT.BF.3.0.c8-00023-M8936AAAAANAZB-1_20170728_035427
/b/boot_images/core/storage/tools/deviceprogrammer/src/firehose -I/local/mnt/wo
rkspace/CRMBuilds/BOOT.BF.3.0.c8-00023-M8936AAAAANAZB-1_20170728_035427/b/boot_
images/core/storage/ufs/src -I/local/mnt/workspace/CRMBuilds/BOOT.BF.3.0.c8-000
23-M8936AAAAANAZB-1_20170728_035427/b/boot_images/core/storage/ufs/src/bsp -I/l
ocal/mnt/workspace/CRMBuilds/BOOT.BF.3.0.c8-00023-M8936AAAAANAZB-1_20170728_035
427/b/boot_images/core/systemdrivers/tlmm/inc -I/local/mnt/workspace/CRMBuilds/
BOOT.BF.3.0.c8-00023-M8936AAAAANAZB-1_20170728_035427/b/boot_images/core/system
drivers/tlmm/src -I/local/mnt/workspace/CRMBuilds/BOOT.BF.3.0.c8-00023-M8936AAA
AANAZB-1_20170728_035427/b/boot_images/core/wiredconnectivity/qhsusb/inc -I/loc
al/mnt/workspace/CRMBuilds/BOOT.BF.3.0.c8-00023-M8936AAAAANAZB-1_20170728_03542
7/b/boot_images/core/storage/tools/deviceprogrammer/src/bsp -I/local/mnt/worksp
ace/CRMBuilds/BOOT.BF.3.0.c8-00023-M8936AAAAANAZB-1_20170728_035427/b/boot_imag
es/core/storage/tools/deviceprogrammer/src/emmc --list=/local/mnt/workspace/CRM
Builds/BOOT.BF.3.0.c8-00023-M8936AAAAANAZB-1_20170728_035427/b/boot_images/core
/storage/tools/deviceprogrammer/build/prog_emmc_firehose_8929/a53/KAAAANAZ/fire
hose/deviceprogrammer_start.o.lst --sitelicense /local/mnt/workspace/CRMBuilds/
BOOT.BF.3.0.c8-00023-M8936AAAAANAZB-1_20170728_035427/b/boot_images/core/storag
e/tools/deviceprogrammer/build/prog_emmc_firehose_8929/a53/KAAAANAZ/firehose/de
viceprogrammer_start.o.i
