typedef signed char int8_t;
typedef signed short int int16_t;
typedef signed int int32_t;
typedef signed long long int int64_t;
typedef unsigned char uint8_t;
typedef unsigned short int uint16_t;
typedef unsigned int uint32_t;
typedef unsigned long long int uint64_t;
typedef signed char int_least8_t;
typedef signed short int int_least16_t;
typedef signed int int_least32_t;
typedef signed long long int int_least64_t;
typedef unsigned char uint_least8_t;
typedef unsigned short int uint_least16_t;
typedef unsigned int uint_least32_t;
typedef unsigned long long int uint_least64_t;
typedef signed int int_fast8_t;
typedef signed int int_fast16_t;
typedef signed int int_fast32_t;
typedef signed long long int int_fast64_t;
typedef unsigned int uint_fast8_t;
typedef unsigned int uint_fast16_t;
typedef unsigned int uint_fast32_t;
typedef unsigned long long int uint_fast64_t;
typedef signed int intptr_t;
typedef unsigned int uintptr_t;
typedef signed long long intmax_t;
typedef unsigned long long uintmax_t;
typedef uint8_t boolean;
typedef uint32_t uint32;
typedef uint16_t uint16;
typedef uint8_t uint8;
typedef int32_t int32;
typedef int16_t int16;
typedef int8_t int8;
typedef uint8_t byte;
typedef unsigned short word;
typedef unsigned long dword;
typedef unsigned char uint1;
typedef unsigned short uint2;
typedef unsigned long uint4;
typedef signed char int1;
typedef signed short int2;
typedef long int int4;
typedef signed long sint31;
typedef signed short sint15;
typedef signed char sint7;
typedef uint16 UWord16 ;
typedef uint32 UWord32 ;
typedef int32 Word32 ;
typedef int16 Word16 ;
typedef uint8 UWord8 ;
typedef int8 Word8 ;
typedef int32 Vect32 ;
      typedef long long int64;
      typedef unsigned long long uint64;
typedef unsigned int bool32;
typedef enum
{
  HAL_VMIDMT_NO_ERROR,
  HAL_VMIDMT_INVALID_INSTANCE,
  HAL_VMIDMT_UNSUPPORTED_INSTANCE_FOR_TARGET,
  HAL_VMIDMT_UNSUPPORTED_HANDLER,
  HAL_VMIDMT_INVALID_BASE_ADDR,
  HAL_VMIDMT_INVALID_PARAM,
  HAL_VMIDMT_INVALID_HW_VALUE,
  HAL_VMIDMT_READ_WRITE_MISMATCH
} HAL_vmidmt_Status;
typedef enum
{
  HAL_VMIDMT_CRYPTO0_AXI = 0,
  HAL_VMIDMT_CRYPTO1_AXI,
  HAL_VMIDMT_CRYPTO0_BAM,
  HAL_VMIDMT_CRYPTO1_BAM,
  HAL_VMIDMT_DEHR,
  HAL_VMIDMT_LPASS_DM,
  HAL_VMIDMT_LPASS_LPAIF,
  HAL_VMIDMT_LPASS_MIDI,
  HAL_VMIDMT_LPASS_Q6AHB,
  HAL_VMIDMT_LPASS_Q6AXI,
  HAL_VMIDMT_LPASS_RESAMPLER,
  HAL_VMIDMT_LPASS_SLIMBUS,
  HAL_VMIDMT_CAMERA_SS,
  HAL_VMIDMT_CAMSS_VBIF_JPEG,
  HAL_VMIDMT_CAMSS_VBIF_VFE,
  HAL_VMIDMT_MMSS_DDR,
  HAL_VMIDMT_OCMEM,
  HAL_VMIDMT_OXILI,
  HAL_VMIDMT_VENUS_CPUSS,
  HAL_VMIDMT_VENUS_VBIF,
  HAL_VMIDMT_MSS_A2BAM,
  HAL_VMIDMT_MSS_NAV_CE,
  HAL_VMIDMT_MSS_Q6,
  HAL_VMIDMT_BAM_DMA,
  HAL_VMIDMT_BAM_BLSP1_DMA,
  HAL_VMIDMT_BAM_BLSP2_DMA,
  HAL_VMIDMT_BAM_SDCC1,
  HAL_VMIDMT_BAM_SDCC2,
  HAL_VMIDMT_BAM_SDCC3,
  HAL_VMIDMT_BAM_SDCC4,
  HAL_VMIDMT_TSIF,
  HAL_VMIDMT_USB1_HS,
  HAL_VMIDMT_USB2_HSIC,
  HAL_VMIDMT_QDSS_VMIDDAP,
  HAL_VMIDMT_QDSS_VMIDETR,
  HAL_VMIDMT_RPM_MSGRAM,
  HAL_VMIDMT_SPDM_WRAPPER,
  HAL_VMIDMT_USB30,
  HAL_VMIDMT_PRONTO,
  HAL_VMIDMT_QPIC_BAM,
  HAL_VMIDMT_IPA,
  HAL_VMIDMT_APCS,
  HAL_VMIDMT_CRYPTO2_AXI,
  HAL_VMIDMT_CRYPTO2_BAM,
  HAL_VMIDMT_EMAC,
  HAL_VMIDMT_LPASS_HDMI,
  HAL_VMIDMT_LPASS_SPDIF,
  HAL_VMIDMT_VENUS_VBIF2,
  HAL_VMIDMT_MMSS_VPU_MAPLE,
  HAL_VMIDMT_USB_HS_SEC,
  HAL_VMIDMT_SATA,
  HAL_VMIDMT_PCIE20,
  HAL_VMIDMT_PCIE0,
  HAL_VMIDMT_PCIE1,
  HAL_VMIDMT_USB3_HSIC,
  HAL_VMIDMT_UFS,
  HAL_VMIDMT_LPASS_SB1,
  HAL_VMIDMT_COUNT,
  HAL_VMIDMT_SIZE = 0x7FFFFFFF
} HAL_vmidmt_InstanceType;
typedef struct
{
  uint32 auVMID[((31/32) + 1)];
  uint32 auVMIDPerm[((31/32) + 1)];
} HAL_vmidmt_AccessConfigType;
typedef enum
{
  HAL_VMIDMT_ERROR_O_SMCFCFG_EN = 0x1,
  HAL_VMIDMT_ERROR_O_USFCFG_EN = 0x2,
  HAL_VMIDMT_ERROR_O_GCFGFIE = 0x4,
  HAL_VMIDMT_ERROR_O_GCFGFRE = 0x8,
  HAL_VMIDMT_ERROR_O_GFIE = 0x10,
  HAL_VMIDMT_ERROR_OPTIONS_SIZE = 0x7FFFFFFF
} HAL_vmidmt_ErrorOptionType;
typedef uint32 HAL_vmidmt_ErrorOptionConfigType;
typedef struct
{
  uint16 uEntryCount;
  uint16 uNumVmid;
  uint8 bStreamMapSupport;
  uint8 uNumSSDIndexBits;
  uint8 uNumStreamIDBits;
} HAL_vmidmt_DeviceParamsType;
typedef enum
{
  HAL_VMIDMT_ERROR_F_CLMULTI = 0x1,
  HAL_VMIDMT_ERROR_F_CFGMULTI = 0x2,
  HAL_VMIDMT_ERROR_F_PF = 0x4,
  HAL_VMIDMT_ERROR_F_CAF = 0x8,
  HAL_VMIDMT_ERROR_F_SMCF = 0x10,
  HAL_VMIDMT_ERROR_F_USF = 0x20,
  HAL_VMIDMT_ERROR_FLAGS_SIZE = 0x7FFFFFFF
} HAL_vmidmt_ErrorFlagsType;
typedef uint32 HAL_vmidmt_ErrorFlagsConfigType;
typedef enum
{
  HAL_VMIDMT_BUS_F_ERROR_NSATTR = 0x1,
  HAL_VMIDMT_BUS_F_ERROR_NSSTATE = 0x2,
  HAL_VMIDMT_BUS_F_ERROR_WNR = 0x4,
  HAL_VMIDMT_BUS_FLAGS_SIZE = 0x7FFFFFFF
} HAL_vmidmt_BusErrorFlagsType;
typedef uint32 HAL_vmidmt_BusErrorFlagsMaskType;
typedef struct
{
  HAL_vmidmt_ErrorFlagsConfigType uErrorFlags;
  HAL_vmidmt_BusErrorFlagsMaskType uBusFlags;
  uint32 uPhysicalAddressLower32;
  uint32 uPhysicalAddressUpper32;
  uint32 uSSDIndex;
  uint32 uSID;
  uint32 uMasterId;
  uint32 uAVMID;
  uint32 uATID;
  uint32 uABID;
  uint32 uAPID;
} HAL_vmidmt_ErrorType;
typedef uint32 HAL_vmidmt_SecureStatusDetType;
typedef enum
{
  HAL_VMIDMT_NSCFG_XTRAN = 0,
  HAL_VMIDMT_NSCFG_SECURE = 2,
  HAL_VMIDMT_NSCFG_NONSECURE = 3,
  HAL_VMIDMT_NSCFG_DEFAULT = 4,
} HAL_vmidmt_NonSecureAllocConfigType;
typedef enum
{
  HAL_VMIDMT_WACFG_XTRAN = 0,
  HAL_VMIDMT_WACFG_ALLOC = 2,
  HAL_VMIDMT_WACFG_NONALLOC = 3,
  HAL_VMIDMT_WACFG_DEFAULT = 4,
} HAL_vmidmt_WriteAllocConfigType;
typedef enum
{
  HAL_VMIDMT_RACFG_XTRAN = 0,
  HAL_VMIDMT_RACFG_ALLOC = 2,
  HAL_VMIDMT_RACFG_NONALLOC = 3,
  HAL_VMIDMT_RACFG_DEFAULT = 4,
} HAL_vmidmt_ReadAllocConfigType;
typedef enum
{
  HAL_VMIDMT_SHCFG_XTRAN = 0,
  HAL_VMIDMT_SHCFG_OUTER_SHARE = 1,
  HAL_VMIDMT_SHCFG_INNER_SHARE = 2,
  HAL_VMIDMT_SHCFG_NON_SHARE = 3,
  HAL_VMIDMT_SHCFG_DEFAULT = 4,
} HAL_vmidmt_SharedConfigType;
typedef enum
{
  HAL_VMIDMT_MTCFG_XTRAN = 0,
  HAL_VMIDMT_MTCFG_MEMATTR = 1,
  HAL_VMIDMT_MTCFG_DEFAULT = 2,
} HAL_vmidmt_MemTypeConfigType;
typedef enum
{
  HAL_VMIDMT_TRANSIENTCFG_XTRAN = 0,
  HAL_VMIDMT_TRANSIENTCFG_NON_TRANSIENT = 2,
  HAL_VMIDMT_TRANSIENTCFG_TRANSIENT = 3,
  HAL_VMIDMT_TRANSIENTCFG_DEFAULT = 4,
} HAL_vmidmt_TransientConfigType;
typedef struct
{
  HAL_vmidmt_NonSecureAllocConfigType eNSCFG;
  HAL_vmidmt_WriteAllocConfigType eWACFG;
  HAL_vmidmt_ReadAllocConfigType eRACFG;
  HAL_vmidmt_SharedConfigType eSHCFG;
  HAL_vmidmt_MemTypeConfigType eMTCFG;
  uint8 uMemAttr;
  HAL_vmidmt_TransientConfigType eTransientCfg;
} HAL_vmidmt_BusAttribType;
typedef enum
{
  HAL_VMIDMT_RCNSH_DISABLE = 0,
  HAL_VMIDMT_RCNSH_ENABLE = 1,
  HAL_VMIDMT_RCNSH_DEFAULT = 2,
} HAL_vmidmt_RedirCacheNonShareableConfigType;
typedef enum
{
  HAL_VMIDMT_RCISH_DISABLE = 0,
  HAL_VMIDMT_RCISH_ENABLE = 1,
  HAL_VMIDMT_RCISH_DEFAULT = 2,
} HAL_vmidmt_RedirCacheInnerShareableConfigType;
typedef enum
{
  HAL_VMIDMT_RCOSH_DISABLE = 0,
  HAL_VMIDMT_RCOSH_ENABLE = 1,
  HAL_VMIDMT_RCOSH_DEFAULT = 2,
} HAL_vmidmt_RedirCacheOuterShareableConfigType;
typedef enum
{
  HAL_VMIDMT_REQPRICFG_XTRAN = 0,
  HAL_VMIDMT_REQPRICFG_ACR_REQPRI = 1,
  HAL_VMIDMT_REQPRICFG_DEFAULT = 2,
} HAL_vmidmt_ReqPriorityConfigType;
typedef enum
{
  HAL_VMIDMT_REQPRI_NORMAL = 0,
  HAL_VMIDMT_REQPRI_HIGH = 1,
  HAL_VMIDMT_REQPRI_HIGHER = 2,
  HAL_VMIDMT_REQPRI_HIGHEST = 3,
  HAL_VMIDMT_REQPRI_DEFAULT = 4,
} HAL_vmidmt_ReqPriorityType;
typedef struct
{
  HAL_vmidmt_RedirCacheNonShareableConfigType eRCNSH;
  HAL_vmidmt_RedirCacheInnerShareableConfigType eRCISH;
  HAL_vmidmt_RedirCacheOuterShareableConfigType eRCOSH;
  HAL_vmidmt_ReqPriorityConfigType eReqPriorityCfg;
  HAL_vmidmt_ReqPriorityType eReqPriority;
} HAL_vmidmt_AuxConfigType;
typedef struct
{
   HAL_vmidmt_BusAttribType *pBypassBusAttrib;
   HAL_vmidmt_AuxConfigType *pBypassAuxConfig;
   HAL_vmidmt_AccessConfigType *pAccessControl;
   bool32 bVmidPrivateNamespaceEnable;
   uint8 bypassVmid;
} HAL_vmidmt_DefaultVmidConfigType;
typedef struct
{
   HAL_vmidmt_DefaultVmidConfigType *pDefaultSecureConfig;
   bool32 bGlbAddrSpaceRestrictedAccEnable;
   uint8 secureExtensions;
} HAL_vmidmt_DefaultSecureVmidConfigType;
typedef struct
{
  HAL_vmidmt_BusAttribType *pBusAttrib;
  HAL_vmidmt_AuxConfigType *pAuxConfig;
  uint8 uVmid;
} HAL_vmidmt_ContextConfigType;
HAL_vmidmt_Status HAL_vmidmt_Init
        ( HAL_vmidmt_InstanceType eVmidmt,
          const HAL_vmidmt_DefaultSecureVmidConfigType *pSecureConfig,
          const HAL_vmidmt_DefaultVmidConfigType *pNonSecureConfig,
          char **ppszVersion );
void HAL_vmidmt_Reset( HAL_vmidmt_InstanceType eVmidmt ) ;
void HAL_vmidmt_Save( HAL_vmidmt_InstanceType eVmidmt );
void HAL_vmidmt_Restore( HAL_vmidmt_InstanceType eVmidmt );
HAL_vmidmt_Status HAL_vmidmt_EnableClientPort
        ( HAL_vmidmt_InstanceType eVmidmt,
          bool32 bSecure );
HAL_vmidmt_Status HAL_vmidmt_DisableClientPort
        ( HAL_vmidmt_InstanceType eVmidmt,
          bool32 bSecure );
HAL_vmidmt_Status HAL_vmidmt_ConfigSecureStatusDetTable
        ( HAL_vmidmt_InstanceType eVmidmt,
          const HAL_vmidmt_SecureStatusDetType *pSecureStatusDetArray,
          uint32 uNumElements );
HAL_vmidmt_Status HAL_vmidmt_ConfigVmidContext
        ( HAL_vmidmt_InstanceType eVmidmt,
          uint32 uStreamID,
          const HAL_vmidmt_ContextConfigType *pContextConfig );
HAL_vmidmt_Status HAL_vmidmt_ConfigVmidContextWithSIDList
        ( HAL_vmidmt_InstanceType eVmidmt,
          uint32 uIndex,
          const uint32 *pSIDList,
          uint32 uNumElements,
          const HAL_vmidmt_ContextConfigType *pContextConfig );
HAL_vmidmt_Status HAL_vmidmt_ConfigErrorReporting
        ( HAL_vmidmt_InstanceType eVmidmt,
          bool32 bSecure,
          HAL_vmidmt_ErrorOptionConfigType errConfig );
HAL_vmidmt_Status HAL_vmidmt_GetDeviceParameters
        ( HAL_vmidmt_InstanceType eVmidmt,
          HAL_vmidmt_DeviceParamsType *pDevParams );
HAL_vmidmt_Status HAL_vmidmt_GetVmidContext
        ( HAL_vmidmt_InstanceType eVmidmt,
          uint32 uStreamID,
          HAL_vmidmt_ContextConfigType *pContextConfig );
void HAL_vmidmt_GetErrorReportingConfig
        ( HAL_vmidmt_InstanceType eVmidmt,
          bool32 bSecure,
          HAL_vmidmt_ErrorOptionConfigType *pErrConfig );
bool32 HAL_vmidmt_IsError( HAL_vmidmt_InstanceType eVmidmt,
                           bool32 bSecure );
void HAL_vmidmt_GetError( HAL_vmidmt_InstanceType eVmidmt,
                          bool32 bSecure,
                          HAL_vmidmt_ErrorType *pError );
HAL_vmidmt_Status HAL_vmidmt_ClearError( HAL_vmidmt_InstanceType eVmidmt,
                                         bool32 bSecure );
HAL_vmidmt_Status HAL_vmidmt_ClearErrorExt
        ( HAL_vmidmt_InstanceType eVmidmt,
          bool32 bSecure,
          HAL_vmidmt_ErrorFlagsConfigType uErrorFlags );
typedef struct
{
  uint16 uEntryCount;
  uint16 uNumVmid;
  uint8 uNumSSDIndexBits;
  uint8 uNumStreamIDBits;
  uint8 uInputAddrSize;
  uint8 bStreamMatchSupport;
} HAL_vmidmt_IntVMIDMTDevParamsType;
typedef struct
{
  uint32 uBaseAddr;
  HAL_vmidmt_IntVMIDMTDevParamsType devParams;
} HAL_vmidmt_InfoType;
<driver name="NULL">
  <device id="/dev/vmidmt">
    <props id=24 type="HAL_vmidmt_InfoType">
      {((0x07880000 + 0x00000000) + 0x00000000), {17, 0, 0, 0, 0, 0}}
    </props>
    <props id=2 type="HAL_vmidmt_InfoType">
      {((0x04f00000 + 0x00000000) + 0x00000000), {9, 0, 0, 0, 0, 0}}
    </props>
    <props id=4 type="HAL_vmidmt_InfoType">
      {((0x04cb0000 + 0x00001000) + 0x00000000), {1, 0, 0, 0, 0, 0}}
    </props>
    <props id=35 type="HAL_vmidmt_InfoType">
      {((0x04a00000 + 0x00088000) + 0x00000000), {1, 0, 0, 0, 0, 0}}
    </props>
  </device>
</driver>
