#<SYMDEFS># ARM Linker, 6010048: Last Updated: Wed Feb  7 02:08:53 2018
0x0000000086400000 X hyp_main
0x0000000086400250 X hyp_mutex_init
0x0000000086400268 X hyp_mutex_lock
0x0000000086400288 X hyp_mutex_unlock
0x0000000086400298 X hyp_int_disable_all
0x00000000864002ac X hyp_int_restore
0x00000000864002c8 X printnum
0x0000000086400370 X _doprnt
0x0000000086400cbc X hyp_log_put_ch
0x0000000086400d0c X term_put
0x0000000086400d10 X char_out
0x0000000086400d14 X hyp_vprintf
0x0000000086400d5c X hyp_put_log_into_buffer
0x0000000086400de4 X hyp_log
0x0000000086400e4c X hyp_log_init
0x0000000086400ec8 X hyp_milestone
0x0000000086400ed8 X hyp_log_warmboot_entry
0x0000000086400f04 X hyp_log_warmboot_exit
0x0000000086400f30 X hyp_log_exception
0x000000008640101c X hyp_log_lel_s
0x00000000864010e0 X hyp_log_get_s2_fault_counter
0x0000000086401124 X hyp_log_call_start
0x0000000086401164 X hyp_log_call_end
0x000000008640118c X hyp_mm_cold_init
0x00000000864012dc X hyp_mm_warm_init
0x0000000086401300 X hyp_config_download_mode_backup
0x0000000086401330 X hyp_hvc64_grant_access
0x0000000086401430 X hyp_hvc64_remove_access
0x00000000864014c8 X hyp_hvc32_grant_access
0x0000000086401500 X hyp_hvc32_remove_access
0x0000000086401528 X hyp_get_forward_spsr
0x00000000864015c0 X hyp_hvc_handler
0x00000000864016f4 X __init_stack_chk_guard
0x00000000864016f8 X __stack_chk_fail
0x0000000086401708 X LPAE_Init
0x000000008640174c X LPAE_Map
0x0000000086401fc4 X LPAE_Unmap
0x00000000864020c4 X LPAE_IsExisted
0x000000008640215c X LPAE_Query
0x000000008640260c X VMMM_Init
0x00000000864026a4 X VMMM_Map
0x0000000086402760 X VMMM_Enable
0x0000000086402770 X VMMM_MapFromList
0x00000000864027dc X VMMM_Unmap
0x0000000086402838 X VMMM_QueryMapped
0x0000000086402874 X VMMM_SetupMMU
0x0000000086402880 X VMMM_Invalidate_TLB_BY_IPA
0x000000008640289c X strlen
0x0000000086402924 X memcpy
0x0000000086402950 X memset
0x0000000086402994 X __aeabi_memcpy4
0x0000000086402994 X __aeabi_memcpy8
0x0000000086402a08 X __aeabi_memcpy
0x0000000086402a08 X __rt_memcpy
0x0000000086402adc X _memset_w
0x0000000086402b14 X _memset
0x0000000086402b50 X __aeabi_memclr
0x0000000086402b50 X __rt_memclr
0x0000000086402b58 X __aeabi_memclr4
0x0000000086402b58 X __aeabi_memclr8
0x0000000086402b58 X __rt_memclr_w
0x0000000086402fc4 X hyp_setS2fatalflag
0x0000000086402fd0 X hyp_getCPUId
0x0000000086402fe4 X HYP_SetupMMU
0x0000000086404000 D __stack_chk_guard
0x0000000086404008 D vm_0_mem_regions
0x0000000086404378 D vm_map_table
0x0000000086404380 D vm_map_table_length
0x0000000086405000 D hyp_log_area
0x000000008640b000 D _doprnt_truncates
0x000000008640b078 D hyp_reg_dump
0x000000008640b658 D input_port
0x000000008640b659 D output_port
0x000000008640b660 D vm0_context
