#<SYMDEFS># ARM Linker, 5.01 [Build 94]: Last Updated: Mon Jun 20 22:59:53 2016
0x00000000 N __ARM_use_no_argv
0x00000009 T __main
0x00000011 T __rt_lib_init
0x00000013 T __rt_lib_init_fp_1
0x00000013 T __rt_lib_init_heap_2
0x0000001b T __rt_lib_init_alloca_1
0x0000001b T __rt_lib_init_argv_1
0x0000001b T __rt_lib_init_atexit_1
0x0000001b T __rt_lib_init_clock_1
0x0000001b T __rt_lib_init_cpp_1
0x0000001b T __rt_lib_init_exceptions_1
0x0000001b T __rt_lib_init_fp_trap_1
0x0000001b T __rt_lib_init_getenv_1
0x0000001b T __rt_lib_init_heap_1
0x0000001b T __rt_lib_init_lc_collate_1
0x0000001b T __rt_lib_init_lc_ctype_1
0x0000001b T __rt_lib_init_lc_monetary_1
0x0000001b T __rt_lib_init_lc_numeric_1
0x0000001b T __rt_lib_init_lc_time_1
0x0000001b T __rt_lib_init_rand_1
0x0000001b T __rt_lib_init_return
0x0000001b T __rt_lib_init_signal_1
0x0000001b T __rt_lib_init_stdio_1
0x0000001b T __rt_lib_init_user_alloc_1
0x0000001d T __rt_lib_shutdown
0x0000001f T __rt_lib_shutdown_cpp_1
0x00000025 T __rt_lib_shutdown_fp_trap_1
0x00000025 T __rt_lib_shutdown_heap_2
0x00000025 T __rt_lib_shutdown_signal_1
0x00000025 T __rt_lib_shutdown_stdio_1
0x00000025 T __rt_lib_shutdown_user_alloc_1
0x00000029 T __rt_lib_shutdown_heap_1
0x00000029 T __rt_lib_shutdown_return
0x0000002b T __rt_entry
0x0000002b T __rt_entry_presh_1
0x0000002b T __rt_entry_sh
0x00000031 T __rt_entry_li
0x00000031 T __rt_entry_postsh_1
0x00000035 T __rt_entry_main
0x00000035 T __rt_entry_postli_1
0x0000003d T __rt_exit
0x0000003f T __rt_exit_ls
0x0000003f T __rt_exit_prels_1
0x00000043 T __rt_exit_exit
0x00000049 T __user_setup_stackheap
0x00000061 T abort
0x00000105 T dog_bark_isr
0x00000109 T __asm___16_HALmpmPlatform_c_0ea4e44c__halt
0x00000129 T __asm___21_lpr_definition_uber_c_ebf0609d__halt
0x00000149 T Reset_Handler
0x00000149 T _maybe_terminate_alloc
0x00000151 T __semihosting$guard
0x00000151 T __use_no_semihosting_swi
0x00000153 T __use_no_semihosting
0x00000155 T malloc
0x00000169 T free
0x00000183 T realloc
0x000001b1 T __aeabi_uldivmod
0x000001b1 T _ll_udiv
0x0000029f T __aeabi_llsl
0x0000029f T _ll_shift_l
0x000002c5 T __aeabi_ldivmod
0x000002c5 T _ll_sdiv
0x0000030d T strchr
0x00000321 T memcmp
0x00000379 T strlen
0x000003b7 T strncmp
0x0000044d T __aeabi_memcpy
0x0000044d T __rt_memcpy
0x000004b3 T _memcpy_lastbytes
0x000004d7 T memcpy
0x000004df T __aeabi_memcpy4
0x000004df T __aeabi_memcpy8
0x000004df T __rt_memcpy_w
0x00000527 T _memcpy_lastbytes_aligned
0x00000543 T __aeabi_memmove4
0x00000543 T __aeabi_memmove8
0x00000543 T __rt_memmove_w
0x00000569 T __memmove_aligned
0x000005a1 T __memmove_lastfew_aligned
0x000005bd T __aeabi_memset
0x000005cd T __aeabi_memclr
0x000005cd T __rt_memclr
0x000005d1 T _memset
0x00000611 T __aeabi_memclr4
0x00000611 T __aeabi_memclr8
0x00000611 T __rt_memclr_w
0x00000615 T _memset_w
0x00000661 T strcmp
0x000006e1 T __rt_heap_descriptor
0x000006e9 T __rt_new_handler_addr
0x000006f1 T __rt_ddtor_pointer_addr
0x000006f9 T __use_no_heap
0x000006fb T __heap$guard
0x000006fd T _terminate_user_alloc
0x000006ff T _init_user_alloc
0x00000701 T __Heap_Full
0x00000723 T __Heap_Broken
0x00000729 T _init_alloc
0x00000787 T __rt_SIGPVFN
0x00000795 T _Z21__default_new_handlerv
0x00000799 T __sig_exit
0x000007a3 T __rt_SIGRTMEM
0x000007b1 T __rt_SIGPVFN_inner
0x000007e1 T __rt_heap_escrow
0x000007f5 T __rt_heap_expand
0x0000082d T _ZSt9terminatev
0x00000847 T _terminate_alloc
0x00000857 T exit
0x00000863 T __default_signal_display
0x00000895 T __rt_SIGRTMEM_inner
0x000008e5 T __ARM_vec_cleanup
0x00000905 T __cxa_get_globals
0x00000951 T __cxa_rethrow
0x00000955 T __rt_eh_globals_addr
0x0000095d T __ARM_exceptions_buffer_init
0x0000096f T __ARM_exceptions_buffer_allocate
0x00000985 T __ARM_exceptions_buffer_free
0x00000999 T Chipinfo_GetFamily
0x00000a25 T Chipinfo_GetVersion
0x00000a39 T Clock_BIMCIsRestoreDone
0x00000ae5 T Clock_BIMCRestore
0x00000b95 T Clock_BIMCRestoring
0x00000e01 T Clock_BIMCSetFrequency
0x00000e65 T Clock_BIMCSwitchFrequency
0x00001079 T Clock_ConfigSource
0x00001159 T Clock_DisableClock
0x0000124d T Clock_DisablePowerDomain
0x000012cd T Clock_DisableSource
0x00001411 T Clock_DriverInit
0x00001465 T Clock_EnableClock
0x00001595 T Clock_EnablePowerDomain
0x00001605 T Clock_EnableSource
0x00001729 T Clock_GetClockFrequency
0x000017a5 T Clock_GetClockId
0x000017f9 T Clock_GetDrvCtxt
0x00001805 T Clock_GetNPAResources
0x0000180d T Clock_GetPowerDomainId
0x00001861 T Clock_GetPropertyValue
0x00001889 T Clock_Init
0x00001899 T Clock_InitCore
0x00001bf5 T Clock_InitImage
0x00002119 T Clock_InitNPA
0x000021e9 T Clock_InitSources
0x00002305 T Clock_InitVoltage
0x0000233d T Clock_IsBSPSupported
0x000023cd T Clock_IsClockOn
0x000023f1 T Clock_IsPowerDomainEnabled
0x000023fd T Clock_IsQDSSOn
0x00002411 T Clock_LogState
0x00002885 T Clock_ProcessorRestore
0x00002a1d T Clock_ProcessorSleep
0x00002be1 T Clock_RegisterCallback
0x00002c4d T Clock_SetBIMCPowerCollapse
0x00002c71 T Clock_SetBIMCPowerRestore
0x00002ca1 T Clock_SetClockConfig
0x00002e29 T Clock_SetClockConfigEx
0x00002e55 T Clock_SetClockSpeed
0x00002ecf T Clock_SetQDSSClocks
0x00002ffd T Clock_VoltageRequest
0x000030c1 T Clock_VoltageResume
0x00003101 T Clock_VoltageSuspend
0x0000313d T Clock_WaitForBIMCPowerCollapse
0x000031f5 T Clock_WaitForBIMCPowerRestore
0x00003215 T Core_DALSYSAllocatorFcn
0x00003219 T Core_PoolAlloc
0x000032b9 T Core_PoolConfig
0x00003315 T Core_PoolCreate
0x00003359 T Core_PoolFree
0x0000337b T Core_PoolInit
0x00003403 T Core_PoolSetAllocationSize
0x0000341b T Core_WorkElementProcess
0x00003463 T Core_WorkQueueAlloc
0x0000348d T Core_WorkQueueCreate
0x0000352d T Core_WorkQueueFree
0x0000354d T Core_WorkQueueGet
0x000035a9 T Core_WorkQueueLength
0x000035b7 T Core_WorkQueuePut
0x000035f5 T DALSYS_BusyWait
0x000035f9 T DALSYS_GetDALPropertyHandle
0x00003641 T DALSYS_GetDALPropertyHandleStr
0x00003671 T DALSYS_GetPropertyValue
0x00003845 T DALSYS_LogEvent
0x00003849 T DAL_StringDeviceObjectLookup
0x00003971 T DDR_SYNC_INIT
0x0000397d T DDR_SYNC_LOCK
0x00003981 T DDR_SYNC_UNLOCK
0x00003985 T DalHWIO_MapRegion
0x000039dd T DalIPCInt_Trigger
0x00003a27 T DalInterruptController_RegisterISR
0x00003a2d T ETM_trace_disable
0x00003a7d T ETM_trace_enable
0x00003af1 T HAL_SDRAM_Enter_Self_Refresh
0x00003afd T HAL_SDRAM_Exit_Self_Refresh
0x00003b09 T HAL_bimc_ArbitrationEnable
0x00003b19 T HAL_bimc_Init
0x00003b23 T HAL_bimc_SetDangerBandwidth
0x00003b3b T HAL_bimc_SetDangerMode
0x00003b4d T HAL_bimc_SetDangerPolicy
0x00003b5f T HAL_bimc_SetDangerPriority
0x00003b77 T HAL_bimc_SetQosBandwidth
0x00003b8d T HAL_bimc_SetQosMode
0x00003b9d T HAL_bimc_SetQosPriority
0x00003df9 T HAL_clk_BusyWait
0x00003e0d T HAL_clk_ConfigClockMux
0x00003e21 T HAL_clk_ConfigPLL
0x00003e45 T HAL_clk_DetectClockMuxConfig
0x00003e65 T HAL_clk_DisableClock
0x00003e79 T HAL_clk_DisablePowerDomain
0x00003e8d T HAL_clk_DisableSource
0x00003eb1 T HAL_clk_DisableSourceVote
0x00003ed5 T HAL_clk_EnableClock
0x00003ee9 T HAL_clk_EnablePowerDomain
0x00003efd T HAL_clk_EnableSource
0x00003f21 T HAL_clk_EnableSourceVote
0x00003f45 T HAL_clk_GPLL0_FSM_reset_deep_sleep
0x00003fad T HAL_clk_GPLL0_disable_deep_sleep
0x00003fe5 T HAL_clk_GenericConfigDivider
0x00004009 T HAL_clk_GenericConfigFootswitch
0x00004049 T HAL_clk_GenericConfigMux
0x00004105 T HAL_clk_GenericDetectDivider
0x0000411d T HAL_clk_GenericDetectMuxConfig
0x00004179 T HAL_clk_GenericDisable
0x00004197 T HAL_clk_GenericEnable
0x000041b3 T HAL_clk_GenericIsEnabled
0x000041d5 T HAL_clk_GenericIsOn
0x000041eb T HAL_clk_GenericPLLConfig
0x00004259 T HAL_clk_GenericPLLConfigPLL
0x00004401 T HAL_clk_GenericPLLDetectPLLConfig
0x00004435 T HAL_clk_GenericPLLDisable
0x00004443 T HAL_clk_GenericPLLDisableVote
0x00004455 T HAL_clk_GenericPLLEnable
0x000044f1 T HAL_clk_GenericPLLEnableVote
0x0000451d T HAL_clk_GenericPLLIsEnabled
0x00004531 T HAL_clk_GenericPLLIsVoteEnabled
0x00004541 T HAL_clk_GenericPowerDomainDisable
0x00004553 T HAL_clk_GenericPowerDomainEnable
0x00004573 T HAL_clk_GenericPowerDomainIsEnabled
0x00004589 T HAL_clk_GenericReset
0x000045a3 T HAL_clk_GenericSourceMapToHW
0x000045bd T HAL_clk_GetChipFamily
0x000045c9 T HAL_clk_GetChipVersion
0x000045d5 T HAL_clk_GetClockName
0x000045e1 T HAL_clk_GetDEHRStatus
0x000045f1 T HAL_clk_GetNextClockDomain
0x00004605 T HAL_clk_GetNextClockInDomain
0x00004621 T HAL_clk_GetNextPowerDomain
0x00004635 T HAL_clk_GetNumberOfClockDomains
0x00004641 T HAL_clk_GetNumberOfClocks
0x0000464d T HAL_clk_GetNumberOfPowerDomains
0x00004659 T HAL_clk_GetPowerDomainName
0x00004663 T HAL_clk_GetTestClockId
0x0000466d T HAL_clk_Init
0x000046b1 T HAL_clk_InstallClockDomains
0x00004741 T HAL_clk_InstallPLL
0x0000475d T HAL_clk_InstallPowerDomains
0x000047a1 T HAL_clk_InstallSource
0x000047d5 T HAL_clk_IsClockOn
0x000047e9 T HAL_clk_IsClockSupported
0x0000486d T HAL_clk_IsDEHREnable
0x0000487d T HAL_clk_IsPowerDomainEnabled
0x000048b5 T HAL_clk_PlatformInitGCCMain
0x000048d9 T HAL_clk_PlatformInitSources
0x00004921 T HAL_config_timers
0x0000494f T HAL_config_vlimits
0x00004a15 T HAL_mpm_CfgCXOSleep
0x00004a79 T HAL_mpm_CfgEbi1SwCtl
0x00004ac9 T HAL_mpm_CfgFreezeIOs
0x00004ad5 T HAL_mpm_CfgNumCommands
0x00004af5 T HAL_mpm_CfgVoltageCommands
0x00004db1 T HAL_mpm_CfgVoltageRailSleep
0x00004e75 T HAL_mpm_CfgWbootEbiIOCntl
0x00004e95 T HAL_mpm_ClearSleepModes
0x00004eb1 T HAL_mpm_ConfigDebugBus
0x00004ee9 T HAL_mpm_ConfigDebugBus_1
0x00004f21 T HAL_mpm_ConfigPenDebounceDelay
0x00004f39 T HAL_mpm_DebugThroughPC
0x00004f5d T HAL_mpm_EnableCXO
0x00004f6d T HAL_mpm_GetVddMinEnterLatency
0x00004fd5 T HAL_mpm_GetVddMinExitLatency
0x00005061 T HAL_mpm_GetWakeupInts
0x00005075 T HAL_mpm_Init
0x000050d1 T HAL_mpm_Init_Xtal_Latency
0x00005111 T HAL_mpm_PenDebounceCtl
0x00005135 T HAL_mpm_PlatformInitEarly
0x000051b5 T HAL_mpm_SWDone
0x000053f5 T HAL_mpm_SetCXOWarmup
0x00005405 T HAL_mpm_true_sleep_xtal_set
0x00005415 T HAL_mpmint_All_Clear
0x00005425 T HAL_mpmint_Disable
0x0000547d T HAL_mpmint_Enable
0x000054d9 T HAL_mpmint_GetEnumNumber
0x000054e5 T HAL_mpmint_GetIndex
0x00005515 T HAL_mpmint_GetNumberMasks
0x0000551d T HAL_mpmint_Init
0x000055dd T HAL_mpmint_IsGpio
0x000055f9 T HAL_mpmint_SetTrigger
0x00005671 T HAL_noc_Init
0x0000567b T HAL_noc_SetQosBandwidth
0x00005691 T HAL_noc_SetQosMode
0x000056a1 T HAL_noc_SetQosPriority
0x000056b9 T HAL_rbcpr_bypass_sensor_all
0x000056d3 T HAL_rbcpr_clear_int_all
0x000056dd T HAL_rbcpr_collect_coredump
0x00005743 T HAL_rbcpr_enable_block
0x0000577d T HAL_rbcpr_enable_int
0x00005795 T HAL_rbcpr_get_rail_handle
0x000057d1 T HAL_rbcpr_mask_sensor
0x00005805 T HAL_rbcpr_mask_sensor_all
0x0000581f T HAL_rbcpr_next_meas_en
0x00005831 T HAL_rbcpr_poll_result
0x000058f7 T HAL_rbcpr_prgm_gcnt_target
0x00005915 T HAL_rbcpr_read_efuse
0x00005959 T HAL_rbcpr_save_log
0x000059b3 T HAL_rbcpr_set_auto_loop_disable
0x000059bf T HAL_rbcpr_set_count_mode
0x000059ed T HAL_rbcpr_set_sw_auto_cont_ack
0x00005a05 T HAL_rbcpr_set_sw_auto_cont_nack_dn
0x00005a1d T HAL_rbcpr_use_redundant_fuses
0x00005a21 T HAL_rbcpr_write_consecutive_dn
0x00005a39 T HAL_rbcpr_write_consecutive_up
0x00005a51 T HAL_rbcpr_write_dn_threshold
0x00005a69 T HAL_rbcpr_write_stepquot
0x00005a95 T HAL_rbcpr_write_up_threshold
0x00005b61 T PlatformInfo_Init
0x00005bb5 T PmicArb_ExecuteCommand
0x00005e79 T PmicArb_GetHwStatus
0x00005ea1 T PmicArb_HasInterruptSupport
0x00005ead T PmicArb_Init
0x00005f85 T QDSSAllocPort
0x00005fd5 T QDSSDDRTraceDisable
0x000060ad T QDSSDDRTraceEnable
0x000061a1 T QDSSDisableTrace
0x000061cd T QDSSETMControl
0x00006219 T QDSSEnableTrace
0x0000623d T QDSSInit
0x000064f5 T QDSSPostXOShutdown
0x00006521 T QDSSPreXOShutdown
0x0000663d T QDSSSTMSetTimestampFreq
0x00006741 T QDSSWriteOSTPacket
0x000067cd T RBCPRTaskCornerChange
0x000067eb T RBCPRTaskISR
0x00006835 T RBCPRTaskInit
0x00006861 T SWEVENT_log
0x00006941 T SpmiBus_Init
0x000069a5 T SpmiBus_ReadLong
0x000069c3 T SpmiBus_WriteLong
0x000069e1 T SpmiHal_Init
0x000069f9 T SpmiOsNhlos_GetDalProp
0x00006a3d T SpmiOs_GetAhbClkState
0x00006a91 T SpmiOs_GetOwnerId
0x00006ae9 T SpmiOs_GetPmicArbBaseAddr
0x00006b09 T SpmiOs_GetSerialClkState
0x00006b5d T SpmiOs_GetTimeTick
0x00006b79 T SpmiOs_Malloc
0x00006b95 T SpmiOs_RegisterISR
0x00006c09 T SpmiOs_Wait
0x00006c0d T ULogFront_RealTimeInit
0x00006c15 T ULogFront_RealTimePrintf
0x00006c91 T _Z11theSchedulev
0x00006ce1 T _Z12theEstimatorv
0x00006d11 T _Z13resource_initP12ResourceDatajj
0x000070e5 T _Z15system_db_addopPm
0x00007159 T _Z16system_db_smd_cbjPvjS_
0x000071c5 T _Z16theEstimateCachev
0x000072bd T _Z18settling_timer_isrv
0x000074ed T _Z19resource_ee_requestP12ResourceDataj12rpm_set_typeP5kvp_sRy
0x00007829 T _Z20resource_get_requestPK12ResourceDatajPjPPKv
0x00007891 T _Z20resource_num_clientsPK12ResourceData
0x000078e9 T _Z20system_db_perform_opP22SYSTEMDB_OP_QUEUE_ELEM
0x000079b1 T _Z22resource_create_clientP12ResourceDataj
0x00007a2d T _Z22resource_ee_transitionP12ResourceDataj19rpm_transition_type
0x00007ad9 T _Z22rpm_query_npa_settlingP20rpm_application_info
0x00007b95 T _Z22rpm_test_resource_initv
0x00007bbd T _Z23resource_client_requestP12ResourceDatajjPvy
0x00007e6d T _Z25theEstimateCacheImmediatev
0x00007ec9 T _Z26resource_ee_settling_applyP12ResourceDatajy
0x00007ef5 T _Z26resource_ee_settling_queryP12ResourceDataj
0x00007f35 T _Z26rpmserver_register_handler16rpm_service_typePFvjPvjS0_ES0_
0x00007f75 T _Z30resource_class_add_client_typeP17ResourceClassDatajj
0x00007fad T _Z31resource_ee_has_transition_workP12ResourceDataj19rpm_transition_type
0x00007fe5 T _Z32resource_lookup_and_alloc_clientP12ResourceDataj
0x00008035 T _ZN10NPAMappingC1Ev
0x00008035 T _ZN10NPAMappingC2Ev
0x00008069 T _ZN10SetChanger13execute_untilERVby
0x00008851 T _ZN10SetChanger16estimateResourceEP12ResourceData
0x0000891d T _ZN10SetChanger16get_length_givenEjRj
0x00008979 T _ZN10SetChanger7enqueueE12rpm_set_typey
0x00008a79 T _ZN10SetChangerC1EjP7Handlerh
0x00008a79 T _ZN10SetChangerC2EjP7Handlerh
0x00008ad1 T _ZN12suppressible10reestimateEv
0x00008ad3 T _ZN12suppressible13execute_untilERVby
0x00008b8d T _ZN12suppressible16get_length_givenEjRj
0x00008b95 T _ZN13EstimateCache6lookupEjjPjS0_
0x00008c15 T _ZN13EstimateCache7observeEjjjjb
0x00008d85 T _ZN4Task10reestimateEv
0x00008d87 T _ZN4Task11schedule_meE12ScheduleType
0x00008d9d T _ZN4Task14clear_deadlineEv
0x00008ddf T _ZN4Task16get_length_givenEjRj
0x00008de9 T _ZN4Task7executeERVby
0x00008e79 T _ZN4TaskC2Ehh
0x00008eb1 T _ZN5Sched13schedule_taskER4Task12ScheduleType
0x00008fbd T _ZN5Sched14fixup_scheduleER4TaskS1_j
0x00009031 T _ZN5Sched16cpu_speed_changeEjj
0x000090e1 T _ZN5Sched17get_next_durationEj
0x000091a9 T _ZN5Sched3runEv
0x00009391 T _ZN5Sched7preemptEv
0x00009399 T _ZN5SchedD1Ev
0x00009399 T _ZN5SchedD2Ev
0x000093a9 T _ZN7Handler10processNASERVbRy
0x000094c5 T _ZN7Handler11loadMessageEv
0x00009665 T _ZN7Handler13execute_untilERVby
0x00009911 T _ZN7Handler13writeResponseEjPKc16rpm_service_type
0x000099b5 T _ZN7Handler14processMessageERVbRyP16RPMMessageHeaderb
0x00009b19 T _ZN7Handler4initEv
0x00009b65 T _ZN7HandlerC1Ejjh
0x00009b65 T _ZN7HandlerC2Ejjh
0x00009bf5 T _ZN8TaskHeap10deleteTaskEP4Task
0x00009c2d T _ZN8TaskHeap15recalculateWorkEv
0x00009ca1 T _ZN8TaskHeap6insertEP4Task
0x00009dc5 T _ZN8TaskHeap7findMinEPP4Task
0x00009dd9 T _ZN8TaskHeap9deleteIdxEj
0x00009f0d T _ZN8TaskHeap9deleteMinEv
0x00009f1b T _ZN8TaskHeapC1Ej
0x00009f1b T _ZN8TaskHeapC2Ej
0x00009f3b T _ZN8TaskList6insertER4TaskS1_
0x00009f65 T _ZN8TaskList6removeER4Task
0x00009fa3 T _ZN8TaskList9pop_frontEv
0x00009fb7 T _ZN8TaskList9push_backER4Task
0x00009fcd T _ZN9Estimator15updateClockRateEj
0x0000a029 T _ZN9RBCPRTask10reestimateEv
0x0000a02b T _ZN9RBCPRTask13execute_untilERVby
0x0000a0a7 T _ZN9RBCPRTask16get_length_givenEjRj
0x0000a0b1 T _ZNK10SetChanger10get_lengthEv
0x0000a0b9 T _ZNK10SetChanger16hasImmediateWorkEv
0x0000a0f5 T _ZNK12suppressible10get_lengthEv
0x0000a0fd T _ZNK12suppressible16hasImmediateWorkEv
0x0000a14b T _ZNK7Handler10get_lengthEv
0x0000a175 T _ZNK7Handler16hasImmediateWorkEv
0x0000a183 T _ZNK9RBCPRTask10get_lengthEv
0x0000a189 T _ZNK9RBCPRTask16hasImmediateWorkEv
0x0000a195 T _ZdaPv
0x0000a19d T _ZdlPv
0x0000a1a5 T _Znaj
0x0000a1ad T _Znwj
0x0000a1d5 T __ARM_array_new_general
0x0000a267 T __ARM_common_memset4_8
0x0000a279 T __Heap_Alloc
0x0000a2bd T __Heap_DescSize
0x0000a2c1 T __Heap_Finalize
0x0000a2c5 T __Heap_Free
0x0000a2dd T __Heap_Initialize
0x0000a309 T __Heap_ProvideMemory
0x0000a30d T __Heap_Realloc
0x0000a35d T __aeabi_atexit
0x0000a38d T __aeabi_vec_new_nocookie
0x0000a3a5 T __cxa_finalize
0x0000a3e7 T __cxa_guard_acquire
0x0000a3f7 T __cxa_pure_virtual
0x0000a3fd T __cxa_vec_new
0x0000a415 T __init_stack_chk_guard
0x0000a417 T __stack_chk_fail
0x0000a41b T _sys_exit
0x0000a41f T _ttywrch
0x0000a421 T abort_isr
0x0000a425 T acc_init
0x0000a535 T bimc_ArbitrationEnable
0x0000a575 T bimc_CalculateBKEParams
0x0000a695 T bimc_Init
0x0000a6b9 T bimc_SetDangerBandwidth
0x0000a801 T bimc_SetDangerMode
0x0000a851 T bimc_SetDangerPolicy
0x0000a8a9 T bimc_SetDangerPriority
0x0000a9a9 T bimc_SetQosBandwidth
0x0000aa95 T bimc_SetQosMode
0x0000ab99 T bimc_SetQosPriority
0x0000accd T busywait
0x0000ad01 T busywait_init
0x0000ad41 T bytearray_at
0x0000ad4f T bytearray_clear
0x0000ad55 T bytearray_create
0x0000ad87 T bytearray_destroy
0x0000ada3 T bytearray_put
0x0000ae05 T bytearray_size
0x0000ae09 T bytearray_swapbuffer
0x0000ae31 T ddr_enter_power_collapse
0x0000ae69 T ddr_enter_self_refresh_all
0x0000aee1 T ddr_exit_power_collapse
0x0000af89 T ddr_exit_self_refresh_all
0x0000afe1 T ddr_get_params
0x0000aff5 T ddr_get_status
0x0000b025 T ddr_init
0x0000b075 T ddr_post_clock_switch
0x0000b0a9 T ddr_post_xo_shutdown
0x0000b0c9 T ddr_pre_clock_switch
0x0000b0fd T ddr_pre_xo_shutdown
0x0000b11d T ddr_target_init
0x0000b351 T debug_cookie_init
0x0000b365 T debug_init
0x0000b3c5 T debugger_connected
0x0000b3c9 T deep_sleep_enter
0x0000b605 T deep_sleep_exit
0x0000b789 T dog_enable
0x0000b799 T dog_init
0x0000b805 T dog_kick
0x0000b885 T dog_set_bark_time
0x0000b8af T dog_set_bite_time
0x0000b8d9 T err_fatal_sw_event
0x0000b8ed T exceptions_enable
0x0000b915 T exceptions_init
0x0000ba89 T get_free_heap_space
0x0000ba91 T gpio_test_high
0x0000ba93 T gpio_test_low
0x0000bb11 T gpio_toggle_init
0x0000bb39 T gpio_toggle_xlate
0x0000bbc1 T icb_clock_request
0x0000bc01 T icb_dsat_callback
0x0000bc5d T icb_dsat_init
0x0000bd4d T icb_get_target_resources
0x0000bd89 T icb_init
0x0000be59 T icb_init_cb
0x0000bee5 T icb_master_latency_apply_cb
0x0000bfe1 T icb_master_latency_init
0x0000c06d T icb_master_latency_translate_cb
0x0000c10d T icb_master_latency_update_bw
0x0000c181 T icb_masters_apply_cb
0x0000c3c9 T icb_masters_init
0x0000c5a5 T icb_masters_translate_cb
0x0000c649 T icb_slaves_apply_cb
0x0000c799 T icb_slaves_init
0x0000c839 T icb_slaves_translate_cb
0x0000c8e5 T icb_spdm_req_apply_cb
0x0000c9a9 T icb_spdm_req_init
0x0000ca41 T icb_spdm_req_translate_cb
0x0000caa9 T image_version_populate_version
0x0000cbc5 T interrupt_configure
0x0000cc51 T interrupt_set_isr
0x0000cc61 T interrupt_soft_trigger
0x0000cc75 T is_any_interrupt_pending
0x0000ccbb T kvp_clear
0x0000cccb T kvp_create
0x0000ccef T kvp_destroy
0x0000cd03 T kvp_eof
0x0000cd19 T kvp_get
0x0000cd9f T kvp_get_raw_bytes
0x0000cda7 T kvp_get_raw_size
0x0000cdad T kvp_put
0x0000ce09 T kvp_swapbuffer
0x0000ce19 T lock_ints
0x0000ce39 T lookupDirConn
0x0000cef5 T main
0x0000d09d T master_latency_update
0x0000d175 T memscpy
0x0000d191 T message_ram_malloc
0x0000d23d T message_ram_master_stats
0x0000d251 T message_ram_update_master_xo_stats
0x0000d2c5 T message_ram_vmpm
0x0000d2d9 T message_ram_vmpm_isMBADone
0x0000d2f1 T mpm_config_ebi1_freeze_io
0x0000d2f5 T mpm_config_freeze_ios
0x0000d2f9 T mpm_init
0x0000d319 T mpm_init_xtal
0x0000d31d T mpm_set_active_voltage
0x0000d32d T mpm_set_sleep_voltage
0x0000d33d T mpm_setup_cxo_sleep
0x0000d3b1 T mpm_setup_rail_sleep
0x0000d41d T mpm_sw_done
0x0000d421 T mpm_teardown_sleep
0x0000d441 T mpm_vdd_min_enter_latency
0x0000d44b T mpm_vdd_min_exit_latency
0x0000d509 T noc_Init
0x0000d549 T noc_SetQosBandwidth
0x0000d821 T noc_SetQosMode
0x0000d877 T noc_SetQosPriority
0x0000d8dd T notify_apss
0x0000d8e9 T npa_assign_resource_state
0x0000db11 T npa_complete_request
0x0000db1d T npa_create_bimc_client
0x0000db75 T npa_create_event_cb
0x0000db85 T npa_create_query_handle
0x0000db91 T npa_create_sync_client_ex
0x0000dc95 T npa_define_node_cb
0x0000e1a1 T npa_identity_update_fcn
0x0000e1f1 T npa_init
0x0000e2d5 T npa_issue_internal_request
0x0000e2e1 T npa_issue_limit_max_request
0x0000e37b T npa_issue_scalar_request
0x0000e595 T npa_max_update_fcn
0x0000e6f9 T npa_no_client_update_fcn
0x0000e6fd T npa_num_pending_events
0x0000e70d T npa_or_update_fcn
0x0000e775 T npa_process_event
0x0000e785 T npa_query
0x0000e80d T npa_query_by_client
0x0000e819 T npa_resource_available_cb
0x0000e8f1 T npa_resources_available_cb
0x0000e92d T npa_resources_available_continuation
0x0000e9c5 T npa_target_config
0x0000e9cd T npa_target_init
0x0000ea89 T pm_boost_driver_init
0x0000eb35 T pm_boost_get_data
0x0000eb4d T pm_clk_driver_init
0x0000ec01 T pm_clk_get_data
0x0000ec19 T pm_clk_pin_ctrled
0x0000ec7b T pm_clk_sleep_src_status
0x0000ecff T pm_clk_sw_enable
0x0000ed61 T pm_clk_xo_set_warmup_time
0x0000eddd T pm_convert_time_to_timetick
0x0000ee05 T pm_convert_timetick_to_time
0x0000ee2d T pm_get_pmic_info
0x0000ee69 T pm_get_pmic_model
0x0000ee99 T pm_get_pmic_revision
0x0000eec9 T pm_get_slave_id
0x0000ef05 T pm_init
0x0000ef2d T pm_ldo_driver_init
0x0000f0f5 T pm_ldo_get_data
0x0000f10d T pm_ldo_sw_mode
0x0000f2a7 T pm_malloc
0x0000f2c5 T pm_npa_rpm_enter_sleep
0x0000f371 T pm_npa_rpm_exit_sleep
0x0000f3f9 T pm_pon_driver_init
0x0000f41d T pm_processor_create_comm_channel
0x0000f44d T pm_processor_init
0x0000f515 T pm_processor_resolve_peripheral_version
0x0000f527 T pm_pwr_pin_ctrl_alg
0x0000f571 T pm_pwr_pin_ctrl_mode_alg
0x0000f5b9 T pm_pwr_sw_enable_alg
0x0000f619 T pm_pwr_sw_enable_status_alg
0x0000f687 T pm_pwr_sw_enable_vreg_ok_status_alg
0x0000f6f1 T pm_pwr_sw_mode_status_alg
0x0000f781 T pm_pwr_volt_calculate_vset
0x0000f81d T pm_pwr_volt_level_alg
0x0000f915 T pm_pwr_volt_level_status_alg
0x0000f9d1 T pm_pwr_volt_level_stepper_done_status_alg
0x0000fa3d T pm_railway_calculate_vset
0x0000fc71 T pm_railway_set_mode
0x0000fc8d T pm_railway_set_voltage
0x0000fe41 T pm_resource_manager_init
0x0000ff27 T pm_rpm_boost_aggregate
0x00010011 T pm_rpm_boost_apply
0x000100e5 T pm_rpm_boost_dependency_execute
0x0001020d T pm_rpm_boost_register_resource_dependencies
0x000102f9 T pm_rpm_boost_register_resources
0x000103b9 T pm_rpm_boost_translation
0x00010409 T pm_rpm_check_stepper_settle_status
0x0001048d T pm_rpm_check_vreg_settle_status
0x00010551 T pm_rpm_clk_buffer_aggregate
0x0001064d T pm_rpm_clk_buffer_apply
0x000107b9 T pm_rpm_clk_buffer_register_resource_dependencies
0x00010859 T pm_rpm_clk_buffer_register_resources
0x000108fd T pm_rpm_clk_buffer_translation
0x0001096d T pm_rpm_int_copy
0x00010995 T pm_rpm_ldo_aggregate
0x00010ca1 T pm_rpm_ldo_apply
0x00010d4d T pm_rpm_ldo_bypass_cb
0x00010dc5 T pm_rpm_ldo_dependency_execute
0x00010f35 T pm_rpm_ldo_execute_driver
0x0001119d T pm_rpm_ldo_get_resource_data
0x000111c5 T pm_rpm_ldo_register_resource_dependencies
0x000112e9 T pm_rpm_ldo_register_resources
0x000113e1 T pm_rpm_ldo_settle
0x000114b9 T pm_rpm_ldo_translation
0x000115e1 T pm_rpm_npa_resource_set
0x0001167b T pm_rpm_platform_init
0x0001167d T pm_rpm_proc_npa_device_init
0x00011759 T pm_rpm_proc_npa_init
0x000118fd T pm_rpm_railway_init
0x00011a89 T pm_rpm_sleep_init
0x00011aed T pm_rpm_smps_aggregate
0x00011f2f T pm_rpm_smps_apply
0x00011fef T pm_rpm_smps_check_ldo_bypass
0x00012079 T pm_rpm_smps_dependency_execute
0x000121d5 T pm_rpm_smps_execute_driver
0x00012439 T pm_rpm_smps_get_resource_data
0x00012461 T pm_rpm_smps_register_resource_dependencies
0x00012571 T pm_rpm_smps_register_resources
0x00012631 T pm_rpm_smps_settle
0x000126c1 T pm_rpm_smps_translation
0x00012889 T pm_rpm_vs_aggregate
0x000129a1 T pm_rpm_vs_apply
0x00012b55 T pm_rpm_vs_execute_driver
0x00012c29 T pm_rpm_vs_register_resource_dependencies
0x00012cc9 T pm_rpm_vs_register_resources
0x00012d89 T pm_rpm_vs_translation
0x00012e11 T pm_rtc_driver_init
0x00012eb1 T pm_smps_calculate_vset
0x00012ed9 T pm_smps_driver_init
0x00013055 T pm_smps_get_data
0x0001306d T pm_smps_quiet_mode
0x00013169 T pm_smps_sw_mode
0x0001321f T pm_smps_switching_freq
0x000132ff T pm_smps_volt_level_status
0x00013325 T pm_spmi_lite_read_byte
0x00013375 T pm_spmi_lite_read_byte_array
0x000133c9 T pm_spmi_lite_write_byte
0x00013411 T pm_spmi_lite_write_byte_array
0x00013459 T pm_spmi_lite_write_byte_mask
0x000134d1 T pm_target_information_get_common_info
0x000134f5 T pm_target_information_get_count_info
0x00013519 T pm_target_information_get_specific_info
0x0001353d T pm_target_information_init
0x00013591 T pm_target_information_read_peripheral_rev
0x00013615 T pm_version_detect
0x00013711 T pm_vs_driver_init
0x000137bd T pm_vs_get_data
0x000137d5 T pmiC_CommInfo_Init
0x00013803 T pmiC_CommInfo_InitCopy
0x0001385b T pmiC_CommManager_AddCommInterface
0x000138d1 T pmiC_CommManager_CreateSingleton
0x00013969 T pmiC_CommManager_GetComm
0x00013975 T pmiC_CommManager_GetSingleton
0x0001397d T pmiC_DeviceInfo_Init
0x000139b9 T pmiC_IComm_Init
0x000139f9 T pmiC_SpmiLiteCommV1_Init
0x00013af9 T populate_image_header
0x00013b1d T prevent_further_heap_frees
0x00013b29 T q_get
0x00013b57 T q_init
0x00013b61 T q_link
0x00013b6b T q_put
0x00013b91 T qdss_fuse_trace_access
0x00013bd5 T qdss_imem_base
0x00013d31 T rail_id
0x00013d71 T railway_active_floor_vote
0x00013d81 T railway_adapter_init
0x00013e09 T railway_aggregated_voltage_target_uv
0x00013fc5 T railway_apply
0x000140d1 T railway_corner_vote
0x000140e1 T railway_create_sw_mode_voter
0x0001411d T railway_create_voter
0x000141f9 T railway_get_corner_voltage
0x0001422d T railway_get_current_settings
0x00014261 T railway_get_sleep_voltage
0x00014285 T railway_init_early_proxy_votes
0x000142e9 T railway_init_proxies_and_pins
0x000142ed T railway_init_v2
0x000144c5 T railway_set_callback
0x000145b1 T railway_set_corner_voltage
0x00014685 T railway_sw_enable_vote
0x00014691 T railway_sw_mode_vote
0x000146d7 T railway_target_init
0x00014801 T railway_transition_rail
0x00014b31 T railway_transitioner_init
0x00014bd9 T railway_uv_vote
0x00014c05 T railway_voltage_fuse_based_update
0x00014c09 T railway_xlate
0x00014d45 T rbcpr_corner_index
0x00014d59 T rbcpr_corner_params
0x00014d79 T rbcpr_enable_closed_loop
0x00014e99 T rbcpr_exit_sleep
0x00014f15 T rbcpr_handler
0x000150f5 T rbcpr_init
0x00015151 T rbcpr_init_hw_revision_specifics
0x00015269 T rbcpr_init_rail
0x000153d5 T rbcpr_init_rail_hw
0x000154a1 T rbcpr_internalize_state
0x00015781 T rbcpr_prepare_cpr
0x00015801 T rbcpr_prepare_for_sleep
0x000158a1 T rbcpr_restart_cpr
0x000158ef T rbcpr_settle_voltage
0x00015a45 T rbcpr_stats_increment_isr_counter
0x00015a61 T rbcpr_stats_increment_max_counter
0x00015a71 T rbcpr_stats_increment_min_counter
0x00015a8d T rbcpr_stats_init
0x00015b19 T rbcpr_stats_set_corner_voltage
0x00015b65 T rbcpr_stats_set_fuse_microvolts
0x00015b81 T rbcpr_stats_set_railway_settings
0x00015ba1 T rob_get_duration
0x00015bb9 T rob_mark_duration
0x00015c45 T rob_mark_event
0x00015c81 T rob_set_recording_speed
0x00015cc5 T rpm_ULog_CreateNew
0x00015e15 T rpm_ULog_Fast7WordWrite
0x00015ecb T rpm_adjust_free_heap_space
0x00015ed7 T rpm_associate_npa_resource
0x00015efb T rpm_create_client
0x00015f15 T rpm_create_npa_adapter
0x00015f5d T rpm_create_npa_settling_adapter
0x00015fa5 T rpm_free_heap_space_init
0x00015fc1 T rpm_get_aggregated_request_buffer
0x00015fd7 T rpm_get_current_request
0x00015fe1 T rpm_get_num_clients
0x00015fed T rpm_get_num_ees
0x00015ff9 T rpm_halt_config_timer
0x000160b1 T rpm_halt_enter
0x00016385 T rpm_halt_exit
0x000163c5 T rpm_hash
0x000164b9 T rpm_hash64s
0x00016519 T rpm_init_done
0x00016529 T rpm_issue_request
0x00016565 T rpm_log_event_to_ram
0x000165f1 T rpm_npa_get_ee_client_id
0x00016641 T rpm_override_resource
0x00016709 T rpm_register_internal_client_type
0x0001673d T rpm_register_named_resource
0x00016829 T rpm_register_resource
0x00016889 T rpm_resource_hash
0x000168d9 T rpm_send_init_proxy_vote
0x00016915 T rpm_server_init_done
0x00016921 T rpm_set_changer_common_init
0x000169f9 T rpm_settling_timer_init
0x00016ab1 T rpm_spm_init
0x00016bf1 T rpm_spm_soft_transition
0x00016c49 T rpm_spm_state_machine
0x00017019 T rpm_spm_trigger_wakeup_int
0x00017075 T rpm_swevent_xlate
0x000171a5 T rpmserver_init
0x0001723d T rpmserver_insert_resource
0x0001774d T rpmserver_lookup_resource
0x000177d5 T sched_cpu_speed_change
0x000177e9 T sched_cpu_speed_change_ok
0x00017877 T sched_cpu_speed_for_fast
0x0001789f T sched_get_next_duration
0x000178b1 T sched_get_next_required_start
0x000178f1 T sched_get_next_start
0x00017915 T sched_get_next_workload
0x00017999 T sched_run
0x000179a7 T send_apss_vmpm_interrupt
0x000179af T send_apss_wakeup_interrupt
0x000179b7 T send_mpss_vmpm_interrupt
0x000179c1 T send_mpss_wakeup_interrupt
0x000179cb T send_pronto_vmpm_interrupt
0x000179d5 T send_pronto_wakeup_interrupt
0x000179dd T set_vdd_dig_sleep_voltage
0x000179f9 T set_vdd_mem_sleep_voltage
0x00017a15 T settling_timer_register
0x00017ab5 T sleep_deep_without_mx
0x00017af9 T sleep_init
0x00017b9d T sleep_is_any_interrupt_pending
0x00017bf5 T sleep_modes_init
0x00017c75 T sleep_monitor_init
0x00017cb9 T sleep_perform_lpm
0x00017d71 T sleep_target_init
0x00017dfd T sleep_update_xo_stats
0x00017e91 T smd_assign_context
0x00017ea1 T smd_cmd
0x00017f81 T smd_cmd_broadcast
0x00017f8d T smd_cmd_context
0x00017ff9 T smd_context_get_default
0x00018001 T smd_cs_create
0x00018005 T smd_cs_destroy
0x00018007 T smd_cs_event_create
0x0001800b T smd_cs_lock
0x00018015 T smd_event_send
0x0001804d T smd_get_interrupt_info
0x0001810b T smd_init
0x00018129 T smd_isr
0x00018175 T smd_lite_open
0x00018293 T smd_main
0x000182b7 T smd_memcpy_from_sm
0x0001830d T smd_memcpy_to_sm
0x00018363 T smd_open_list_lock
0x0001836d T smd_strncpy
0x000183ad T smd_target_init
0x00018421 T smd_target_init_interrupts
0x0001852d T smdi_alloc_channel_info
0x00018645 T smdi_alloc_info
0x00018681 T smdi_allocate_stream_channel
0x0001872d T smdi_event_send_receive
0x00018737 T smdi_event_send_transmit
0x0001874d T smdi_free_info
0x000187b1 T smdi_get_info
0x000187c5 T smdi_get_stream_info
0x000187dd T smdi_init
0x0001891d T smdi_stream_state_machine
0x00018c01 T smdi_stream_state_update
0x00018cbf T smdl_init
0x00018ccd T smdl_open
0x00018cf5 T smdl_open_ex
0x00018e81 T smdl_read
0x00018f47 T smdl_read_packet_header
0x00019029 T smdl_rx_peek
0x0001905b T smdl_sig_get
0x0001908b T smdl_writev
0x00019235 T smem_alloc
0x0001936d T smem_alloc_rpm
0x0001948d T smem_ext_get_smem_base
0x00019491 T smem_ext_get_smem_size
0x00019495 T smem_get_addr
0x0001957d T smem_get_offset
0x000195c1 T smem_init
0x000196d9 T smem_map_memory_va
0x000196e9 T smem_map_smem_targ_info
0x00019749 T smem_map_spinlock_region_va
0x00019779 T smem_os_ext_get_smem_base
0x000197b1 T smem_os_ext_get_smem_size
0x000197dd T smem_spin_lock
0x00019801 T smem_spin_lock_cs_lock
0x00019805 T smem_spin_lock_cs_unlock
0x00019809 T smem_spin_lock_init
0x00019815 T smem_spin_unlock
0x00019841 T smem_version_set
0x000198b9 T spin_lock_get
0x000198d1 T spin_lock_internal
0x00019909 T spin_unlock_internal
0x00019965 T strlcpy
0x000199a1 T svs_current_speed
0x000199ad T svs_get_freq
0x000199b9 T svs_get_svs_switch_to_fast
0x000199c5 T svs_get_switch_time
0x000199d1 T svs_init
0x00019b4d T svs_set_mode
0x00019bf1 T svs_set_svs_switch_to_fast
0x00019bfd T svs_speed_check_and_update
0x00019c65 T svs_update_speed
0x00019d81 T swevent_init
0x00019e09 T swevent_qdss_init
0x00019e4d T system_db_clearall
0x00019ea1 T system_db_init
0x00019ecd T system_db_statehandler
0x00019ff5 T time_service_init
0x0001a001 T timetick_get64
0x0001a015 T timetick_get_safe
0x0001a021 T timetick_init
0x0001a085 T tz_abort_isr
0x0001a09d T unlock_ints
0x0001a0c5 T update_dsat_context
0x0001a2b5 T vdd_min_enter
0x0001a39d T vdd_min_exit
0x0001a3cd T vdd_min_latency
0x0001a479 T vect_at
0x0001a489 T vect_create
0x0001a49f T vect_resize
0x0001a4c9 T vect_set
0x0001a4d7 T vect_size
0x0001a4db T version_init
0x0001a4e1 T vmpm_init
0x0001a585 T vmpm_isr
0x0001a7c1 T vmpm_prepare_for_sleep
0x0001a7dd T vmpm_propogate_interrupts
0x0001a8e9 T zqcal_task_init
0x0001a9a0 D init_fcns
0x0001aa18 D rpm_image_section_array
0x0001aa6c D smem_buf_data_tbl
0x0001ab18 D RAILWAY_CONFIG_DATA
0x0001ac64 D acc_config
0x0001ac6c D mpmint_trigger_lookup
0x0001ac74 D vmpm_num_masters
0x0001ac78 D vmpm_masters_info
0x0001ace4 D npa_max_plugin
0x0001acfc D npa_identity_plugin
0x0001ad14 D npa_or_plugin
0x0001ad2c D npa_no_client_plugin
0x0001ad78 D rbcpr_supported_hw_array
0x0001ad50 D rbcpr_rail_const_info
0x0001ad80 D rpm
0x0001ae5c D npa_bimc_max_plugin
0x0001ae74 D DALPROP_PropBin
0x0001b3ac D driver_list
0x0001b424 D DALPROP_PropsInfo
0x0001b4c4 D HAL_rbcpr_bsp_data
0x0001c388 D icb_rpm_system
0x0001c40c D SourceConfig
0x0001c55c D RPMClockConfig
0x0001c5fc D SystemNOCClockConfig
0x0001c8cc D PCNOClockConfig
0x00091b7c D BIMCClockConfig
0x0001cd04 D APSSTCUASYNCClockConfig
0x0001d074 D QDSSATClockConfig
0x0001d114 D QDSSTraceClockConfig
0x0001d1b4 D QDSSSTMClockConfig
0x0001d27c D QDSSTSCTRDiv2ClockConfig
0x0001d31c D RBCPRClockConfig
0x0001d394 D SPMIAHBClockConfig
0x0001d40c D SPMISERClockConfig
0x0001d45c D ClockLogDefaultConfig
0x0001d494 D _ZTV10SetChanger
0x0001d4b8 D _ZTV12suppressible
0x0001d4dc D _ZTV4Task
0x0001d500 D _ZTV7Handler
0x0001d524 D _ZTV9RBCPRTask
0x00090040 D QC_IMAGE_VERSION_STRING_AUTO_UPDATED
0x0009006c D IMAGE_VARIANT_STRING_AUTO_UPDATED
0x0009008b D OEM_IMAGE_VERSION_STRING_AUTO_UPDATED
0x000900ac D stack_base_address
0x000900c0 D intlock_nest_level
0x000900c4 D rpm_core_dump
0x00090164 D __stack_chk_guard
0x00090170 D ddr_init_done
0x0009018c D qdss_ts_wa_delay_us
0x00090190 D qdss_trace_enable
0x0009019c D QDSS_ETFETB_ETFETB_CXTMC_F128W8K_REG_BASE
0x000901a0 D QDSS_ETR_ETR_CXTMC_R64W32D_REG_BASE
0x000901ac D QDSS_TFUNNEL_BASE_PTR
0x000901b0 D QDSS_QDSSCSR_REG_BASE
0x000901b4 D QDSS_CTI_CSCTI_REG_BASE
0x000901d0 D smem_hw_mutex_base_ptr
0x000901d8 D smem_init_info
0x000901f8 D rpm_wakeup_ints
0x000903e4 D railway
0x00090878 D qdss_port
0x00090880 D svs_switch_to_fast_mode
0x00090884 D svs_switch_time
0x000908a8 D rpm_alt_service_list
0x000908c8 D sleep_allow_low_power_modes
0x000908c9 D deep_sleep_enabled
0x000908ca D tcxo_on
0x000908f0 D rpm_ulogContext
0x00090928 D ddr_func_tbl
0x0009097c D smem_targ_info_addr_base_ptr
0x00090988 D ACC_TARGET_CONFIG
0x000909a0 D mpm_wakeup_time
0x00090a3c D railway_mx_bypass_count
0x00090a40 D ghost_vote
0x00090a44 D railway_mx
0x00090b50 D rbcpr_bsp_data
0x00090cc0 D disable_settling
0x00090cdc D rpm_system_hash
0x00090cec D enabled_interrupts
0x00090d00 D mpm_enter_latency
0x00090d08 D mpm_exit_latency
0x00090d10 D enter_deep_sleep_time
0x00090d30 D mx_id
0x00090d34 D cx_id
0x00090d38 D ulog_global_stmport
0x00090d3c D ChipFamilyArray1
0x00090d40 D ChipFamilyArray0
0x00090d5c D ChipFamilyArray2
0x00090d78 D pDrvCtxt
0x00090d7c D hProp
0x00090d90 D Clock_Resources
0x000911c4 D HAL_clk_nHWIOBaseTop
0x00091230 D HAL_clk_Platform
0x00091258 D num_of_nodes
0x0009125c D pmic_npa_rpm_nodes
0x00091260 D pmic_npa_rpm_resources
0x000912a8 D spmiLogHandle
0x000912ac D DALPROP_StructPtrs
0x00091394 D rpm_bimc_handle
0x00091398 D MPM_BSP_DATA
0x000913d0 D registerLayout
0x000913ec D aInterruptTable
0x000915c0 D sleep_uber_node
0x000915e0 D wait_count
0x000915e4 D pll_retry_count
0x000915e8 D HAL_clk_GenericPLLControl
0x00091728 D HAL_clk_mGCCBIMCGPUClkDomain
0x00091630 D HAL_clk_BIMCDDRDomainControl
0x00091674 D HAL_clk_mGCCBIMCDDRClkDomain
0x000916f8 D HAL_clk_mGCCBIMCDDRXOClkDomain
0x0009173c D HAL_clk_mGCCBIMCPowerDomain
0x00091794 D aQDSS_ATSourceMap
0x000917e4 D HAL_clk_mGCCClockDomainControl
0x000917f0 D HAL_clk_mQDSSATBClockDomainControl
0x000917fc D HAL_clk_mQDSSTRACE_TSCTRDomainControl
0x00091a28 D pmicArbHwioBase
0x00091d34 D HAL_clk_mGenericClockControl
0x00091d5c D HAL_clk_mGenericPowerDomainControl
0x00091e30 D HAL_clk_mGCCXOClkDomain
0x000924b4 D HAL_clk_mGCCPCNOCBFDCDClkDomain
0x0009251c D HAL_clk_mGCCQDSSATBClkDomain
0x00092568 D HAL_clk_mGCCQDSSSTMClkDomain
0x00092598 D HAL_clk_mGCCQDSSTRACEClkDomain
0x00092654 D HAL_clk_mGCCQDSSTSCTRClkDomain
0x00092684 D HAL_clk_mGCCRBCPRClkDomain
0x0009275c D HAL_clk_mGCCRPMClkDomain
0x000927bc D HAL_clk_mGCCSPMISERClkDomain
0x00092a4c D HAL_clk_mGCCSYSNOCBFDCDClkDomain
0x00092a7c D HAL_clk_mGCCCRYPTOClkDomain
0x00092b74 D fts_range
0x00092b78 D fts_volt
0x00092b90 D hfs_range
0x00092b94 D hfs_volt
0x00092bac D boost_range
0x00092bb0 D boost_volt
0x00092bbc D ult_buck_range_1
0x00092bc0 D ult_buck_volt_1
0x00092bd8 D ult_buck_range_2
0x00092bdc D ult_buck_volt_2
0x00092be8 D pmos_range
0x00092bec D pmos_volt
0x00092c28 D ult_pmos_range
0x00092c2c D ult_pmos_volt
0x00092c38 D nmos_range
0x00092c3c D nmos_volt
0x00092c60 D n1200_volt
0x00092c84 D n600_volt
0x00092ca8 D ult_nmos_range
0x00092cac D ult_nmos_volt
0x00092cb8 D clk_ldo_range
0x00092cbc D clk_ldo_volt
0x00092cd4 D smps_settling_time
0x00092d04 D ldo_settling_time
0x00092d10 D clk_reg
0x00092d1a D smps_reg
0x00092d3a D ldo_reg
0x00092d5a D clk_sleep_reg
0x00092d5c D clk_xo_reg
0x00092d5e D clk_common
0x00092d6c D ldo_rail_a
0x00092e0c D smps_rail_a
0x00092e2c D clk_info_a
0x00092e60 D mx_rail
0x00092e70 D cx_rail
0x00092e80 D smps_a
0x00092ea8 D ldo_a
0x00092f74 D smps_dep_a
0x00092fb0 D ldo_dep_a
0x00093118 D ddr_status
0x0009320c D smd_interrupt_table
0x000932b4 D smem_ext_heap_info
0x00093570 D preProcessResources
0x000935a8 D ddr_dalsys
0x000935d8 D spmiBusInfo
0x00093df4 D mpmPlatform
0x000950c8 D rpm_nvic_regs_data_halt
0x000950f8 D DrvCtxt
0x00095478 D spmiPmicArbInfo
0x00095bf8 D pm_settle_vreg_ok_err_info
0x00095d58 D clk_dep_a
