#<SYMDEFS># ARM Linker, 5.01 [Build 94]: Last Updated: Wed Feb  7 02:09:40 2018
0x00000000 A TZAPPENTRY
0x00000000 A __main
0x00000000 A _main
0x00000000 N _printf_flags
0x00000000 N _printf_return_value
0x00000000 N _printf_sizespec
0x00000000 N _printf_widthprec
0x00000064 A read_app_rw_base
0x00000070 A set_rw_base
0x0000007d T qsee_hash
0x000000a1 T qsee_hash_init
0x000000c3 T qsee_hash_reset
0x000000e3 T qsee_hash_update
0x00000107 T qsee_hash_final
0x0000012b T qsee_hash_free_ctx
0x0000014b T qsee_hash_set_param
0x0000016f T qsee_hashcipher_encrypt
0x000001a9 T qsee_hashcipher_decrypt
0x000001e3 T qsee_cipher_init
0x00000205 T qsee_cipher_reset
0x00000225 T qsee_cipher_free_ctx
0x00000245 T qsee_cipher_set_param
0x00000269 T qsee_cipher_get_param
0x0000028d T qsee_cipher_encrypt
0x000002b1 T qsee_cipher_decrypt
0x000002d5 T qsee_hmac
0x000002f9 T qsee_hmac_init
0x0000031b T qsee_hmac_update
0x0000033f T qsee_hmac_final
0x00000363 T qsee_hmac_free_ctx
0x00000383 T qsee_cmac
0x000003b9 T qsee_prng_getdata
0x000003db T qsee_crypto_lock_engine
0x000003fd T qsee_kdf_shim
0x0000041f T qsee_set_bandwidth
0x00000443 T qsee_dcache_inval_region
0x00000465 T qsee_dcache_flush_region
0x00000487 T qsee_dcache_clean_region
0x000004a9 T qsee_kdf
0x00000503 T qsee_sfs_getSize
0x00000535 T qsee_sfs_open
0x00000567 T qsee_sfs_close
0x00000597 T qsee_sfs_read
0x000005d7 T qsee_sfs_write
0x00000617 T qsee_sfs_seek
0x00000657 T qsee_sfs_mkdir
0x00000687 T qsee_sfs_rmdir
0x000006b7 T qsee_sfs_rm
0x000006e7 T qsee_sfs_error
0x00000717 T qsee_sfs_get_file_list
0x00000749 T qsee_sfs_clean_file_list
0x00000775 T qsee_sfs_is_anti_rollback_enabled
0x000007a3 T qsee_log
0x0000080d T open
0x0000083f T read
0x0000087f T write
0x000008bf T close
0x000008ef T lstat
0x00000921 T mkdir
0x00000953 T frename
0x00000985 T opendir
0x000009b3 T readdir
0x000009e3 T closedir
0x00000a11 T rmdir
0x00000a41 T testdir
0x00000a71 T file_get_partition_free_size
0x00000aa3 T fstat
0x00000ad5 T lseek
0x00000b15 T time_getsystime
0x00000b47 T time_getutcsec
0x00000b79 T time_gethlosutc
0x00000bab T time_is_leap_year
0x00000bdd T remove
0x00000c0f T unlink
0x00000c3f T link
0x00000c71 T telldir
0x00000ca3 T fsync
0x00000cd5 T openat
0x00000d15 T unlinkat
0x00000d55 T fcntl
0x00000d89 T creat
0x00000dbd T file_dir_chown_chmod
0x00000e1b T qsee_rsa_key_gen
0x00000e29 T qsee_secpkcs8_parse
0x00000e37 T qsee_rsa_sign_hash
0x00000e55 T qsee_rsa_verify_signature
0x00000e73 T qsee_rsa_encrypt
0x00000e93 T qsee_rsa_decrypt
0x00000eb3 T qsee_BIGINT_read_unsigned_bin
0x00000ec1 T qsee_util_init_s_bigint
0x00000ecf T qsee_util_free_s_bigint
0x00000ed3 T qsee_BIGINT_read_radix
0x00000ee3 T qsee_rsa_exptmod
0x00000efd T qsee_util_count_bytes
0x00000f01 T qsee_SW_ECC_PubPrivate_Key_generate
0x00000f11 T qsee_SW_ECDH_Shared_Key_Derive
0x00000f21 T qsee_SW_ECDSA_Sign
0x00000f31 T qsee_SW_ECDSA_Verify
0x00000f41 T qsee_SW_ECDH_mult_basepoint
0x00000f51 T qsee_ECC_hash_to_bigval
0x00000f55 T qsee_toggle_random_bit
0x00000f59 T qsee_get_random_bytes
0x00000f5d T qsee_in_curveP
0x00000f67 T qsee_SW_GENERIC_ECC_init
0x00000f87 T qsee_SW_GENERIC_ECDSA_sign
0x00000f9f T qsee_SW_GENERIC_ECDSA_verify
0x00000fb7 T qsee_SW_GENERIC_ECDH_shared_key_derive
0x00000fc7 T qsee_SW_GENERIC_ECC_keypair_generate
0x00000fd7 T qsee_SW_GENERIC_ECC_binary_to_bigval
0x00000fef T qsee_SW_GENERIC_ECC_bigval_to_binary
0x00001007 T qsee_SW_GENERIC_ECC_compare
0x00001017 T qsee_SW_ECDH_generate
0x0000101b T qsee_SW_ECDH_derive
0x00001025 T qsee_SW_Hash_Init
0x00001029 T qsee_SW_Hash_Update
0x0000102d T qsee_SW_Hash_Final
0x00001031 T qsee_SW_Hmac
0x00001045 T qsee_SW_Cipher_Init
0x00001049 T qsee_SW_Cipher_DeInit
0x0000104d T qsee_SW_CipherData
0x00001051 T qsee_SW_Cipher_SetParam
0x00001055 T qsee_SW_Cipher_GetParam
0x00001059 T qsee_SW_Cipher_DES_Init
0x0000105d T qsee_SW_Cipher_DES_DeInit
0x00001061 T qsee_SW_CipherDESData
0x00001065 T qsee_SW_Cipher_DES_SetParam
0x00001069 T qsee_get_uptime
0x0000108b T qsee_wdog_stop
0x000010ab T qsee_wdog_pet
0x000010cb T cmp_char_i
0x000010e7 T qsee_strnicmp
0x0000110d T qsee_strlcpy
0x0000114f T qsee_strlcat
0x000011a5 T qsee_wstrlen
0x000011b7 T wstrlcpy
0x000011ef T qsee_wstrlcat
0x0000121f T qsee_strtowstr
0x0000126f T qsee_wstrtostr
0x0000129f T qsee_wstrchr
0x000012b7 T qsee_wstrcmp
0x000012cb T memscpy
0x000012e9 T secure_memset
0x0000131b T writeBin
0x0000134b T writeOne
0x0000135b T writeTwo
0x0000136b T writeFour
0x0000137b T secmath_BIGINT_read_unsigned_bin
0x000013b9 T secmath_BIGINT_read_radix
0x000013f7 T secpkcs8_parse
0x00001435 T ce_rsa_key_gen
0x00001471 T ce_rsa_encrypt
0x000014bf T ce_rsa_decrypt
0x0000150d T ce_rsa_sign_hash
0x00001565 T ce_rsa_verify_signature
0x000015bd T ce_util_init_s_bigint
0x000015eb T ce_util_free_s_bigint
0x00001617 T ce_util_count_bytes
0x00001645 T ce_rsa_exptmod
0x0000168f T SW_ECC_PubPrivate_Key_generate
0x000016bf T SW_ECDH_Shared_Key_Derive
0x000016fd T SW_ECDSA_Sign
0x0000173b T SW_ECDSA_Verify
0x00001779 T SW_ECDH_mult_basepoint
0x000017a9 T ECC_hash_to_bigval
0x000017e5 T toggle_random_bit
0x00001817 T in_curveP
0x00001845 T get_random_bytes
0x00001877 T SW_GENERIC_ECC_init
0x000018cf T SW_GENERIC_ECDSA_sign
0x00001915 T SW_GENERIC_ECDSA_verify
0x0000195b T SW_GENERIC_ECDH_shared_key_derive
0x00001997 T SW_GENERIC_ECC_keypair_generate
0x000019d5 T SW_GENERIC_ECC_binary_to_bigval
0x00001a1b T SW_GENERIC_ECC_bigval_to_binary
0x00001a61 T SW_GENERIC_ECC_compare
0x00001a9f T SW_ECDH_generate
0x00001acf T SW_ECDH_derive
0x00001b0d T SW_Cipher_Init
0x00001b3d T SW_Cipher_DeInit
0x00001b6d T SW_Cipher_Reset
0x00001b9b T SW_CipherData
0x00001bd7 T SW_Cipher_SetParam
0x00001c13 T SW_Cipher_GetParam
0x00001c4f T qsee_SW_AE_UpdateData
0x00001c8b T qsee_SW_AE_FinalData
0x00001cc7 T qsee_SW_AE_UpdateAAD
0x00001d05 T SW_Cipher_DES_Init
0x00001d35 T SW_Cipher_DES_DeInit
0x00001d63 T SW_CipherDESData
0x00001d9f T SW_Cipher_DES_SetParam
0x00001ddb T SW_Hash_Init
0x00001e0b T SW_Hash_Update
0x00001e49 T SW_Hash_Final
0x00001e79 T SW_Hmac
0x00001ec3 T qsee_bulletin_board_post
0x00001efb T qsee_bulletin_board_read
0x00001f3f T memsmove
0x00001f5d T strlcpy
0x00001f9f T _printf_pre_padding
0x00001fcd T _printf_post_padding
0x00001ff1 T _printf_str
0x00002043 T _is_digit
0x00002051 T _printf_n
0x00002051 T _printf_percent
0x00002057 T _printf_p
0x0000205d T _printf_f
0x00002063 T _printf_e
0x00002069 T _printf_g
0x0000206f T _printf_a
0x00002075 T _printf_ll
0x0000207f T _printf_i
0x00002085 T _printf_d
0x0000208b T _printf_u
0x00002091 T _printf_o
0x00002097 T _printf_x
0x0000209d T _printf_lli
0x000020a3 T _printf_lld
0x000020a9 T _printf_llu
0x000020af T _printf_llo
0x000020b5 T _printf_llx
0x000020bb T _printf_l
0x000020c5 T _printf_c
0x000020cb T _printf_s
0x000020d1 T _printf_lc
0x000020d7 T _printf_ls
0x000020dd T _printf_percent_end
0x000020e1 T memcmp
0x00002139 T strlen
0x00002173 T __aeabi_memclr
0x00002173 T __rt_memclr
0x00002177 T _memset
0x000021b7 T __aeabi_memclr4
0x000021b7 T __aeabi_memclr8
0x000021b7 T __rt_memclr_w
0x000021bb T _memset_w
0x00002205 T __aeabi_uread4
0x00002205 T __rt_uread4
0x0000221b T __aeabi_uwrite4
0x0000221b T __rt_uwrite4
0x00002231 T __aeabi_uread8
0x00002231 T __rt_uread8
0x0000225f T __aeabi_uwrite8
0x0000225f T __rt_uwrite8
0x00002289 T _printf_truncate_signed
0x0000229b T _printf_truncate_unsigned
0x000022ad T _printf_int_common
0x00002365 T _printf_charcount
0x0000238f T _sputc
0x00002399 T _snputc
0x000023a9 T _printf_cs_common
0x000023bd T _printf_char
0x000023cd T _printf_string
0x000023d5 T __rt_lib_init_cpp_2
0x000023d5 T __rt_lib_init_lc_ctype_2
0x000023d5 T __rt_lib_init_lc_numeric_2
0x000023d5 T _printf_fp_dec
0x000023d9 T _printf_fp_hex
0x000023dd T __lib_sel_fp_printf
0x00002589 T _printf_fp_dec_real
0x000027f5 T _printf_lcs_common
0x00002809 T _printf_wchar
0x00002819 T _printf_wstring
0x00002821 T _wcrtomb
0x00002861 T _btod_d2e
0x0000289f T _d2e_norm_op1
0x000028ff T _d2e_denorm_low
0x00002945 T _btod_emul
0x0000296d T _btod_ediv
0x00002995 T _e2e
0x00002a5b T __btod_mult_common
0x00002c9f T __btod_div_common
0x00002fd7 T __ARM_fpclassify
0x00002fd6 N __I$use$fp
0x00003009 T qsee_err_fatal
0x0000302b T platform_err_fatal
0x0000302d T platform_get_random
0x00003031 T __stack_chk_fail
0x00003033 T _sys_command_string
0x00003037 T get_stack_base
0x00003043 T get_stack_size
0x0000305b T get_app_maxObjs
0x0000305f T get_app_acceptBufSize
0x00003065 T get_app_acceptBuf
0x00003071 T get_ta_app_name
0x0000307d T qsee_cmnlib_free
0x000030b3 T qsee_cmnlib_malloc
0x000030ef T qsee_mem_heap_get_totals
0x00003121 T qsee_free
0x00003155 T qsee_malloc
0x0000318b T tzlib_app_entry
0x0000334f T get_app_entry
0x0000335b T server_exit
0x0000337b T serverLoop
0x000033cf T get_app_serverloop_entry
0x000033d5 T get_app_req_resp
0x000033e1 T qsee_read_register
0x00003401 T qsee_request_service
0x00003453 T qsee_wait
0x00003475 T qsee_register_shared_buffer
0x00003497 T qsee_deregister_shared_buffer
0x000034b7 T qsee_prepare_shared_buf_for_nosecure_read
0x000034d9 T qsee_prepare_shared_buf_for_secure_read
0x000034fb T qsee_set_global_flag
0x0000351b T qsee_get_global_flag
0x0000353d T qsee_oem_process_cmd
0x00003561 T qsee_encapsulate_inter_app_message
0x00003585 T qsee_decapsulate_inter_app_message
0x000035a9 T qsee_enforce_hdmi_hdcp_encryption
0x000035c9 T qsee_get_secure_state
0x000036a1 T tz_app_init
0x000036df T tz_app_cmd_handler
0x000037f1 T tz_app_shutdown
0x00003969 T processCmdInitialize
0x000039dd T processCmdGetInfo
0x00003c79 T processCmdRegister
0x00004575 T processCmdSign
0x00005405 T processCmdSetChallenge
0x00005469 T processCmdProvision
0x00005cc5 T wrapKeyHandle
0x00005da5 T unwrapKeyHandle
0x00005e6f T bigval_to_binary
0x00005eb1 T binary_to_bigval
0x000062a1 T verifyToken
0x000069dd T isKnownTA
0x00006a63 T getExtensions
0x00006b93 T verifySDT
0x00006c85 T verifySDAT
0x00006f93 T verifySDTT
0x0000708b T updateKHAccessToken
0x000071bb T cookieIsValid
0x000071f7 T eccKeyIsValid
0x00007515 T eccSign
0x000075f7 T clearCachedTokens
0x00007691 T sdatIsCached
0x000076a9 T sdttIsCached
0x000076c1 T uvtIsCached
0x000076d3 T cacheUVT
0x00007733 T cacheSDAT
0x00007767 T cacheSDTT
0x0000779b T getCachedUVT
0x00007887 T getCachedSDAT
0x00007a1f T getCachedSDTT
0x00007aa1 T writeHex
0x00007af5 T writeLog
0x00007b3d T clearChallenge
0x00007b65 T setChallenge
0x00007c61 T dumpHex
0x00007d35 T DER_decode_ECPrivateKey
0x00007f75 T DER_decode_KPBlob
0x00008975 T isProvisioned
0x00008cbb T sfs_write_certificate
0x00008d3d T sfs_write_key
0x00008d99 T sfs_delete_key
0x00008ded T sfs_delete_certificate
0x00008e41 T sfs_read_certificate
0x00008ec3 T sfs_read_key
0x00008f21 T composeKRD
0x000094bb T composeAttestation
0x00009703 T composeAssertion
0x00009915 T composeRegisterCmdResponse
0x00009aa7 T composeSignedData
0x0000a06d T composeSignature
0x0000a1b9 T composeUsernameKeyhandle
0x0000a415 T composeSignCmdResponse
0x0000a609 T QWrapObject
0x0000a837 T QUnwrapObject
0x0000ade3 T bio_set_auth_result
0x0000aea5 T bio_get_auth_result
0x0000b2c1 T DER_decode_INTEGER
0x0000b34b T DER_decode_BITSTRING
0x0000b3d3 T DER_decode_SEQUENCE
0x0000b45b T DER_decode_OCTETSTRING
0x0000b4e3 T DER_decode_PRINTABLE_STRING
0x0000b749 T DER_decode_CONTEXT_SPECIFIC
0x0000b8ad T handle_fp_extension
0x0000badf T getNextTag
0x0000bb6d T fp_getTlv
0x0000c187 T bio_serialize_auth_result
0x0000c24b T bio_deserialize_auth_result
0x0000c3a1 T vsnprintf
0x0000c3d5 T __2snprintf
0x0000c40d T _printf_int_dec
0x0000c481 T _printf_longlong_hex
0x0000c4dd T _printf_int_hex
0x0000c4f9 T _printf_ll_hex
0x0000c505 T _printf_hex_ptr
0x0000c51d T __printf
0x0000c6a4 A __aeabi_memcpy4
0x0000c6a4 A __aeabi_memcpy8
0x0000c6a4 A __rt_memcpy_w
0x0000c708 A _memcpy_lastbytes_aligned
0x0000c720 A __aeabi_memcpy
0x0000c720 A __rt_memcpy
0x0000c7a8 A _memcpy_lastbytes
0x0000c7c8 A __aeabi_memmove
0x0000c7c8 A __rt_memmove
0x0000c858 A __memmove_lastfew
0x0000c878 A strcmp
0x0000c918 A __aeabi_idiv
0x0000c918 A __aeabi_idivmod
0x0000cb44 A __aeabi_uidiv
0x0000cb44 A __aeabi_uidivmod
0x0000cb75 T __cpp_initialize__aeabi_
0x0000cba3 T _printf_char_common
0x0000cbc9 T _printf_wctomb
0x0000cc81 T _printf_longlong_dec
0x0000ccf9 T _printf_longlong_oct
0x0000cd45 T _printf_int_oct
0x0000cd5d T _printf_ll_oct
0x0000cd70 A __aeabi_memmove4
0x0000cd70 A __aeabi_memmove8
0x0000cd70 A __rt_memmove_w
0x0000cd9c A __memmove_aligned
0x0000cdd8 A __memmove_lastfew_aligned
0x0000cdf0 A __rt_udiv10
0x0000ce1c A _ll_udiv10
0x0000ceb5 T _printf_fp_hex_real
0x0000d1b9 T __rt_ctype_table
0x0000d1c9 T __rt_locale
0x0000d1d5 T _printf_fp_infnan
0x0000d255 T _btod_etento
0x0000d32d T _get_lc_numeric
0x0000d359 T _get_lc_ctype
0x0000d400 A app_export_init_info_to_qsee
0x0000d430 A qsee_printf_syscall
0x0000d448 A qsee_wait_default_signal_syscall
0x0000d474 A qsee_generic_syscall
0x0000d498 A mink_generic_syscall
0x0000d5e0 D commandsLen
0x0000ddd9 D __ctype
0x0000e004 D pgCmnlib
0x0000e008 D tzapp_lib
0x0000e00c D cmnlib_rw_base
0x0000e010 D app_rw_base
0x0000e014 D __stack_chk_guard
0x0000e018 D dummy_str
0x0000e01c D app_cmd_invoker_obj
0x0000e024 D mink_api_service_obj
0x0000e02c D mink_user_sscall_service_obj
0x0000e034 D mink_opener_obj
0x0000e03c D magic_num
0x0000e050 D magic_num_index_array
0x0000e05c D sse_log_tag
0x0000e060 D commands
0x0000e090 D TZ_APP_NAME
0x0000e0c0 D g_config
0x0000f798 D gAppCntxt
0x0000f7ac D application_heap
0x0000f7e0 D mem_magic_number
0x0000f7ec D apps_request_resp
0x0000f800 D acceptBuf
