#<SYMDEFS># ARM Linker, 5.01 [Build 94]: Last Updated: Wed Feb  7 02:08:35 2018
0x00000000 A TZAPPENTRY
0x00000000 A __main
0x00000000 A _main
0x00000000 N _printf_flags
0x00000000 N _printf_return_value
0x00000000 N _printf_sizespec
0x00000000 N _printf_widthprec
0x00000064 A read_app_rw_base
0x00000070 A set_rw_base
0x0000007d T qsee_hash
0x000000a1 T qsee_hash_init
0x000000c3 T qsee_hash_reset
0x000000e3 T qsee_hash_update
0x00000107 T qsee_hash_final
0x0000012b T qsee_hash_free_ctx
0x0000014b T qsee_hash_set_param
0x0000016f T qsee_hashcipher_encrypt
0x000001a9 T qsee_hashcipher_decrypt
0x000001e3 T qsee_cipher_init
0x00000205 T qsee_cipher_reset
0x00000225 T qsee_cipher_free_ctx
0x00000245 T qsee_cipher_set_param
0x00000269 T qsee_cipher_get_param
0x0000028d T qsee_cipher_encrypt
0x000002b1 T qsee_cipher_decrypt
0x000002d5 T qsee_hmac
0x000002f9 T qsee_hmac_init
0x0000031b T qsee_hmac_update
0x0000033f T qsee_hmac_final
0x00000363 T qsee_hmac_free_ctx
0x00000383 T qsee_cmac
0x000003b9 T qsee_prng_getdata
0x000003db T qsee_crypto_lock_engine
0x000003fd T qsee_kdf_shim
0x0000041f T qsee_set_bandwidth
0x00000443 T qsee_dcache_inval_region
0x00000465 T qsee_dcache_flush_region
0x00000487 T qsee_dcache_clean_region
0x000004a9 T qsee_kdf
0x00000503 T qsee_sfs_getSize
0x00000535 T qsee_sfs_open
0x00000567 T qsee_sfs_close
0x00000597 T qsee_sfs_read
0x000005d7 T qsee_sfs_write
0x00000617 T qsee_sfs_seek
0x00000657 T qsee_sfs_mkdir
0x00000687 T qsee_sfs_rmdir
0x000006b7 T qsee_sfs_rm
0x000006e7 T qsee_sfs_error
0x00000717 T qsee_sfs_get_file_list
0x00000749 T qsee_sfs_clean_file_list
0x00000775 T qsee_sfs_is_anti_rollback_enabled
0x000007a3 T qsee_log
0x0000080d T open
0x0000083f T read
0x0000087f T write
0x000008bf T close
0x000008ef T lstat
0x00000921 T mkdir
0x00000953 T frename
0x00000985 T opendir
0x000009b3 T readdir
0x000009e3 T closedir
0x00000a11 T rmdir
0x00000a41 T testdir
0x00000a71 T file_get_partition_free_size
0x00000aa3 T fstat
0x00000ad5 T lseek
0x00000b15 T time_getsystime
0x00000b47 T time_getutcsec
0x00000b79 T time_gethlosutc
0x00000bab T time_is_leap_year
0x00000bdd T remove
0x00000c0f T unlink
0x00000c3f T link
0x00000c71 T telldir
0x00000ca3 T fsync
0x00000cd5 T openat
0x00000d15 T unlinkat
0x00000d55 T fcntl
0x00000d89 T creat
0x00000dbd T file_dir_chown_chmod
0x00000e1b T qsee_get_uptime
0x00000e3d T qsee_wdog_stop
0x00000e5d T qsee_wdog_pet
0x00000e7d T memscpy
0x00000e9b T secure_memset
0x00000eaf T qsee_rsa_key_gen
0x00000ebd T qsee_secpkcs8_parse
0x00000ecb T qsee_rsa_sign_hash
0x00000ee9 T qsee_rsa_verify_signature
0x00000f07 T qsee_rsa_encrypt
0x00000f27 T qsee_rsa_decrypt
0x00000f47 T qsee_BIGINT_read_unsigned_bin
0x00000f55 T qsee_util_init_s_bigint
0x00000f63 T qsee_util_free_s_bigint
0x00000f67 T qsee_BIGINT_read_radix
0x00000f77 T qsee_rsa_exptmod
0x00000f91 T qsee_util_count_bytes
0x00000f95 T qsee_SW_ECC_PubPrivate_Key_generate
0x00000fa5 T qsee_SW_ECDH_Shared_Key_Derive
0x00000fb5 T qsee_SW_ECDSA_Sign
0x00000fc5 T qsee_SW_ECDSA_Verify
0x00000fd5 T qsee_SW_ECDH_mult_basepoint
0x00000fe5 T qsee_ECC_hash_to_bigval
0x00000fe9 T qsee_toggle_random_bit
0x00000fed T qsee_get_random_bytes
0x00000ff1 T qsee_in_curveP
0x00000ffb T qsee_SW_GENERIC_ECC_init
0x0000101b T qsee_SW_GENERIC_ECDSA_sign
0x00001033 T qsee_SW_GENERIC_ECDSA_verify
0x0000104b T qsee_SW_GENERIC_ECDH_shared_key_derive
0x0000105b T qsee_SW_GENERIC_ECC_keypair_generate
0x0000106b T qsee_SW_GENERIC_ECC_binary_to_bigval
0x00001083 T qsee_SW_GENERIC_ECC_bigval_to_binary
0x0000109b T qsee_SW_GENERIC_ECC_compare
0x000010ab T qsee_SW_ECDH_generate
0x000010af T qsee_SW_ECDH_derive
0x000010b9 T qsee_SW_Hash_Init
0x000010bd T qsee_SW_Hash_Update
0x000010c1 T qsee_SW_Hash_Final
0x000010c5 T qsee_SW_Hmac
0x000010d9 T qsee_SW_Cipher_Init
0x000010dd T qsee_SW_Cipher_DeInit
0x000010e1 T qsee_SW_CipherData
0x000010e5 T qsee_SW_Cipher_SetParam
0x000010e9 T qsee_SW_Cipher_GetParam
0x000010ed T qsee_SW_Cipher_DES_Init
0x000010f1 T qsee_SW_Cipher_DES_DeInit
0x000010f5 T qsee_SW_CipherDESData
0x000010f9 T qsee_SW_Cipher_DES_SetParam
0x000010fd T memsmove
0x0000111b T secmath_BIGINT_read_unsigned_bin
0x00001159 T secmath_BIGINT_read_radix
0x00001197 T secpkcs8_parse
0x000011d5 T ce_rsa_key_gen
0x00001211 T ce_rsa_encrypt
0x0000125f T ce_rsa_decrypt
0x000012ad T ce_rsa_sign_hash
0x00001305 T ce_rsa_verify_signature
0x0000135d T ce_util_init_s_bigint
0x0000138b T ce_util_free_s_bigint
0x000013b7 T ce_util_count_bytes
0x000013e5 T ce_rsa_exptmod
0x0000142f T SW_ECC_PubPrivate_Key_generate
0x0000145f T SW_ECDH_Shared_Key_Derive
0x0000149d T SW_ECDSA_Sign
0x000014db T SW_ECDSA_Verify
0x00001519 T SW_ECDH_mult_basepoint
0x00001549 T ECC_hash_to_bigval
0x00001585 T toggle_random_bit
0x000015b7 T in_curveP
0x000015e5 T get_random_bytes
0x00001617 T SW_GENERIC_ECC_init
0x0000166f T SW_GENERIC_ECDSA_sign
0x000016b5 T SW_GENERIC_ECDSA_verify
0x000016fb T SW_GENERIC_ECDH_shared_key_derive
0x00001737 T SW_GENERIC_ECC_keypair_generate
0x00001775 T SW_GENERIC_ECC_binary_to_bigval
0x000017bb T SW_GENERIC_ECC_bigval_to_binary
0x00001801 T SW_GENERIC_ECC_compare
0x0000183f T SW_ECDH_generate
0x0000186f T SW_ECDH_derive
0x000018ad T SW_Cipher_Init
0x000018dd T SW_Cipher_DeInit
0x0000190d T SW_Cipher_Reset
0x0000193b T SW_CipherData
0x00001977 T SW_Cipher_SetParam
0x000019b3 T SW_Cipher_GetParam
0x000019ef T qsee_SW_AE_UpdateData
0x00001a2b T qsee_SW_AE_FinalData
0x00001a67 T qsee_SW_AE_UpdateAAD
0x00001aa5 T SW_Cipher_DES_Init
0x00001ad5 T SW_Cipher_DES_DeInit
0x00001b03 T SW_CipherDESData
0x00001b3f T SW_Cipher_DES_SetParam
0x00001b7b T SW_Hash_Init
0x00001bab T SW_Hash_Update
0x00001be9 T SW_Hash_Final
0x00001c19 T SW_Hmac
0x00001c63 T gdFontGetgdfontqcomreg100propExt
0x00001c8d T gdFontGetgdfontqcomreg100monoExt
0x00001cb7 T gdFontGetgdfontqcomreg42propExt
0x00001ce1 T gdFontGetgdfontqcomreg30propExt
0x00001d0b T gdFontGetgdfontqcomreg48propExt
0x00001d35 T load_layout_images
0x00001f35 T strlcpy
0x00001f77 T png_get_valid
0x00001f85 T png_get_rowbytes
0x00001f91 T png_get_channels
0x00001f9d T png_get_signature
0x00001fab T png_get_IHDR
0x00002023 T png_get_PLTE
0x00002041 T png_get_compression_buffer_size
0x0000204d T png_read_data
0x00002057 T png_set_read_fn
0x0000206b T gdColorMatch
0x00002135 T overflow2
0x00002179 T png_free_default
0x00002189 T png_free
0x0000219d T png_destroy_png_struct
0x000021c5 T png_malloc_base
0x000021e1 T png_malloc
0x00002201 T png_calloc
0x00002241 T png_malloc_array
0x00002261 T png_realloc_array
0x000022d1 T png_malloc_default
0x000022f1 T png_malloc_warn
0x00002301 T png_set_mem_fn
0x00002313 T png_get_mem_ptr
0x0000231f T get_crc_table
0x0000288b T crc32
0x00002961 T crc32_combine
0x00002963 T crc32_combine64
0x00002965 T adler32
0x00002bef T adler32_combine
0x00002bf1 T adler32_combine64
0x00002bf3 T inflate_table
0x00002f95 T malloc
0x00002ff3 T free
0x00003041 T vfprintf
0x0000304b T _printf_pre_padding
0x00003079 T _printf_post_padding
0x0000309d T _printf_str
0x000030ef T _is_digit
0x000030fd T _printf_n
0x000030fd T _printf_percent
0x00003103 T _printf_p
0x00003109 T _printf_f
0x0000310f T _printf_e
0x00003115 T _printf_g
0x0000311b T _printf_a
0x00003121 T _printf_ll
0x0000312b T _printf_i
0x00003131 T _printf_d
0x00003137 T _printf_u
0x0000313d T _printf_o
0x00003143 T _printf_x
0x00003149 T _printf_lli
0x0000314f T _printf_lld
0x00003155 T _printf_llu
0x0000315b T _printf_llo
0x00003161 T _printf_llx
0x00003167 T _printf_l
0x00003171 T _printf_c
0x00003177 T _printf_s
0x0000317d T _printf_lc
0x00003183 T _printf_ls
0x00003189 T _printf_percent_end
0x0000318d T fputs
0x000031af T abort
0x000031bf T memcmp
0x00003217 T strlen
0x00003251 T __aeabi_memclr
0x00003251 T __rt_memclr
0x00003255 T _memset
0x00003295 T __aeabi_memclr4
0x00003295 T __aeabi_memclr8
0x00003295 T __rt_memclr_w
0x00003299 T _memset_w
0x000032e3 T __aeabi_uread4
0x000032e3 T __rt_uread4
0x000032f9 T __aeabi_uwrite4
0x000032f9 T __rt_uwrite4
0x0000330f T __aeabi_uread8
0x0000330f T __rt_uread8
0x0000333d T __aeabi_uwrite8
0x0000333d T __rt_uwrite8
0x00003367 T __aeabi_dadd
0x00003367 T _dadd
0x00003379 T __aeabi_ddiv
0x00003379 T _ddiv
0x0000338b T __aeabi_d2iz
0x0000338b T _dfix
0x00003399 T __aeabi_d2uiz
0x00003399 T _dfixu
0x000033a7 T __aeabi_ui2d
0x000033a7 T _dfltu
0x000033b5 T __aeabi_i2d
0x000033b5 T _dflt
0x000033c3 T __aeabi_dmul
0x000033c3 T _dmul
0x000033d5 T __aeabi_f2d
0x000033d5 T _f2d
0x000033e3 T __aeabi_fdiv
0x000033e3 T _fdiv
0x000033f5 T __aeabi_i2f
0x000033f5 T _fflt
0x00003403 T atan2
0x00003417 T cos
0x00003427 T floor
0x00003437 T sin
0x00003447 T sqrt
0x000034ad T __use_no_heap
0x000034af T __heap$guard
0x000034b1 T _terminate_user_alloc
0x000034b3 T _init_user_alloc
0x000034b5 T __Heap_Full
0x000034d5 T __Heap_Broken
0x000034db T _init_alloc
0x00003539 T __Heap_Initialize
0x00003543 T __Heap_DescSize
0x00003547 T __read_errno
0x00003551 T __set_errno
0x0000355d T _printf_truncate_signed
0x0000356f T _printf_truncate_unsigned
0x00003581 T _printf_int_common
0x00003639 T _printf_charcount
0x00003663 T _sputc
0x0000366d T _snputc
0x0000367d T _printf_cs_common
0x00003691 T _printf_char
0x000036a1 T _printf_string
0x000036a9 T fputc
0x000036c3 T __rt_SIGABRT
0x000036d1 T __fpl_dcmp_Inf
0x000036d1 T __rt_lib_init_cpp_2
0x000036d1 T __rt_lib_init_heap_2
0x000036d1 T __rt_lib_init_lc_ctype_2
0x000036d1 T __rt_lib_init_lc_numeric_2
0x000036d1 T __rt_lib_init_stdio_2
0x000036e9 T __fpl_dnaninf
0x00003785 T _printf_fp_dec
0x00003789 T _printf_fp_hex
0x0000378c N __I$use$fp
0x0000378d T atan
0x0000379d T fabs
0x000037bb T _sys_open
0x000037cf T _sys_close
0x000037db T _sys_write
0x000037eb T _sys_read
0x000037f9 T _sys_istty
0x00003805 T _sys_seek
0x00003813 T _sys_ensure
0x00003815 T _sys_flen
0x00003821 T __I$use$semihosting
0x00003821 T __use_no_semihosting_swi
0x00003823 T __Heap_ProvideMemory
0x00003823 T __semihosting_library_function
0x00003855 T __lib_sel_fp_printf
0x00003a01 T _printf_fp_dec_real
0x00003c6d T _printf_lcs_common
0x00003c81 T _printf_wchar
0x00003c91 T _printf_wstring
0x00003c99 T ferror
0x00003ca1 T __flsbuf
0x00003ca1 T __flsbuf_byte
0x00003ca1 T __flsbuf_wide
0x00003e7f T _ftell_internal
0x00003e7f T ftell
0x00003ec5 T setvbuf
0x00003f0b T _fclose_internal
0x00003f0b T fclose
0x00003f57 T _wcrtomb
0x00003f97 T __sig_exit
0x00003fa1 T __rt_SIGRTRED
0x00003faf T __rt_SIGRTMEM
0x00003fbd T __ARM_fpclassify
0x00003fbd T __rt_lib_shutdown_stdio_2
0x00003fed T __kernel_poly
0x00004067 T _btod_d2e
0x000040a5 T _d2e_norm_op1
0x00004105 T _d2e_denorm_low
0x0000414b T _btod_emul
0x00004173 T _btod_ediv
0x0000419b T _e2e
0x00004261 T __btod_mult_common
0x000044a5 T __btod_div_common
0x000047dd T __default_signal_display
0x0000480f T _ttywrch
0x0000481d T qsee_err_fatal
0x0000483f T platform_err_fatal
0x00004841 T platform_get_random
0x00004845 T __stack_chk_fail
0x00004847 T _sys_command_string
0x0000484b T get_stack_base
0x00004857 T get_stack_size
0x0000486f T get_app_maxObjs
0x00004873 T get_app_acceptBufSize
0x00004879 T get_app_acceptBuf
0x00004885 T get_ta_app_name
0x00004891 T qsee_cmnlib_free
0x000048c7 T qsee_cmnlib_malloc
0x00004903 T qsee_mem_heap_get_totals
0x00004935 T qsee_free
0x00004969 T qsee_malloc
0x0000499f T tzlib_app_entry
0x00004b63 T get_app_entry
0x00004b6f T server_exit
0x00004b8f T serverLoop
0x00004be3 T get_app_serverloop_entry
0x00004be9 T get_app_req_resp
0x00004bf5 T qsee_read_register
0x00004c15 T qsee_request_service
0x00004c67 T qsee_wait
0x00004c89 T qsee_register_shared_buffer
0x00004cab T qsee_deregister_shared_buffer
0x00004ccb T qsee_prepare_shared_buf_for_nosecure_read
0x00004ced T qsee_prepare_shared_buf_for_secure_read
0x00004d0f T qsee_set_global_flag
0x00004d2f T qsee_get_global_flag
0x00004d51 T qsee_oem_process_cmd
0x00004d75 T qsee_encapsulate_inter_app_message
0x00004d99 T qsee_decapsulate_inter_app_message
0x00004dbd T qsee_enforce_hdmi_hdcp_encryption
0x00004ddd T qsee_get_secure_state
0x00004eb5 T globInit
0x00004ed3 T globShutdown
0x00004ed5 T tz_app_init
0x00004f11 T tz_app_cmd_handler
0x000050c7 T tz_app_shutdown
0x000056a1 T sec_ui_stop_disp
0x0000578b T sec_ui_get_disp_properties
0x00005bf7 T sec_ui_start_disp_fullscreen
0x00005cf1 T session_is_unchanged
0x00005d8b T sec_ui_show_buf
0x00005fb5 T sec_ui_copy_to_buffer
0x000061df T sec_ui_hlos_release
0x000062c5 T sec_ui_alloc_app_buffer
0x00006375 T sec_ui_free_app_buffer
0x000063c5 T secUiProcessCmd
0x0000648b T secUiCmd
0x0000650d T secUiRegisterTouchCallback
0x0000651b T secUiTouchIsActive
0x0000652f T secUiSetPanelSize
0x000065d9 T secUiTouchStop
0x00006649 T processCmdStopTouch
0x00006735 T processCmdInitialize
0x000067a5 T processCmdGetCapabilities
0x00006805 T processCmdGetInfo
0x00006865 T processCmdEnrollSuiStart
0x00006ad5 T processCmdEnrollSuiConfirm
0x00006c59 T processCmdEnrollSuiFinish
0x000070f1 T processCmdMatchSuiStart
0x00007323 T processCmdMatchSuiFinish
0x000076b9 T processCmdDisenroll
0x000077cd T processCmdChangePinSuiStart
0x0000780d T processCmdChangePinSuiNewPin
0x0000784d T processCmdChangePinSuiConfirm
0x0000788d T processCmdChangePinSuiFinish
0x000078ed T processCmdShowMessageSuiStart
0x00007b61 T processCmdShowMessageSuiFinish
0x00007dd9 T processCmdGetToken
0x00007f55 T pbkdf2
0x000081bd T initKeys
0x000081e7 T unlockUser
0x0000830f T initUsers
0x00008501 T findFirstFree
0x000085ad T findUser
0x0000863d T wrapToken
0x000086e5 T unwrapToken
0x00008775 T lockUser
0x000089cb T generateUserKey
0x00008b1d T getUserKey
0x00008d1d T touchClose
0x00008e85 T processCmdStartTouch
0x00008fdd T processCmdProcessTouch
0x00009221 T processCmdPrepareRequest
0x00009305 T processCmdStoreIndicator
0x00009481 T QWrapObject
0x000096af T QUnwrapObject
0x00009ba5 T qsee_exec_protect_memory
0x00009bc9 T qsee_is_sw_fuse_blown
0x00009bed T qsee_blow_sw_fuse
0x00009c0d T qsee_read_jtag_id
0x00009c2f T qsee_read_serial_num
0x00009c51 T qsee_fuse_write
0x00009c75 T qsee_fuse_read
0x00009c99 T qsee_is_ns_range
0x00009cbd T qsee_is_s_tag_area
0x00009ce3 T qsee_i2c_open
0x00009d03 T qsee_i2c_read
0x00009d27 T qsee_i2c_write
0x00009d4b T qsee_i2c_close
0x00009d6b T qsee_spi_open
0x00009d8b T qsee_spi_read
0x00009daf T qsee_spi_write
0x00009dd3 T qsee_spi_close
0x00009df3 T qsee_spi_full_duplex
0x00009e17 T qsee_ks_decrypt
0x00009e43 T qsee_ks_get_key
0x00009e6f T qsee_ks_delete_key
0x00009e93 T qsee_ce_pipe_key_select
0x00009eb7 T qsee_hdmi_status_read
0x00009edb T qsee_mem_usage_count
0x00009efb T qsee_sd_get_session
0x00009f1d T qsee_tag_mem
0x00009f41 T qsee_read_hw_version
0x00009f69 T clear_tui
0x00009f8b T clear_tui_data
0x00009faf T get_input
0x00009fbb T get_input_len
0x00009fc9 T get_status
0x00009fd7 T start_input_dialog
0x0000a285 T write_image_sfs
0x0000a3f7 T readUserReg
0x0000a52f T writeUserReg
0x0000a66d T removeUserReg
0x0000ab15 T touchOpen
0x0000acc9 T touchGetData
0x0000ad7b T drNotifyEvent
0x0000b66b T manage_layout_event
0x0000caaf T qsee_tui_init
0x0000cab3 T qsee_tui_dialog
0x0000cd31 T qsee_tui_get_secure_indicator_buffer
0x0000cd79 T qsee_tui_release_secure_indicator
0x0000cd99 T qsee_tui_tear_down
0x0000ceeb T dumpT9
0x0000cf7f T dumpT100
0x0000cfd9 T dumpT15
0x0000d0d1 T dumpT42
0x0000d0f1 T processT9
0x0000d191 T processT100
0x0000d477 T atmel_drTsOpen
0x0000dab1 T atmel_drTsClose
0x0000db27 T atmel_drTsProcessEvents
0x0000de03 T synReadF12
0x0000e015 T synaptics_drTsOpen
0x0000e7f5 T synaptics_drTsClose
0x0000eb75 T synaptics_drTsProcessEvents
0x0000efbf T layout_mgr_delete_input_last_character
0x0000f3f5 T layout_mgr_load_layout
0x0000f487 T layout_mgr_eval_event
0x0000f627 T layout_mgr_render_layout
0x0000f8af T layout_mgr_set_label_text
0x0000f95b T set_label_buffer
0x0000f967 T layout_mgr_set_label_buffer
0x0000f9ff T layout_mgr_set_input_display_mode
0x0000fa97 T layout_mgr_set_show_flag
0x0000faf3 T layout_mgr_set_dirty_bit
0x0000fb49 T layout_mgr_set_button_disabled
0x0000fd83 T layout_mgr_set_focus_input
0x0000fdf1 T layout_mgr_set_image
0x0000fe85 T layout_mgr_set_active_keyboard
0x0000fef5 T layout_mgr_randomize_keyboard
0x0001027f T layout_mgr_get_input_len
0x00010313 T layout_mgr_set_input_len_to_max
0x0001037b T layout_mgr_clear_input_buffer
0x00010459 T create_message_single
0x00010769 T create_message_double
0x00010ba7 T create_message_triple
0x000110b7 T create_pin
0x0001266f T create_login_username_password
0x0001abf7 T create_login_password_only
0x00022e77 T create_layout
0x00022f11 T setVisible
0x00022f2b T showKeyboard
0x00022fb5 T updateKeyboard
0x00022fe7 T unclickObject
0x0002302b T findObject
0x000236d9 T verifyLayout
0x00023ef7 T updatePage
0x00024621 T dumpHex
0x000246f5 T atmel_i2cReadReg
0x00024751 T atmel_i2cOpen
0x0002478b T atmel_i2cClose
0x00024839 T synaptics_i2cReadReg
0x0002488f T synaptics_i2cWriteReg
0x000248b9 T synaptics_i2cOpen
0x000248bf T synaptics_i2cClose
0x00024921 T get_utf8_len
0x0002616b T render_layout
0x0002672d T gd_stderr_error
0x000267bf T gd_error_ex
0x000267e1 T gd_error
0x000267f7 T gdSetErrorMethod
0x00026805 T gdClearErrorMethod
0x00026817 T gdImageCreate
0x0002681b T gdImageCreateExt
0x000268eb T gdImageCreateTrueColor
0x000268ef T gdImageCreateTrueColorExt
0x000269c5 T gdImageDestroyEx
0x000269ff T gdImageColorClosestAlpha
0x00026a9d T gdImageColorClosest
0x00026aad T gdImageColorExactAlpha
0x00026b19 T gdImageColorExact
0x00026b69 T gdImageColorAllocateAlpha
0x00026be5 T gdImageColorAllocate
0x00026bf5 T gdImageColorResolveAlpha
0x00026cd9 T gdImageColorResolve
0x00026ce9 T gdImageColorDeallocate
0x00026d09 T gdImageColorTransparent
0x00026d4b T gdImagePaletteCopy
0x00026e45 T gdAlphaBlend
0x00026ee9 T gdImageGetPixel
0x00027017 T gdImageGetTrueColorPixel
0x000271c1 T gdImageSetPixel
0x000272cd T gdImageColorReplace
0x000273a5 T gdImageColorReplaceThreshold
0x0002766b T gdImageSetLine
0x0002769b T gdImageAABlend
0x0002769d T gdImageFilledRectangle
0x00027a51 T gdImageLine
0x00027e19 T gdImageDashedLine
0x00028065 T gdImageBoundsSafe
0x00028095 T gdImageChar
0x00028115 T gdImageCharUp
0x000281a1 T gdFontFindIndex
0x000281d9 T gdImageCharExt
0x00028263 T gdImageString
0x000282a9 T gdImageStringUp
0x000282ef T getUnicode
0x0002838d T gdImageStringExt
0x000283d9 T gdImageCharVarWidth
0x00028487 T gdImageStringVarWidth
0x000284cd T gdGetMaxLenForWidth
0x00028513 T gdIsValidUTF8String
0x000285a1 T gdImageString16
0x000285e9 T gdImageStringUp16
0x00028631 T lsqrt
0x00028643 T gdImageOpenPolygon
0x0002867f T gdImagePolygon
0x000286bd T gdImageFilledPolygon
0x00028915 T gdImageFilledArc
0x00028b79 T gdImageArc
0x00028b9d T gdImageEllipse
0x00028c4d T gdImageFilledEllipse
0x00028d1d T gdImageGradientFilledEllipse
0x00029183 T gdImageFillToBorder
0x000292cb T gdImageRectangle
0x00029451 T gdImageQuickFilledRectangle
0x000294cd T gdImageFilledRoundedRectangle
0x000295f3 T gdImageGradientFilledRectangle
0x00029873 T gdImageCopyResized
0x00029b43 T gdImageSetThickness
0x00029b4b T gdImageSetBrush
0x00029bd9 T gdImageSetTile
0x00029c69 T gdImageSetAntiAliased
0x00029c7f T gdImageSetAntiAliasedDontBlend
0x00029c95 T gdImageInterlace
0x00029c9d T gdImageCompare
0x00029df7 T gdImageAlphaBlending
0x00029dff T gdImageSaveAlpha
0x00029e07 T gdImageSetClip
0x00029e65 T gdImageGetClip
0x00029e95 T gdImageSetResolution
0x00029ec1 T png_set_sig_bytes
0x00029ee1 T png_sig_cmp
0x00029f43 T png_zalloc
0x00029f71 T png_zfree
0x00029f75 T png_reset_crc
0x00029f89 T png_calculate_crc
0x00029fe1 T png_get_header_ver
0x00029fe5 T png_user_version_check
0x0002a073 T png_create_png_struct
0x0002a0e5 T png_create_info_struct
0x0002a111 T png_free_data
0x0002a153 T png_destroy_info_struct
0x0002a199 T png_data_freer
0x0002a1bd T png_get_io_ptr
0x0002a1c7 T png_get_copyright
0x0002a1d3 T png_get_libpng_ver
0x0002a1d5 T png_get_header_version
0x0002a1d9 T png_reset_zstream
0x0002a1e7 T png_access_version_number
0x0002a1ed T png_zstream_error
0x0002a243 T png_check_IHDR
0x0002a439 T malloc_fn
0x0002a43f T free_fn
0x0002a445 T png_create_read_struct_2
0x0002a47d T png_create_read_struct
0x0002a49b T png_read_info
0x0002a57b T png_read_update_info
0x0002a591 T png_start_read_image
0x0002a5a7 T png_read_row
0x0002a6b9 T png_read_rows
0x0002a72b T png_read_image
0x0002a773 T png_read_end
0x0002a863 T png_destroy_read_struct
0x0002a899 T png_set_read_status_fn
0x0002a8a5 T png_longjmp
0x0002a8af T png_err
0x0002a8c5 T png_safecat
0x0002a8fb T png_chunk_report
0x0002a905 T png_set_error_fn
0x0002a90f T png_get_error_ptr
0x0002a91d T png_get_uint_31
0x0002a945 T png_read_sig
0x0002a9ab T png_check_chunk_name
0x0002a9d3 T png_read_chunk_header
0x0002aa41 T png_crc_read
0x0002aa67 T png_crc_error
0x0002aae9 T png_crc_finish
0x0002ac55 T png_handle_IHDR
0x0002ad61 T png_handle_PLTE
0x0002aec1 T png_handle_IEND
0x0002aefb T png_handle_unknown
0x0002af1b T png_combine_row
0x0002b1db T png_read_filter_row
0x0002b217 T png_read_IDAT_data
0x0002b365 T png_read_finish_IDAT
0x0002b3bb T png_read_finish_row
0x0002b3cb T png_read_start_row
0x0002b4bd T inflateResetKeep
0x0002b50b T inflateReset
0x0002b521 T inflateReset2
0x0002b581 T inflateInit2_
0x0002b607 T inflateInit_
0x0002b60f T inflatePrime
0x0002b735 T inflate
0x0002c843 T inflateEnd
0x0002c86d T inflateGetDictionary
0x0002c8af T inflateSetDictionary
0x0002c921 T inflateGetHeader
0x0002c981 T inflateSync
0x0002ca4f T inflateSyncPoint
0x0002ca6f T inflateCopy
0x0002cb67 T inflateUndermine
0x0002cb7f T inflateMark
0x0002cbb5 T png_set_IHDR
0x0002cc6b T png_set_PLTE
0x0002cd09 T png_set_compression_buffer_size
0x0002cd2f T png_set_invalid
0x0002cd51 T inflate_fast
0x0002d105 T zlibVersion
0x0002d109 T zlibCompileFlags
0x0002d10d T zError
0x0002d121 T zcalloc
0x0002d13d T zcfree
0x0002d150 A __aeabi_uldivmod
0x0002d150 A _ll_udiv
0x0002d164 A _ll_udiv_donemoving
0x0002d481 T vsnprintf
0x0002d4b5 T __2snprintf
0x0002d4ed T _printf_longlong_hex
0x0002d549 T _printf_int_hex
0x0002d565 T _printf_ll_hex
0x0002d571 T _printf_hex_ptr
0x0002d589 T __printf
0x0002d711 T _do_fflush
0x0002d747 T fflush
0x0002d778 A strncmp
0x0002d868 A __aeabi_memcpy4
0x0002d868 A __aeabi_memcpy8
0x0002d868 A __rt_memcpy_w
0x0002d8cc A _memcpy_lastbytes_aligned
0x0002d8e4 A __aeabi_memcpy
0x0002d8e4 A __rt_memcpy
0x0002d96c A _memcpy_lastbytes
0x0002d98c A __aeabi_memmove
0x0002d98c A __rt_memmove
0x0002da1c A __memmove_lastfew
0x0002da3c A strcmp
0x0002dadc A __aeabi_idiv
0x0002dadc A __aeabi_idivmod
0x0002dd08 A __aeabi_uidiv
0x0002dd08 A __aeabi_uidivmod
0x0002dd39 T __cpp_initialize__aeabi_
0x0002dd5d T __aeabi_cdcmpeq
0x0002dd5d T _dcmpeq
0x0002dd8d T __aeabi_cdcmple
0x0002dd8d T _dcmple
0x0002dda5 T __fpl_dcmple_InfNaN
0x0002ddbd T _sys_exit
0x0002ddc9 T __rt_heap_descriptor
0x0002ddd5 T _printf_int_dec
0x0002de53 T _printf_char_common
0x0002de79 T _printf_char_file
0x0002de9d T _printf_wctomb
0x0002df55 T _printf_longlong_dec
0x0002dfcd T _printf_longlong_oct
0x0002e019 T _printf_int_oct
0x0002e031 T _printf_ll_oct
0x0002e045 T _fseek
0x0002e045 T fseek
0x0002e13d T _seterr
0x0002e151 T _writebuf
0x0002e1a5 T _fflush
0x0002e1eb T _deferredlazyseek
0x0002e22d T _initio
0x0002e31d T _terminateio
0x0002e388 A __aeabi_memmove4
0x0002e388 A __aeabi_memmove8
0x0002e388 A __rt_memmove_w
0x0002e3b4 A __memmove_aligned
0x0002e3f0 A __memmove_lastfew_aligned
0x0002e409 T __aeabi_errno_addr
0x0002e409 T __errno
0x0002e409 T __rt_errno_addr
0x0002e414 A _ll_udiv10
0x0002e415 T _maybe_terminate_alloc
0x0002e4ad T _printf_fp_hex_real
0x0002e7b1 T freopen
0x0002e84f T fopen
0x0002e89d T __rt_SIGABRT_inner
0x0002e8cc A __rt_udiv10
0x0002e8f9 T __rt_heap_escrow
0x0002e90f T __rt_heap_expand
0x0002e949 T __rt_ctype_table
0x0002e959 T __rt_locale
0x0002e965 T _printf_fp_infnan
0x0002e9e5 T _btod_etento
0x0002eabd T _get_lc_numeric
0x0002eae9 T __rt_SIGRTRED_inner
0x0002eb1d T __rt_SIGRTMEM_inner
0x0002eb6d T _get_lc_ctype
0x0002eb99 T __hardfp_atan2
0x0002ed41 T __hardfp_cos
0x0002edf9 T __hardfp_floor
0x0002eee9 T __hardfp_sin
0x0002efa1 T __hardfp_atan
0x0002f1a1 T __kernel_cos
0x0002f279 T __ieee754_rem_pio2
0x0002f579 T __kernel_sin
0x0002f621 T __mathlib_dbl_underflow
0x0002f700 A app_export_init_info_to_qsee
0x0002f730 A qsee_printf_syscall
0x0002f748 A qsee_wait_default_signal_syscall
0x0002f774 A qsee_generic_syscall
0x0002f798 A mink_generic_syscall
0x000300c1 D inflate_copyright
0x000300f0 D z_errmsg
0x00030269 D __stdin_name
0x0003026d D __stdout_name
0x00030271 D __stderr_name
0x00030c40 D commandsLen
0x000366f8 D gdCosT
0x00036c98 D gdSinT
0x000392fd D __ctype
0x000394c8 D __mathlib_zero
0x0003a004 D pgCmnlib
0x0003a008 D tzapp_lib
0x0003a00c D cmnlib_rw_base
0x0003a010 D app_rw_base
0x0003a014 D __stack_chk_guard
0x0003a018 D dummy_str
0x0003a01c D app_cmd_invoker_obj
0x0003a024 D mink_api_service_obj
0x0003a02c D mink_user_sscall_service_obj
0x0003a034 D mink_opener_obj
0x0003a03c D magic_num
0x0003a050 D magic_num_index_array
0x0003a05c D sse_log_tag
0x0003a064 D g_initialized
0x0003a068 D commands
0x0003a0e8 D TZ_APP_NAME
0x0003a158 D g_sid
0x0003a15c D g_touch_callback
0x0003a160 D g_width
0x0003a164 D g_height
0x0003a1a8 D g_drTs_sid
0x0003a1ac D g_fingers_ptr
0x0003a3ac D gdFontgdfontqcomreg100propExt
0x0003a3b0 D gdFontgdfontqcomreg100propData
0x0007bb30 D gdFontgdfontqcomreg100propRep
0x0007bb44 D gdFontgdfontqcomreg100monoExt
0x0007bb48 D gdFontgdfontqcomreg100monoData
0x000b53f4 D gdFontgdfontqcomreg100monoRep
0x000b5408 D gdFontgdfontqcomreg42propExt
0x000b540c D gdFontgdfontqcomreg42propData
0x000cd248 D gdFontgdfontqcomreg42propRep
0x000cd25c D gdFontgdfontqcomreg30propExt
0x000cd260 D gdFontgdfontqcomreg30propData
0x000ded1c D gdFontgdfontqcomreg30propRep
0x000ded30 D gdFontgdfontqcomreg48propExt
0x000ded34 D gdFontgdfontqcomreg48propData
0x000fa620 D gdFontgdfontqcomreg48propRep
0x000fa68c D bgi_buffer_11
0x000fb277 D bgi_buffer_25
0x000fcbc0 D bgi_buffer_52
0x000fdbea D bgi_buffer_10
0x000fec6a D bgi_buffer_45
0x001006e3 D bgi_buffer_53
0x0010202c D bgi_buffer_55
0x00103536 D bgi_buffer_58
0x00104a40 D bgi_buffer_57
0x001064ba D bgi_buffer_35
0x00107391 D bgi_buffer_9
0x001087a9 D bgi_buffer_30
0x001095fe D bgi_buffer_56
0x0010af47 D bgi_buffer_31
0x0010bd9c D bgi_buffer_50
0x0010d2f8 D bgi_buffer_33
0x0010e378 D bgi_buffer_20
0x0010eef3 D bgi_buffer_42
0x0010fd48 D bgi_buffer_54
0x001117c2 D bgi_buffer_5
0x00112934 D bgi_buffer_59
0x00119d9b D bgi_buffer_51
0x0011b45e D bgi_buffer_39
0x0011cd93 D bgi_buffer_19
0x0011d90e D bgi_buffer_2
0x00124d51 D bgi_buffer_37
0x0012645a D bgi_buffer_44
0x00127d1f D bgi_buffer_46
0x001292a0 D bgi_buffer_43
0x0012a0f5 D bgi_buffer_36
0x0012b752 D bgi_buffer_34
0x0012c6fd D bgi_buffer_28
0x0012c947 D bgi_buffer_8
0x0012dec2 D bgi_buffer_26
0x0012f93c D bgi_buffer_12
0x0013063f D bgi_buffer_29
0x00130889 D bgi_buffer_6
0x00131b22 D bgi_buffer_47
0x001333e7 D bgi_buffer_49
0x00134968 D bgi_buffer_1
0x0013bdcf D bgi_buffer_48
0x0013d848 D bgi_buffer_40
0x0013f2a6 D bgi_buffer_21
0x0013fe20 D bgi_buffer_0
0x00147276 D bgi_buffer_27
0x00148784 D __aeabi_stdin
0x00148788 D __aeabi_stdout
0x0014878c D __aeabi_stderr
0x00148794 D g_config
0x00148b94 D gAppCntxt
0x00148ba8 D application_heap
0x00148bdc D mem_magic_number
0x00148be8 D apps_request_resp
0x00148bfc D acceptBuf
0x00148cfc D g_userReg
0x0014901a D g_so_token
0x00149205 D g_desc
0x0014abc4 D g_ts_dr_func
0x0015c8f0 D img_array
0x001b4730 D layout_images_buffers
0x001b4820 D __stdin
0x001b4874 D __stdout
0x001b48c8 D __stderr
