


ARM Macro Assembler    Page 1 


    1 00000000         ;
    2 00000000         ;
    3 00000000         ; CPSR Control Masks 
    4 00000000 00000040 
                       PSR_Fiq_Mask
                               EQU              0x40
    5 00000000 00000080 
                       PSR_Irq_Mask
                               EQU              0x80
    6 00000000         ; Processor mode definitions 
    7 00000000 00000013 
                       PSR_Supervisor
                               EQU              0x13
    8 00000000         ;
    9 00000000         ; Stack sizes
   10 00000000         ;If this value has to be changed, please also change in 
                       emmcbld_main.c
   11 00000000 00004000 
                       SVC_Stack_Size
                               EQU              0x4000
   12 00000000         ;
   13 00000000                 IMPORT           main_c
   14 00000000         ;IMPORT  svc_stack
   15 00000000                 IMPORT           memory_init
   16 00000000                 IMPORT           zero_init_needed
   17 00000000                 IMPORT           emmcbld_bsp_hw_init
   18 00000000                 IMPORT           |Image$$ZI_DATA$$ZI$$Base|
   19 00000000                 IMPORT           |Image$$ZI_DATA$$ZI$$Limit|
   20 00000000                 EXPORT           __main
   21 00000000                 EXPORT           __emmcbld_entry
   22 00000000                 PRESERVE8
   23 00000000                 AREA             EMMCBLD_ENTRY_POINT, CODE, READ
ONLY
   24 00000000                 CODE32
   25 00000000         ;=======================================================
                       ================
   26 00000000         ; MACRO mmu_set_default_cfg
   27 00000000         ; ARGS
   28 00000000         ;   NONE
   29 00000000         ; DESCRIPTION
   30 00000000         ;   Sets a default value into the mmu control register
   31 00000000         ;   we do not really need to do this, but we do it to
   32 00000000         ;   know exactly the state of the processor
   33 00000000         ;=======================================================
                       ================
   34 00000000                 MACRO
   35 00000000                 mmu_set_default_cfg
   36 00000000                 ldr              r0, = 0x00050078
   37 00000000                 MCR              p15, 0, r0, c1, c0, 0
   38 00000000                 MEND
   39 00000000         ;=======================================================
                       ================
   40 00000000         ;=======================================================
                       ================
   41 00000000         ; MACRO mmu_enable_i_cache
   42 00000000         ; ARGS
   43 00000000         ;  NONE
   44 00000000         ; DESCRIPTION
   45 00000000         ;  Enables the I Cache



ARM Macro Assembler    Page 2 


   46 00000000         ;  Does a read modify write, so no other bits in the con
                       trol register a
   47 00000000         ;  affected
   48 00000000         ;=======================================================
                       ================
   49 00000000                 MACRO
   50 00000000                 mmu_enable_i_cache
   51 00000000                 mrc              p15, 0 , r0, c1, c0, 0
   52 00000000                 orr              r0, r0, # (1 << 12 )
   53 00000000                 mcr              p15, 0 , r0, c1, c0, 0
   54 00000000                 MEND
   55 00000000         ;=======================================================
                       ================
   56 00000000         ;=======================================================
                       ================
   57 00000000         ; MACRO init_zi
   58 00000000         ; ARGS
   59 00000000         ;  NONE
   60 00000000         ; DESCRIPTION
   61 00000000         ;  Initializes the zero-init region (.bss) to zero
   62 00000000         ;  r0  = start of ZI
   63 00000000         ;  r1  = end of ZI
   64 00000000         ;  r2  = 0 (for initializing memory) 
   65 00000000         ;  r3  = watchdog register
   66 00000000         ;  r4  = 1 (for kicking the dog)
   67 00000000         ;=======================================================
                       ================
   68 00000000                 MACRO
   69 00000000                 init_zi
   70 00000000                 ldr              r0, =|Image$$ZI_DATA$$ZI$$Base|
   71 00000000                 ldr              r1, =|Image$$ZI_DATA$$ZI$$Limit
|
   72 00000000                 mov              r4, #0x1
   73 00000000                 mov              r2,#0
   74 00000000         init_zi_label
   75 00000000                 cmp              r0,r1       ; unsigned compare,
                                                             clear c on borrow
   76 00000000                 strcc            r2,[r0],#4  ; str 0 in [r0] if 
                                                            r0 < r1
   77 00000000                 bcc              init_zi_label ; loop while ro <
                                                             r1
   78 00000000                 MEND
   79 00000000         ;=======================================================
                       ================
   80 00000000         ;=======================================================
                       ================
   81 00000000         ; MACRO reloc_data
   82 00000000         ; ARGS
   83 00000000         ;  NONE
   84 00000000         ; DESCRIPTION
   85 00000000         ;  Relocates the RW data for eHOSTDL
   86 00000000         ;  r0  = start of dest mem
   87 00000000         ;  r1  = end of dest mem (length of data to be relocated
                       )
   88 00000000         ;  r2  = start of src mem
   89 00000000         ;  r3  = watchdog register
   90 00000000         ;  r4  = 1 (for kicking the dog)
   91 00000000         ;  r5  = tmp data holder for data relocation
   92 00000000         ;=======================================================



ARM Macro Assembler    Page 3 


                       ================
   93 00000000                 MACRO
   94 00000000                 reloc_data
   95 00000000                 ldr              r0, =|Image$$APP_RAM$$Base|
   96 00000000                 ldr              r1, =|Image$$APP_RAM$$ZI$$Base|
   97 00000000                 mov              r4, #0x1
   98 00000000                 ldr              r2, =|Load$$APP_RAM$$Base|
   99 00000000         reloc_data_label
  100 00000000                 cmp              r0,r1       ; unsigned compare,
                                                             clear c on borrow
  101 00000000                 ldrcc            r5,[r2],#4  ; Load [r2] to r5, 
                                                            increment [r2] if r
                                                            0 < r1
  102 00000000                 strcc            r5,[r0],#4  ; str r5 at [r0],  
                                                            increment [r0] if r
                                                            0 < r1
  103 00000000                 bcc              reloc_data_label ; loop while r
                                                            o < r1
  104 00000000                 MEND
  105 00000000         ;=======================================================
                       ================
  106 00000000         ;
  107 00000000         __main
  108 00000000         __emmcbld_entry
  109 00000000                 ENTRY
  110 00000000         ; Supervisor Mode
  111 00000000         ; Set up the Supervisor stack pointer.
  112 00000000 E321F0D3        msr              CPSR_c, #PSR_Supervisor:OR:PSR_
Irq_Mask:OR:PSR_Fiq_Mask
  113 00000004 E59FD02C        ldr              r13, =0x08035000
  114 00000008                 init_zi
   70 00000008 E59F002C        ldr              r0, =|Image$$ZI_DATA$$ZI$$Base|
   71 0000000C E59F102C        ldr              r1, =|Image$$ZI_DATA$$ZI$$Limit
|
   72 00000010 E3A04001        mov              r4, #0x1
   73 00000014 E3A02000        mov              r2,#0
   74 00000018         init_zi_label
   75 00000018 E1500001        cmp              r0,r1       ; unsigned compare,
                                                             clear c on borrow
   76 0000001C 34802004        strcc            r2,[r0],#4  ; str 0 in [r0] if 
                                                            r0 < r1
   77 00000020 3AFFFFFC        bcc              init_zi_label ; loop while ro <
                                                             r1
  115 00000024         ; ======================================================
                       ================
  116 00000024         ; Enable the instruction cache
  117 00000024         ; ======================================================
                       ================
  118 00000024         ;mmu_set_default_cfg
  119 00000024         ;mmu_enable_i_cache
  120 00000024         ; ======================================================
                       ================
  121 00000024         ; Initialize memory for C only once
  122 00000024         ;   The test/set of the global variable must be done her
                       e in assembly
  123 00000024         ;   because if we access a global variable in the C func
                       tion, the
  124 00000024         ;   compiler will construct a PUSH/POP of registers and 
                       since we will



ARM Macro Assembler    Page 4 


  125 00000024         ;   have just zeroed the stack, we will pop zero into R1
                       4 and then
  126 00000024         ;   branch to zero.  With no use of globals in the C fun
                       ction,
  127 00000024         ;   the compiler will generate a bx r14 for the return a
                       nd all will
  128 00000024         ;   work correctly.
  129 00000024         ; ======================================================
                       ================
  130 00000024         ; indicate zero init completed
  131 00000024 E59F2018        ldr              r2, =zero_init_needed
  132 00000028 E3A00000        mov              r0, #0x0
  133 0000002C E5820000        str              r0, [r2]
  134 00000030         ; Enter C code execution
  135 00000030         ;ldr     r13, =svc_stack+SVC_Stack_Size
  136 00000030         ;;loop_forever
  137 00000030         ;;  b loop_forever
  138 00000030 E59F0010        ldr              a1, =main_c
  139 00000034 E12FFF10        bx               a1
  140 00000038                 END
              08035000 
              00000000 
              00000000 
              00000000 
              00000000 
Command Line: --cpu=7-A.security --apcs=/noswst/interwork -o/local/mnt/workspac
e/CRMBuilds/BOOT.BF.3.0.c8-00023-M8936AAAAANAZB-1_20170728_035427/b/boot_images
/core/bsp/tools/emmcbld/build/emmcbld_start.o -I/local/mnt/workspace/CRMBuilds/
BOOT.BF.3.0.c8-00023-M8936AAAAANAZB-1_20170728_035427/b/boot_images/core/bsp/to
ols/emmcbld/build -I/local/mnt/workspace/CRMBuilds/BOOT.BF.3.0.c8-00023-M8936AA
AAANAZB-1_20170728_035427/b/boot_images/core/storage/tools/emmcbld/src -I/local
/mnt/workspace/CRMBuilds/BOOT.BF.3.0.c8-00023-M8936AAAAANAZB-1_20170728_035427/
b/boot_images/build/cust -I. -I/local/mnt/workspace/CRMBuilds/BOOT.BF.3.0.c8-00
023-M8936AAAAANAZB-1_20170728_035427/b/boot_images/core/api/dal -I/local/mnt/wo
rkspace/CRMBuilds/BOOT.BF.3.0.c8-00023-M8936AAAAANAZB-1_20170728_035427/b/boot_
images/core/api/systemdrivers/hwio/msm8929 -I/local/mnt/workspace/CRMBuilds/BOO
T.BF.3.0.c8-00023-M8936AAAAANAZB-1_20170728_035427/b/boot_images/core/buses/api
/spmi -I/local/mnt/workspace/CRMBuilds/BOOT.BF.3.0.c8-00023-M8936AAAAANAZB-1_20
170728_035427/b/boot_images/core/buses/api/icb -I/local/mnt/workspace/CRMBuilds
/BOOT.BF.3.0.c8-00023-M8936AAAAANAZB-1_20170728_035427/b/boot_images/core/buses
/api/uart -I/local/mnt/workspace/CRMBuilds/BOOT.BF.3.0.c8-00023-M8936AAAAANAZB-
1_20170728_035427/b/boot_images/core/buses/api/i2c -I/local/mnt/workspace/CRMBu
ilds/BOOT.BF.3.0.c8-00023-M8936AAAAANAZB-1_20170728_035427/b/boot_images/core/a
pi/debugtools -I/local/mnt/workspace/CRMBuilds/BOOT.BF.3.0.c8-00023-M8936AAAAAN
AZB-1_20170728_035427/b/boot_images/core/api/hwengines -I/local/mnt/workspace/C
RMBuilds/BOOT.BF.3.0.c8-00023-M8936AAAAANAZB-1_20170728_035427/b/boot_images/co
re/api/mproc -I/local/mnt/workspace/CRMBuilds/BOOT.BF.3.0.c8-00023-M8936AAAAANA
ZB-1_20170728_035427/b/boot_images/core/api/power -I/local/mnt/workspace/CRMBui
lds/BOOT.BF.3.0.c8-00023-M8936AAAAANAZB-1_20170728_035427/b/boot_images/core/ap
i/securemsm -I/local/mnt/workspace/CRMBuilds/BOOT.BF.3.0.c8-00023-M8936AAAAANAZ
B-1_20170728_035427/b/boot_images/core/securemsm/secboot/api -I/local/mnt/works
pace/CRMBuilds/BOOT.BF.3.0.c8-00023-M8936AAAAANAZB-1_20170728_035427/b/boot_ima
ges/core/api/kernel/libstd/stringl -I/local/mnt/workspace/CRMBuilds/BOOT.BF.3.0
.c8-00023-M8936AAAAANAZB-1_20170728_035427/b/boot_images/core/api/services -I/l
ocal/mnt/workspace/CRMBuilds/BOOT.BF.3.0.c8-00023-M8936AAAAANAZB-1_20170728_035
427/b/boot_images/core/api/storage -I/local/mnt/workspace/CRMBuilds/BOOT.BF.3.0
.c8-00023-M8936AAAAANAZB-1_20170728_035427/b/boot_images/core/api/systemdrivers
 -I/local/mnt/workspace/CRMBuilds/BOOT.BF.3.0.c8-00023-M8936AAAAANAZB-1_2017072
8_035427/b/boot_images/core/api/systemdrivers/pmic -I/local/mnt/workspace/CRMBu



ARM Macro Assembler    Page 5 


ilds/BOOT.BF.3.0.c8-00023-M8936AAAAANAZB-1_20170728_035427/b/boot_images/core/a
pi/wiredconnectivity -I/local/mnt/workspace/CRMBuilds/BOOT.BF.3.0.c8-00023-M893
6AAAAANAZB-1_20170728_035427/b/boot_images/core/api/kernel/libstd -I/local/mnt/
workspace/CRMBuilds/BOOT.BF.3.0.c8-00023-M8936AAAAANAZB-1_20170728_035427/b/boo
t_images/core/dal/src -I/local/mnt/workspace/CRMBuilds/BOOT.BF.3.0.c8-00023-M89
36AAAAANAZB-1_20170728_035427/b/boot_images/core/dal/config -I/local/mnt/worksp
ace/CRMBuilds/BOOT.BF.3.0.c8-00023-M8936AAAAANAZB-1_20170728_035427/b/boot_imag
es/core/debugtools/version/src -I/local/mnt/workspace/CRMBuilds/BOOT.BF.3.0.c8-
00023-M8936AAAAANAZB-1_20170728_035427/b/boot_images/core/mproc/smem/inc -I/loc
al/mnt/workspace/CRMBuilds/BOOT.BF.3.0.c8-00023-M8936AAAAANAZB-1_20170728_03542
7/b/boot_images/core/securemsm/cryptodrivers/ce/shared/inc -I/local/mnt/workspa
ce/CRMBuilds/BOOT.BF.3.0.c8-00023-M8936AAAAANAZB-1_20170728_035427/b/boot_image
s/core/securemsm/cryptodrivers/ce/test/inc -I/local/mnt/workspace/CRMBuilds/BOO
T.BF.3.0.c8-00023-M8936AAAAANAZB-1_20170728_035427/b/boot_images/core/securemsm
/cryptodrivers/prng/shared/inc -I/local/mnt/workspace/CRMBuilds/BOOT.BF.3.0.c8-
00023-M8936AAAAANAZB-1_20170728_035427/b/boot_images/core/securemsm/cryptodrive
rs/prng/test/inc -I/local/mnt/workspace/CRMBuilds/BOOT.BF.3.0.c8-00023-M8936AAA
AANAZB-1_20170728_035427/b/boot_images/core/securemsm/cryptodrivers/prng/shared
/src -I/local/mnt/workspace/CRMBuilds/BOOT.BF.3.0.c8-00023-M8936AAAAANAZB-1_201
70728_035427/b/boot_images/core/api/securemsm/secboot -I/local/mnt/workspace/CR
MBuilds/BOOT.BF.3.0.c8-00023-M8936AAAAANAZB-1_20170728_035427/b/boot_images/cor
e/api/securemsm/seccfg -I/local/mnt/workspace/CRMBuilds/BOOT.BF.3.0.c8-00023-M8
936AAAAANAZB-1_20170728_035427/b/boot_images/core/securemsm/secmath/shared/inc 
-I/local/mnt/workspace/CRMBuilds/BOOT.BF.3.0.c8-00023-M8936AAAAANAZB-1_20170728
_035427/b/boot_images/core/securemsm/fuseprov/chipset/msm8929/inc -I/local/mnt/
workspace/CRMBuilds/BOOT.BF.3.0.c8-00023-M8936AAAAANAZB-1_20170728_035427/b/boo
t_images/core/services/utils/src -I/local/mnt/workspace/CRMBuilds/BOOT.BF.3.0.c
8-00023-M8936AAAAANAZB-1_20170728_035427/b/boot_images/core/storage/flash/src/d
al -I/local/mnt/workspace/CRMBuilds/BOOT.BF.3.0.c8-00023-M8936AAAAANAZB-1_20170
728_035427/b/boot_images/core/storage/flash/src/hal -I/local/mnt/workspace/CRMB
uilds/BOOT.BF.3.0.c8-00023-M8936AAAAANAZB-1_20170728_035427/b/boot_images/core/
storage/flash/tools/inc -I/local/mnt/workspace/CRMBuilds/BOOT.BF.3.0.c8-00023-M
8936AAAAANAZB-1_20170728_035427/b/boot_images/core/storage/flash/inc -I/local/m
nt/workspace/CRMBuilds/BOOT.BF.3.0.c8-00023-M8936AAAAANAZB-1_20170728_035427/b/
boot_images/core/storage/sdcc/src -I/local/mnt/workspace/CRMBuilds/BOOT.BF.3.0.
c8-00023-M8936AAAAANAZB-1_20170728_035427/b/boot_images/core/storage/sdcc/src/h
al -I/local/mnt/workspace/CRMBuilds/BOOT.BF.3.0.c8-00023-M8936AAAAANAZB-1_20170
728_035427/b/boot_images/core/storage/sdcc/src/bsp -I/local/mnt/workspace/CRMBu
ilds/BOOT.BF.3.0.c8-00023-M8936AAAAANAZB-1_20170728_035427/b/boot_images/core/s
torage/efs/inc -I/local/mnt/workspace/CRMBuilds/BOOT.BF.3.0.c8-00023-M8936AAAAA
NAZB-1_20170728_035427/b/boot_images/core/storage/hfat/inc -I/local/mnt/workspa
ce/CRMBuilds/BOOT.BF.3.0.c8-00023-M8936AAAAANAZB-1_20170728_035427/b/boot_image
s/core/storage/hotplug/inc -I/local/mnt/workspace/CRMBuilds/BOOT.BF.3.0.c8-0002
3-M8936AAAAANAZB-1_20170728_035427/b/boot_images/core/storage/tools/emmcbld/inc
 -I/local/mnt/workspace/CRMBuilds/BOOT.BF.3.0.c8-00023-M8936AAAAANAZB-1_2017072
8_035427/b/boot_images/core/storage/tools/deviceprogrammer/src/firehose -I/loca
l/mnt/workspace/CRMBuilds/BOOT.BF.3.0.c8-00023-M8936AAAAANAZB-1_20170728_035427
/b/boot_images/core/storage/ufs/src -I/local/mnt/workspace/CRMBuilds/BOOT.BF.3.
0.c8-00023-M8936AAAAANAZB-1_20170728_035427/b/boot_images/core/storage/ufs/src/
bsp -I/local/mnt/workspace/CRMBuilds/BOOT.BF.3.0.c8-00023-M8936AAAAANAZB-1_2017
0728_035427/b/boot_images/core/systemdrivers/tlmm/inc -I/local/mnt/workspace/CR
MBuilds/BOOT.BF.3.0.c8-00023-M8936AAAAANAZB-1_20170728_035427/b/boot_images/cor
e/systemdrivers/tlmm/src -I/local/mnt/workspace/CRMBuilds/BOOT.BF.3.0.c8-00023-
M8936AAAAANAZB-1_20170728_035427/b/boot_images/core/wiredconnectivity/qhsusb/in
c --list=/local/mnt/workspace/CRMBuilds/BOOT.BF.3.0.c8-00023-M8936AAAAANAZB-1_2
0170728_035427/b/boot_images/core/bsp/tools/emmcbld/build/emmcbld_start.o.lst -
-sitelicense /local/mnt/workspace/CRMBuilds/BOOT.BF.3.0.c8-00023-M8936AAAAANAZB
-1_20170728_035427/b/boot_images/core/bsp/tools/emmcbld/build/emmcbld_start.o.i
