/******************************************************************************
                                TEXT and RODATA
******************************************************************************/
__dynrec_text_start_rfc_77 = .;
*modem_proc/rfc_dimepm/rf_card/rfc_wtr4905_msm8929_ct_4m/?*:(.text .text.* .rodata .rodata.*)
. = ALIGN(4K);
__dynrec_text_end_rfc_77 = .;

__dynrec_text_start_rfc_53 = .;
*modem_proc/rfc_dimepm/rf_card/rfc_wtr4905_chile_asdiv_prx/?*:(.text .text.* .rodata .rodata.*)
. = ALIGN(4K);
__dynrec_text_end_rfc_53 = .;

__dynrec_text_start_rfc_150 = .;
*modem_proc/rfc_dimepm/rf_card/rfc_wtr4905_chile_sawless_v2/?*:(.text .text.* .rodata .rodata.*)
. = ALIGN(4K);
__dynrec_text_end_rfc_150 = .;

__dynrec_text_start_rfc_66 = .;
*modem_proc/rfc_dimepm/rf_card/rfc_wtr4905_china_sawless_3m/?*:(.text .text.* .rodata .rodata.*)
. = ALIGN(4K);
__dynrec_text_end_rfc_66 = .;

__dynrec_text_start_rfc_51 = .;
*modem_proc/rfc_dimepm/rf_card/rfc_wtr4905_svlte_na1/?*:(.text .text.* .rodata .rodata.*)
. = ALIGN(4K);
__dynrec_text_end_rfc_51 = .;

__dynrec_text_start_rfc_151 = .;
*modem_proc/rfc_dimepm/rf_card/rfc_wtr4905_china_v2/?*:(.text .text.* .rodata .rodata.*)
. = ALIGN(4K);
__dynrec_text_end_rfc_151 = .;

__dynrec_text_start_rfc_50 = .;
*modem_proc/rfc_dimepm/rf_card/rfc_wtr4905_chile_sawless/?*:(.text .text.* .rodata .rodata.*)
. = ALIGN(4K);
__dynrec_text_end_rfc_50 = .;

__dynrec_text_start_rfc_168 = .;
*modem_proc/rfc_dimepm/rf_card/rfc_wtr4905_jp_v2/?*:(.text .text.* .rodata .rodata.*)
. = ALIGN(4K);
__dynrec_text_end_rfc_168 = .;

__dynrec_text_start_rfc_351 = .;
*modem_proc/rfc_dimepm/rf_card/rfc_wtr4905_svlte_na1_v2_h111/?*:(.text .text.* .rodata .rodata.*)
. = ALIGN(4K);
__dynrec_text_end_rfc_351 = .;

__dynrec_text_start_rfc_29 = .;
*modem_proc/rfc_dimepm/rf_card/rfc_wtr4905_china/?*:(.text .text.* .rodata .rodata.*)
. = ALIGN(4K);
__dynrec_text_end_rfc_29 = .;

__dynrec_text_start_rfc_154 = .;
*modem_proc/rfc_dimepm/rf_card/rfc_wtr4905_chile_asdiv_drx_v2/?*:(.text .text.* .rodata .rodata.*)
. = ALIGN(4K);
__dynrec_text_end_rfc_154 = .;

__dynrec_text_start_rfc_145 = .;
*modem_proc/rfc_dimepm/rf_card/rfc_wtr4905_chl_sxlte_dsda_h150/?*:(.text .text.* .rodata .rodata.*)
. = ALIGN(4K);
__dynrec_text_end_rfc_145 = .;

__dynrec_text_start_rfc_49 = .;
*modem_proc/rfc_dimepm/rf_card/rfc_wtr4905_chile_sxlte_dsda/?*:(.text .text.* .rodata .rodata.*)
. = ALIGN(4K);
__dynrec_text_end_rfc_49 = .;

__dynrec_text_start_rfc_146 = .;
*modem_proc/rfc_dimepm/rf_card/rfc_wtr4905_chile_sawless_h250/?*:(.text .text.* .rodata .rodata.*)
. = ALIGN(4K);
__dynrec_text_end_rfc_146 = .;

__dynrec_text_start_rfc_149 = .;
*modem_proc/rfc_dimepm/rf_card/rfc_wtr4905_chile_sxlte_dsda_v2/?*:(.text .text.* .rodata .rodata.*)
. = ALIGN(4K);
__dynrec_text_end_rfc_149 = .;

__dynrec_text_start_rfc_52 = .;
*modem_proc/rfc_dimepm/rf_card/rfc_wtr4905_na2/?*:(.text .text.* .rodata .rodata.*)
. = ALIGN(4K);
__dynrec_text_end_rfc_52 = .;

__dynrec_text_start_rfc_251 = .;
*modem_proc/rfc_dimepm/rf_card/rfc_wtr4905_svlte_na1_v2/?*:(.text .text.* .rodata .rodata.*)
. = ALIGN(4K);
__dynrec_text_end_rfc_251 = .;

__dynrec_text_start_rfc_76 = .;
*modem_proc/rfc_dimepm/rf_card/rfc_wtr4905_msm8929_cmcc_3m/?*:(.text .text.* .rodata .rodata.*)
. = ALIGN(4K);
__dynrec_text_end_rfc_76 = .;

__dynrec_text_start_rfc_153 = .;
*modem_proc/rfc_dimepm/rf_card/rfc_wtr4905_na2_v2/?*:(.text .text.* .rodata .rodata.*)
. = ALIGN(4K);
__dynrec_text_end_rfc_153 = .;

__dynrec_text_start_rfc_68 = .;
*modem_proc/rfc_dimepm/rf_card/rfc_wtr4905_jp/?*:(.text .text.* .rodata .rodata.*)
. = ALIGN(4K);
__dynrec_text_end_rfc_68 = .;

__dynrec_text_start_rfc_54 = .;
*modem_proc/rfc_dimepm/rf_card/rfc_wtr4905_chile_asdiv_drx/?*:(.text .text.* .rodata .rodata.*)
. = ALIGN(4K);
__dynrec_text_end_rfc_54 = .;

__dynrec_text_start_rfc_69 = .;
*modem_proc/rfc_dimepm/rf_card/rfc_wtr4905_china_sawless_3m_v1/?*:(.text .text.* .rodata .rodata.*)
. = ALIGN(4K);
__dynrec_text_end_rfc_69 = .;

__dynrec_text_start_unspecified = .;
*modem_proc/rfc_dimepm/rf_card/?*:(.text .text.* .rodata .rodata.*)
. = ALIGN(4K);
__dynrec_text_end_unspecified = .;

/******************************************************************************
                                DATA
******************************************************************************/
__dynrec_data_start_rfc_77 = .;
*modem_proc/rfc_dimepm/rf_card/rfc_wtr4905_msm8929_ct_4m/?*:(.data .data.*)
. = ALIGN(4K);
__dynrec_data_end_rfc_77 = .;

__dynrec_data_start_rfc_53 = .;
*modem_proc/rfc_dimepm/rf_card/rfc_wtr4905_chile_asdiv_prx/?*:(.data .data.*)
. = ALIGN(4K);
__dynrec_data_end_rfc_53 = .;

__dynrec_data_start_rfc_150 = .;
*modem_proc/rfc_dimepm/rf_card/rfc_wtr4905_chile_sawless_v2/?*:(.data .data.*)
. = ALIGN(4K);
__dynrec_data_end_rfc_150 = .;

__dynrec_data_start_rfc_66 = .;
*modem_proc/rfc_dimepm/rf_card/rfc_wtr4905_china_sawless_3m/?*:(.data .data.*)
. = ALIGN(4K);
__dynrec_data_end_rfc_66 = .;

__dynrec_data_start_rfc_51 = .;
*modem_proc/rfc_dimepm/rf_card/rfc_wtr4905_svlte_na1/?*:(.data .data.*)
. = ALIGN(4K);
__dynrec_data_end_rfc_51 = .;

__dynrec_data_start_rfc_151 = .;
*modem_proc/rfc_dimepm/rf_card/rfc_wtr4905_china_v2/?*:(.data .data.*)
. = ALIGN(4K);
__dynrec_data_end_rfc_151 = .;

__dynrec_data_start_rfc_50 = .;
*modem_proc/rfc_dimepm/rf_card/rfc_wtr4905_chile_sawless/?*:(.data .data.*)
. = ALIGN(4K);
__dynrec_data_end_rfc_50 = .;

__dynrec_data_start_rfc_168 = .;
*modem_proc/rfc_dimepm/rf_card/rfc_wtr4905_jp_v2/?*:(.data .data.*)
. = ALIGN(4K);
__dynrec_data_end_rfc_168 = .;

__dynrec_data_start_rfc_351 = .;
*modem_proc/rfc_dimepm/rf_card/rfc_wtr4905_svlte_na1_v2_h111/?*:(.data .data.*)
. = ALIGN(4K);
__dynrec_data_end_rfc_351 = .;

__dynrec_data_start_rfc_29 = .;
*modem_proc/rfc_dimepm/rf_card/rfc_wtr4905_china/?*:(.data .data.*)
. = ALIGN(4K);
__dynrec_data_end_rfc_29 = .;

__dynrec_data_start_rfc_154 = .;
*modem_proc/rfc_dimepm/rf_card/rfc_wtr4905_chile_asdiv_drx_v2/?*:(.data .data.*)
. = ALIGN(4K);
__dynrec_data_end_rfc_154 = .;

__dynrec_data_start_rfc_145 = .;
*modem_proc/rfc_dimepm/rf_card/rfc_wtr4905_chl_sxlte_dsda_h150/?*:(.data .data.*)
. = ALIGN(4K);
__dynrec_data_end_rfc_145 = .;

__dynrec_data_start_rfc_49 = .;
*modem_proc/rfc_dimepm/rf_card/rfc_wtr4905_chile_sxlte_dsda/?*:(.data .data.*)
. = ALIGN(4K);
__dynrec_data_end_rfc_49 = .;

__dynrec_data_start_rfc_146 = .;
*modem_proc/rfc_dimepm/rf_card/rfc_wtr4905_chile_sawless_h250/?*:(.data .data.*)
. = ALIGN(4K);
__dynrec_data_end_rfc_146 = .;

__dynrec_data_start_rfc_149 = .;
*modem_proc/rfc_dimepm/rf_card/rfc_wtr4905_chile_sxlte_dsda_v2/?*:(.data .data.*)
. = ALIGN(4K);
__dynrec_data_end_rfc_149 = .;

__dynrec_data_start_rfc_52 = .;
*modem_proc/rfc_dimepm/rf_card/rfc_wtr4905_na2/?*:(.data .data.*)
. = ALIGN(4K);
__dynrec_data_end_rfc_52 = .;

__dynrec_data_start_rfc_251 = .;
*modem_proc/rfc_dimepm/rf_card/rfc_wtr4905_svlte_na1_v2/?*:(.data .data.*)
. = ALIGN(4K);
__dynrec_data_end_rfc_251 = .;

__dynrec_data_start_rfc_76 = .;
*modem_proc/rfc_dimepm/rf_card/rfc_wtr4905_msm8929_cmcc_3m/?*:(.data .data.*)
. = ALIGN(4K);
__dynrec_data_end_rfc_76 = .;

__dynrec_data_start_rfc_153 = .;
*modem_proc/rfc_dimepm/rf_card/rfc_wtr4905_na2_v2/?*:(.data .data.*)
. = ALIGN(4K);
__dynrec_data_end_rfc_153 = .;

__dynrec_data_start_rfc_68 = .;
*modem_proc/rfc_dimepm/rf_card/rfc_wtr4905_jp/?*:(.data .data.*)
. = ALIGN(4K);
__dynrec_data_end_rfc_68 = .;

__dynrec_data_start_rfc_54 = .;
*modem_proc/rfc_dimepm/rf_card/rfc_wtr4905_chile_asdiv_drx/?*:(.data .data.*)
. = ALIGN(4K);
__dynrec_data_end_rfc_54 = .;

__dynrec_data_start_rfc_69 = .;
*modem_proc/rfc_dimepm/rf_card/rfc_wtr4905_china_sawless_3m_v1/?*:(.data .data.*)
. = ALIGN(4K);
__dynrec_data_end_rfc_69 = .;

__dynrec_data_start_unspecified = .;
*modem_proc/rfc_dimepm/rf_card/?*:(.data .data.*)
. = ALIGN(4K);
__dynrec_data_end_unspecified = .;

