<!-- NOTE: DAL config has trouble parsing multi-line comment, so please put -->
<!--       proper comment tags on each line                                 -->
<!--                                                                        -->
<!-- Clock Driver Properties file                                           -->
<!-- Note we depend on the include path for the following directories to be -->
<!-- available to the DAL config compiler:                                  -->
<!-- "${INC_ROOT}/core/systemdrivers/hal/clk/inc",                          -->
<!-- "${INC_ROOT}/core/systemdrivers/clock/src",                            -->
<!-- "${INC_ROOT}/core/systemdrivers/clock/config"                          -->
<!-- "${INC_ROOT}/core/systemdrivers/clock/config/${CHIPSET}"               -->
<driver name="Clock">
  <device id=DALDEVICEID_CLOCK>
<!-- Clock sources -->
<props name="ClockSources" type=DALPROP_ATTR_TYPE_STRUCT_PTR>
  SourceConfig
</props>
<!-- RPM Clocks -->
<props name="gcc_rpm_proc_fclk" type=DALPROP_ATTR_TYPE_STRUCT_PTR>
  RPMClockConfig
</props>
<!-- System NOC Clocks -->
<props name="gcc_sys_noc_axi_clk" type=DALPROP_ATTR_TYPE_STRUCT_PTR>
  SystemNOCClockConfig
</props>
<!-- System MMNOC Clocks -->
<props name="gcc_sys_mm_noc_axi_clk" type=DALPROP_ATTR_TYPE_STRUCT_PTR>
  SystemMMNOCClockConfig
</props>
<!-- Peripheral Config NOC Clocks -->
<props name="gcc_pcnoc_ahb_clk" type=DALPROP_ATTR_TYPE_STRUCT_PTR>
  PCNOClockConfig
</props>
<!-- BIMC Clocks -->
<props name="gcc_bimc_clk" type=DALPROP_ATTR_TYPE_STRUCT_PTR>
  BIMCClockConfig
  </props>
<!-- BIMC GPU Clock -->
<props name="gcc_bimc_gpu_clk" type=DALPROP_ATTR_TYPE_STRUCT_PTR>
  BIMCGPUClockConfig
  </props>
<!-- APSS_TCU_ASYNC Clock -->
<props name="gcc_apss_tcu_async_clk" type=DALPROP_ATTR_TYPE_STRUCT_PTR>
  APSSTCUASYNCClockConfig
</props>
  <!-- APSS_AXI Clock -->
  <props name="gcc_apss_axi_clk" type=DALPROP_ATTR_TYPE_STRUCT_PTR>
    APSSAXIClockConfig
  </props>
  <!-- Q6 TBU Clock -->
  <props name="gcc_mss_q6_bimc_axi_clk" type=DALPROP_ATTR_TYPE_STRUCT_PTR>
    Q6TBUClockConfig
  </props>
<!-- QDSS AT Clocks -->
<props name="gcc_qdss_at_clk" type=DALPROP_ATTR_TYPE_STRUCT_PTR>
  QDSSATClockConfig
</props>
<!-- QDSS Trace Clocks -->
<props name="gcc_qdss_traceclkin_clk" type=DALPROP_ATTR_TYPE_STRUCT_PTR>
  QDSSTraceClockConfig
</props>
<!-- QDSS STM Clocks -->
<props name="gcc_qdss_stm_clk" type=DALPROP_ATTR_TYPE_STRUCT_PTR>
  QDSSSTMClockConfig
</props>
<!-- QDSS TSCTR Div2 Clocks -->
<props name="gcc_qdss_tsctr_div2_clk" type=DALPROP_ATTR_TYPE_STRUCT_PTR>
  QDSSTSCTRDiv2ClockConfig
</props>
<!-- RBCPR Clocks -->
<props name="gcc_rbcpr_clk" type=DALPROP_ATTR_TYPE_STRUCT_PTR>
  RBCPRClockConfig
</props>
<!-- SPMI AHB Clocks -->
<props name="gcc_spmi_ahb_clk" type=DALPROP_ATTR_TYPE_STRUCT_PTR>
  SPMIAHBClockConfig
</props>
<!-- SPMI SER Clocks -->
<props name="gcc_spmi_ser_clk" type=DALPROP_ATTR_TYPE_STRUCT_PTR>
  SPMISERClockConfig
</props>
<!-- Clock Log Defaults -->
<props name="ClockLogDefaults" type=DALPROP_ATTR_TYPE_STRUCT_PTR>
  ClockLogDefaultConfig
</props>
  </device>
</driver>
