#<SYMDEFS># ARM Linker, 5.01 [Build 94]: Last Updated: Wed Feb  7 02:07:25 2018
0x00000000 A TZAPPENTRY
0x00000000 A __main
0x00000000 A _main
0x00000000 N _printf_flags
0x00000000 N _printf_return_value
0x00000000 N _printf_sizespec
0x00000000 N _printf_widthprec
0x00000064 A read_app_rw_base
0x00000070 A set_rw_base
0x0000007d T qsee_hash
0x000000a1 T qsee_hash_init
0x000000c3 T qsee_hash_reset
0x000000e3 T qsee_hash_update
0x00000107 T qsee_hash_final
0x0000012b T qsee_hash_free_ctx
0x0000014b T qsee_hash_set_param
0x0000016f T qsee_hashcipher_encrypt
0x000001a9 T qsee_hashcipher_decrypt
0x000001e3 T qsee_cipher_init
0x00000205 T qsee_cipher_reset
0x00000225 T qsee_cipher_free_ctx
0x00000245 T qsee_cipher_set_param
0x00000269 T qsee_cipher_get_param
0x0000028d T qsee_cipher_encrypt
0x000002b1 T qsee_cipher_decrypt
0x000002d5 T qsee_hmac
0x000002f9 T qsee_hmac_init
0x0000031b T qsee_hmac_update
0x0000033f T qsee_hmac_final
0x00000363 T qsee_hmac_free_ctx
0x00000383 T qsee_cmac
0x000003b9 T qsee_prng_getdata
0x000003db T qsee_crypto_lock_engine
0x000003fd T qsee_kdf_shim
0x0000041f T qsee_set_bandwidth
0x00000443 T qsee_dcache_inval_region
0x00000465 T qsee_dcache_flush_region
0x00000487 T qsee_dcache_clean_region
0x000004a9 T qsee_kdf
0x00000503 T qsee_sfs_getSize
0x00000535 T qsee_sfs_open
0x00000567 T qsee_sfs_close
0x00000597 T qsee_sfs_read
0x000005d7 T qsee_sfs_write
0x00000617 T qsee_sfs_seek
0x00000657 T qsee_sfs_mkdir
0x00000687 T qsee_sfs_rmdir
0x000006b7 T qsee_sfs_rm
0x000006e7 T qsee_sfs_error
0x00000717 T qsee_sfs_get_file_list
0x00000749 T qsee_sfs_clean_file_list
0x00000775 T qsee_sfs_is_anti_rollback_enabled
0x000007a3 T qsee_log
0x0000080d T open
0x0000083f T read
0x0000087f T write
0x000008bf T close
0x000008ef T lstat
0x00000921 T mkdir
0x00000953 T frename
0x00000985 T opendir
0x000009b3 T readdir
0x000009e3 T closedir
0x00000a11 T rmdir
0x00000a41 T testdir
0x00000a71 T file_get_partition_free_size
0x00000aa3 T fstat
0x00000ad5 T lseek
0x00000b15 T time_getsystime
0x00000b47 T time_getutcsec
0x00000b79 T time_gethlosutc
0x00000bab T time_is_leap_year
0x00000bdd T remove
0x00000c0f T unlink
0x00000c3f T link
0x00000c71 T telldir
0x00000ca3 T fsync
0x00000cd5 T openat
0x00000d15 T unlinkat
0x00000d55 T fcntl
0x00000d89 T creat
0x00000dbd T file_dir_chown_chmod
0x00000e1b T check_rpmb_handle
0x00000e45 T qsee_stor_device_init
0x00000e61 T qsee_stor_open_partition
0x00000e9b T qsee_stor_device_get_info
0x00000ed5 T qsee_stor_client_get_info
0x00000f0f T qsee_stor_add_partition
0x00000f47 T qsee_stor_read_sectors
0x00000f81 T qsee_stor_write_sectors
0x00000fbb T qsee_rsa_key_gen
0x00000fc9 T qsee_secpkcs8_parse
0x00000fd7 T qsee_rsa_sign_hash
0x00000ff5 T qsee_rsa_verify_signature
0x00001013 T qsee_rsa_encrypt
0x00001033 T qsee_rsa_decrypt
0x00001053 T qsee_BIGINT_read_unsigned_bin
0x00001061 T qsee_util_init_s_bigint
0x0000106f T qsee_util_free_s_bigint
0x00001073 T qsee_BIGINT_read_radix
0x00001083 T qsee_rsa_exptmod
0x0000109d T qsee_util_count_bytes
0x000010a1 T qsee_SW_ECC_PubPrivate_Key_generate
0x000010b1 T qsee_SW_ECDH_Shared_Key_Derive
0x000010c1 T qsee_SW_ECDSA_Sign
0x000010d1 T qsee_SW_ECDSA_Verify
0x000010e1 T qsee_SW_ECDH_mult_basepoint
0x000010f1 T qsee_ECC_hash_to_bigval
0x000010f5 T qsee_toggle_random_bit
0x000010f9 T qsee_get_random_bytes
0x000010fd T qsee_in_curveP
0x00001107 T qsee_SW_GENERIC_ECC_init
0x00001127 T qsee_SW_GENERIC_ECDSA_sign
0x0000113f T qsee_SW_GENERIC_ECDSA_verify
0x00001157 T qsee_SW_GENERIC_ECDH_shared_key_derive
0x00001167 T qsee_SW_GENERIC_ECC_keypair_generate
0x00001177 T qsee_SW_GENERIC_ECC_binary_to_bigval
0x0000118f T qsee_SW_GENERIC_ECC_bigval_to_binary
0x000011a7 T qsee_SW_GENERIC_ECC_compare
0x000011b7 T qsee_SW_ECDH_generate
0x000011bb T qsee_SW_ECDH_derive
0x000011c5 T qsee_SW_Hash_Init
0x000011c9 T qsee_SW_Hash_Update
0x000011cd T qsee_SW_Hash_Final
0x000011d1 T qsee_SW_Hmac
0x000011e5 T qsee_SW_Cipher_Init
0x000011e9 T qsee_SW_Cipher_DeInit
0x000011ed T qsee_SW_CipherData
0x000011f1 T qsee_SW_Cipher_SetParam
0x000011f5 T qsee_SW_Cipher_GetParam
0x000011f9 T qsee_SW_Cipher_DES_Init
0x000011fd T qsee_SW_Cipher_DES_DeInit
0x00001201 T qsee_SW_CipherDESData
0x00001205 T qsee_SW_Cipher_DES_SetParam
0x00001209 T qsee_get_uptime
0x0000122b T qsee_wdog_stop
0x0000124b T qsee_wdog_pet
0x0000126b T add_gpt_device_handle
0x00001331 T add_gpt_client
0x000013d1 T gpt_dev_init
0x000014e1 T gpt_qsee_read_sectors
0x00001675 T gpt_qsee_write_sectors
0x000017e1 T gpt_add_partitions
0x000019b1 T gpt_config_partitions
0x00001ab3 T gpt_init
0x00001be5 T gpt_open_partition
0x00001c91 T gpt_device_get_info
0x00001d1d T gpt_client_get_info
0x00001dab T gpt_add_partition
0x00001df7 T gpt_read_sectors
0x00001e99 T gpt_write_sectors
0x00001f3b T rpmbw_init
0x00001f6b T rpmbw_open_partition
0x00001f9d T rpmbw_device_get_info
0x00001fcb T rpmbw_client_get_info
0x00001ff9 T rpmbw_add_partition
0x00002029 T rpmbw_read_sectors
0x0000205b T rpmbw_write_sectors
0x0000208d T qsee_counter_set_folder
0x000020ad T qsee_create_counter
0x000020cb T qsee_query_counter
0x000020ed T qsee_increment_counter
0x0000210d T qsee_delete_counter
0x0000212d T qsee_query_rpmb_version
0x0000214d T qsee_query_rpmb_enablement
0x0000216d T memscpy
0x0000218b T strlcpy
0x000021cd T secure_memset
0x000021e1 T secmath_BIGINT_read_unsigned_bin
0x0000221f T secmath_BIGINT_read_radix
0x0000225d T secpkcs8_parse
0x0000229b T ce_rsa_key_gen
0x000022d7 T ce_rsa_encrypt
0x00002325 T ce_rsa_decrypt
0x00002373 T ce_rsa_sign_hash
0x000023cb T ce_rsa_verify_signature
0x00002423 T ce_util_init_s_bigint
0x00002451 T ce_util_free_s_bigint
0x0000247d T ce_util_count_bytes
0x000024ab T ce_rsa_exptmod
0x000024f5 T SW_ECC_PubPrivate_Key_generate
0x00002525 T SW_ECDH_Shared_Key_Derive
0x00002563 T SW_ECDSA_Sign
0x000025a1 T SW_ECDSA_Verify
0x000025df T SW_ECDH_mult_basepoint
0x0000260f T ECC_hash_to_bigval
0x0000264b T toggle_random_bit
0x0000267d T in_curveP
0x000026ab T get_random_bytes
0x000026dd T SW_GENERIC_ECC_init
0x00002735 T SW_GENERIC_ECDSA_sign
0x0000277b T SW_GENERIC_ECDSA_verify
0x000027c1 T SW_GENERIC_ECDH_shared_key_derive
0x000027fd T SW_GENERIC_ECC_keypair_generate
0x0000283b T SW_GENERIC_ECC_binary_to_bigval
0x00002881 T SW_GENERIC_ECC_bigval_to_binary
0x000028c7 T SW_GENERIC_ECC_compare
0x00002905 T SW_ECDH_generate
0x00002935 T SW_ECDH_derive
0x00002973 T SW_Cipher_Init
0x000029a3 T SW_Cipher_DeInit
0x000029d3 T SW_Cipher_Reset
0x00002a01 T SW_CipherData
0x00002a3d T SW_Cipher_SetParam
0x00002a79 T SW_Cipher_GetParam
0x00002ab5 T qsee_SW_AE_UpdateData
0x00002af1 T qsee_SW_AE_FinalData
0x00002b2d T qsee_SW_AE_UpdateAAD
0x00002b6b T SW_Cipher_DES_Init
0x00002b9b T SW_Cipher_DES_DeInit
0x00002bc9 T SW_CipherDESData
0x00002c05 T SW_Cipher_DES_SetParam
0x00002c41 T SW_Hash_Init
0x00002c71 T SW_Hash_Update
0x00002caf T SW_Hash_Final
0x00002cdf T SW_Hmac
0x00002d29 T memcmp
0x00002d81 T strlen
0x00002dbb T memset
0x00002dd1 T __aeabi_memset
0x00002de1 T __aeabi_memclr
0x00002de1 T __rt_memclr
0x00002de5 T _memset
0x00002e25 T __aeabi_memclr4
0x00002e25 T __aeabi_memclr8
0x00002e25 T __rt_memclr_w
0x00002e29 T _memset_w
0x00002e73 T __aeabi_uread4
0x00002e73 T __rt_uread4
0x00002e89 T __aeabi_uwrite4
0x00002e89 T __rt_uwrite4
0x00002e9f T __aeabi_uread8
0x00002e9f T __rt_uread8
0x00002ecd T __aeabi_uwrite8
0x00002ecd T __rt_uwrite8
0x00002ef7 T _printf_pre_padding
0x00002f25 T _printf_post_padding
0x00002f49 T _printf_truncate_signed
0x00002f5b T _printf_truncate_unsigned
0x00002f6d T _printf_str
0x00002fbf T _printf_charcount
0x00002fe9 T _sputc
0x00002ff3 T _snputc
0x00003003 T _is_digit
0x00003011 T _printf_n
0x00003011 T _printf_percent
0x00003017 T _printf_p
0x0000301d T _printf_f
0x00003023 T _printf_e
0x00003029 T _printf_g
0x0000302f T _printf_a
0x00003035 T _printf_ll
0x0000303f T _printf_i
0x00003045 T _printf_d
0x0000304b T _printf_u
0x00003051 T _printf_o
0x00003057 T _printf_x
0x0000305d T _printf_lli
0x00003063 T _printf_lld
0x00003069 T _printf_llu
0x0000306f T _printf_llo
0x00003075 T _printf_llx
0x0000307b T _printf_l
0x00003085 T _printf_c
0x0000308b T _printf_s
0x00003091 T _printf_lc
0x00003097 T _printf_ls
0x0000309d T _printf_percent_end
0x000030a1 T __rt_lib_init_cpp_2
0x000030a1 T __rt_lib_init_lc_ctype_2
0x000030a1 T __rt_lib_init_lc_numeric_2
0x000030a1 T _printf_fp_dec
0x000030a5 T _printf_int_common
0x0000315d T __lib_sel_fp_printf
0x00003309 T _printf_fp_dec_real
0x00003575 T _printf_cs_common
0x00003589 T _printf_char
0x00003599 T _printf_string
0x000035a1 T _printf_lcs_common
0x000035b5 T _printf_wchar
0x000035c5 T _printf_wstring
0x000035cd T _wcrtomb
0x0000360d T _btod_d2e
0x0000364b T _d2e_norm_op1
0x000036ab T _d2e_denorm_low
0x000036f1 T _btod_emul
0x00003719 T _btod_ediv
0x00003741 T _e2e
0x00003807 T __btod_mult_common
0x00003a4b T __btod_div_common
0x00003d83 T __ARM_fpclassify
0x00003d82 N __I$use$fp
0x00003db5 T qsee_err_fatal
0x00003dd7 T platform_err_fatal
0x00003dd9 T platform_get_random
0x00003ddd T __stack_chk_fail
0x00003ddf T _sys_command_string
0x00003de3 T get_stack_base
0x00003def T get_stack_size
0x00003e07 T get_app_maxObjs
0x00003e0b T get_app_acceptBufSize
0x00003e11 T get_app_acceptBuf
0x00003e1d T get_ta_app_name
0x00003e29 T qsee_cmnlib_free
0x00003e5f T qsee_cmnlib_malloc
0x00003e9b T qsee_mem_heap_get_totals
0x00003ecd T qsee_free
0x00003f01 T qsee_malloc
0x00003f37 T tzlib_app_entry
0x000040fb T get_app_entry
0x00004107 T server_exit
0x00004127 T serverLoop
0x0000417b T get_app_serverloop_entry
0x00004181 T get_app_req_resp
0x0000418d T qsee_read_register
0x000041ad T qsee_request_service
0x000041ff T qsee_wait
0x00004221 T qsee_register_shared_buffer
0x00004243 T qsee_deregister_shared_buffer
0x00004263 T qsee_prepare_shared_buf_for_nosecure_read
0x00004285 T qsee_prepare_shared_buf_for_secure_read
0x000042a7 T qsee_set_global_flag
0x000042c7 T qsee_get_global_flag
0x000042e9 T qsee_oem_process_cmd
0x0000430d T qsee_encapsulate_inter_app_message
0x00004331 T qsee_decapsulate_inter_app_message
0x00004355 T qsee_enforce_hdmi_hdcp_encryption
0x00004375 T qsee_get_secure_state
0x0000444d T tz_app_init
0x00004491 T tz_app_shutdown
0x000044a7 T tz_app_cmd_handler
0x00004d55 T generate_key_handler
0x000055e1 T get_key_charac_handler
0x00005e41 T get_supported_algorithms
0x00005f09 T get_supported_block_modes
0x00005fdb T get_supported_padding_modes
0x000060ad T get_supported_digests
0x0000617f T get_supported_import_formats
0x000063dd T get_supported_export_formats
0x000064e5 T key_op_abort_handler
0x00006c3d T key_op_finish_handler
0x0000740b T key_op_update_handler
0x00007bd7 T key_op_begin_handler
0x000083b7 T key_op_delete_handler
0x0000871d T key_op_delete_all_handler
0x000087dd T km_create_auth_token_key
0x00008813 T get_auth_token_key
0x0000885f T keymaster_get_derived_key_size
0x00008881 T keymaster_get_derived_key
0x00008a4d T hmac_key_material
0x00008a95 T encrypt_key_material
0x00008e1b T km_encrypt_hmac_key_material
0x00008f17 T decrypt_key_material
0x00009071 T auth_key_material
0x00009121 T km_decrypt_auth_key_material
0x00009371 T buffer_overflow_data
0x00009a51 T km_aes_generate_key
0x00009ab1 T km_aes_begin
0x00009c17 T km_aes_update
0x0000aa47 T km_aes_finish
0x0000afb3 T km_aes_abort
0x0000afef T km_aes_import_key
0x0000b0d1 T km_aes_export_key
0x0000babd T enroll
0x0000c1ed T verify
0x0000c44f T delete_user
0x0000c4b3 T delete_all_users
0x0000c61d T km_read_km_device_state
0x0000c767 T km_write_km_device_state
0x0000c8b1 T km_set_rot
0x0000cbf3 T km_get_rot
0x0000ceb3 T import_key_handler
0x0000d907 T export_key_handler
0x0000dd69 T km_add_handle
0x0000ddef T km_add_handle_velocity
0x0000de75 T km_get_used_handle_count
0x0000de9f T km_get_ctx
0x0000deeb T km_get_ctx_key_id
0x0000df37 T km_remove_expired_entries_velocity
0x0000df95 T km_delete_handle
0x0000dfef T km_delete_handle_all
0x0000e069 T km_delete_key_id
0x0000e0c3 T km_memset
0x0000e0c7 T km_malloc
0x0000e0e7 T km_free
0x0000e0eb T km_memscpy
0x0000e0ef T km_memcmp
0x0000e11f T is_blob_tag
0x0000e137 T reset_rsp_buf_offset
0x0000e167 T copy_to_rsp_buf
0x0000e26f T deallocate_km_internal_buf_key_op_begin
0x0000e2c9 T deallocate_km_internal_buf
0x0000e2e3 T allocate_char_buf
0x0000e3ab T allocate_key_buf
0x0000e40d T allocate_get_supported_buf
0x0000e443 T allocate_key_op_buf
0x0000e49f T allocate_km_internal_buf
0x0000e547 T add_tag_to_key_buf
0x0000e605 T add_tag_to_characteristics
0x0000e9d7 T km_copy_S_BIGINT
0x0000ea33 T km_free_key_op_algorithm_header
0x0000ea8b T km_get_uptime
0x0000ea8f T km_register_shared_buffer
0x0000ead9 T km_deregister_shared_buffer
0x0000eb23 T tag_to_string
0x0000eb45 T cmdid_to_string
0x0000eb6b T print_param
0x0000ec5b T print_params
0x0000edab T km_secure_memset
0x0000edaf T km_rsa_init_key
0x0000efdd T km_rsa_free_key
0x0000f005 T open_add_km_partition
0x0000f0c3 T km_read_rpmb_data
0x0000f1a5 T km_write_rpmb_data
0x0000f287 T km_set_milestone
0x0000f2d3 T km_check_is_sw_fuse_blown
0x0000f311 T km_get_auth_token_key
0x0000f689 T km_check_key_id_rpmb
0x0000f7e1 T km_delete_all_keys_rpmb
0x0000f873 T km_delete_key_id_rpmb
0x0000fb77 T km_add_key_id_rpmb
0x0000fd97 T gk_delete_rpmb_data_uid
0x0000fe59 T gk_delete_all_rpmb_data
0x0000fecb T gk_get_rpmb_data
0x0000ff65 T gk_modify_rpmb_data
0x00010083 T gk_add_rpmb_data
0x0001017d T km_query_rpmb_enablement
0x00010181 T km_sfs_open
0x00010185 T km_sfs_close
0x00010189 T km_sfs_getSize
0x0001018d T km_sfs_read
0x00010191 T km_sfs_write
0x00010195 T km_sfs_rm
0x00010199 T km_sfs_seek
0x0001019d T htonl
0x000101c7 T htonl32
0x000101e5 T ntohl
0x00010209 T ntoh32
0x00010241 T secure_memcmp
0x00010e0d T keymaster_old_cmd_handler
0x00010f3d T keymaster_old_validate_keydata
0x00011077 T keymaster_old_validate
0x00011133 T keymaster_old_validate_export_keydata
0x000111fb T km_rsa_begin_old
0x00011659 T km_rsa_update_old
0x0001179f T km_rsa_finish_old
0x00011e57 T km_rsa_export_key_old
0x00011f4d T algorithm_export_handler_old
0x00011f99 T algorithm_key_op_finish_handler_old
0x00011fd1 T algorithm_key_op_update_handler_old
0x000123b9 T algorithm_key_op_begin_handler_old
0x00012491 T get_fpta_name
0x000124b9 T get_disable_rot_status
0x000124bd T get_rpmb_enablement
0x000124c1 T get_gk_timeout_config
0x000124c5 T get_rpmb_partition_id
0x000124dd T appn_ac_key_op_export_handler
0x0001255b T appn_ac_key_op_abort_handler
0x00012567 T appn_ac_key_op_finish_handler
0x00012575 T appn_ac_key_op_update_handler
0x0001272d T appn_ac_key_op_begin_handler
0x00012781 T appn_ac_get_key_char
0x0001285f T km_appn_ac_generate_key_parse_tags
0x00012d03 T appn_ac_generate_key
0x00012e19 T info_tags_key_op_begin_handler
0x00012e43 T info_tags_get_key_char
0x00012ec9 T km_info_tags_generate_key_parse_tags
0x00013033 T info_tags_generate_import_key
0x00013079 T info_tags_key_op_delete_handler
0x0001317d T rot_key_op_abort_handler
0x00013181 T rot_key_op_finish_handler
0x00013185 T rot_key_op_update_handler
0x00013189 T rot_key_op_begin_handler
0x000131cd T rot_get_key_char
0x000131d1 T rot_generate_key
0x0001325d T user_auth_key_op_abort_handler
0x00013269 T user_auth_key_op_finish_handler
0x000134d7 T km_user_auth_update_key_parse_tags
0x00013995 T user_auth_key_op_update_handler
0x000139c5 T km_user_auth_begin_key_parse_tags
0x00014051 T user_auth_key_op_begin_handler
0x000140ab T user_auth_get_key_char
0x0001410b T km_user_auth_cryptoperiod_begin_key_tags
0x00014205 T km_user_auth_generate_key_parse_tags
0x00014a29 T user_auth_generate_key
0x00014aa1 T get_alg_func_ptr
0x00014acb T algorithm_check_pub_key_operation
0x00014b09 T algorithm_check_pub_key_operation_alg
0x00014b2b T algorithm_get_supported_alg
0x00014b5b T algorithm_get_supported_block_modes
0x00014bc3 T algorithm_get_supported_padding_modes
0x00014c93 T algorithm_get_supported_digests
0x00014d7d T algorithm_get_supported_import_formats
0x00014dc7 T algorithm_get_supported_export_formats
0x00014e0f T algorithm_get_key_char
0x00014eb1 T algorithm_export_handler
0x00014f2d T algorithm_key_op_abort_handler
0x00015043 T km_algorithm_finish_key_parse_tags
0x000150f1 T algorithm_key_op_finish_handler
0x00015165 T km_algorithm_update_key_parse_tags
0x0001522d T algorithm_key_op_update_handler
0x000152a9 T km_algorithm_begin_key_parse_tags
0x000166e3 T algorithm_key_op_begin_handler
0x00016797 T km_algorithm_generate_key_parse_tags
0x000173eb T algorithm_generate_import_key
0x000179b5 T km_hash
0x000179e3 T km_hash_init
0x00017a0b T km_hash_reset
0x00017a19 T km_hash_update
0x00017a29 T km_hash_final
0x00017a39 T km_hash_free_ctx
0x00017a47 T km_hash_set_param
0x00017a57 T km_hashcipher_encrypt
0x00017a91 T km_hashcipher_decrypt
0x00017acb T km_cipher_init
0x00017aff T km_cipher_reset
0x00017b0d T km_cipher_free_ctx
0x00017b1b T km_cipher_set_param
0x00017b8d T km_cipher_get_param
0x00017bf3 T km_cipher_encrypt
0x00017c17 T km_cipher_decrypt
0x00017c3b T km_hmac
0x00017c7b T km_hmac_init
0x00017ca3 T km_hmac_update
0x00017cb3 T km_hmac_final
0x00017cc3 T km_platform_hmac_free_ctx
0x00017cd1 T km_platform_prng_getdata
0x00017cdb T km_platform_crypto_lock_engine
0x00017cdf T km_kdf
0x00017cff T km_sw_cipher_pad
0x00017d39 T km_sw_cipher_remove_pad
0x00017d95 T KM_SW_Cipher_Init
0x00017deb T KM_SW_CipherData
0x00017e55 T KM_SW_UpdateData
0x00017ebf T KM_SW_FinalData
0x00017f29 T KM_SW_UpdateAAD
0x00017f2f T KM_SW_Cipher_SetParam
0x00017f8f T KM_SW_Cipher_GetParam
0x00017fef T KM_SW_Cipher_DeInit
0x0001803f T km_rsa_key_gen
0x00018043 T km_secpkcs8_parse
0x00018047 T km_rsa_sign_hash
0x000180b3 T km_rsa_verify_signature
0x0001811f T km_rsa_encrypt
0x000182df T km_rsa_decrypt
0x00018349 T km_BIGINT_read_unsigned_bin
0x0001834d T km_ce_util_cmp
0x000183c9 T km_util_init_s_bigint
0x000183cd T km_util_free_s_bigint
0x000183d1 T km_util_check_msg_gt_modulus
0x00018497 T km_BIGINT_read_radix
0x0001849b T km_rsa_exptmod
0x00018591 T qsee_exec_protect_memory
0x000185b5 T qsee_is_sw_fuse_blown
0x000185d9 T qsee_blow_sw_fuse
0x000185f9 T qsee_read_jtag_id
0x0001861b T qsee_read_serial_num
0x0001863d T qsee_fuse_write
0x00018661 T qsee_fuse_read
0x00018685 T qsee_is_ns_range
0x000186a9 T qsee_is_s_tag_area
0x000186cf T qsee_i2c_open
0x000186ef T qsee_i2c_read
0x00018713 T qsee_i2c_write
0x00018737 T qsee_i2c_close
0x00018757 T qsee_spi_open
0x00018777 T qsee_spi_read
0x0001879b T qsee_spi_write
0x000187bf T qsee_spi_close
0x000187df T qsee_spi_full_duplex
0x00018803 T qsee_ks_decrypt
0x0001882f T qsee_ks_get_key
0x0001885b T qsee_ks_delete_key
0x0001887f T qsee_ce_pipe_key_select
0x000188a3 T qsee_hdmi_status_read
0x000188c7 T qsee_mem_usage_count
0x000188e7 T qsee_sd_get_session
0x00018909 T qsee_tag_mem
0x0001892d T qsee_read_hw_version
0x00018955 T km_rsa_generate_key
0x00018bc9 T km_rsa_begin
0x00018d3b T km_rsa_update
0x00019087 T km_rsa_finish
0x0001a019 T km_rsa_abort
0x0001a061 T km_rsa_import_key
0x0001a47b T km_rsa_export_key
0x0001a58d T km_ecdsa_generate_key
0x0001a969 T km_ecdsa_begin
0x0001aa43 T km_ecdsa_update
0x0001ab83 T km_ecdsa_finish
0x0001b5f5 T km_ecdsa_abort
0x0001b60d T km_ecdsa_import_key
0x0001b717 T km_ecdsa_export_key
0x0001bccd T km_alg_hmac_generate_key
0x0001bd37 T km_alg_hmac_begin
0x0001bddb T km_alg_hmac_update
0x0001be23 T km_alg_hmac_finish
0x0001bf8b T km_alg_hmac_abort
0x0001bfb9 T km_alg_hmac_import_key
0x0001c07d T km_alg_hmac_export_key
0x0001c3a5 T __c89vsnprintf
0x0001c3d8 A __aeabi_memcpy
0x0001c3d8 A __rt_memcpy
0x0001c460 A _memcpy_lastbytes
0x0001c480 A __aeabi_idiv
0x0001c480 A __aeabi_idivmod
0x0001c6ac A __aeabi_uidiv
0x0001c6ac A __aeabi_uidivmod
0x0001c6dd T __cpp_initialize__aeabi_
0x0001c701 T _printf_int_dec
0x0001c77f T _printf_char_common
0x0001c7a5 T _printf_wctomb
0x0001c85d T _printf_longlong_dec
0x0001c8d5 T _printf_longlong_oct
0x0001c921 T _printf_int_oct
0x0001c939 T _printf_ll_oct
0x0001c94d T _printf_longlong_hex
0x0001c9a9 T _printf_int_hex
0x0001c9c5 T _printf_ll_hex
0x0001c9d1 T _printf_hex_ptr
0x0001c9e9 T __printf
0x0001cb70 A __aeabi_memcpy4
0x0001cb70 A __aeabi_memcpy8
0x0001cb70 A __rt_memcpy_w
0x0001cbd4 A _memcpy_lastbytes_aligned
0x0001cbec A _ll_udiv10
0x0001cc84 A __rt_udiv10
0x0001ccb1 T __rt_ctype_table
0x0001ccc1 T __rt_locale
0x0001cccd T _printf_fp_infnan
0x0001cd4d T _btod_etento
0x0001ce25 T _get_lc_numeric
0x0001ce51 T _get_lc_ctype
0x0001ce7c A strcmp
0x0001d000 A app_export_init_info_to_qsee
0x0001d030 A qsee_printf_syscall
0x0001d048 A qsee_wait_default_signal_syscall
0x0001d074 A qsee_generic_syscall
0x0001d098 A mink_generic_syscall
0x0001e02c D DER_enc_hash
0x0001efc1 D __ctype
0x00020004 D pgCmnlib
0x00020008 D tzapp_lib
0x0002000c D cmnlib_rw_base
0x00020010 D app_rw_base
0x00020014 D __stack_chk_guard
0x00020018 D dummy_str
0x0002001c D app_cmd_invoker_obj
0x00020024 D mink_api_service_obj
0x0002002c D mink_user_sscall_service_obj
0x00020034 D mink_opener_obj
0x0002003c D magic_num
0x00020050 D magic_num_index_array
0x0002005c D km_init
0x00020060 D hal_major_version
0x00020064 D req_rsp_buf_size
0x00020068 D major_version
0x0002006c D minor_version
0x00020070 D hal_minor_version
0x00020074 D TZ_APP_NAME
0x0002007e D km_cipher_key_set
0x0002007f D km_hmac_key_set
0x00020080 D gk_hmac_key_set
0x00020081 D auth_token_key_set
0x00020154 D gk_rpmb_buf
0x00020158 D gk_rpmb_buflen
0x0002015c D gk_throttle_config_set
0x00020160 D gk_throttle_config
0x00020168 D gDeviceID
0x0002016c D is_rpmb_enabled
0x00020170 D gDevHandle
0x00020174 D gClientHandle
0x00020178 D km_buf
0x0002017c D km_sector_offset
0x00020180 D gk_buf
0x00020184 D tag_properties
0x00020394 D tag_string
0x000210fc D cmdid_string
0x00021dfc D rpmb_init_done
0x00021e88 D info_tag_list
0x00021e94 D alg_func_ptrs
0x00021f14 D supported_alg
0x00021f24 D supported_modes
0x00021f34 D supported_padding
0x00021f4c D supported_digest
0x00021f58 D supported_formats
0x00021f68 D ecc_params
0x00021fe8 D gAppCntxt
0x00021ffc D application_heap
0x00022030 D mem_magic_number
0x0002203c D apps_request_resp
0x00022050 D acceptBuf
0x00022150 D km_cipher_key
0x00022160 D km_hmac_key
0x00022180 D gk_hmac_key
0x000221a0 D auth_token_key
0x000221c0 D current_rot
0x000221e0 D km_op_handle
0x000223c0 D km_op_handle_velocity
0x000225a0 D gClientInfo
0x000225bc D km_old_cipher_key
0x000225cc D km_old_hmac_key
0x000225ec D IV_temp_hack
