#<SYMDEFS># ARM Linker, 5.01 [Build 94]: Last Updated: Fri Jul 28 03:59:12 2017
0x00000000 N _printf_flags
0x00000000 N _printf_return_value
0x00000000 N _printf_sizespec
0x00000000 N _printf_widthprec
0x00216000 D main_channel_buffer_A
0x0021a000 D main_channel_buffer_B
0x0021e000 D transmit_buffer
0x00222a40 D dci_core_info
0x08005050 A __main
0x08005050 A _main
0x080050a4 D rw_data
0x080050bc D ro_data
0x080050d4 D zi_data
0x08005104 D pbl_shared_global
0x08005109 T _printf_n
0x08005109 T _printf_percent
0x0800510f T _printf_p
0x08005115 T _printf_f
0x0800511b T _printf_e
0x08005121 T _printf_g
0x08005127 T _printf_a
0x0800512d T _printf_ll
0x08005137 T _printf_i
0x0800513d T _printf_d
0x08005143 T _printf_u
0x08005149 T _printf_o
0x0800514f T _printf_x
0x08005155 T _printf_lli
0x0800515b T _printf_lld
0x08005161 T _printf_llu
0x08005167 T _printf_llo
0x0800516d T _printf_llx
0x08005173 T _printf_l
0x0800517d T _printf_c
0x08005183 T _printf_s
0x08005189 T _printf_lc
0x0800518f T _printf_ls
0x08005195 T _printf_percent_end
0x08005199 T __rt_lib_init_lc_ctype_2
0x08005199 T __rt_lib_init_lc_numeric_2
0x080051a1 T DALSYS_BusyWait
0x080051ad T rex_int_lock
0x080051b1 T rex_int_free
0x080051b5 T deviceprogrammer_main_ctl
0x080051c9 T firehoseResetValidationVariables
0x0800520d T initFirehoseProtocol
0x080052b3 T initFirehoseStorage
0x080052b9 T isValidationMode
0x080052c1 T debugMessage
0x080052f7 T packet_handle_incoming_buf
0x0800536f T readChannel
0x08005455 T packet_handle_outgoing_buf
0x0800548b T writeChannel
0x080054bd T sendXMLBuffer
0x080054dd T logMessage
0x08005561 T logDigest
0x0800565b T sendResponseFields
0x0800577f T sendResponse
0x08005783 T firehoseResetValidation
0x08005791 T recvNextPacket
0x08005c7f T queueNextPacket
0x08005c9d T getNextPacket
0x08005cb9 T handleConfigure
0x08005f4d T handleGetStorageInfo
0x080062d5 T handlePower
0x080063a7 T handlePeek
0x08006513 T handlePoke
0x08006693 T handleErase
0x080068a9 T handleNop
0x080068b5 T handleSetBootableStorageDrive
0x08006975 T handleStorageExtras
0x08006aab T handleFirmwareProgram
0x08006fa7 T handlePatch
0x080075d5 T parseIntegerValue
0x0800766b T handleGetDigest
0x08007ac1 T handleRead
0x08007e25 T handleProgram
0x08008427 T handleBenchmark
0x08008705 T processNextXMLTag
0x08008abd T validateXMLBuffer
0x08008b79 T readAndProcessXML
0x08008c3f T initFirehoseTransport
0x08008c47 T main_firehose
0x08008dc1 T memscpy
0x08008ddf T memsmove
0x08008dfd T strncasecmp
0x08008e3f T strlcat
0x08008e95 T deviceprogrammer_scatter_load
0x08008f41 T deviceprogrammer_reset
0x08008f43 T deviceprogrammer_init_hw
0x0800901f T deviceprogrammer_common_main
0x0800902d T deviceprogrammer_ddr_main
0x08009037 T deviceprogrammer_imem_main
0x080090b7 T get_time
0x080090c9 T get_rollover_time
0x080090cd T delaySeconds
0x080090e5 T simpleStrReplace
0x08009171 T stringToNumber
0x080091ef T parseExpression
0x08009579 T calc_crc32
0x080095f5 T calc_crc16_wrapper
0x08009641 T init_storage_device_struct
0x08009665 T storage_device_name
0x08009669 T init_storage_device_hw
0x08009717 T storage_device_open_partition
0x08009755 T storageDeviceClosePartition
0x0800976b T storageDeviceSetBootableStorageDrive
0x0800978b T storageDeviceErase
0x080097cb T storageDeviceCreateStorageDrives
0x0800988b T storageDeviceGetStorageInfo
0x080098d5 T storageDeviceGetPartitionSizeSectors
0x0800990d T storageDeviceGetLowerBoundSector
0x08009917 T storageDeviceGetUpperBoundSector
0x0800991d T storageDeviceRead
0x08009953 T storageDeviceWrite
0x0800998d T storageDeviceFWUpdate
0x08009bf1 T storage_device_disk_write
0x08009c3f T storageDeviceSetExtras
0x08009d4d T storageDeviceGetExtras
0x08009d97 T storageDeviceExtrasCommit
0x0800a041 T xmlInitReader
0x0800a057 T xmlIsTag
0x0800a07d T xmlGetTag
0x0800a0bf T xmlIsAttribute
0x0800a0e5 T xmlGetAttributeName
0x0800a127 T xmlGetAttributeValue
0x0800a169 T xmlGetToken
0x0800a4e9 T xmlInitWriter
0x0800a513 T xmlWriterMarkRollbackPoint
0x0800a533 T xmlWriterReset
0x0800a547 T isXMLWriterReset
0x0800a563 T xmlWriterRollback
0x0800a583 T xmlWriterCloseTag
0x0800a6d9 T xmlWriterFinalize
0x0800a6f7 T xmlWriterStartTag
0x0800a807 T xmlWriterStartChildTag
0x0800a843 T xmlWriterWriteAttribute
0x0800a8bf T xmlWriterWriteText
0x0800a977 T xmlWriterWriteTextFromBuffer
0x0800aa33 T xmlWriterWriteAttributeValueFromBuffer
0x0800ab37 T xmlWriterWriteMultipleAttributes
0x0800aca9 T xmlWriterWriteMultipleAttributesWrapper
0x0800acbd T xmlWriterRawWriteArgList
0x0800ad1f T xmlWriterRawWrite
0x0800ad33 T xmlWriterRawWriteFromBuffer
0x0800ad7d T xmlWriterRawStartTag
0x0800ad85 T xmlWriterRawWriteAttributeValueFromBuffer
0x0800ade1 T xmlWriterRawWriteAttribute
0x0800adeb T xmlWriterRawCloseTag
0x0800adef T xmlWriterRawCloseTagName
0x0800adf5 T xmlWriterRawStartTagNoAttributes
0x0800ae31 T our_memset
0x0800ae43 T rol30
0x0800ae49 T rol24
0x0800ae4f T rol8
0x0800ae55 T rol5
0x0800ae5b T rol1
0x0800ae61 T sechsharm_sha1_transform
0x0800c24f T sechsharm_sha1_init
0x0800c279 T sechsharm_sha1_update
0x0800c30d T sechsharm_sha1_final
0x0800ce69 T sechsharm_sha256_init
0x0800ce91 T sechsharm_sha256_update
0x0800d02d T sechsharm_sha256_final
0x0800d085 T sechsharmhmacSha256
0x0800d217 T PerformSHA256
0x0800d24b T isAuthenticationEnabled
0x0800d28f T AuthenticateImage
0x0800d33d T authenticateSignedHash
0x0800d481 T bsp_target_reset
0x0800d493 T bsp_target_poweroff
0x0800d4a5 T bsp_hw_init
0x0800d4a7 T bsp_kick_wdog
0x0800d4a9 T bsp_freeze_wdog
0x0800d4b1 T qhsusb_al_check_for_pbl_dload
0x0800d4b5 T qhsusb_al_bulk_setup_timer
0x0800d4e1 T qhsusb_al_bulk_start_timer
0x0800d503 T qhsusb_al_bulk_stop_timer
0x0800d517 T qhsusb_al_check_timer_for_expiry
0x0800d54d T qhsusb_al_bulk_receive_zlp
0x0800d581 T qhsusb_al_bulk_handle_rx_zlp_mode
0x0800d5ab T qhsusb_al_bulk_get_max_raw_data_size
0x0800d5b1 T qhsusb_al_bulk_get_max_packet_size
0x0800d7a3 T qhsusb_al_bulk_poll
0x0800d7f5 T qhsusb_al_bulk_shutdown
0x0800d82f T qhsusb_al_bulk_init
0x0800d903 T qhsusb_al_bulk_receive
0x0800d9dd T qhsusb_al_bulk_transmit
0x0800da47 T qhsusb_al_bulk_set_zlp_mode
0x0800da65 T SpmiCfg_Init
0x0800da97 T SpmiCfg_DeInit
0x0800da9f T SpmiCfg_GetChannelInfo
0x0800db0b T SpmiCfg_GetPeripherialInfo
0x0800db6d T SpmiCfg_ConfigureChannels
0x0800dc31 T SpmiCfg_ConfigurePvcPort
0x0800dce9 T SpmiCfg_SetPortPriorities
0x0800dd37 T SpmiCfg_SetPVCPortsEnabled
0x0800df87 T SpmiBus_Init
0x0800dfc3 T SpmiBus_DeInit
0x0800dffb T SpmiBus_ReadLong
0x0800e01b T SpmiBus_WriteLong
0x0800e03b T SpmiBus_Command
0x0800e07f T SpmiBus_RegisterIsr
0x0800e127 T SpmiBus_UnregisterIsr
0x0800e1a3 T SpmiBus_ReadModifyWriteLongByte
0x0800e1fb T strcasecmp
0x0800e205 T crc_16_calc
0x0800e265 T crc_16_l_calc
0x0800e2c1 T crc_30_calc
0x0800e31d T crc_30_step
0x0800e37d T crc_16_step
0x0800e3a7 T crc_16_l_step
0x0800e3d1 T crc_32_calc
0x0800e43d T sdcc_handle_close
0x0800e457 T sdcc_handle_open
0x0800e581 T sdcc_handle_mem_get_device_info
0x0800e6a7 T sdcc_handle_is_mem_present
0x0800e6e3 T sdcc_handle_set_sps_end_point
0x0800e6e7 T sdcc_handle_get_sps_end_point
0x0800e6eb T sdcc_handle_read
0x0800e797 T sdcc_handle_write
0x0800e841 T sdcc_handle_write_iovec
0x0800e845 T sdcc_get_config_info
0x0800e865 T sdcc_slot_has_support
0x0800e88f T sdcc_activity_timeout_event
0x0800e893 T sdcc_poll_card_status
0x0800e911 T sdcc_handle_erase
0x0800e9df T sdcc_enable_hw_reset
0x0800ea03 T sdcc_handle_set_active_bootable_partition
0x0800ea29 T sdcc_handle_set_power_on_write_protection
0x0800ea2d T sdcc_boot_set_device_info
0x0800ea55 T sdcc_handle_force_erase
0x0800ea59 T sdcc_config_emmc_gpp_enh
0x0800ea67 T sdcc_get_slot_type
0x0800eb3f T sdcc_handle_fw_update
0x0800eb7f T sdcc_handle_get_ffu_status
0x0800eb9d T sdcc_handle_get_fw_version
0x0800ebbd T sdcc_deinit_device
0x0800ebf9 T Clock_SetUARTClockFrequency
0x0800eca5 T Clock_DisableUARTClock
0x0800ecc9 T Clock_SetI2CClockFrequency
0x0800ed5d T Clock_DisableI2CClock
0x0800ed79 T Clock_DebugInit
0x0800edaf T Clock_I2CInit
0x0800edb3 T Clock_InitVotes
0x0800eddf T Clock_DDRSpeed
0x0800ede5 T Clock_PreDDRInitEx
0x0800ef8b T Clock_PreDDRInit
0x0800efb9 T Clock_BIMCConfigFSM
0x0800f009 T Clock_BIMCIsFSMConfigured
0x0800f01b T Clock_ReplaceUSBBootClockEnable
0x0800f0e1 T Clock_InitCrypto
0x0800f12d T Clock_SetSysPerfLevel
0x0800f203 T Clock_Init
0x0800f28f T Clock_InitForDownloadMode
0x0800f2e1 T Clock_ExitBoot
0x0800f315 T Clock_BIMCQuery
0x0800f3a3 T Clock_SwitchBusVoltage
0x0800f3ed T Clock_ConfigBIMCMux
0x0800f4cd T Clock_SetBIMCSpeed
0x0800f781 T pm_pon_init
0x0800f82d T pm_pon_overtemp_reset_cfg
0x0800f8e7 T pm_pon_ps_hold_cfg
0x0800f9ef T pm_pon_reset_source_cfg
0x0800fbdd T pm_pon_reset_source_ctl
0x0800fc37 T pm_pon_stage3_reset_source_cfg
0x0800fcab T pm_pon_get_pon_reason
0x0800fce7 T pm_pon_get_poff_reason
0x0800fd2d T pm_pon_get_warm_reset_reason
0x0800fd73 T pm_pon_get_soft_reset_reason
0x0800fdb9 T pm_pon_get_all_pon_reasons
0x0800fdff T pm_pon_debounce_ctl
0x0800fe61 T pm_pon_irq_enable
0x0800feb7 T pm_pon_irq_clear
0x0800fef9 T pm_pon_irq_set_trigger
0x0800ffaf T pm_pon_irq_status
0x08010069 T pm_pon_config_uvlo
0x08010111 T pm_pon_warm_reset_status
0x0801015d T pm_pon_warm_reset_status_clear
0x08010299 T qhsusb_fd_hdlc_set_core
0x080102c1 T qhsusb_fd_set_bulk_mode
0x080102f1 T qhsusb_fd_hdlc_init
0x080104cb T qhsusb_fd_hdlc_shutdown
0x080104e1 T qhsusb_fd_hdlc_tx_byte
0x0801052b T qhsusb_fd_hdlc_tx_pkt
0x08010627 T qhsusb_fd_hdlc_is_tx_active
0x08010655 T qhsusb_fd_hdlc_rx_pkt
0x080106a1 T qhsusb_fd_hdlc_rx_completed
0x080106b5 T qhsusb_fd_hdlc_update_vid_pid
0x080106d3 T qhsusb_fd_hdlc_get_vid_pid
0x080106fb T qhsusb_fd_hdlc_rx_completed_int_buf_mode
0x08010715 T qhsusb_fd_hdlc_bulk_in_progress
0x080107df T qhsusb_dcd_set_config
0x080108c1 T qhsusb_submit_urb
0x080108fb T qhsusb_dcd_control_transfer
0x08010b99 T qhsusb_dcd_port_status_changed
0x08010c95 T qhsusb_dcd_init
0x08010ceb T qhsusb_dcd_poll
0x08010cf7 T qhsusb_dcd_shutdown
0x08010d2f T qhsusb_dcd_is_enumerated
0x08010d51 T qhsusb_dci_get_enum_flag
0x08010d57 T qhsusb_loop_here
0x08010dfb T dci_skip_enumeration
0x08010e17 T qhsusb_dci_init
0x0801108f T qhsusb_dci_poll_events
0x0801114d T qhsusb_dci_set_address
0x08011175 T qhsusb_dci_stall_endpoint
0x080111c3 T qhsusb_dci_unstall_endpoint
0x08011221 T qhsusb_dci_config_endpoint
0x080112e3 T qhsusb_dci_unconfig_endpoint
0x080115ab T qhsusb_dci_transfer_request
0x0801166b T qhsusb_dci_cancel_transfer
0x08011715 T qhsusb_dci_cancel_transfer_wo_dqh_dtd
0x08011765 T qhsusb_dci_shutdown
0x080117bb T qhsusb_dci_start_timer
0x0801180f T qhsusb_dci_stop_timer
0x0801182f T qhsusb_dci_get_time_usec
0x0801185f T qhsusb_dci_get_speed
0x0801187d T qhsusb_dci_set_max_packet_size
0x08011883 T qhsusb_dci_is_suspended
0x080118a7 T qhsusb_dci_get_line_state
0x080118c5 T qhsusb_dci_set_runstop_bit
0x080118e5 T qhsusb_dci_ulpi_read
0x0801193b T qhsusb_dci_ulpi_write
0x080119ad T qhsusb_dci_detect_charger_type
0x080119e9 T qhsusb_dci_set_enum_flag
0x080119ef T qhsusb_dci_write_scratch
0x08011a13 T qhsusb_dci_read_scratch
0x08011a3b T dci_set_bulk_progress
0x08011a49 T qhsusb_dci_is_attached
0x08011a5d T qhsusb_dci_is_wall_charger
0x08011a61 T qhsusb_dci_is_connected
0x08011a67 T qhsusb_dci_connect
0x08011a79 T qhsusb_dci_disconnect
0x08011a8b T qhsusb_get_shared_imem_address
0x08011a8f T dci_clk_regime_msm_reset_assert
0x08011ac3 T dci_clk_regime_msm_reset_deassert
0x08011b0f T qhsusb_dci_fs_clk_disable
0x08011b11 T dci_init_phy
0x08011b61 T qhsusb_dci_check_for_pbl_dload
0x08011bfb T qhsusb_dci_soft_reset_core
0x08011c15 T dci_dcache_inval
0x08011c19 T dci_dcache_flush
0x08011c85 T dci_enable_ulpi_control_for_charger_block
0x08011d77 T dci_detect_charger_type
0x08011eff T dci_is_streaming_mode_disable_required
0x08011f05 T qhsusb_dci_clk_enable
0x08011f09 T qhsusb_dci_clk_is_usb_system_clk_on
0x08011f13 T qhsusb_dci_clk_disable
0x08011f17 T qhsusb_dci_usb_reset_assert
0x08011f4d T qhsusb_dci_usb_reset_deassert
0x08011f77 T qhsusb_dci_delay_ms
0x08011f91 T qhsusb_dci_delay_us
0x08011f95 T qhsusb_dci_dcache_flush
0x08011f97 T qhsusb_dci_dcache_inval
0x08011fa9 T qhsusb_log_init
0x08011fab T qhsusb_log
0x080121b1 T PmicArb_ConfigHW
0x080121b5 T PmicArb_Init
0x080122a1 T PmicArb_GetHwStatus
0x080122c1 T PmicArb_HasInterruptSupport
0x080122c7 T PmicArb_FindChannel
0x0801230d T PmicArb_SetInterruptEnabled
0x08012341 T PmicArb_ExecuteCommand
0x080125c5 T SpmiMaster_ConfigHW
0x08012763 T SpmiMaster_LoadRadixTree
0x080127cd T SpmiOs_GetOwnerId
0x080127d5 T SpmiOs_GetPmicArbBaseAddr
0x080127df T SpmiOs_Wait
0x080127e3 T SpmiOs_Malloc
0x080127e7 T SpmiOs_Free
0x080127eb T SpmiOs_RegisterISR
0x080127ef T SpmiOs_GetTimeTick
0x080127f5 T SpmiOs_GetSerialClkState
0x080127f9 T SpmiOs_GetAhbClkState
0x080127fd T SpmiHal_Init
0x08012811 T railway_init
0x08012813 T rail_id
0x08012819 T railway_transition_rails
0x0801281b T railway_create_voter
0x0801281f T railway_corner_vote
0x08012821 T railway_set_corner_voltage
0x08012823 T railway_get_corner_voltage
0x08012827 T railway_get_current_settings
0x08012829 T sdcc_init_pal
0x0801282d T sdcc_process_signals
0x08012843 T sdcc_handle_find_card
0x0801290d T sdcc_setup_data_xfer
0x08012971 T sdcc_config_rca
0x080129b5 T sdcc_wait_card_ready
0x080129df T sdcc_wait_data_xfer_complete
0x08012a23 T sdcc_init_memory_device
0x08012ad7 T sdcc_config_memory_device
0x08012b8f T sdcc_complete_data_xfer
0x08012bd5 T sdcc_read_fifo
0x08012c83 T sdcc_write_fifo
0x08012d65 T sdcc_set_partition
0x08012d93 T sdcc_send_app_command
0x08012dc5 T sdcc_do_transfer_qc_mode
0x08012f39 T sdcc_do_transfer
0x08012f49 T sdcc_get_cid
0x080130a3 T sdcc_handle_optimized_open
0x0801313f T sdcc_is_partial_enumeration
0x08013165 T sdcc_get_slot_handle
0x0801317d T sdcc_config_clk
0x0801333f T sdcc_poll_status
0x080133bb T sdcc_send_status
0x080133eb T sdcc_wait_prog_done
0x08013439 T sdcc_send_cmd
0x080134d1 T sdcc_command_qc_mode
0x08013535 T sdcc_command
0x0801354b T sdcc_init_qc_mode
0x0801364f T sdcc_deinit
0x08013691 T sdcc_reset_reinit
0x0801385f T sdcc_get_memory_info
0x0801392f T sdcc_select_card
0x08013969 T sdcc_display_mem_device_info
0x080139a3 T sdcc_tx_test
0x08013acb T sdcc_rx_test
0x08013c59 T sdcc_mmc_switch
0x08013d1b T sdcc_decode_extCSD
0x08013ed3 T sdcc_get_ext_csd
0x08014021 T sdcc_find_mmc_device
0x080140b9 T sdcc_config_mmc_bus_width
0x08014105 T sdcc_config_mmc_modes_segment
0x08014307 T sdcc_decode_mmc_mfr_date
0x0801430b T sdcc_decode_mmc_cid
0x08014383 T sdcc_mmc_set_partition_access
0x080143c5 T sdcc_mmc_get_phy_partition_info
0x0801446b T sdcc_mmc_set_pwr_on_write_prot
0x080144b7 T sdcc_mmc_is_phy_partition_bootable
0x080144e9 T sdcc_mmc_set_active_bootable_partition
0x08014559 T sdcc_mmc_config_gpp_enh
0x08014673 T sdcc_mmc_get_ext_csd_rev
0x0801467b T sdcc_mmc_is_ffu_allowed
0x0801469d T sdcc_mmc_set_mode_config
0x080146b3 T sdcc_mmc_get_ffu_argument
0x080146b9 T sdcc_mmc_get_ffu_status
0x080146f9 T sdcc_mmc_get_fw_version
0x08014725 T sdcc_init_client_handle_list
0x0801479d T sdcc_register_client_handle
0x080147db T sdcc_deregister_client_handle
0x080147fd T sdcc_is_device_still_in_use
0x08014831 T sdcc_bsp_hw_clk_busy_wait
0x08014835 T sdcc_bsp_config_clock
0x080148f9 T sdcc_bsp_hw_busy_wait_init
0x08014907 T sdcc_bsp_get_slot_type
0x08014917 T sdcc_bsp_get_slot_access_type
0x08014927 T sdcc_bsp_vdd_control
0x0801492b T sdcc_bsp_vdd_configure
0x0801492f T sdcc_bsp_gpio_control
0x0801496d T sdcc_bsp_get_default_slot
0x08014989 T sdcc_bsp_get_cache_align_size
0x0801498d T sdcc_bsp_set_vreg_level
0x0801498f T sdcc_bsp_cache_operation
0x0801499b T sdcc_bsp_get_max_supported_clk
0x080149d5 T sdcc_init_sdhci_mode
0x080149d9 T sdcc_hc_set_clock
0x080149dd T sdcc_do_transfer_sdhci_mode
0x080149e1 T sdcc_hc_config_buswidth
0x080149e5 T sdcc_command_sdhci_mode
0x080149e9 T sdcc_hc_enable_ddr50
0x080149ed T HAL_sdcc_WaitWrActive
0x08014a05 T HAL_sdcc_SetSdCmd
0x08014a53 T HAL_sdcc_DataControl
0x08014a83 T HAL_sdcc_GetIntState
0x08014a8d T HAL_sdcc_EnableInt
0x08014ac3 T HAL_sdcc_IsIntEnabled
0x08014b05 T HAL_sdcc_DisableInt
0x08014b45 T HAL_sdcc_IntStateGet
0x08014b51 T HAL_sdcc_IntStateSet
0x08014b5b T HAL_sdcc_FifoBlockRead
0x08014b87 T HAL_sdcc_FifoBlockWrite
0x08014bd1 T HAL_sdcc_InitializeRegisters
0x08014c03 T HAL_sdcc_SetBusWidth
0x08014c33 T HAL_sdcc_Supports8BitBus
0x08014c37 T HAL_sdcc_GetNumBitsDataLength
0x08014c3b T HAL_sdhci_SetCapabilities
0x08014cf9 T busywait_init
0x08014d03 T busywait
0x08014d35 T Clock_RailwayConfig
0x08014d39 T Clock_SBLConfig
0x08014d3d T Clock_SourceMapToMux
0x08014d55 T Clock_MuxMapToSource
0x08014d6f T Clock_SourceMapToGCC
0x08014d91 T Clock_GCCMuxMapToSource
0x08014db3 T Clock_SourceMapToAPCS
0x08014dd5 T Clock_APCSMuxMapToSource
0x08014df7 T Clock_SourceMapToCCI
0x08014e19 T Clock_CCIMuxMapToSource
0x08014e3b T Clock_SourceMapToBIMC
0x08014e67 T Clock_BIMCMuxMapToSource
0x08014e93 T Clock_EnableSource
0x08014f3d T Clock_ConfigureSource
0x08015031 T Clock_SetCCIPerfLevel
0x08015071 T Clock_SetCPUPerfLevel
0x080150f9 T Clock_SetL2PerfLevel
0x08015105 T Clock_SetSDCClockFrequencyExt
0x08015205 T Clock_SetSDCClockFrequency
0x0801522f T Clock_InitUSB
0x0801526f T Clock_DisableUSB
0x080152d5 T Clock_ExtBuckGPIOMisc
0x080152d9 T Clock_TriggerUpdate
0x0801530b T Clock_ConfigurePLL
0x080153c7 T Clock_EnablePLL
0x080154a7 T Clock_DisablePLL
0x080154fb T Clock_IsPLLEnabled
0x0801552b T Clock_ConfigMux
0x080155d7 T Clock_ToggleClock
0x080155ff T Clock_DetectMuxCfg
0x08015629 T pm_spmi_lite_read_byte
0x08015677 T pm_spmi_lite_write_byte
0x080156bb T pm_spmi_lite_write_byte_mask
0x08015737 T pm_spmi_lite_write_byte_array
0x0801577b T pm_spmi_lite_read_byte_array
0x080157d1 T pm_version_detect
0x080158ad T pm_get_pmic_model
0x080158d1 T pm_get_pmic_revision
0x080158f7 T pm_get_pmic_info
0x08015929 T pm_get_slave_id
0x08015971 T SpmiMaster_LoadFirmware
0x08015a91 T sdcc_find_sd_device
0x08015b73 T sdcc_decode_scr
0x08015b9b T sdcc_get_scr
0x08015be7 T sdcc_decode_sd_status
0x08015c01 T sdcc_get_sd_status
0x08015c4d T sdcc_decode_switch_data
0x08015cf7 T sdcc_sd_switch_to_hs
0x08015e2d T sdcc_get_sd_speed_class
0x08015e55 T sdcc_set_sd_bus_width
0x08015ed1 T sdcc_decode_sd_mfr_date
0x08015ed5 T sdcc_decode_sd_cid
0x08015f35 T HAL_sdcc_HCModeEnable
0x08015f37 T HAL_sdhci_PowerSave
0x08015f39 T __rt_ctype_table
0x08015f48 A __aeabi_uldivmod
0x08015f48 A _ll_udiv
0x08015f5c A _ll_udiv_donemoving
0x08016279 T __aeabi_llsl
0x08016279 T _ll_shift_l
0x080162a1 T __c89vsnprintf
0x080162d5 T __2snprintf
0x0801630d T _printf_pre_padding
0x0801633b T _printf_post_padding
0x0801635f T _printf_str
0x080163b1 T _printf_int_dec
0x08016425 T _printf_longlong_dec
0x0801649d T _printf_longlong_hex
0x080164f9 T _printf_int_hex
0x08016515 T _printf_ll_hex
0x08016521 T _printf_hex_ptr
0x08016539 T __printf
0x080166c5 T strtoull
0x080166c9 T setlocale
0x080166d9 T strchr
0x080166ed T strstr
0x08016711 T memcmp
0x08016769 T strrchr
0x0801677f T strlen
0x080167b8 A __aeabi_memcpy
0x080167b8 A __rt_memcpy
0x08016820 A _memcpy_lastbytes
0x08016840 A __aeabi_memmove
0x08016840 A __rt_memmove
0x080168ac A __memmove_lastfew
0x080168cc A __aeabi_memcpy4
0x080168cc A __aeabi_memcpy8
0x080168cc A __rt_memcpy_w
0x08016918 A _memcpy_lastbytes_aligned
0x08016931 T __aeabi_memclr
0x08016931 T __rt_memclr
0x08016935 T _memset
0x08016975 T __aeabi_memclr4
0x08016975 T __aeabi_memclr8
0x08016975 T __rt_memclr_w
0x08016979 T _memset_w
0x080169c4 A __aeabi_idiv
0x080169c4 A __aeabi_idivmod
0x08016bf1 T __rt_locale
0x08016bf8 A _ll_udiv10
0x08016c91 T _printf_truncate_signed
0x08016ca3 T _printf_truncate_unsigned
0x08016cb5 T _printf_int_common
0x08016d6d T _printf_charcount
0x08016da3 T _printf_char_common
0x08016dc9 T _sputc
0x08016dd3 T _snputc
0x08016de3 T _printf_cs_common
0x08016df7 T _printf_char
0x08016e07 T _printf_string
0x08016e11 T _printf_wctomb
0x08016ecd T _printf_longlong_oct
0x08016f19 T _printf_int_oct
0x08016f31 T _printf_ll_oct
0x08016f45 T __strtoull
0x0801705b T _setlocale_r
0x08017168 A __aeabi_memmove4
0x08017168 A __aeabi_memmove8
0x08017168 A __rt_memmove_w
0x08017194 A __memmove_aligned
0x080171d0 A __memmove_lastfew_aligned
0x080171e8 A __rt_udiv10
0x08017215 T __aeabi_errno_addr
0x08017215 T __errno
0x08017215 T __rt_errno_addr
0x0801721d T __lib_sel_fp_printf
0x080173cb T _printf_fp_dec_real
0x08017635 T _printf_lcs_common
0x08017649 T _printf_wchar
0x08017659 T _printf_wstring
0x08017661 T _strtoull
0x08017721 T _wcrtomb
0x08017760 A strcmp
0x08017801 T _printf_fp_infnan
0x08017881 T _chval
0x0801789d T _btod_etento
0x08017974 A __aeabi_uidiv
0x08017974 A __aeabi_uidivmod
0x080179a5 T _btod_d2e
0x080179e3 T _d2e_denorm_low
0x08017a29 T _d2e_norm_op1
0x08017a89 T __btod_div_common
0x08017dc1 T _e2e
0x08017e87 T _btod_ediv
0x08017eaf T _btod_emul
0x08017ed7 T __btod_mult_common
0x0801811c A hal_sdcc_memcpy32
0x08018138 A hal_sdcc_memcpy_read
0x08018158 A hal_sdcc_memcpy_write
0x080181a9 T __ARM_fpclassify
0x080181d1 T _is_digit
0x080181e1 T _get_lc_ctype
0x0801820d T _get_lc_numeric
0x08018239 T _printf_fp_dec
0x0801823c N __I$use$fp
0x080187a0 D crc30_table
0x08018ba0 D crc16_table
0x08018da0 D crc_16_l_table
0x08018fa0 D crc32_table
0x080193a0 D Clock_I2CRegs
0x08019420 D pon_s1_timer_arr_size
0x08019424 D pon_s2_timer_arr_size
0x08019428 D pon_s3_timer_arr_size
0x0801942c D pon_debounce_time_arr_size
0x080194b8 D SDCCSdhciEnable
0x080194b9 D DMASupportEnable
0x080194bc D Clock_SDCCRegs
0x08019999 D __ctype
0x08019aa8 D __lcnull_start
0x08019ac8 D state_desc
0x08019b50 D sdcc_mini_boot_device_info
0x08019c96 D hdlc_usb_config_obex
0x08019cb6 D hdlc_usb_config_obex_only
0x08019d18 D sw_config
0x08019d28 D sw_device
0x08019dcc D sw_strings
0x08019e30 D dci_core_base_address
0x08019e38 D pmicArbHwioBase
0x08019e50 D hwio_init_done
0x08019e54 D sdcc_reg_base
0x08019e5c D sdcc_reg_phys
0x08019e64 D sdhc_reg_base
0x08019e6c D sdhc_reg_phys
0x08019e88 D Clock_SBLConfigData
0x0801a8b0 D Clock_SBL_MuxMap
0x0801a8c4 D Clock_SBL_SourceMap
0x0801a8d8 D BIMCPLLConfig
0x0801aa70 D fh
0x0801e080 D image_info
0x0801e0c0 D verified_info
0x0801e110 D spmiBusInfo
0x0801e340 D qhsusb_dload_info
0x080244ac D spmiPmicArbInfo
