#<SYMDEFS># ARM Linker, 6010048: Last Updated: Wed Feb  7 02:08:49 2018
0x0000000086500000 N CPU_RESET_ENTRY
0x0000000086500080 N MON_COLD_ENTRY
0x00000000865002f8 X resume_cold_boot_post_cci_wa
0x00000000865003a4 X vfp_handler_func
0x000000008650046c X load_vfp_regs
0x0000000086500530 X smc_handler
0x000000008650053c X smc_from_s
0x000000008650056c X common_monitor_exit
0x0000000086500b3c X smc_from_ns
0x0000000086500b58 X secure_svc_entry
0x00000000865010f8 X clear_el1_ns_ctx
0x00000000865011d8 X tzbsp_get_default_region_tz_cfg
0x000000008650129c X add_block_to_default_memory_map
0x00000000865013f4 X add_to_default_memory_map
0x0000000086501428 X add_block_to_default_memory_map_and_apply
0x000000008650145c X add_map_to_default_memory_map_and_apply
0x0000000086501490 X apply_default_memory_map
0x000000008650149c X get_mon_tt_base_addr
0x00000000865014a8 X get_mon_tt_len
0x00000000865014d8 X get_mon_data_base_addr
0x00000000865014e4 X get_mon_data_len
0x0000000086501508 X get_mon_uc_data_base_addr
0x0000000086501514 X get_mon_uc_data_len
0x0000000086501538 X get_mon_code_base_addr
0x0000000086501544 X get_mon_code_len
0x0000000086501574 X get_el1_tt_base_addr
0x0000000086501580 X get_el1_tt_len
0x00000000865015b0 X set_tzbsp_is_ext_os_config
0x00000000865015c0 X __rt_raise
0x00000000865015c4 X __default_signal_handler
0x00000000865015c8 X _sys_exit
0x00000000865015cc X __stack_chk_fail
0x00000000865015d0 X cpu_init
0x00000000865016a0 X cold_boot
0x00000000865018a8 X enter_pc
0x000000008650195c X set_sysdbg_entry_and_buf
0x000000008650196c X mon_get_sysdbg_entry_addr
0x0000000086501978 X mon_get_sysdbg_buf_addr
0x0000000086501988 X mon_get_has_cpu_cold_booted
0x0000000086501998 X mon_get_cpu_pc_state
0x00000000865019a8 X el1_smp_notifier
0x00000000865019e4 X set_secure_os_smp_notifier
0x00000000865019f0 X spmi_bus_disable
0x0000000086501a18 X mon_call_from_ns
0x0000000086501b44 X mon_do_mode_switch
0x0000000086501bac X tzbsp_set_cpu_timer
0x0000000086501bb0 X tzbsp_get_cpu_timer_count
0x0000000086501bb4 X tzbsp_oneshot_start_cpu_timer
0x0000000086501c00 X mon_dump_context
0x0000000086501c84 X mon_save_ns_vfp_context
0x0000000086501cbc X mon_call_from_secure
0x0000000086501f4c X sysini_arch
0x0000000086501f50 X mon_post_cci_reset_wa_arch
0x0000000086501f54 X mon_pc_cpu_spm_disable_arch
0x0000000086501f58 X mon_disable_l2_tcm_arch
0x0000000086501f90 X get_secure_os_entry_addr_arch
0x0000000086501f9c X get_secure_os_mem_rgns_arch
0x0000000086501fa8 X get_secure_os_rgn_lens_arch
0x0000000086501fb8 X get_num_secure_os_rgns_arch
0x0000000086501fc0 X get_tz_image_imem_base_addr_arch
0x0000000086501fcc X get_tz_image_len_arch
0x0000000086501fd4 X mon_secboot_set_shared_info_arch
0x0000000086502014 X secure_io_write
0x0000000086502038 X secure_io_read
0x0000000086502058 X tzbsp_mmu_map_block
0x000000008650265c X tzbsp_mmu_map
0x000000008650268c X tzbsp_init_tts
0x0000000086502838 X init_tt_entries
0x0000000086502870 X mmu_map_block
0x00000000865031e4 X mmu_map
0x0000000086503218 X mmu_map_init
0x000000008650389c X a53_dump_tlb
0x0000000086503908 X a53_get_tlb_dump_len
0x0000000086503910 X a53_dump_cache
0x0000000086503ba4 X a53_get_cache_dump_len
0x0000000086503bd8 X memcpy
0x0000000086503c04 X memset
0x0000000086503c48 X __aeabi_memcpy4
0x0000000086503c48 X __aeabi_memcpy8
0x0000000086503cbc X __aeabi_memcpy
0x0000000086503cbc X __rt_memcpy
0x0000000086503d90 X _memset_w
0x0000000086503dc8 X _memset
0x0000000086503e04 X __aeabi_memclr
0x0000000086503e04 X __rt_memclr
0x0000000086503e0c X __aeabi_memclr4
0x0000000086503e0c X __aeabi_memclr8
0x0000000086503e0c X __rt_memclr_w
0x0000000086503e18 X cpu_init_asm
0x0000000086503f00 X get_el3_sp
0x0000000086503f1c X el1_smp_notifier_asm
0x00000000865042f4 X get_ns_context_addr
0x0000000086504308 X get_ns_state
0x000000008650431c X set_ns_return_registers
0x0000000086504370 X sysdbg_reset_check
0x00000000865043b4 X sysdbg_entry_handler
0x0000000086504548 X warm_init_and_enable_el3_mmu
0x000000008650457c X cold_init_and_enable_el3_mmu
0x00000000865045ac X disable_el3_mmu
0x00000000865045c8 X enable_el3_mmu
0x00000000865045f8 X set_hcr_el2
0x0000000086504600 X get_hcr_el2
0x0000000086504608 X set_sctlr_el1
0x0000000086504610 X get_sctlr_el1
0x0000000086504618 X set_cntfrq_el0
0x0000000086504620 X get_cptr_el3
0x0000000086504628 X set_cptr_el3
0x0000000086504630 X get_sp_el2
0x0000000086504638 X get_elr_el2
0x0000000086504640 X get_spsr_el2
0x0000000086504648 X el3_set_scr_s
0x0000000086504658 X el3_set_scr_ns
0x0000000086504668 X get_mpidr_el1
0x0000000086504670 X set_cntps_ctl_el1
0x0000000086504678 X get_cntpct_el0
0x0000000086504680 X set_cntps_cval_el1
0x0000000086504688 X set_mdcr_el3
0x0000000086504690 X set_sder32_el3
0x0000000086504698 X a53_aarch64_sysini
0x0000000086504b10 X a53_grant_el1_cpuectlr_access
0x0000000086504c00 X clean_all_dcache
0x0000000086504c08 X clean_and_inval_all_dcache
0x0000000086504c10 X clean_and_inval_all_dcache_louis
0x0000000086504c18 X inval_all_dcache
0x0000000086504c20 X clean_and_inval_dcache_region
0x0000000086504c5c X inval_dcache_region
0x0000000086504c98 X clean_dcache_region
0x0000000086504cd4 X enable_el3_icache
0x0000000086504cf0 X enable_el3_dcache
0x0000000086504d0c X disable_el3_icache
0x0000000086504d2c X disable_el3_dcache
0x0000000086504d4c X disable_el1_dcache
0x0000000086504d6c X is_el3_icache_enabled
0x0000000086504d80 X is_el3_dcache_enabled
0x0000000086504db0 D tzbsp_memtype_map
0x0000000086504df0 D tzbsp_ap_map
0x0000000086504e10 D mair
0x0000000086504e18 D tcr
0x0000000086504e20 D NUM_PARAMS_FROM_SBL
0x0000000086505484 X set_ns_el3_elr
0x000000008650549c X set_ns_cpsr
0x0000000086505500 X fiq_handler
0x0000000086505784 X get_ns_el1_ttbr0
0x0000000086505798 X get_ns_el1_x30
0x00000000865057b0 X get_el3_vector_addr
0x0000000086508160 D ns_state
0x000000008650b220 D shared_boot_info_params
0x000000008650b248 D secboot_shared_info
0x000000008650b4d0 D elessar_l1_d_cache_t_for_debug
0x000000008650b4d8 D elessar_l1_i_cache_t_for_debug
0x000000008650b4e0 D ns_vfp_cxt
0x000000008650b5f0 D s_vfp_cxt
0x000000008650c000 D mon_l1
0x0000000086514000 D l1
0x0000000086518000 D l2
0x000000008651c400 D is_ext_os_config
0x000000008651d000 D has_cpu_cold_booted
0x000000008651d010 D cpu_pwr_dbg
0x000000008651d080 D l2_gdhs_state
0x000000008651d084 D boot_lock_addr
