#<SYMDEFS># ARM Linker, 5.01 [Build 94]: Last Updated: Wed Feb  7 02:07:27 2018
0x00000000 A TZAPPENTRY
0x00000000 N __ARM_use_no_argv
0x00000000 A __main
0x00000000 A _main
0x00000000 N _printf_flags
0x00000000 N _printf_return_value
0x00000000 N _printf_sizespec
0x00000000 N _printf_widthprec
0x00000064 A read_app_rw_base
0x00000070 A set_rw_base
0x000000b9 T mem_heap_get_random_num
0x0000019b T mem_init_heap
0x000002f9 T mem_deinit_heap
0x00000483 T mem_malloc
0x000005db T mem_free
0x0000073f T mem_heap_block_iterator_reset
0x00000753 T mem_heap_block_iterator_next
0x000007e1 T mem_heap_block_iterator_init
0x00000801 T mem_get_block_logical_size
0x00000823 T mem_heap_get_totals
0x0000092f T qsee_hash
0x00000953 T qsee_hash_init
0x00000975 T qsee_hash_reset
0x00000995 T qsee_hash_update
0x000009b9 T qsee_hash_final
0x000009dd T qsee_hash_free_ctx
0x000009fd T qsee_hash_set_param
0x00000a21 T qsee_hashcipher_encrypt
0x00000a5b T qsee_hashcipher_decrypt
0x00000a95 T qsee_cipher_init
0x00000ab7 T qsee_cipher_reset
0x00000ad7 T qsee_cipher_free_ctx
0x00000af7 T qsee_cipher_set_param
0x00000b1b T qsee_cipher_get_param
0x00000b3f T qsee_cipher_encrypt
0x00000b63 T qsee_cipher_decrypt
0x00000b87 T qsee_hmac
0x00000bab T qsee_hmac_init
0x00000bcd T qsee_hmac_update
0x00000bf1 T qsee_hmac_final
0x00000c15 T qsee_hmac_free_ctx
0x00000c35 T qsee_cmac
0x00000c6b T qsee_prng_getdata
0x00000c8d T qsee_crypto_lock_engine
0x00000caf T qsee_kdf_shim
0x00000cd1 T qsee_set_bandwidth
0x00000cf5 T qsee_dcache_inval_region
0x00000d17 T qsee_dcache_flush_region
0x00000d39 T qsee_dcache_clean_region
0x00000d5b T qsee_kdf
0x00000db5 T qsee_sfs_getSize
0x00000de7 T qsee_sfs_open
0x00000e19 T qsee_sfs_close
0x00000e49 T qsee_sfs_read
0x00000e89 T qsee_sfs_write
0x00000ec9 T qsee_sfs_seek
0x00000f09 T qsee_sfs_mkdir
0x00000f39 T qsee_sfs_rmdir
0x00000f69 T qsee_sfs_rm
0x00000f99 T qsee_sfs_error
0x00000fc9 T qsee_sfs_get_file_list
0x00000ffb T qsee_sfs_clean_file_list
0x00001027 T qsee_sfs_is_anti_rollback_enabled
0x00001055 T qsee_log
0x000010bf T open
0x000010f1 T read
0x00001131 T write
0x00001171 T close
0x000011a1 T lstat
0x000011d3 T mkdir
0x00001205 T frename
0x00001237 T opendir
0x00001265 T readdir
0x00001295 T closedir
0x000012c3 T rmdir
0x000012f3 T testdir
0x00001323 T file_get_partition_free_size
0x00001355 T fstat
0x00001387 T lseek
0x000013c7 T time_getsystime
0x000013f9 T time_getutcsec
0x0000142b T time_gethlosutc
0x0000145d T time_is_leap_year
0x0000148f T remove
0x000014c1 T unlink
0x000014f1 T link
0x00001523 T telldir
0x00001555 T fsync
0x00001587 T openat
0x000015c7 T unlinkat
0x00001607 T fcntl
0x0000163b T creat
0x0000166f T file_dir_chown_chmod
0x000016cd T cmp_char_i
0x000016e9 T qsee_strnicmp
0x0000170f T qsee_strlcpy
0x00001751 T qsee_strlcat
0x000017a7 T qsee_wstrlen
0x000017b9 T wstrlcpy
0x000017f1 T qsee_wstrlcat
0x00001821 T qsee_strtowstr
0x00001871 T qsee_wstrtostr
0x000018a1 T qsee_wstrchr
0x000018b9 T qsee_wstrcmp
0x000018cd T secpkcs8_parse
0x00001c2b T qsee_get_uptime
0x00001c4d T qsee_wdog_stop
0x00001c6d T qsee_wdog_pet
0x00001c8d T memscpy
0x00001cab T strlcat
0x00001d01 T strlcpy
0x00001d43 T timesafe_memcmp
0x00001d81 T secmath_BIGINT_read_unsigned_bin
0x00001e25 T ce_rsa_encrypt
0x00001f5f T ce_rsa_decrypt
0x0000206f T ce_rsa_sign_hash
0x00002173 T ce_rsa_verify_signature
0x000022cf T ce_util_count_bits
0x000022ff T ce_util_count_bytes
0x00002343 T ce_util_init_s_bigint
0x0000236d T ce_util_free_s_bigint
0x00002377 T ce_util_reverse_str
0x00002395 T ce_util_cmp
0x00002409 T ce_util_cmp_d
0x00002439 T ce_util_to_unsigned_bin
0x000024c9 T ce_util_read_unsigned_bin
0x000024cd T ce_util_replace_zeros
0x000024ff T secasn1_decode_tag
0x00002553 T secasn1_decode_length
0x000025c1 T secasn1_start
0x00002625 T secasn1_end
0x00002651 T secasn1_close_sequence
0x000026a9 T secasn1_next_field
0x00002777 T secasn1_decode_bit_string
0x0000279f T secasn1_decode_boolean
0x000027c3 T check_rpmb_handle
0x000027ed T qsee_stor_device_init
0x00002809 T qsee_stor_open_partition
0x00002843 T qsee_stor_device_get_info
0x0000287d T qsee_stor_client_get_info
0x000028b7 T qsee_stor_add_partition
0x000028ef T qsee_stor_read_sectors
0x00002929 T qsee_stor_write_sectors
0x00002963 T secure_memset
0x00002977 T ce_rsa_exptmod
0x00002afb T secrsa_memset
0x00002aff T ce_pkcs1_v1_5_padding_encode
0x00002c61 T ce_pkcs1_v1_5_padding_decode
0x00002d27 T i2osp
0x00002d73 T ce_pkcs1_mgf1
0x00002eb1 T ce_pkcs1_oaep_padding_encode
0x00003177 T ce_pkcs1_oaep_padding_decode
0x000033d7 T ce_pkcs1_pss_padding_encode
0x000035cd T ce_pkcs1_pss_padding_verify
0x0000379f T ce_pkcs1_pss_padding_verify_auto_recover_saltlen
0x0000399d T add_gpt_device_handle
0x00003a63 T add_gpt_client
0x00003b03 T gpt_dev_init
0x00003c13 T gpt_qsee_read_sectors
0x00003da7 T gpt_qsee_write_sectors
0x00003f13 T gpt_add_partitions
0x000040e3 T gpt_config_partitions
0x000041e5 T gpt_init
0x00004317 T gpt_open_partition
0x000043c3 T gpt_device_get_info
0x0000444f T gpt_client_get_info
0x000044dd T gpt_add_partition
0x00004529 T gpt_read_sectors
0x000045cb T gpt_write_sectors
0x0000466d T rpmbw_init
0x0000469d T rpmbw_open_partition
0x000046cf T rpmbw_device_get_info
0x000046fd T rpmbw_client_get_info
0x0000472b T rpmbw_add_partition
0x0000475b T rpmbw_read_sectors
0x0000478d T rpmbw_write_sectors
0x000047bf T mod_exp
0x000049b5 T secmath_BIGINT_modexp
0x00004a5f T RSA_CRT_exponent_bignum
0x00004bbb T RSA_CRT_exponent
0x00004cc1 T montmul_ref
0x00004da5 T montmul_one_ref
0x00004e67 T compare
0x00004e8d T increment
0x00004eb7 T decrement
0x00004ef1 T negate
0x00004f67 T sub
0x00004f97 T add
0x00004fc5 T addition
0x00004ff3 T find_MSB32
0x00005027 T find_bn_MSB
0x0000508f T inverse32
0x000050cd T right_shift
0x000052bd T mult_base_mod_m
0x000053a1 T mult_R_mod_m
0x00005579 T ce_bignum_add
0x000055c5 T ce_bignum_sub
0x00005639 T ce_bignum_modular_reduction
0x000057d1 T ce_bignum_util_mul
0x000058f9 T secmath_BIGNUM_modexp
0x000059e9 T strstr
0x00005a0d T memcmp
0x00005a65 T strlen
0x00005a9f T memset
0x00005ab5 T __aeabi_memclr
0x00005ab5 T __rt_memclr
0x00005ab9 T _memset
0x00005af9 T __aeabi_memclr4
0x00005af9 T __aeabi_memclr8
0x00005af9 T __rt_memclr_w
0x00005afd T _memset_w
0x00005b47 T __aeabi_uread4
0x00005b47 T __rt_uread4
0x00005b5d T __aeabi_uwrite4
0x00005b5d T __rt_uwrite4
0x00005b73 T __aeabi_uread8
0x00005b73 T __rt_uread8
0x00005ba1 T __aeabi_uwrite8
0x00005ba1 T __rt_uwrite8
0x00005bcb T _printf_pre_padding
0x00005bf9 T _printf_post_padding
0x00005c1d T _printf_truncate_signed
0x00005c2f T _printf_truncate_unsigned
0x00005c41 T _printf_str
0x00005c93 T _printf_charcount
0x00005cbd T _sputc
0x00005cc7 T _snputc
0x00005cd7 T _is_digit
0x00005ce5 T _printf_n
0x00005ce5 T _printf_percent
0x00005ceb T _printf_p
0x00005cf1 T _printf_f
0x00005cf7 T _printf_e
0x00005cfd T _printf_g
0x00005d03 T _printf_a
0x00005d09 T _printf_ll
0x00005d13 T _printf_i
0x00005d19 T _printf_d
0x00005d1f T _printf_u
0x00005d25 T _printf_o
0x00005d2b T _printf_x
0x00005d31 T _printf_lli
0x00005d37 T _printf_lld
0x00005d3d T _printf_llu
0x00005d43 T _printf_llo
0x00005d49 T _printf_llx
0x00005d4f T _printf_l
0x00005d59 T _printf_c
0x00005d5f T _printf_s
0x00005d65 T _printf_lc
0x00005d6b T _printf_ls
0x00005d71 T _printf_percent_end
0x00005d75 T __rt_lib_init_cpp_2
0x00005d75 T __rt_lib_init_lc_ctype_2
0x00005d75 T __rt_lib_init_lc_numeric_2
0x00005d75 T _printf_fp_dec
0x00005d79 T _printf_int_common
0x00005e31 T __lib_sel_fp_printf
0x00005fdd T _printf_fp_dec_real
0x00006249 T _printf_cs_common
0x0000625d T _printf_char
0x0000626d T _printf_string
0x00006275 T _printf_lcs_common
0x00006289 T _printf_wchar
0x00006299 T _printf_wstring
0x000062a1 T _wcrtomb
0x000062e1 T _btod_d2e
0x0000631f T _d2e_norm_op1
0x0000637f T _d2e_denorm_low
0x000063c5 T _btod_emul
0x000063ed T _btod_ediv
0x00006415 T _e2e
0x000064db T __btod_mult_common
0x0000671f T __btod_div_common
0x00006a57 T __ARM_fpclassify
0x00006a56 N __I$use$fp
0x00006a91 T qsee_err_fatal
0x00006ab3 T platform_err_fatal
0x00006ab5 T platform_get_random
0x00006ab9 T __stack_chk_fail
0x00006abb T _sys_command_string
0x00006abf T get_stack_base
0x00006acb T get_stack_size
0x00006ae3 T get_app_maxObjs
0x00006ae7 T get_app_acceptBufSize
0x00006aed T get_app_acceptBuf
0x00006af9 T get_ta_app_name
0x00006b05 T qsee_cmnlib_free
0x00006b3b T qsee_cmnlib_malloc
0x00006b77 T qsee_mem_heap_get_totals
0x00006ba9 T qsee_free
0x00006bdd T qsee_malloc
0x00006c13 T tzlib_app_entry
0x00006dd7 T get_app_entry
0x00006de3 T server_exit
0x00006e03 T serverLoop
0x00006e57 T get_app_serverloop_entry
0x00006e5d T get_app_req_resp
0x00006e69 T qsee_read_register
0x00006e89 T qsee_request_service
0x00006edb T qsee_wait
0x00006efd T qsee_register_shared_buffer
0x00006f1f T qsee_deregister_shared_buffer
0x00006f3f T qsee_prepare_shared_buf_for_nosecure_read
0x00006f61 T qsee_prepare_shared_buf_for_secure_read
0x00006f83 T qsee_set_global_flag
0x00006fa3 T qsee_get_global_flag
0x00006fc5 T qsee_oem_process_cmd
0x00006fe9 T qsee_encapsulate_inter_app_message
0x0000700d T qsee_decapsulate_inter_app_message
0x00007031 T qsee_enforce_hdmi_hdcp_encryption
0x00007051 T qsee_get_secure_state
0x00007128 A main
0x00007130 A tz_app_init
0x00007140 A tz_app_cmd_handler
0x000071a0 A tz_app_shutdown
0x000071a4 A tz_app_get_app_id
0x000071bc A tzcommon_cmd_handler
0x000072e8 A drmprov_cmd_handler
0x00007774 A config_set_pk_path
0x00007a68 A config_set_prov_path
0x00007ad8 A config_set_log_path
0x00007b30 A config_set_widevine_path
0x00007c60 A config_set_widevine_dash_path
0x00007cb8 A config_set_test_path
0x00007d10 A config_set_aes_key_path
0x00007dc0 A config_set_prov_finalize_flag_path
0x00007e0c A init_tzdrm_config_path
0x00007ed4 A get_IV_constraint_flag
0x00007ee8 A get_proprietary_play_enabler_video_protect
0x00007efc A get_proprietary_play_enabler_default_behaviour
0x00007f10 A get_robustness_ver
0x00007f24 A set_robustness_ver
0x00007f38 A get_aes_key_path
0x00007f6c A get_audio_CP_enable_flag
0x00007f80 A get_proprietary_play_enabler_profile
0x00007f94 A get_proprietary_opl_profile_0
0x00007fa8 A oem_disable_security_stream_check
0x00007fc0 A oem_get_IV_constraint
0x00008018 A get_prov_constraint_flag
0x0000802c A oem_use_legacy_hdmi_hdcp_check
0x00008034 A oem_get_maximum_hdcp_2x_capability
0x00008048 A oem_get_widevine_kcb_logging_flag
0x0000805c A oem_get_widevine_use_rpmb_anti_rb_flag
0x00008070 A widevine_cmd_handler
0x000088f4 A widevine_dash_cmd_handler
0x0000928c A drm_save_keys
0x00009e30 A drm_verify_keys
0x0000a180 A drm_prov_finalize
0x0000a3a4 A drm_app_save_qsee_ipc_wrapped_keys
0x0000aee4 A drm_app_encapsulate_save_keys
0x0000b9cc A drm_save_wrapped_keys
0x0000c360 A appsver_checkversion
0x0000c37c A get_internal_test_flag
0x0000c384 A qsapps_cpcheck_toggle
0x0000c3f0 A get_internal_test_CP_flag
0x0000c3f8 A check_is_secfuse_state_inconsistent
0x0000c498 A get_internal_test_IVconstraint_flag
0x0000c4a1 T OEMCrypto_EncryptAndStore
0x0000c5d3 T OEMCrypto_InstallKeybox
0x0000c787 T OEMCrypto_IsKeyboxValid
0x0000cd89 T OEMCrypto_IdentifyDevice
0x0000cee9 T OEMCrypto_GetKeyboxData
0x0000d4c9 T OEMCrypto_GetRandom
0x0000d553 T OEMCrypto_Initialize
0x0000d5f9 T OEMCrypto_Terminate
0x0000d655 T OEMCrypto_GetKeyData
0x0000db7f T OEMCrypto_GetDeviceID
0x0000e1f5 T OEMCrypto_SetEntitlementKey
0x0000e3ad T OEMCrypto_DeriveControlWord
0x0000ecb3 T OEMCrypto_DecryptVideo
0x0000f623 T OEMCrypto_DecryptAudio
0x0000fbb9 T QC_OEMCrypto_Delete_Keybox
0x00010387 T BigToLittleEndian64
0x00010681 T OEMCrypto_Dash_Initialize
0x0001219d T decrypt_contiguous_buf_CENC_CTR
0x00012805 T decrypt_contiguous_buf
0x00012dcf T decrypt_contiguous_buf_CENC_CBC
0x0001306f T wvdash_cipher_decrypt
0x000134ed T decrypt_non_contiguous_buf_CENC_CTR
0x00013bef T decrypt_non_contiguous_buf
0x00014277 T wvdash_cipher_decrypt_CBC
0x00014383 T CipherText_Stealing_non_contiguous_CBC
0x00014741 T decrypt_non_contiguous_buf_CENC_CBC
0x00014d57 T check_in_range
0x0001771f T copy_non_contiguous_buf
0x000178c5 T wv_dash_core_initialize
0x000178ff T OEMCrypto_Dash_Terminate
0x00017987 T wv_dash_core_terminate
0x000179a7 T OEMCrypto_OpenSession
0x00017a45 T wv_dash_core_open_session
0x00017e45 T OEMCrypto_CloseSession
0x00017f47 T wv_dash_core_close_session
0x00017f6d T OEMCrypto_GenerateDerivedKeys
0x000181bd T wv_dash_core_generate_derived_keys
0x00018405 T OEMCrypto_GenerateNonce
0x000184f9 T wv_dash_core_generate_nonce
0x00018523 T OEMCrypto_GenerateSignature
0x000185c3 T wv_dash_core_generate_signature
0x0001861b T OEMCrypto_LoadKeys_V8
0x00018ca3 T wv_dash_core_load_keys_v8
0x00019069 T OEMCrypto_SelectKey
0x00019209 T OEMCrypto_RefreshKeys
0x0001987b T wv_dash_core_refresh_keys
0x000199b7 T wv_dash_core_select_keys
0x000199ef T OEMCrypto_DecryptCTR
0x00019e45 T wv_dash_core_decrypt_ctr
0x00019ebd T OEMCrypto_RewrapDeviceRSAKey
0x0001a535 T wv_dash_core_rewrap_device_rsakey
0x0001a671 T OEMCrypto_LoadDeviceRSAKey
0x0001a7fb T wv_dash_core_load_device_rsakey
0x0001a833 T OEMCrypto_GenerateRSASignature_V8
0x0001aae1 T wv_dash_core_generate_rsa_signature_v8
0x0001ab49 T OEMCrypto_DeriveKeysFromSessionKey
0x0001b085 T wv_dash_core_derive_key_from_session_key
0x0001b0f1 T OEMCrypto_ApiVersion
0x0001b123 T wv_dash_core_api_version
0x0001b147 T OEMCrypto_Generic_Encrypt
0x0001b313 T wv_dash_core_generic_encrypt
0x0001b373 T OEMCrypto_Generic_Decrypt
0x0001b8cb T wv_dash_core_generic_decrypt
0x0001b92b T OEMCrypto_Generic_Sign
0x0001ba6d T wv_dash_core_generic_sign
0x0001badd T OEMCrypto_Generic_Verify
0x0001bf0f T wv_dash_core_generic_verify
0x0001bf71 T OEMCrypto_GetHDCPCapability_V9
0x0001bf75 T wv_dash_core_get_hdcp_capability_v9
0x0001bf8b T OEMCrypto_SupportsUsageTable
0x0001bfad T wv_dash_core_support_usage_table
0x0001bfc5 T OEMCrypto_UpdateUsageTable
0x0001c093 T wv_dash_core_update_usage_table
0x0001c0a5 T OEMCrypto_DeactivateUsageEntry
0x0001c419 T wv_dash_core_deactivate_usage_table
0x0001c439 T OEMCrypto_ReportUsage
0x0001c651 T wv_dash_core_report_usage
0x0001c6a3 T OEMCrypto_DeleteUsageEntry
0x0001c7eb T wv_dash_core_delete_usage_entry
0x0001c847 T OEMCrypto_DeleteUsageTable
0x0001c9c9 T wv_dash_core_delete_usage_table
0x0001c9db T OEMCrypto_LoadKeys_V9_or_V10
0x0001cdf5 T wv_dash_core_load_keys_v9_or_v10
0x0001d301 T OEMCrypto_GenerateRSASignature
0x0001d4e3 T wv_dash_core_generate_rsa_signature
0x0001d6ff T OEMCrypto_GetMaxNumberOfSessions
0x0001d723 T wv_dash_core_get_max_num_of_sessions
0x0001d747 T OEMCrypto_GetNumberOfOpenSessions
0x0001d775 T wv_dash_core_get_num_of_open_sessions
0x0001d799 T OEMCrypto_IsAntiRollbackHwPresent
0x0001d7cf T wv_dash_core_is_anti_rollback_enabled
0x0001d7f1 T OEMCrypto_CopyBuffer
0x0001d8ab T wv_dash_core_copy_buffer
0x0001d8f7 T OEMCrypto_QueryKeyControl
0x0001da0d T wv_dash_core_query_key_control
0x0001da5b T OEMCrypto_ForceDeleteUsageEntry
0x0001de6d T wv_dash_core_force_delete_usage_entry
0x0001de99 T OEMCrypto_GetHDCPCapability
0x0001de9d T wv_dash_core_get_hdcp_capability
0x0001deb7 T OEMCrypto_LoadTestRSAKey
0x0001e0db T wv_dash_core_load_test_rsakey
0x0001e0fb T OEMCrypto_LoadKeys
0x0001e70d T wv_dash_core_load_keys
0x0001eb91 T OEMCrypto_DecryptCENC
0x0001f077 T wv_dash_core_decrypt_cenc
0x0001f0f5 T OEMCrypto_Security_Patch_Level
0x0001f127 T wv_dash_core_security_patch_level
0x0001f2bd T GetDeviceKey
0x0001f48b T OEMCrypto_WrapKeybox
0x0001f941 T wv_dash_core_wrapkeybox
0x0001f993 T OEMCrypto_Dash_InstallKeybox
0x0001fac7 T wv_dash_core_install_keybox
0x0001faf5 T OEMCrypto_Dash_IsKeyboxValid
0x0001ffdb T wv_dash_core_iskeybox_valid
0x0001fffb T OEMCrypto_Dash_GetKeyData
0x0002015d T wv_dash_core_get_keydata
0x0002018d T OEMCrypto_Dash_GetDeviceID
0x00020341 T wv_dash_core_get_deviceid
0x00020371 T OEMCrypto_Dash_GetRandom
0x00020785 T wv_dash_core_get_random
0x000207b3 T OEMCrypto_Dash_InstallEncapKeybox
0x00020a03 T wv_dash_core_install_encap_keybox
0x00020a31 T OEMCrypto_Dash_InstallOEMWrappedKeybox
0x00020d31 T wv_dash_core_install_OEM_Wrapped_keybox
0x00020d5f T QC_OEMCrypto_Dash_Delete_Keybox
0x00020df3 T wv_dash_core_delete_keybox
0x00020e13 T OEMCrypto_LoadTestKeybox
0x00020e25 T wv_dash_core_load_test_keybox
0x00020f78 A oem_unwrap_keys
0x00021009 T qsee_exec_protect_memory
0x0002102d T qsee_is_sw_fuse_blown
0x00021051 T qsee_blow_sw_fuse
0x00021071 T qsee_read_jtag_id
0x00021093 T qsee_read_serial_num
0x000210b5 T qsee_fuse_write
0x000210d9 T qsee_fuse_read
0x000210fd T qsee_is_ns_range
0x00021121 T qsee_is_s_tag_area
0x00021147 T qsee_i2c_open
0x00021167 T qsee_i2c_read
0x0002118b T qsee_i2c_write
0x000211af T qsee_i2c_close
0x000211cf T qsee_spi_open
0x000211ef T qsee_spi_read
0x00021213 T qsee_spi_write
0x00021237 T qsee_spi_close
0x00021257 T qsee_spi_full_duplex
0x0002127b T qsee_ks_decrypt
0x000212a7 T qsee_ks_get_key
0x000212d3 T qsee_ks_delete_key
0x000212f7 T qsee_ce_pipe_key_select
0x0002131b T qsee_hdmi_status_read
0x0002133f T qsee_mem_usage_count
0x0002135f T qsee_sd_get_session
0x00021381 T qsee_tag_mem
0x000213a5 T qsee_read_hw_version
0x00021bb5 T gpCrypto_Encrypt
0x00021c79 T gpCrypto_Integrity_Protect
0x00021d61 T gpCrypto_Decrypt
0x00021dfb T gpCrypto_Integrity_Verify
0x00021ee5 T fileIO_Read_Data
0x00021f17 T fileIO_Write_Data
0x00021f49 T fileIO_Remove_Data
0x00021f73 T gpFileIO_Read_File
0x00021fef T gpFileIO_Write_File
0x0002206b T gpFileIO_Remove_File
0x000220d8 A tzbsp_exec_isTampered
0x00022154 A tzmemArray_getSegSize
0x000221a8 A tzmemArray_getSegAddress
0x000221fc A tzmemArray_getSegNumber
0x000222f4 A tzmemArray_printInfo
0x000223b8 A tzmemArray_checkSizeAndNum
0x000224c0 A tzmemArray_randomdivided
0x00022608 A tzmemArray_evenlydivided
0x00022890 A tzmem_new
0x00022908 A tzmem_delete
0x00022918 A tzmem_is_s_area_tag
0x00022a08 A tzmem_cacheflush_deregister
0x00022aa8 A tzmem_cacheflush_register
0x00022b5c A tzmem_copy
0x00022d80 A tzmem_copy_noflush
0x00022db4 A tzmem_decrypt
0x00023068 A tzmem_reverseByteOrder
0x000230c1 T cacheflush_register
0x000231a3 T cacheflush_deregister
0x0002328f T wvcipher_decrypt
0x00023409 T wvcipher_CipherTextStealing
0x0002394f T rsa_pkcs8_ssa_pss_sign
0x00023b2d T rsa_pkcs8_oaep_decrypt
0x00023c93 T rsa_pkcs8_pkcs1_v1_5_sign
0x000244a3 T wv_rmpb_counter_reset
0x000245a7 T wv_rmpb_counter_read
0x000248fb T wv_rmpb_counter_increment
0x00024a3f T wv_rmpb_counter_decrement
0x00024bb1 T gpFileRead
0x00024d59 T gpFileWrite
0x00024ec7 T gpFileRemove
0x00024fac A __aeabi_uldivmod
0x00024fac A _ll_udiv
0x00024fc0 A _ll_udiv_donemoving
0x000252dd T __c89vsnprintf
0x00025310 A __aeabi_memcpy4
0x00025310 A __aeabi_memcpy8
0x00025310 A __rt_memcpy_w
0x00025374 A _memcpy_lastbytes_aligned
0x0002538c A __aeabi_memcpy
0x0002538c A __rt_memcpy
0x00025414 A _memcpy_lastbytes
0x00025434 A __aeabi_memmove
0x00025434 A __rt_memmove
0x000254c4 A __memmove_lastfew
0x000254e4 A __aeabi_idiv
0x000254e4 A __aeabi_idivmod
0x00025710 A __aeabi_uidiv
0x00025710 A __aeabi_uidivmod
0x00025741 T __cpp_initialize__aeabi_
0x00025765 T _printf_int_dec
0x000257e3 T _printf_char_common
0x00025809 T _printf_wctomb
0x000258c1 T _printf_longlong_dec
0x00025939 T _printf_longlong_oct
0x00025985 T _printf_int_oct
0x0002599d T _printf_ll_oct
0x000259b1 T _printf_longlong_hex
0x00025a0d T _printf_int_hex
0x00025a29 T _printf_ll_hex
0x00025a35 T _printf_hex_ptr
0x00025a4d T __printf
0x00025bd4 A __aeabi_memmove4
0x00025bd4 A __aeabi_memmove8
0x00025bd4 A __rt_memmove_w
0x00025c00 A __memmove_aligned
0x00025c3c A __memmove_lastfew_aligned
0x00025c54 A _ll_udiv10
0x00025cec A __rt_udiv10
0x00025d19 T __rt_ctype_table
0x00025d29 T __rt_locale
0x00025d35 T _printf_fp_infnan
0x00025db5 T _btod_etento
0x00025e8d T _get_lc_numeric
0x00025eb9 T _get_lc_ctype
0x00025ee4 A strcmp
0x00025f88 A security_stream_checker_get_version
0x00025f98 A security_stream_checker_register_callback
0x00025fc4 A security_stream_checker_init
0x00026020 A security_stream_checker
0x00026530 A crc_16_calc
0x000265d8 A crc_16_l_calc
0x00026674 A crc_30_calc
0x00026714 A crc_30_step
0x000267b4 A crc_16_step
0x00026808 A crc_16_l_step
0x0002685c A crc_32_calc
0x00026a14 A tzbuf_init
0x00026ad8 A tzbuf_getOffset
0x00026bec A tzbuf_getSize
0x00026c24 A tzbuf_convertAddress
0x00026cf8 A tzbuf_ops
0x00026f3c A tzbuf_ops_onsrc
0x00027128 A tzbuf_register_secure_buffer
0x0002731c A tzbuf_deregister_secure_buffer
0x00027428 A tzbuf_memcpy_2
0x00027624 A tzbuf_memcpy
0x000276a4 A tzbuf_printInfo
0x00027700 A app_export_init_info_to_qsee
0x00027730 A qsee_printf_syscall
0x00027748 A qsee_wait_default_signal_syscall
0x00027774 A qsee_generic_syscall
0x00027798 A mink_generic_syscall
0x00027817 D pkcs8_RSAEncryption
0x0002cc34 D g_test_keybox
0x0002d9f8 D crc30_table
0x0002ddf8 D crc16_table
0x0002dff8 D crc_16_l_table
0x0002e1f8 D crc32_table
0x0002ed30 D DER_enc_hash
0x0002f105 D __ctype
0x00030004 D pgCmnlib
0x00030008 D tzapp_lib
0x0003000c D cmnlib_rw_base
0x00030010 D app_rw_base
0x00030014 D __stack_chk_guard
0x00030018 D dummy_str
0x0003001c D app_cmd_invoker_obj
0x00030024 D mink_api_service_obj
0x0003002c D mink_user_sscall_service_obj
0x00030034 D mink_opener_obj
0x0003003c D magic_num
0x00030050 D magic_num_index_array
0x0003005a D TZ_APP_NAME
0x00030064 D g_app_id
0x0003007c D g_ww_dash_function
0x000302d4 D file_truncation_flag
0x000302d6 D g_internal_test_IVflag
0x000302e4 D g_tz_apps_version
0x00030320 D res
0x000303f8 D g_is_test_keybox_loaded
0x0003043c D lhash_0_sha1
0x00030450 D lhash_0_sha256
0x00030474 D gAppCntxt
0x00030488 D application_heap
0x000304bc D mem_magic_number
0x000304c8 D apps_request_resp
0x000304dc D acceptBuf
0x000305dc D g_playready_data_store
0x000306dc D g_playready_cert_path
0x000307dc D g_playready_cert_templ_path
0x000308dc D g_playready_priv_path
0x000309dc D g_playready_sfs_prt_path
0x00030adc D g_tz_log_file_name
0x00030bdc D g_wv_keybox_lv3_file_path
0x00030cdc D g_wv_keybox_lv1_file_path
0x00030ddc D g_wv_device_id_file_path
0x00030edc D g_wv_keybox_sfs_dir
0x00030fdc D g_wv_dash_keybox_file_path
0x000310dc D g_wv_dash_keybox_sfs_dir
0x000311dc D g_drmtest_dir
0x000312dc D g_prov_path
0x000313dc D g_single_time_prov_flag
0x000314dc D g_playready_aes_key_file_path
