


ARM Macro Assembler    Page 1 


    1 00000000                 EXPORT           __cmnlib_main
    2 00000000                 EXPORT           _cmnlib_main
    3 00000000                 EXPORT           CMNLIBENTRY
    4 00000000                 EXPORT           set_cmnlib_rw_base
    5 00000000                 IMPORT           cmnlib_main
    6 00000000                 PRESERVE8
    7 00000000                 AREA             CMNLIBENTRYCODE, CODE, READONLY
    8 00000000                 CODE32
    9 00000000         __cmnlib_main
   10 00000000         _cmnlib_main
   11 00000000                 ENTRY
   12 00000000         CMNLIBENTRY
   13 00000000 E92D4010        push             {r4,lr}
   14 00000004 FAFFFFFE        blx              cmnlib_main
   15 00000008 E8BD8010        pop              {r4,pc}     ; Return.
   16 0000000C         set_cmnlib_rw_base
   17 0000000C E92D4010        push             {r4,lr}
   18 00000010 E1A09000        mov              r9, r0      ; set RW base
   19 00000014 E8BD8010        pop              {r4,pc}     ; Return.
   20 00000018                 END
Command Line: --debug --dwarf2 --cpu=QSP.no_neon.no_vfp --apcs=/noswst/interwor
k//ropi/rwpi --no_unaligned_access -o/local/mnt/workspace/CRMBuilds/TZ.BF.3.0.c
3-00052-M8936AAAAANAZT-1_20180207_015142/b/trustzone_images/core/securemsm/trus
tzone/qsapps/libs/applib/common/build/commonlib/scorpion/MAXAANAA/common/src/cm
nlib_entry.o -I/local/mnt/workspace/CRMBuilds/TZ.BF.3.0.c3-00052-M8936AAAAANAZT
-1_20180207_015142/b/trustzone_images/core/securemsm/trustzone/qsapps/libs/appl
ib/common/build -I/local/mnt/workspace/CRMBuilds/TZ.BF.3.0.c3-00052-M8936AAAAAN
AZT-1_20180207_015142/b/trustzone_images/build/cust -I. -I/local/mnt/workspace/
CRMBuilds/TZ.BF.3.0.c3-00052-M8936AAAAANAZT-1_20180207_015142/b/trustzone_image
s/core/securemsm/trustzone/qsee/include -I/local/mnt/workspace/CRMBuilds/TZ.BF.
3.0.c3-00052-M8936AAAAANAZT-1_20180207_015142/b/trustzone_images/core/securemsm
/trustzone/qsapps/libs/applib/common/src -I/local/mnt/workspace/CRMBuilds/TZ.BF
.3.0.c3-00052-M8936AAAAANAZT-1_20180207_015142/b/trustzone_images/core/securems
m/trustzone/qsapps/libs/services/src -I/local/mnt/workspace/CRMBuilds/TZ.BF.3.0
.c3-00052-M8936AAAAANAZT-1_20180207_015142/b/trustzone_images/core/securemsm/tr
ustzone/qsee/include -I/local/mnt/workspace/CRMBuilds/TZ.BF.3.0.c3-00052-M8936A
AAAANAZT-1_20180207_015142/b/trustzone_images/core/securemsm/trustzone/qsee/min
k/include -I/local/mnt/workspace/CRMBuilds/TZ.BF.3.0.c3-00052-M8936AAAAANAZT-1_
20180207_015142/b/trustzone_images/core/api/securemsm/trustzone/qsee -I/local/m
nt/workspace/CRMBuilds/TZ.BF.3.0.c3-00052-M8936AAAAANAZT-1_20180207_015142/b/tr
ustzone_images/core/securemsm/secmath/shared/inc -I/local/mnt/workspace/CRMBuil
ds/TZ.BF.3.0.c3-00052-M8936AAAAANAZT-1_20180207_015142/b/trustzone_images/core/
securemsm/secrsa/shared/inc -I/local/mnt/workspace/CRMBuilds/TZ.BF.3.0.c3-00052
-M8936AAAAANAZT-1_20180207_015142/b/trustzone_images/core/securemsm/secrsa/shar
ed/src -I/local/mnt/workspace/CRMBuilds/TZ.BF.3.0.c3-00052-M8936AAAAANAZT-1_201
80207_015142/b/trustzone_images/core/api/securemsm/crypto -I/local/mnt/workspac
e/CRMBuilds/TZ.BF.3.0.c3-00052-M8936AAAAANAZT-1_20180207_015142/b/trustzone_ima
ges/core/api/services -I/local/mnt/workspace/CRMBuilds/TZ.BF.3.0.c3-00052-M8936
AAAAANAZT-1_20180207_015142/b/trustzone_images/core/api/dal -I/local/mnt/worksp
ace/CRMBuilds/TZ.BF.3.0.c3-00052-M8936AAAAANAZT-1_20180207_015142/b/trustzone_i
mages/core/securemsm/unifiedcrypto/shared/ecc/inc -I/local/mnt/workspace/CRMBui
lds/TZ.BF.3.0.c3-00052-M8936AAAAANAZT-1_20180207_015142/b/trustzone_images/core
/securemsm/unifiedcrypto/core/ecc/inc -I/local/mnt/workspace/CRMBuilds/TZ.BF.3.
0.c3-00052-M8936AAAAANAZT-1_20180207_015142/b/trustzone_images/core/securemsm/u
nifiedcrypto/environment/inc -I/local/mnt/workspace/CRMBuilds/TZ.BF.3.0.c3-0005
2-M8936AAAAANAZT-1_20180207_015142/b/trustzone_images/core/securemsm/unifiedcry
pto/shared/aes/inc -I/local/mnt/workspace/CRMBuilds/TZ.BF.3.0.c3-00052-M8936AAA
AANAZT-1_20180207_015142/b/trustzone_images/core/securemsm/unifiedcrypto/shared
/des/inc -I/local/mnt/workspace/CRMBuilds/TZ.BF.3.0.c3-00052-M8936AAAAANAZT-1_2



ARM Macro Assembler    Page 2 


0180207_015142/b/trustzone_images/core/securemsm/unifiedcrypto/core/aes/inc -I/
local/mnt/workspace/CRMBuilds/TZ.BF.3.0.c3-00052-M8936AAAAANAZT-1_20180207_0151
42/b/trustzone_images/core/securemsm/unifiedcrypto/shared/sha/inc -I/local/mnt/
workspace/CRMBuilds/TZ.BF.3.0.c3-00052-M8936AAAAANAZT-1_20180207_015142/b/trust
zone_images/core/securemsm/unifiedcrypto/core/sha/inc -I/local/mnt/workspace/CR
MBuilds/TZ.BF.3.0.c3-00052-M8936AAAAANAZT-1_20180207_015142/b/trustzone_images/
core/securemsm/unifiedcrypto/shared/ecc_generic/inc -I/local/mnt/workspace/CRMB
uilds/TZ.BF.3.0.c3-00052-M8936AAAAANAZT-1_20180207_015142/b/trustzone_images/co
re/securemsm/unifiedcrypto/core/ecc_generic/inc --list=/local/mnt/workspace/CRM
Builds/TZ.BF.3.0.c3-00052-M8936AAAAANAZT-1_20180207_015142/b/trustzone_images/c
ore/securemsm/trustzone/qsapps/libs/applib/common/build/commonlib/scorpion/MAXA
ANAA/common/src/cmnlib_entry.o.lst --sitelicense /local/mnt/workspace/CRMBuilds
/TZ.BF.3.0.c3-00052-M8936AAAAANAZT-1_20180207_015142/b/trustzone_images/core/se
curemsm/trustzone/qsapps/libs/applib/common/build/commonlib/scorpion/MAXAANAA/c
ommon/src/cmnlib_entry.o.i
