


ARM Macro Assembler    Page 1 


    1 00000000         ;
    2 00000000         ;
    3 00000000         ; CPSR Control Masks 
    4 00000000 00000040 
                       PSR_Fiq_Mask
                               EQU              0x40
    5 00000000 00000080 
                       PSR_Irq_Mask
                               EQU              0x80
    6 00000000         ; Processor mode definitions 
    7 00000000 00000013 
                       PSR_Supervisor
                               EQU              0x13
    8 00000000         ;
    9 00000000         ;
   10 00000000                 IMPORT           jsdcc_init
   11 00000000                 EXPORT           __main
   12 00000000                 PRESERVE8
   13 00000000                 AREA             StartHere, CODE, READONLY
   14 00000000                 CODE32
   15 00000000         __main
   16 00000000                 ENTRY
   17 00000000         ;=======================================================
                       ================
   18 00000000         ; MACRO mmu_set_default_cfg
   19 00000000         ; ARGS
   20 00000000         ;   NONE
   21 00000000         ; DESCRIPTION
   22 00000000         ;   Sets a default value into the mmu control register
   23 00000000         ;   we do not really need to do this, but we do it to
   24 00000000         ;   know exactly the state of the processor
   25 00000000         ;=======================================================
                       ================
   26 00000000                 MACRO
   27 00000000                 mmu_set_default_cfg
   28 00000000                 ldr              r0, = 0x00050078
   29 00000000                 MCR              p15, 0, r0, c1, c0, 0
   30 00000000                 MEND
   31 00000000         ;=======================================================
                       ================
   32 00000000         ;=======================================================
                       ================
   33 00000000         ; MACRO mmu_enable_i_cache
   34 00000000         ; ARGS
   35 00000000         ;  NONE
   36 00000000         ; DESCRIPTION
   37 00000000         ;  Enables the I Cache
   38 00000000         ;  Does a read modify write, so no other bits in the con
                       trol register a
   39 00000000         ;  affected
   40 00000000         ;=======================================================
                       ================
   41 00000000                 MACRO
   42 00000000                 mmu_enable_i_cache
   43 00000000                 mrc              p15, 0 , r0, c1, c0, 0
   44 00000000                 orr              r0, r0, # (1 << 12 )
   45 00000000                 mcr              p15, 0 , r0, c1, c0, 0
   46 00000000                 MEND
   47 00000000         ;=======================================================



ARM Macro Assembler    Page 2 


                       ================
   48 00000000         ;
   49 00000000         ; Supervisor Mode
   50 00000000         ; Set up the Supervisor stack pointer.
   51 00000000 E321F0D3        msr              CPSR_c, #PSR_Supervisor:OR:PSR_
Irq_Mask:OR:PSR_Fiq_Mask
   52 00000004 E59FD014        ldr              r13, =0x00200000+0x20000
   53 00000008         ; ======================================================
                       ================
   54 00000008         ; Enable the instruction cache
   55 00000008         ; ======================================================
                       ================
   56 00000008                 mmu_set_default_cfg
   28 00000008 E59F0014        ldr              r0, = 0x00050078
   29 0000000C EE010F10        MCR              p15, 0, r0, c1, c0, 0
   57 00000010                 mmu_enable_i_cache
   43 00000010 EE110F10        mrc              p15, 0 , r0, c1, c0, 0
   44 00000014 E3800A01        orr              r0, r0, # (1 << 12 )
   45 00000018 EE010F10        mcr              p15, 0 , r0, c1, c0, 0
   58 0000001C         ; Enter C code execution
   59 0000001C EAFFFFFE        b                jsdcc_init
   60 00000020                 END
              00220000 
              00050078 
Command Line: --debug --dwarf2 --cpu=7-A.security --apcs=/noswst/interwork -o/l
ocal/mnt/workspace/CRMBuilds/BOOT.BF.3.0.c8-00023-M8936AAAAANAZB-1_20170728_035
427/b/boot_images/core/bsp/tools/jsdcc/build/jsdcc_start.o -I/local/mnt/workspa
ce/CRMBuilds/BOOT.BF.3.0.c8-00023-M8936AAAAANAZB-1_20170728_035427/b/boot_image
s/core/bsp/tools/jsdcc/build -I/local/mnt/workspace/CRMBuilds/BOOT.BF.3.0.c8-00
023-M8936AAAAANAZB-1_20170728_035427/b/boot_images/core/storage/tools/jsdcc -I/
local/mnt/workspace/CRMBuilds/BOOT.BF.3.0.c8-00023-M8936AAAAANAZB-1_20170728_03
5427/b/boot_images/build/cust -I. -I/local/mnt/workspace/CRMBuilds/BOOT.BF.3.0.
c8-00023-M8936AAAAANAZB-1_20170728_035427/b/boot_images/core/api/dal -I/local/m
nt/workspace/CRMBuilds/BOOT.BF.3.0.c8-00023-M8936AAAAANAZB-1_20170728_035427/b/
boot_images/core/buses/api/spmi -I/local/mnt/workspace/CRMBuilds/BOOT.BF.3.0.c8
-00023-M8936AAAAANAZB-1_20170728_035427/b/boot_images/core/buses/api/icb -I/loc
al/mnt/workspace/CRMBuilds/BOOT.BF.3.0.c8-00023-M8936AAAAANAZB-1_20170728_03542
7/b/boot_images/core/buses/api/uart -I/local/mnt/workspace/CRMBuilds/BOOT.BF.3.
0.c8-00023-M8936AAAAANAZB-1_20170728_035427/b/boot_images/core/buses/api/i2c -I
/local/mnt/workspace/CRMBuilds/BOOT.BF.3.0.c8-00023-M8936AAAAANAZB-1_20170728_0
35427/b/boot_images/core/api/debugtools -I/local/mnt/workspace/CRMBuilds/BOOT.B
F.3.0.c8-00023-M8936AAAAANAZB-1_20170728_035427/b/boot_images/core/api/hwengine
s -I/local/mnt/workspace/CRMBuilds/BOOT.BF.3.0.c8-00023-M8936AAAAANAZB-1_201707
28_035427/b/boot_images/core/api/mproc -I/local/mnt/workspace/CRMBuilds/BOOT.BF
.3.0.c8-00023-M8936AAAAANAZB-1_20170728_035427/b/boot_images/core/api/power -I/
local/mnt/workspace/CRMBuilds/BOOT.BF.3.0.c8-00023-M8936AAAAANAZB-1_20170728_03
5427/b/boot_images/core/api/securemsm -I/local/mnt/workspace/CRMBuilds/BOOT.BF.
3.0.c8-00023-M8936AAAAANAZB-1_20170728_035427/b/boot_images/core/securemsm/secb
oot/api -I/local/mnt/workspace/CRMBuilds/BOOT.BF.3.0.c8-00023-M8936AAAAANAZB-1_
20170728_035427/b/boot_images/core/api/kernel/libstd/stringl -I/local/mnt/works
pace/CRMBuilds/BOOT.BF.3.0.c8-00023-M8936AAAAANAZB-1_20170728_035427/b/boot_ima
ges/core/api/services -I/local/mnt/workspace/CRMBuilds/BOOT.BF.3.0.c8-00023-M89
36AAAAANAZB-1_20170728_035427/b/boot_images/core/api/storage -I/local/mnt/works
pace/CRMBuilds/BOOT.BF.3.0.c8-00023-M8936AAAAANAZB-1_20170728_035427/b/boot_ima
ges/core/api/systemdrivers -I/local/mnt/workspace/CRMBuilds/BOOT.BF.3.0.c8-0002
3-M8936AAAAANAZB-1_20170728_035427/b/boot_images/core/api/systemdrivers/pmic -I
/local/mnt/workspace/CRMBuilds/BOOT.BF.3.0.c8-00023-M8936AAAAANAZB-1_20170728_0
35427/b/boot_images/core/api/systemdrivers/hwio/msm8929 -I/local/mnt/workspace/
CRMBuilds/BOOT.BF.3.0.c8-00023-M8936AAAAANAZB-1_20170728_035427/b/boot_images/c



ARM Macro Assembler    Page 3 


ore/api/wiredconnectivity -I/local/mnt/workspace/CRMBuilds/BOOT.BF.3.0.c8-00023
-M8936AAAAANAZB-1_20170728_035427/b/boot_images/core/api/kernel/libstd -I/local
/mnt/workspace/CRMBuilds/BOOT.BF.3.0.c8-00023-M8936AAAAANAZB-1_20170728_035427/
b/boot_images/core/dal/src -I/local/mnt/workspace/CRMBuilds/BOOT.BF.3.0.c8-0002
3-M8936AAAAANAZB-1_20170728_035427/b/boot_images/core/dal/config -I/local/mnt/w
orkspace/CRMBuilds/BOOT.BF.3.0.c8-00023-M8936AAAAANAZB-1_20170728_035427/b/boot
_images/core/debugtools/version/src -I/local/mnt/workspace/CRMBuilds/BOOT.BF.3.
0.c8-00023-M8936AAAAANAZB-1_20170728_035427/b/boot_images/core/mproc/smem/inc -
I/local/mnt/workspace/CRMBuilds/BOOT.BF.3.0.c8-00023-M8936AAAAANAZB-1_20170728_
035427/b/boot_images/core/securemsm/cryptodrivers/ce/shared/inc -I/local/mnt/wo
rkspace/CRMBuilds/BOOT.BF.3.0.c8-00023-M8936AAAAANAZB-1_20170728_035427/b/boot_
images/core/securemsm/cryptodrivers/ce/test/inc -I/local/mnt/workspace/CRMBuild
s/BOOT.BF.3.0.c8-00023-M8936AAAAANAZB-1_20170728_035427/b/boot_images/core/secu
remsm/cryptodrivers/prng/shared/inc -I/local/mnt/workspace/CRMBuilds/BOOT.BF.3.
0.c8-00023-M8936AAAAANAZB-1_20170728_035427/b/boot_images/core/securemsm/crypto
drivers/prng/test/inc -I/local/mnt/workspace/CRMBuilds/BOOT.BF.3.0.c8-00023-M89
36AAAAANAZB-1_20170728_035427/b/boot_images/core/securemsm/cryptodrivers/prng/s
hared/src -I/local/mnt/workspace/CRMBuilds/BOOT.BF.3.0.c8-00023-M8936AAAAANAZB-
1_20170728_035427/b/boot_images/core/api/securemsm/secboot -I/local/mnt/workspa
ce/CRMBuilds/BOOT.BF.3.0.c8-00023-M8936AAAAANAZB-1_20170728_035427/b/boot_image
s/core/api/securemsm/seccfg -I/local/mnt/workspace/CRMBuilds/BOOT.BF.3.0.c8-000
23-M8936AAAAANAZB-1_20170728_035427/b/boot_images/core/securemsm/secmath/shared
/inc -I/local/mnt/workspace/CRMBuilds/BOOT.BF.3.0.c8-00023-M8936AAAAANAZB-1_201
70728_035427/b/boot_images/core/securemsm/fuseprov/chipset/msm8929/inc -I/local
/mnt/workspace/CRMBuilds/BOOT.BF.3.0.c8-00023-M8936AAAAANAZB-1_20170728_035427/
b/boot_images/core/services/utils/src -I/local/mnt/workspace/CRMBuilds/BOOT.BF.
3.0.c8-00023-M8936AAAAANAZB-1_20170728_035427/b/boot_images/core/storage/flash/
src/dal -I/local/mnt/workspace/CRMBuilds/BOOT.BF.3.0.c8-00023-M8936AAAAANAZB-1_
20170728_035427/b/boot_images/core/storage/flash/src/hal -I/local/mnt/workspace
/CRMBuilds/BOOT.BF.3.0.c8-00023-M8936AAAAANAZB-1_20170728_035427/b/boot_images/
core/storage/flash/tools/inc -I/local/mnt/workspace/CRMBuilds/BOOT.BF.3.0.c8-00
023-M8936AAAAANAZB-1_20170728_035427/b/boot_images/core/storage/flash/inc -I/lo
cal/mnt/workspace/CRMBuilds/BOOT.BF.3.0.c8-00023-M8936AAAAANAZB-1_20170728_0354
27/b/boot_images/core/storage/sdcc/src -I/local/mnt/workspace/CRMBuilds/BOOT.BF
.3.0.c8-00023-M8936AAAAANAZB-1_20170728_035427/b/boot_images/core/storage/sdcc/
src/hal -I/local/mnt/workspace/CRMBuilds/BOOT.BF.3.0.c8-00023-M8936AAAAANAZB-1_
20170728_035427/b/boot_images/core/storage/sdcc/src/bsp -I/local/mnt/workspace/
CRMBuilds/BOOT.BF.3.0.c8-00023-M8936AAAAANAZB-1_20170728_035427/b/boot_images/c
ore/storage/efs/inc -I/local/mnt/workspace/CRMBuilds/BOOT.BF.3.0.c8-00023-M8936
AAAAANAZB-1_20170728_035427/b/boot_images/core/storage/hfat/inc -I/local/mnt/wo
rkspace/CRMBuilds/BOOT.BF.3.0.c8-00023-M8936AAAAANAZB-1_20170728_035427/b/boot_
images/core/storage/hotplug/inc -I/local/mnt/workspace/CRMBuilds/BOOT.BF.3.0.c8
-00023-M8936AAAAANAZB-1_20170728_035427/b/boot_images/core/storage/tools/emmcbl
d/inc -I/local/mnt/workspace/CRMBuilds/BOOT.BF.3.0.c8-00023-M8936AAAAANAZB-1_20
170728_035427/b/boot_images/core/storage/tools/deviceprogrammer/src/firehose -I
/local/mnt/workspace/CRMBuilds/BOOT.BF.3.0.c8-00023-M8936AAAAANAZB-1_20170728_0
35427/b/boot_images/core/storage/ufs/src -I/local/mnt/workspace/CRMBuilds/BOOT.
BF.3.0.c8-00023-M8936AAAAANAZB-1_20170728_035427/b/boot_images/core/storage/ufs
/src/bsp -I/local/mnt/workspace/CRMBuilds/BOOT.BF.3.0.c8-00023-M8936AAAAANAZB-1
_20170728_035427/b/boot_images/core/systemdrivers/tlmm/inc -I/local/mnt/workspa
ce/CRMBuilds/BOOT.BF.3.0.c8-00023-M8936AAAAANAZB-1_20170728_035427/b/boot_image
s/core/systemdrivers/tlmm/src -I/local/mnt/workspace/CRMBuilds/BOOT.BF.3.0.c8-0
0023-M8936AAAAANAZB-1_20170728_035427/b/boot_images/core/wiredconnectivity/qhsu
sb/inc --list=/local/mnt/workspace/CRMBuilds/BOOT.BF.3.0.c8-00023-M8936AAAAANAZ
B-1_20170728_035427/b/boot_images/core/bsp/tools/jsdcc/build/jsdcc_start.o.lst 
--sitelicense /local/mnt/workspace/CRMBuilds/BOOT.BF.3.0.c8-00023-M8936AAAAANAZ
B-1_20170728_035427/b/boot_images/core/bsp/tools/jsdcc/build/jsdcc_start.o.i
