#<SYMDEFS># ARM Linker, 5.01 [Build 43]: Last Updated: Thu Feb  2 01:58:40 2017
0x00000000 N __ARM_use_no_argv
0x00000000 A __main
0x00000008 A __scatterload
0x00000008 A __scatterload_rt2
0x0000001c A __scatterload_null
0x00000044 A __decompress
0x00000044 A __decompress1
0x000000a0 A __scatterload_copy
0x000000c8 A __scatterload_zeroinit
0x000000f5 T __rt_lib_init
0x000000f7 T __rt_lib_init_alloca_1
0x000000f7 T __rt_lib_init_argv_1
0x000000f7 T __rt_lib_init_atexit_1
0x000000f7 T __rt_lib_init_clock_1
0x000000f7 T __rt_lib_init_cpp_1
0x000000f7 T __rt_lib_init_exceptions_1
0x000000f7 T __rt_lib_init_fp_1
0x000000f7 T __rt_lib_init_fp_trap_1
0x000000f7 T __rt_lib_init_getenv_1
0x000000f7 T __rt_lib_init_heap_1
0x000000f7 T __rt_lib_init_lc_collate_1
0x000000f7 T __rt_lib_init_lc_ctype_1
0x000000f7 T __rt_lib_init_lc_monetary_1
0x000000f7 T __rt_lib_init_lc_numeric_1
0x000000f7 T __rt_lib_init_lc_time_1
0x000000f7 T __rt_lib_init_rand_1
0x000000f7 T __rt_lib_init_return
0x000000f7 T __rt_lib_init_signal_1
0x000000f7 T __rt_lib_init_stdio_1
0x000000f7 T __rt_lib_init_user_alloc_1
0x000000f9 T __rt_lib_shutdown
0x000000fb T __rt_lib_shutdown_fp_trap_1
0x000000fb T __rt_lib_shutdown_heap_1
0x000000fb T __rt_lib_shutdown_return
0x000000fb T __rt_lib_shutdown_signal_1
0x000000fb T __rt_lib_shutdown_stdio_1
0x000000fb T __rt_lib_shutdown_user_alloc_1
0x000000fc A __rt_entry
0x000000fc A __rt_entry_presh_1
0x000000fc A __rt_entry_sh
0x00000104 A __rt_entry_li
0x00000104 A __rt_entry_postsh_1
0x00000108 A __rt_entry_main
0x00000108 A __rt_entry_postli_1
0x00000130 A __rt_exit
0x00000134 A __rt_exit_ls
0x00000134 A __rt_exit_prels_1
0x00000138 A __rt_exit_exit
0x00000141 T main
0x00000145 T __user_initial_stackheap
0x00000148 A __user_setup_stackheap
0x000001a9 T exit
0x000001b4 A __user_libspace
0x000001b4 A __user_perproc_libspace
0x000001b4 A __user_perthread_libspace
0x000001c1 T _sys_exit
0x000001cc A __I$use$semihosting
0x000001cc A __use_no_semihosting_swi
0x000001d0 D __libspace_start
0x000001d0 A __semihosting_library_function
0x00000230 D __temporary_stack_top$libspace
0x8b60c000 D DALPROP_PropsInfo
0x8b60c010 D DALPROP_StructPtrs
0x8b60c0a8 D DALPROP_PropBin
0x8b60cdcc D driver_list
0x8b60d70c D cfg_bus_list
0x8b60d718 D cfg_slave_list
0x8b60d788 D cfg_master_list
0x8b60d7d4 D ul_cfg_clock_node_list
0x8b60d7e0 D cfg_tcsr_info
0x8b60f530 D route_tree_root
0x8b60f534 D ul_arb_master_list
0x8b60f580 D ul_arb_slave_list
0x8b60f5f0 D ul_arb_clock_node_list
0x8b60f5fc D tfunnel_port_stm
0x8b60f608 D devcfgSpmBspData
0x8b60f660 D devcfgSpmCmdSeqArray
0x8b60f6b4 D gSpmCmdDelay
0x8b60f6b8 D interrupt_config_map
0x8b60fd74 D pInterruptControllerConfigData
0x8b60fd84 D pm_wcn_proc_client_dev_deps_wcn_core
0x8b60fdb4 D pm_wcn_proc_client_dev_deps_wcn_core_clk
0x8b60fdfc D pm_wcn_proc_client_dev_deps_wcn_pa
0x8b60fe14 D pm_wcn_proc_client_dev_deps_pll_sr2
0x8b60fe2c D pm_wcn_proc_client_dev_deps_rail_cx
0x8b60fe44 D pm_wcn_proc_client_dev_deps_rail_mx
0x8b60fe5c D pm_npa_wcn_pam_node_rsrcs
0x8b60ff34 D num_of_pm_wcn_nodes
0x8b60ff38 D pmic_npa_smps_remote_resources
0x8b60ff48 D pmic_npa_remote_smps
0x8b60ff50 D pmic_npa_ldo_remote_resources
0x8b60ff68 D pmic_npa_remote_ldo
0x8b60ff70 D pmic_npa_clk_remote_resources
0x8b60ff78 D pmic_npa_remote_clk
0x8b60ff80 D GPIOCommonConfig_V6_VariantCommon
0x8b60ff84 D GPIORegConfig_V6_VariantCommon
0x8b60ff94 D pm_pam_pll_sr2_a_ldo7
0x8b61006c D pm_pam_pll_sr2_rails_info
0x8b610074 D pm_pam_rail_cx_a_smps2
0x8b610464 D pm_pam_rail_cx_rails_info
0x8b61046c D pm_pam_rail_mx_a_ldo3
0x8b610760 D pm_pam_rail_mx_rails_info
0x8b610768 D pm_pam_wcn_core_a_ldo7
0x8b6109f0 D pm_pam_wcn_core_a_smps3
0x8b610d50 D pm_pam_wcn_core_rails_info
0x8b610d60 D pm_pam_wcn_core_clk_a_clk_buff5
0x8b610df0 D pm_pam_wcn_core_clk_a_ldo7
0x8b611078 D pm_pam_wcn_core_clk_a_smps3
0x8b6113d8 D pm_pam_wcn_core_clk_rails_info
0x8b6113f0 D pm_pam_wcn_pa_a_ldo9
0x8b611678 D pm_pam_wcn_pa_rails_info
0x8b611680 D u32cfg_bus_list_size
0x8b611684 D u32cfg_slave_list_size
0x8b611688 D u32cfg_master_list_size
0x8b61168c D u32ul_cfg_clk_node_list_size
0x8b611690 D u32ul_arb_master_list_size
0x8b611694 D u32ul_arb_slave_list_size
0x8b611698 D u32ul_arb_clk_node_list_size
0x8b61169c D hwevent_config_table
0x8b6116a4 D table_size_array
0x8b6116a8 D hwevent_addr_table
0x8b6116b8 D addr_range_table_size
0x8b6116bc D SourceConfig
0x8b61177c D WCNClockConfig
0x8b6118e4 D WCNFMClockConfig
0x8b611934 D WCNBT32MHZClockConfig
0x8b611984 D ClockLogDefaultConfig
0x8b61198c D ClockFlagInitConfig
